muon_CSV/TriggerAuto_ALL_20231205193636434.csv

Model,MSO64B
Channel,CH1,,Channel,CH2
Label,,,Label,
Waveform Type,ANALOG,,Waveform Type,ANALOG
Horizontal Units,s,,Horizontal Units,s
Sample Interval,8.00000000e-10,,Sample Interval,8.00000000e-10
Record Length,5000,,Record Length,5000
Zero Index,349.42187500,,Zero Index,349.42187500
Vertical Units,V,,Vertical Units,V
,,,,
ANALOG_Thumbnail,,,ANALOG_Thumbnail,
yOffset,0.000000,,yOffset,0.000000
yPosition,2.160000,,yPosition,2.180000

Labels,,
TIME,CH1,CH2
-2.79537500e-07,1.09687500e-02,4.84375000e-03
-2.78737500e-07,1.62500000e-03,1.64062500e-03
-2.77937500e-07,1.26562500e-02,8.90625000e-03
-2.77137500e-07,4.81250000e-03,3.51562500e-03
-2.76337500e-07,1.04062500e-02,3.59375000e-03
-2.75537500e-07,1.37500000e-03,-7.81250000e-04
-2.74737500e-07,9.06250000e-03,1.78125000e-02
-2.73937500e-07,3.75000000e-03,1.26562500e-02
-2.73137500e-07,8.25000000e-03,1.14062500e-02
-2.72337500e-07,5.68750000e-03,-4.68750000e-04
-2.71537500e-07,8.06250000e-03,2.37500000e-02
-2.70737500e-07,3.84375000e-03,1.56250000e-02
-2.69937500e-07,7.37500000e-03,1.46875000e-02
-2.69137500e-07,4.90625000e-03,1.43750000e-02
-2.68337500e-07,5.71875000e-03,1.38281250e-02
-2.67537500e-07,6.50000000e-03,7.18750000e-03
-2.66737500e-07,1.20312500e-02,7.50000000e-03
-2.65937500e-07,5.25000000e-03,1.39843750e-02
-2.65137500e-07,7.12500000e-03,1.58593750e-02
-2.64337500e-07,7.81250000e-03,7.10937500e-03
-2.63537500e-07,5.81250000e-03,8.20312500e-03
-2.62737500e-07,5.31250000e-03,1.06250000e-02
-2.61937500e-07,6.71875000e-03,9.53125000e-03
-2.61137500e-07,8.25000000e-03,2.32031250e-02
-2.60337500e-07,6.50000000e-03,5.00000000e-03
-2.59537500e-07,7.25000000e-03,1.21875000e-02
-2.58737500e-07,3.90625000e-03,1.25000000e-02
-2.57937500e-07,1.43750000e-03,1.59375000e-02
-2.57137500e-07,1.04687500e-02,5.78125000e-03
-2.56337500e-07,5.53125000e-03,8.12500000e-03
-2.55537500e-07,7.93750000e-03,9.92187500e-03
-2.54737500e-07,4.62500000e-03,6.79687500e-03
-2.53937500e-07,1.15937500e-02,8.67187500e-03
-2.53137500e-07,-2.18750000e-03,6.87500000e-03
-2.52337500e-07,5.90625000e-03,2.00000000e-02
-2.51537500e-07,9.87500000e-03,5.78125000e-03
-2.50737500e-07,9.93750000e-03,1.34375000e-02
-2.49937500e-07,3.90625000e-03,3.90625000e-03
-2.49137500e-07,9.65625000e-03,1.35937500e-02
-2.48337500e-07,5.40625000e-03,7.89062500e-03
-2.47537500e-07,8.59375000e-03,1.41406250e-02
-2.46737500e-07,6.84375000e-03,1.38281250e-02
-2.45937500e-07,1.02812500e-02,1.78906250e-02
-2.45137500e-07,3.81250000e-03,8.43750000e-03
-2.44337500e-07,8.25000000e-03,1.74218750e-02
-2.43537500e-07,-7.81250000e-04,1.87500000e-02
-2.42737500e-07,7.12500000e-03,2.42187500e-03
-2.41937500e-07,5.96875000e-03,2.18750000e-03
-2.41137500e-07,9.71875000e-03,1.35156250e-02
-2.40337500e-07,3.40625000e-03,1.57812500e-02
-2.39537500e-07,8.12500000e-03,1.25000000e-02
-2.38737500e-07,8.75000000e-03,-2.34375000e-04
-2.37937500e-07,6.96875000e-03,3.75000000e-03
-2.37137500e-07,6.40625000e-03,1.14062500e-02
-2.36337500e-07,3.53125000e-03,4.84375000e-03
-2.35537500e-07,8.12500000e-03,1.35156250e-02
-2.34737500e-07,8.65625000e-03,1.46093750e-02
-2.33937500e-07,4.90625000e-03,1.32031250e-02
-2.33137500e-07,6.53125000e-03,1.39062500e-02
-2.32337500e-07,8.18750000e-03,1.17187500e-02
-2.31537500e-07,6.87500000e-03,4.06250000e-03
-2.30737500e-07,7.93750000e-03,1.67187500e-02
-2.29937500e-07,4.87500000e-03,1.29687500e-02
-2.29137500e-07,6.59375000e-03,1.95312500e-03
-2.28337500e-07,7.25000000e-03,8.12500000e-03
-2.27537500e-07,5.46875000e-03,5.31250000e-03
-2.26737500e-07,8.68750000e-03,5.54687500e-03
-2.25937500e-07,7.25000000e-03,2.81250000e-03
-2.25137500e-07,8.78125000e-03,9.68750000e-03
-2.24337500e-07,2.43750000e-03,8.75000000e-03
-2.23537500e-07,1.07187500e-02,2.08593750e-02
-2.22737500e-07,3.50000000e-03,1.15625000e-02
-2.21937500e-07,8.96875000e-03,8.82812500e-03
-2.21137500e-07,5.93750000e-03,1.25000000e-02
-2.20337500e-07,8.56250000e-03,8.67187500e-03
-2.19537500e-07,5.96875000e-03,9.84375000e-03
-2.18737500e-07,8.00000000e-03,7.42187500e-03
-2.17937500e-07,5.46875000e-03,1.51562500e-02
-2.17137500e-07,6.96875000e-03,2.65625000e-03
-2.16337500e-07,7.28125000e-03,1.53906250e-02
-2.15537500e-07,1.43437500e-02,1.95312500e-03
-2.14737500e-07,4.46875000e-03,1.35156250e-02
-2.13937500e-07,6.15625000e-03,1.25000000e-03
-2.13137500e-07,8.78125000e-03,1.21875000e-02
-2.12337500e-07,3.93750000e-03,1.95312500e-03
-2.11537500e-07,6.96875000e-03,6.32812500e-03
-2.10737500e-07,5.46875000e-03,1.56250000e-03
-2.09937500e-07,6.71875000e-03,1.16406250e-02
-2.09137500e-07,6.90625000e-03,7.81250000e-04
-2.08337500e-07,9.31250000e-03,2.10937500e-02
-2.07537500e-07,3.90625000e-03,1.10156250e-02
-2.06737500e-07,3.78125000e-03,1.82031250e-02
-2.05937500e-07,9.87500000e-03,1.48437500e-02
-2.05137500e-07,9.28125000e-03,5.31250000e-03
-2.04337500e-07,7.18750000e-03,1.13281250e-02
-2.03537500e-07,7.09375000e-03,1.07031250e-02
-2.02737500e-07,9.28125000e-03,1.78125000e-02
-2.01937500e-07,4.03125000e-03,7.73437500e-03
-2.01137500e-07,8.15625000e-03,1.06250000e-02
-2.00337500e-07,5.12500000e-03,1.11718750e-02
-1.99537500e-07,9.68750000e-03,6.25000000e-04
-1.98737500e-07,6.56250000e-04,6.32812500e-03
-1.97937500e-07,7.96875000e-03,1.00000000e-02
-1.97137500e-07,5.96875000e-03,9.45312500e-03
-1.96337500e-07,5.56250000e-03,6.71875000e-03
-1.95537500e-07,4.34375000e-03,9.45312500e-03
-1.94737500e-07,5.71875000e-03,1.00000000e-02
-1.93937500e-07,9.37500000e-04,4.14062500e-03
-1.93137500e-07,8.37500000e-03,1.14843750e-02
-1.92337500e-07,1.21875000e-03,1.32031250e-02
-1.91537500e-07,7.31250000e-03,1.95312500e-03
-1.90737500e-07,8.50000000e-03,7.03125000e-03
-1.89937500e-07,1.14375000e-02,1.60156250e-02
-1.89137500e-07,5.81250000e-03,1.32812500e-02
-1.88337500e-07,5.68750000e-03,1.32812500e-02
-1.87537500e-07,7.96875000e-03,1.25781250e-02
-1.86737500e-07,6.25000000e-03,1.65625000e-02
-1.85937500e-07,6.75000000e-03,1.37500000e-02
-1.85137500e-07,8.93750000e-03,9.21875000e-03
-1.84337500e-07,6.81250000e-03,1.20312500e-02
-1.83537500e-07,6.06250000e-03,1.71875000e-02
-1.82737500e-07,8.84375000e-03,1.70312500e-02
-1.81937500e-07,3.59375000e-03,1.03906250e-02
-1.81137500e-07,3.84375000e-03,1.65625000e-02
-1.80337500e-07,7.50000000e-03,1.68750000e-02
-1.79537500e-07,3.62500000e-03,8.98437500e-03
-1.78737500e-07,5.96875000e-03,2.50000000e-03
-1.77937500e-07,4.59375000e-03,2.18750000e-03
-1.77137500e-07,9.03125000e-03,1.40625000e-02
-1.76337500e-07,2.18750000e-04,6.56250000e-03
-1.75537500e-07,1.23750000e-02,1.27343750e-02
-1.74737500e-07,5.50000000e-03,7.26562500e-03
-1.73937500e-07,1.02187500e-02,8.82812500e-03
-1.73137500e-07,5.31250000e-04,1.14843750e-02
-1.72337500e-07,1.40312500e-02,2.12500000e-02
-1.71537500e-07,1.96875000e-03,1.29687500e-02
-1.70737500e-07,9.34375000e-03,1.64843750e-02
-1.69937500e-07,4.03125000e-03,6.87500000e-03
-1.69137500e-07,1.14062500e-02,4.14062500e-03
-1.68337500e-07,5.81250000e-03,3.35937500e-03
-1.67537500e-07,1.12500000e-02,7.03125000e-03
-1.66737500e-07,5.00000000e-04,2.32812500e-02
-1.65937500e-07,4.53125000e-03,1.09375000e-02
-1.65137500e-07,8.68750000e-03,7.34375000e-03
-1.64337500e-07,9.06250000e-03,1.14062500e-02
-1.63537500e-07,5.03125000e-03,1.78125000e-02
-1.62737500e-07,5.50000000e-03,8.51562500e-03
-1.61937500e-07,7.06250000e-03,1.00000000e-02
-1.61137500e-07,5.06250000e-03,1.78906250e-02
-1.60337500e-07,6.09375000e-03,2.15625000e-02
-1.59537500e-07,3.90625000e-03,3.12500000e-04
-1.58737500e-07,5.21875000e-03,6.95312500e-03
-1.57937500e-07,5.78125000e-03,1.25781250e-02
-1.57137500e-07,4.34375000e-03,1.26562500e-02
-1.56337500e-07,4.68750000e-03,1.32031250e-02
-1.55537500e-07,2.87500000e-03,1.51562500e-02
-1.54737500e-07,7.21875000e-03,1.43750000e-02
-1.53937500e-07,3.56250000e-03,1.31250000e-02
-1.53137500e-07,8.06250000e-03,5.78125000e-03
-1.52337500e-07,4.81250000e-03,8.12500000e-03
-1.51537500e-07,7.93750000e-03,1.45312500e-02
-1.50737500e-07,1.28125000e-03,4.60937500e-03
-1.49937500e-07,6.96875000e-03,1.54687500e-02
-1.49137500e-07,1.02500000e-02,9.14062500e-03
-1.48337500e-07,1.03437500e-02,1.67187500e-02
-1.47537500e-07,4.34375000e-03,9.68750000e-03
-1.46737500e-07,1.26875000e-02,1.27343750e-02
-1.45937500e-07,2.34375000e-03,1.44531250e-02
-1.45137500e-07,7.34375000e-03,1.32031250e-02
-1.44337500e-07,4.25000000e-03,8.43750000e-03
-1.43537500e-07,1.23437500e-02,1.14843750e-02
-1.42737500e-07,3.96875000e-03,2.03125000e-02
-1.41937500e-07,1.24375000e-02,5.70312500e-03
-1.41137500e-07,1.78125000e-03,1.39062500e-02
-1.40337500e-07,6.12500000e-03,1.10156250e-02
-1.39537500e-07,8.53125000e-03,1.50781250e-02
-1.38737500e-07,7.50000000e-03,1.79687500e-03
-1.37937500e-07,4.46875000e-03,1.60937500e-02
-1.37137500e-07,2.56250000e-03,5.78125000e-03
-1.36337500e-07,7.03125000e-03,1.95312500e-02
-1.35537500e-07,7.46875000e-03,1.48437500e-02
-1.34737500e-07,5.18750000e-03,1.13281250e-02
-1.33937500e-07,5.71875000e-03,1.45312500e-02
-1.33137500e-07,6.81250000e-03,1.00000000e-02
-1.32337500e-07,3.53125000e-03,1.46875000e-02
-1.31537500e-07,1.00625000e-02,1.79687500e-02
-1.30737500e-07,6.28125000e-03,1.37500000e-02
-1.29937500e-07,4.75000000e-03,2.81250000e-03
-1.29137500e-07,1.06562500e-02,1.10156250e-02
-1.28337500e-07,8.03125000e-03,6.87500000e-03
-1.27537500e-07,2.37500000e-03,1.87500000e-03
-1.26737500e-07,3.25000000e-03,8.04687500e-03
-1.25937500e-07,7.09375000e-03,1.06250000e-02
-1.25137500e-07,4.75000000e-03,1.39843750e-02
-1.24337500e-07,8.87500000e-03,1.38281250e-02
-1.23537500e-07,1.59375000e-03,1.32812500e-02
-1.22737500e-07,7.25000000e-03,1.72656250e-02
-1.21937500e-07,5.31250000e-04,1.65625000e-02
-1.21137500e-07,8.31250000e-03,2.31250000e-02
-1.20337500e-07,5.50000000e-03,1.10156250e-02
-1.19537500e-07,8.62500000e-03,1.02343750e-02
-1.18737500e-07,4.37500000e-03,1.35156250e-02
-1.17937500e-07,5.96875000e-03,2.08593750e-02
-1.17137500e-07,5.31250000e-03,2.25000000e-02
-1.16337500e-07,6.90625000e-03,1.07031250e-02
-1.15537500e-07,2.53125000e-03,2.02343750e-02
-1.14737500e-07,2.90625000e-03,5.39062500e-03
-1.13937500e-07,1.01875000e-02,4.06250000e-03
-1.13137500e-07,1.00312500e-02,1.39843750e-02
-1.12337500e-07,2.90625000e-03,1.11718750e-02
-1.11537500e-07,8.00000000e-03,1.14062500e-02
-1.10737500e-07,1.96875000e-03,5.31250000e-03
-1.09937500e-07,6.40625000e-03,3.12500000e-03
-1.09137500e-07,6.28125000e-03,3.90625000e-03
-1.08337500e-07,4.28125000e-03,4.14062500e-03
-1.07537500e-07,8.18750000e-03,1.93750000e-02
-1.06737500e-07,5.00000000e-03,7.81250000e-03
-1.05937500e-07,3.18750000e-03,2.28125000e-02
-1.05137500e-07,4.68750000e-03,1.75781250e-02
-1.04337500e-07,3.31250000e-03,1.00000000e-02
-1.03537500e-07,8.50000000e-03,4.84375000e-03
-1.02737500e-07,2.84375000e-03,1.31250000e-02
-1.01937500e-07,6.46875000e-03,1.08593750e-02
-1.01137500e-07,2.84375000e-03,5.93750000e-03
-1.00337500e-07,1.13437500e-02,1.26562500e-02
-9.95375000e-08,4.37500000e-04,1.72656250e-02
-9.87375000e-08,8.84375000e-03,7.26562500e-03
-9.79375000e-08,5.09375000e-03,9.76562500e-03
-9.71375000e-08,7.87500000e-03,1.67968750e-02
-9.63375000e-08,2.09375000e-03,1.35156250e-02
-9.55375000e-08,7.18750000e-03,8.98437500e-03
-9.47375000e-08,-1.50000000e-03,9.92187500e-03
-9.39375000e-08,8.71875000e-03,1.91406250e-02
-9.31375000e-08,2.18750000e-03,1.63281250e-02
-9.23375000e-08,1.25000000e-02,8.51562500e-03
-9.15375000e-08,2.90625000e-03,1.02343750e-02
-9.07375000e-08,8.31250000e-03,1.35156250e-02
-8.99375000e-08,3.75000000e-03,1.48437500e-02
-8.91375000e-08,3.43750000e-03,1.26562500e-02
-8.83375000e-08,8.28125000e-03,1.02343750e-02
-8.75375000e-08,1.18125000e-02,1.35156250e-02
-8.67375000e-08,3.96875000e-03,1.35156250e-02
-8.59375000e-08,6.78125000e-03,1.67968750e-02
-8.51375000e-08,8.90625000e-03,1.07812500e-02
-8.43375000e-08,7.18750000e-03,1.56250000e-02
-8.35375000e-08,7.87500000e-03,2.13281250e-02
-8.27375000e-08,9.50000000e-03,4.68750000e-03
-8.19375000e-08,7.34375000e-03,1.32812500e-02
-8.11375000e-08,5.03125000e-03,1.21093750e-02
-8.03375000e-08,1.13750000e-02,1.57031250e-02
-7.95375000e-08,3.65625000e-03,1.73437500e-02
-7.87375000e-08,4.31250000e-03,9.45312500e-03
-7.79375000e-08,1.10000000e-02,8.28125000e-03
-7.71375000e-08,7.90625000e-03,1.76562500e-02
-7.63375000e-08,8.53125000e-03,1.24218750e-02
-7.55375000e-08,4.28125000e-03,-4.21875000e-03
-7.47375000e-08,6.09375000e-03,2.17968750e-02
-7.39375000e-08,2.50000000e-03,9.84375000e-03
-7.31375000e-08,9.90625000e-03,2.21875000e-02
-7.23375000e-08,6.96875000e-03,1.22656250e-02
-7.15375000e-08,7.81250000e-03,1.46093750e-02
-7.07375000e-08,-6.87500000e-04,1.03906250e-02
-6.99375000e-08,1.28750000e-02,1.84375000e-02
-6.91375000e-08,7.87500000e-03,1.26562500e-02
-6.83375000e-08,1.18437500e-02,1.22656250e-02
-6.75375000e-08,4.53125000e-03,1.19531250e-02
-6.67375000e-08,1.18125000e-02,2.32812500e-02
-6.59375000e-08,3.71875000e-03,1.53125000e-02
-6.51375000e-08,9.12500000e-03,8.90625000e-03
-6.43375000e-08,4.40625000e-03,1.96875000e-02
-6.35375000e-08,7.68750000e-03,4.76562500e-03
-6.27375000e-08,1.03125000e-02,2.81250000e-03
-6.19375000e-08,1.12187500e-02,2.43750000e-02
-6.11375000e-08,2.09375000e-03,1.59375000e-02
-6.03375000e-08,7.28125000e-03,-3.22265625e-01
-5.95375000e-08,9.40625000e-03,-8.94531250e-01
-5.87375000e-08,5.40625000e-03,-1.22296875e+00
-5.79375000e-08,4.46875000e-03,-1.31289063e+00
-5.71375000e-08,1.50000000e-02,-1.38796875e+00
-5.63375000e-08,9.93750000e-03,-1.38937500e+00
-5.55375000e-08,1.17812500e-02,-1.39585938e+00
-5.47375000e-08,7.09375000e-03,-1.39328125e+00
-5.39375000e-08,5.50000000e-03,-1.40062500e+00
-5.31375000e-08,4.53125000e-03,-1.41070313e+00
-5.23375000e-08,1.03125000e-02,-1.41281250e+00
-5.15375000e-08,5.09375000e-03,-1.40156250e+00
-5.07375000e-08,2.93750000e-03,-1.40875000e+00
-4.99375000e-08,3.37500000e-03,-1.40546875e+00
-4.91375000e-08,8.18750000e-03,-1.41289063e+00
-4.83375000e-08,2.25000000e-03,-1.41359375e+00
-4.75375000e-08,1.01875000e-02,-1.41062500e+00
-4.67375000e-08,4.78125000e-03,-1.42101563e+00
-4.59375000e-08,5.46875000e-03,-1.41625000e+00
-4.51375000e-08,5.59375000e-03,-1.42296875e+00
-4.43375000e-08,1.11250000e-02,-1.41234375e+00
-4.35375000e-08,4.84375000e-03,-1.41484375e+00
-4.27375000e-08,6.53125000e-03,-1.42429688e+00
-4.19375000e-08,3.37500000e-03,-1.42953125e+00
-4.11375000e-08,8.93750000e-03,-1.42835938e+00
-4.03375000e-08,2.53125000e-03,-1.42062500e+00
-3.95375000e-08,5.46875000e-03,-1.41726563e+00
-3.87375000e-08,8.75000000e-04,-1.42039063e+00
-3.79375000e-08,1.31250000e-03,-1.42804688e+00
-3.71375000e-08,6.56250000e-03,-1.43132813e+00
-3.63375000e-08,6.87500000e-03,-1.41851563e+00
-3.55375000e-08,-3.12500000e-05,-1.42062500e+00
-3.47375000e-08,2.56250000e-03,-1.41703125e+00
-3.39375000e-08,-2.68750000e-03,-1.41968750e+00
-3.31375000e-08,-1.90937500e-02,-1.42929688e+00
-3.23375000e-08,-3.92187500e-02,-1.41750000e+00
-3.15375000e-08,-8.62812500e-02,-1.42507813e+00
-3.07375000e-08,-1.53781250e-01,-1.43093750e+00
-2.99375000e-08,-2.40687500e-01,-1.42335937e+00
-2.91375000e-08,-3.44406250e-01,-1.42117188e+00
-2.83375000e-08,-4.47437500e-01,-1.42429688e+00
-2.75375000e-08,-5.36312500e-01,-1.42710938e+00
-2.67375000e-08,-6.28593750e-01,-1.41312500e+00
-2.59375000e-08,-7.07187500e-01,-1.41781250e+00
-2.51375000e-08,-7.65500000e-01,-1.42289062e+00
-2.43375000e-08,-8.05593750e-01,-1.42375000e+00
-2.35375000e-08,-8.51562500e-01,-1.41046875e+00
-2.27375000e-08,-8.74500000e-01,-1.42109375e+00
-2.19375000e-08,-8.80531250e-01,-1.40093750e+00
-2.11375000e-08,-8.90031250e-01,-1.42140625e+00
-2.03375000e-08,-8.91468750e-01,-1.41789063e+00
-1.95375000e-08,-8.80875000e-01,-1.41281250e+00
-1.87375000e-08,-8.54750000e-01,-1.41273438e+00
-1.79375000e-08,-8.38718750e-01,-1.42453125e+00
-1.71375000e-08,-8.07062500e-01,-1.40757813e+00
-1.63375000e-08,-7.79031250e-01,-1.41546875e+00
-1.55375000e-08,-7.42406250e-01,-1.42539063e+00
-1.47375000e-08,-7.13843750e-01,-1.41726563e+00
-1.39375000e-08,-6.80437500e-01,-1.40937500e+00
-1.31375000e-08,-6.49718750e-01,-1.41562500e+00
-1.23375000e-08,-6.08656250e-01,-1.42648438e+00
-1.15375000e-08,-5.72312500e-01,-1.42156250e+00
-1.07375000e-08,-5.39375000e-01,-1.42617188e+00
-9.93750000e-09,-5.00343750e-01,-1.42984375e+00
-9.13750000e-09,-4.68906250e-01,-1.42812500e+00
-8.33750000e-09,-4.37312500e-01,-1.42148438e+00
-7.53750000e-09,-4.10375000e-01,-1.42867188e+00
-6.73750000e-09,-3.84531250e-01,-1.42289062e+00
-5.93750000e-09,-3.57312500e-01,-1.42085938e+00
-5.13750000e-09,-3.31593750e-01,-1.42625000e+00
-4.33750000e-09,-3.12406250e-01,-1.40960938e+00
-3.53750000e-09,-2.89343750e-01,-1.38367188e+00
-2.73750000e-09,-2.72406250e-01,-1.33867188e+00
-1.93750000e-09,-2.56218750e-01,-1.18343750e+00
-1.13750000e-09,-2.41406250e-01,-7.63281250e-01
-3.37500000e-10,-2.29812500e-01,-3.81953125e-01
4.62500000e-10,-2.17187500e-01,-2.05468750e-01
1.26250000e-09,-2.10000000e-01,-1.14687500e-01
2.06250000e-09,-2.02250000e-01,-7.83593750e-02
2.86250000e-09,-2.00531250e-01,-5.24218750e-02
3.66250000e-09,-1.87593750e-01,-5.87500000e-02
4.46250000e-09,-1.84031250e-01,-5.07812500e-02
5.26250000e-09,-1.72718750e-01,-3.71875000e-02
6.06250000e-09,-1.71000000e-01,-3.40625000e-02
6.86250000e-09,-1.58875000e-01,-2.57031250e-02
7.66250000e-09,-1.59937500e-01,-2.72656250e-02
8.46250000e-09,-1.43468750e-01,-2.50000000e-02
9.26250000e-09,-1.41656250e-01,-2.33593750e-02
1.00625000e-08,-1.29875000e-01,-1.71093750e-02
1.08625000e-08,-1.21500000e-01,-2.60156250e-02
1.16625000e-08,-1.11531250e-01,-1.31250000e-02
1.24625000e-08,-1.13156250e-01,-1.04687500e-02
1.32625000e-08,-1.02531250e-01,-1.76562500e-02
1.40625000e-08,-9.43437500e-02,-1.42187500e-02
1.48625000e-08,-8.39375000e-02,-1.49218750e-02
1.56625000e-08,-8.95312500e-02,-1.27343750e-02
1.64625000e-08,-7.45312500e-02,-7.96875000e-03
1.72625000e-08,-7.14687500e-02,-1.19531250e-02
1.80625000e-08,-6.79062500e-02,-1.14062500e-02
1.88625000e-08,-6.57187500e-02,-8.59375000e-03
1.96625000e-08,-5.89062500e-02,-3.90625000e-04
2.04625000e-08,-5.55937500e-02,-1.71875000e-03
2.12625000e-08,-4.66875000e-02,-2.57812500e-03
2.20625000e-08,-4.61250000e-02,-2.89062500e-03
2.28625000e-08,-4.87500000e-02,-1.01562500e-03
2.36625000e-08,-4.40937500e-02,9.14062500e-03
2.44625000e-08,-4.13437500e-02,4.53125000e-03
2.52625000e-08,-4.09062500e-02,1.09375000e-03
2.60625000e-08,-3.69687500e-02,8.82812500e-03
2.68625000e-08,-3.58437500e-02,9.53125000e-03
2.76625000e-08,-2.80000000e-02,7.96875000e-03
2.84625000e-08,-3.87500000e-02,8.28125000e-03
2.92625000e-08,-2.86562500e-02,1.14062500e-02
3.00625000e-08,-2.85312500e-02,1.42187500e-02
3.08625000e-08,-2.45625000e-02,1.07812500e-02
3.16625000e-08,-2.95625000e-02,2.70312500e-02
3.24625000e-08,-2.37187500e-02,2.17187500e-02
3.32625000e-08,-3.22500000e-02,3.50000000e-02
3.40625000e-08,-1.81875000e-02,3.35156250e-02
3.48625000e-08,-2.60937500e-02,3.80468750e-02
3.56625000e-08,-2.11250000e-02,3.81250000e-02
3.64625000e-08,-2.28437500e-02,3.73437500e-02
3.72625000e-08,-1.94062500e-02,3.35937500e-02
3.80625000e-08,-2.43437500e-02,2.70312500e-02
3.88625000e-08,-1.88125000e-02,3.21875000e-02
3.96625000e-08,-1.65312500e-02,2.07812500e-02
4.04625000e-08,-1.55000000e-02,3.15625000e-02
4.12625000e-08,-2.33125000e-02,1.92187500e-02
4.20625000e-08,-1.07500000e-02,2.82812500e-02
4.28625000e-08,-1.14375000e-02,2.97656250e-02
4.36625000e-08,-1.15000000e-02,2.70312500e-02
4.44625000e-08,-1.61875000e-02,2.03125000e-02
4.52625000e-08,-1.57187500e-02,1.72656250e-02
4.60625000e-08,-1.09062500e-02,2.25000000e-02
4.68625000e-08,-1.22500000e-02,3.16406250e-02
4.76625000e-08,-1.27500000e-02,2.45312500e-02
4.84625000e-08,-1.48750000e-02,2.14843750e-02
4.92625000e-08,-1.80625000e-02,2.12500000e-02
5.00625000e-08,-1.45625000e-02,1.80468750e-02
5.08625000e-08,-1.30000000e-02,1.33593750e-02
5.16625000e-08,-1.13750000e-02,2.14843750e-02
5.24625000e-08,-1.10000000e-02,1.91406250e-02
5.32625000e-08,-1.13750000e-02,2.39843750e-02
5.40625000e-08,-1.08437500e-02,2.28906250e-02
5.48625000e-08,-4.81250000e-03,1.64062500e-02
5.56625000e-08,-9.65625000e-03,1.64062500e-02
5.64625000e-08,-4.68750000e-03,1.84375000e-02
