muon_CSV/TriggerAuto_ALL_20231205194018285.csv

Model,MSO64B
Channel,CH1,,Channel,CH2
Label,,,Label,
Waveform Type,ANALOG,,Waveform Type,ANALOG
Horizontal Units,s,,Horizontal Units,s
Sample Interval,8.00000000e-10,,Sample Interval,8.00000000e-10
Record Length,5000,,Record Length,5000
Zero Index,349.48828125,,Zero Index,349.48828125
Vertical Units,V,,Vertical Units,V
,,,,
ANALOG_Thumbnail,,,ANALOG_Thumbnail,
yOffset,0.000000,,yOffset,0.000000
yPosition,2.160000,,yPosition,2.180000

Labels,,
TIME,CH1,CH2
-2.79590625e-07,9.09375000e-03,1.85156250e-02
-2.78790625e-07,6.40625000e-03,1.02343750e-02
-2.77990625e-07,5.84375000e-03,1.12500000e-02
-2.77190625e-07,4.68750000e-03,1.32031250e-02
-2.76390625e-07,3.78125000e-03,1.24218750e-02
-2.75590625e-07,6.87500000e-03,5.31250000e-03
-2.74790625e-07,8.68750000e-03,2.00000000e-02
-2.73990625e-07,6.68750000e-03,9.60937500e-03
-2.73190625e-07,9.18750000e-03,1.53906250e-02
-2.72390625e-07,2.84375000e-03,8.98437500e-03
-2.71590625e-07,8.71875000e-03,1.14062500e-02
-2.70790625e-07,7.65625000e-03,9.84375000e-03
-2.69990625e-07,1.11250000e-02,1.20312500e-02
-2.69190625e-07,2.84375000e-03,1.04687500e-02
-2.68390625e-07,7.03125000e-03,1.20312500e-02
-2.67590625e-07,1.26875000e-02,1.64843750e-02
-2.66790625e-07,6.96875000e-03,8.59375000e-03
-2.65990625e-07,-8.12500000e-04,1.53125000e-02
-2.65190625e-07,7.84375000e-03,1.64843750e-02
-2.64390625e-07,1.02500000e-02,1.44531250e-02
-2.63590625e-07,8.09375000e-03,1.64843750e-02
-2.62790625e-07,6.00000000e-03,2.15625000e-02
-2.61990625e-07,4.96875000e-03,1.01562500e-02
-2.61190625e-07,5.18750000e-03,6.48437500e-03
-2.60390625e-07,8.21875000e-03,2.57812500e-03
-2.59590625e-07,5.78125000e-03,9.53125000e-03
-2.58790625e-07,4.68750000e-03,1.18750000e-02
-2.57990625e-07,5.84375000e-03,2.03125000e-03
-2.57190625e-07,9.06250000e-03,1.28906250e-02
-2.56390625e-07,2.81250000e-04,9.21875000e-03
-2.55590625e-07,1.09687500e-02,1.01562500e-02
-2.54790625e-07,7.46875000e-03,1.40625000e-02
-2.53990625e-07,1.01562500e-02,2.18750000e-02
-2.53190625e-07,4.71875000e-03,1.49218750e-02
-2.52390625e-07,4.37500000e-03,9.92187500e-03
-2.51590625e-07,7.81250000e-03,1.58593750e-02
-2.50790625e-07,6.65625000e-03,1.70312500e-02
-2.49990625e-07,1.43750000e-03,8.35937500e-03
-2.49190625e-07,9.50000000e-03,1.07031250e-02
-2.48390625e-07,5.71875000e-03,2.10937500e-02
-2.47590625e-07,9.93750000e-03,1.08593750e-02
-2.46790625e-07,1.96875000e-03,7.81250000e-03
-2.45990625e-07,1.68750000e-03,3.90625000e-03
-2.45190625e-07,1.01250000e-02,3.43750000e-03
-2.44390625e-07,1.04062500e-02,6.87500000e-03
-2.43590625e-07,5.50000000e-03,1.01562500e-02
-2.42790625e-07,7.96875000e-03,1.60156250e-02
-2.41990625e-07,5.75000000e-03,1.25000000e-02
-2.41190625e-07,7.21875000e-03,1.25781250e-02
-2.40390625e-07,7.15625000e-03,9.21875000e-03
-2.39590625e-07,7.59375000e-03,8.04687500e-03
-2.38790625e-07,6.40625000e-03,2.06250000e-02
-2.37990625e-07,7.25000000e-03,8.90625000e-03
-2.37190625e-07,3.46875000e-03,1.39843750e-02
-2.36390625e-07,6.59375000e-03,9.60937500e-03
-2.35590625e-07,2.18750000e-03,6.71875000e-03
-2.34790625e-07,9.75000000e-03,4.68750000e-03
-2.33990625e-07,3.93750000e-03,9.53125000e-03
-2.33190625e-07,1.43750000e-03,1.51562500e-02
-2.32390625e-07,7.06250000e-03,7.96875000e-03
-2.31590625e-07,9.90625000e-03,1.20312500e-02
-2.30790625e-07,3.50000000e-03,9.37500000e-03
-2.29990625e-07,8.50000000e-03,1.85937500e-02
-2.29190625e-07,4.03125000e-03,1.04687500e-02
-2.28390625e-07,1.00937500e-02,1.39062500e-02
-2.27590625e-07,3.75000000e-04,9.21875000e-03
-2.26790625e-07,9.62500000e-03,1.46093750e-02
-2.25990625e-07,3.96875000e-03,1.04687500e-02
-2.25190625e-07,5.75000000e-03,1.11718750e-02
-2.24390625e-07,2.34375000e-03,2.65625000e-03
-2.23590625e-07,7.15625000e-03,1.48437500e-02
-2.22790625e-07,5.34375000e-03,1.17968750e-02
-2.21990625e-07,1.15937500e-02,1.13281250e-02
-2.21190625e-07,4.40625000e-03,8.67187500e-03
-2.20390625e-07,5.28125000e-03,1.99218750e-02
-2.19590625e-07,7.84375000e-03,5.00000000e-03
-2.18790625e-07,1.37500000e-02,1.61718750e-02
-2.17990625e-07,5.62500000e-04,1.28906250e-02
-2.17190625e-07,8.87500000e-03,7.26562500e-03
-2.16390625e-07,1.29687500e-02,8.67187500e-03
-2.15590625e-07,8.37500000e-03,1.07031250e-02
-2.14790625e-07,6.43750000e-03,1.32812500e-02
-2.13990625e-07,7.46875000e-03,1.52343750e-02
-2.13190625e-07,7.21875000e-03,1.57031250e-02
-2.12390625e-07,3.93750000e-03,1.31250000e-02
-2.11590625e-07,6.81250000e-03,8.51562500e-03
-2.10790625e-07,8.62500000e-03,1.26562500e-02
-2.09990625e-07,3.09375000e-03,1.50781250e-02
-2.09190625e-07,7.90625000e-03,8.43750000e-03
-2.08390625e-07,7.06250000e-03,7.42187500e-03
-2.07590625e-07,8.18750000e-03,2.19531250e-02
-2.06790625e-07,3.87500000e-03,8.90625000e-03
-2.05990625e-07,9.21875000e-03,1.07812500e-02
-2.05190625e-07,5.56250000e-03,1.89843750e-02
-2.04390625e-07,6.06250000e-03,7.65625000e-03
-2.03590625e-07,1.09062500e-02,7.81250000e-04
-2.02790625e-07,8.96875000e-03,1.35156250e-02
-2.01990625e-07,1.65625000e-03,1.57812500e-02
-2.01190625e-07,5.56250000e-03,1.31250000e-02
-2.00390625e-07,6.78125000e-03,6.48437500e-03
-1.99590625e-07,2.31250000e-03,9.37500000e-03
-1.98790625e-07,3.78125000e-03,4.60937500e-03
-1.97990625e-07,1.07187500e-02,7.57812500e-03
-1.97190625e-07,7.03125000e-03,1.45312500e-02
-1.96390625e-07,7.65625000e-03,3.90625000e-03
-1.95590625e-07,2.53125000e-03,4.92187500e-03
-1.94790625e-07,6.62500000e-03,1.08593750e-02
-1.93990625e-07,7.75000000e-03,1.32812500e-02
-1.93190625e-07,1.02812500e-02,2.03125000e-03
-1.92390625e-07,1.78125000e-03,1.42968750e-02
-1.91590625e-07,6.00000000e-03,1.78125000e-02
-1.90790625e-07,8.31250000e-03,1.38281250e-02
-1.89990625e-07,5.09375000e-03,1.51562500e-02
-1.89190625e-07,7.71875000e-03,1.24218750e-02
-1.88390625e-07,6.40625000e-03,7.89062500e-03
-1.87590625e-07,1.23437500e-02,1.39843750e-02
-1.86790625e-07,7.81250000e-03,1.10937500e-02
-1.85990625e-07,6.40625000e-03,1.25781250e-02
-1.85190625e-07,4.50000000e-03,1.17968750e-02
-1.84390625e-07,4.25000000e-03,5.93750000e-03
-1.83590625e-07,9.43750000e-03,5.46875000e-03
-1.82790625e-07,2.84375000e-03,1.53906250e-02
-1.81990625e-07,5.59375000e-03,8.51562500e-03
-1.81190625e-07,3.62500000e-03,1.54687500e-02
-1.80390625e-07,1.00937500e-02,1.29687500e-02
-1.79590625e-07,-3.12500000e-05,8.67187500e-03
-1.78790625e-07,3.00000000e-03,9.21875000e-03
-1.77990625e-07,5.75000000e-03,3.51562500e-03
-1.77190625e-07,9.09375000e-03,1.94531250e-02
-1.76390625e-07,4.40625000e-03,1.44531250e-02
-1.75590625e-07,6.00000000e-03,1.84375000e-02
-1.74790625e-07,7.28125000e-03,9.76562500e-03
-1.73990625e-07,9.53125000e-03,2.30468750e-02
-1.73190625e-07,6.28125000e-03,-3.12500000e-03
-1.72390625e-07,7.93750000e-03,1.50000000e-02
-1.71590625e-07,5.84375000e-03,1.35156250e-02
-1.70790625e-07,9.25000000e-03,4.06250000e-03
-1.69990625e-07,1.62500000e-03,1.54687500e-02
-1.69190625e-07,4.78125000e-03,2.16406250e-02
-1.68390625e-07,6.78125000e-03,6.87500000e-03
-1.67590625e-07,1.20312500e-02,4.14062500e-03
-1.66790625e-07,5.18750000e-03,1.00000000e-02
-1.65990625e-07,4.65625000e-03,9.37500000e-03
-1.65190625e-07,6.43750000e-03,1.19531250e-02
-1.64390625e-07,1.10312500e-02,1.71875000e-02
-1.63590625e-07,7.25000000e-03,5.70312500e-03
-1.62790625e-07,7.81250000e-04,2.26562500e-03
-1.61990625e-07,7.15625000e-03,1.87500000e-02
-1.61190625e-07,6.31250000e-03,1.03906250e-02
-1.60390625e-07,9.75000000e-03,1.60156250e-02
-1.59590625e-07,7.62500000e-03,1.42968750e-02
-1.58790625e-07,5.43750000e-03,7.81250000e-03
-1.57990625e-07,9.21875000e-03,9.92187500e-03
-1.57190625e-07,7.65625000e-03,1.32812500e-03
-1.56390625e-07,5.84375000e-03,1.42968750e-02
-1.55590625e-07,5.37500000e-03,2.03906250e-02
-1.54790625e-07,1.30937500e-02,1.35937500e-02
-1.53990625e-07,2.40625000e-03,1.87500000e-03
-1.53190625e-07,7.56250000e-03,4.21875000e-03
-1.52390625e-07,5.59375000e-03,1.28125000e-02
-1.51590625e-07,1.25625000e-02,1.38281250e-02
-1.50790625e-07,6.09375000e-03,1.32812500e-03
-1.49990625e-07,9.34375000e-03,2.02343750e-02
-1.49190625e-07,5.34375000e-03,1.61718750e-02
-1.48390625e-07,8.09375000e-03,5.85937500e-03
-1.47590625e-07,6.81250000e-03,2.10937500e-03
-1.46790625e-07,1.04062500e-02,1.21875000e-02
-1.45990625e-07,6.34375000e-03,1.38281250e-02
-1.45190625e-07,7.78125000e-03,4.60937500e-03
-1.44390625e-07,6.18750000e-03,5.54687500e-03
-1.43590625e-07,7.90625000e-03,1.60937500e-02
-1.42790625e-07,1.24375000e-02,3.20312500e-03
-1.41990625e-07,9.75000000e-03,1.56250000e-02
-1.41190625e-07,4.28125000e-03,1.49218750e-02
-1.40390625e-07,7.06250000e-03,1.32031250e-02
-1.39590625e-07,1.11562500e-02,1.63281250e-02
-1.38790625e-07,1.23437500e-02,3.12500000e-03
-1.37990625e-07,9.09375000e-03,1.67968750e-02
-1.37190625e-07,2.25000000e-03,1.43750000e-02
-1.36390625e-07,1.11250000e-02,1.71093750e-02
-1.35590625e-07,5.59375000e-03,8.35937500e-03
-1.34790625e-07,7.78125000e-03,1.53906250e-02
-1.33990625e-07,9.93750000e-03,1.43750000e-02
-1.33190625e-07,5.65625000e-03,8.67187500e-03
-1.32390625e-07,1.04062500e-02,1.72656250e-02
-1.31590625e-07,3.56250000e-03,-7.81250000e-05
-1.30790625e-07,6.12500000e-03,7.89062500e-03
-1.29990625e-07,8.18750000e-03,1.15625000e-02
-1.29190625e-07,1.24687500e-02,7.65625000e-03
-1.28390625e-07,3.18750000e-03,1.32031250e-02
-1.27590625e-07,5.62500000e-03,1.82812500e-02
-1.26790625e-07,7.81250000e-03,1.42968750e-02
-1.25990625e-07,8.21875000e-03,1.63281250e-02
-1.25190625e-07,4.87500000e-03,8.35937500e-03
-1.24390625e-07,7.46875000e-03,1.46093750e-02
-1.23590625e-07,4.18750000e-03,1.37500000e-02
-1.22790625e-07,1.13125000e-02,1.85156250e-02
-1.21990625e-07,3.62500000e-03,5.15625000e-03
-1.21190625e-07,9.50000000e-03,1.30468750e-02
-1.20390625e-07,2.03125000e-03,2.45312500e-02
-1.19590625e-07,1.10937500e-02,1.38281250e-02
-1.18790625e-07,5.65625000e-03,1.54687500e-02
-1.17990625e-07,1.01250000e-02,1.60156250e-02
-1.17190625e-07,5.96875000e-03,2.01562500e-02
-1.16390625e-07,1.02187500e-02,2.12500000e-02
-1.15590625e-07,-1.09375000e-03,7.42187500e-03
-1.14790625e-07,9.03125000e-03,1.97656250e-02
-1.13990625e-07,7.62500000e-03,1.14062500e-02
-1.13190625e-07,6.71875000e-03,1.25781250e-02
-1.12390625e-07,6.56250000e-03,8.51562500e-03
-1.11590625e-07,8.53125000e-03,1.61718750e-02
-1.10790625e-07,7.84375000e-03,1.59375000e-02
-1.09990625e-07,7.34375000e-03,2.14062500e-02
-1.09190625e-07,6.59375000e-03,1.25000000e-02
-1.08390625e-07,7.62500000e-03,1.17187500e-02
-1.07590625e-07,6.65625000e-03,2.28125000e-02
-1.06790625e-07,8.65625000e-03,9.45312500e-03
-1.05990625e-07,4.96875000e-03,9.92187500e-03
-1.05190625e-07,5.25000000e-03,1.32812500e-02
-1.04390625e-07,5.37500000e-03,1.79687500e-02
-1.03590625e-07,1.46250000e-02,1.39843750e-02
-1.02790625e-07,4.25000000e-03,1.60937500e-02
-1.01990625e-07,8.25000000e-03,1.60937500e-02
-1.01190625e-07,6.40625000e-03,1.35937500e-02
-1.00390625e-07,8.12500000e-03,1.10937500e-02
-9.95906250e-08,3.96875000e-03,1.71875000e-02
-9.87906250e-08,1.15937500e-02,1.76562500e-02
-9.79906250e-08,6.25000000e-03,1.18750000e-02
-9.71906250e-08,1.14062500e-02,1.14062500e-02
-9.63906250e-08,5.93750000e-03,6.95312500e-03
-9.55906250e-08,8.34375000e-03,2.17968750e-02
-9.47906250e-08,7.84375000e-03,1.46875000e-02
-9.39906250e-08,9.81250000e-03,1.84375000e-02
-9.31906250e-08,4.87500000e-03,1.48437500e-02
-9.23906250e-08,9.09375000e-03,1.12500000e-02
-9.15906250e-08,1.14062500e-02,1.32812500e-02
-9.07906250e-08,1.29687500e-02,1.46875000e-02
-8.99906250e-08,8.21875000e-03,1.19531250e-02
-8.91906250e-08,8.56250000e-03,7.57812500e-03
-8.83906250e-08,1.13437500e-02,1.54687500e-02
-8.75906250e-08,9.46875000e-03,1.00781250e-02
-8.67906250e-08,4.31250000e-03,1.62500000e-02
-8.59906250e-08,6.90625000e-03,1.27343750e-02
-8.51906250e-08,1.00312500e-02,2.01562500e-02
-8.43906250e-08,9.96875000e-03,1.65625000e-02
-8.35906250e-08,5.28125000e-03,1.67187500e-02
-8.27906250e-08,5.81250000e-03,1.07031250e-02
-8.19906250e-08,6.65625000e-03,1.82812500e-02
-8.11906250e-08,1.10000000e-02,7.96875000e-03
-8.03906250e-08,2.65625000e-03,1.18750000e-02
-7.95906250e-08,1.08437500e-02,1.60937500e-02
-7.87906250e-08,6.84375000e-03,1.69531250e-02
-7.79906250e-08,1.15312500e-02,2.12500000e-02
-7.71906250e-08,4.37500000e-03,7.42187500e-03
-7.63906250e-08,8.84375000e-03,2.54687500e-02
-7.55906250e-08,6.78125000e-03,1.57031250e-02
-7.47906250e-08,9.87500000e-03,1.72656250e-02
-7.39906250e-08,5.31250000e-03,1.25781250e-02
-7.31906250e-08,1.14687500e-02,2.64843750e-02
-7.23906250e-08,7.96875000e-03,1.87500000e-02
-7.15906250e-08,9.84375000e-03,3.01562500e-02
-7.07906250e-08,4.40625000e-03,7.65625000e-03
-6.99906250e-08,9.71875000e-03,1.52343750e-02
-6.91906250e-08,9.40625000e-03,2.37500000e-02
-6.83906250e-08,1.14375000e-02,7.10937500e-03
-6.75906250e-08,7.56250000e-03,9.37500000e-03
-6.67906250e-08,9.78125000e-03,1.78906250e-02
-6.59906250e-08,1.02500000e-02,1.42187500e-02
-6.51906250e-08,1.55312500e-02,2.14843750e-02
-6.43906250e-08,5.50000000e-03,1.79687500e-02
-6.35906250e-08,8.25000000e-03,1.14843750e-02
-6.27906250e-08,1.15000000e-02,3.12500000e-03
-6.19906250e-08,9.71875000e-03,1.92968750e-02
-6.11906250e-08,6.43750000e-03,2.94531250e-02
-6.03906250e-08,6.50000000e-03,-2.94843750e-01
-5.95906250e-08,1.12500000e-02,-8.69062500e-01
-5.87906250e-08,8.84375000e-03,-1.24132813e+00
-5.79906250e-08,1.05000000e-02,-1.32250000e+00
-5.71906250e-08,1.20625000e-02,-1.38554688e+00
-5.63906250e-08,4.06250000e-03,-1.40531250e+00
-5.55906250e-08,1.08750000e-02,-1.39281250e+00
-5.47906250e-08,5.15625000e-03,-1.39210937e+00
-5.39906250e-08,8.15625000e-03,-1.39312500e+00
-5.31906250e-08,6.25000000e-03,-1.40031250e+00
-5.23906250e-08,6.56250000e-03,-1.40937500e+00
-5.15906250e-08,3.75000000e-03,-1.41820313e+00
-5.07906250e-08,1.20625000e-02,-1.40375000e+00
-4.99906250e-08,9.68750000e-03,-1.40835938e+00
-4.91906250e-08,9.68750000e-03,-1.40734375e+00
-4.83906250e-08,2.71875000e-03,-1.41000000e+00
-4.75906250e-08,1.05625000e-02,-1.41054688e+00
-4.67906250e-08,7.50000000e-03,-1.41453125e+00
-4.59906250e-08,5.40625000e-03,-1.40984375e+00
-4.51906250e-08,4.31250000e-03,-1.41742188e+00
-4.43906250e-08,8.87500000e-03,-1.42320313e+00
-4.35906250e-08,4.56250000e-03,-1.42398438e+00
-4.27906250e-08,5.31250000e-03,-1.42140625e+00
-4.19906250e-08,1.75000000e-03,-1.42507813e+00
-4.11906250e-08,8.50000000e-03,-1.43835938e+00
-4.03906250e-08,9.56250000e-03,-1.42367188e+00
-3.95906250e-08,9.15625000e-03,-1.41585938e+00
-3.87906250e-08,-1.37500000e-03,-1.42687500e+00
-3.79906250e-08,4.25000000e-03,-1.42234375e+00
-3.71906250e-08,8.46875000e-03,-1.41703125e+00
-3.63906250e-08,8.68750000e-03,-1.41500000e+00
-3.55906250e-08,3.56250000e-03,-1.42679687e+00
-3.47906250e-08,4.43750000e-03,-1.43093750e+00
-3.39906250e-08,1.90625000e-03,-1.42320313e+00
-3.31906250e-08,-1.41875000e-02,-1.41726563e+00
-3.23906250e-08,-3.87812500e-02,-1.42375000e+00
-3.15906250e-08,-7.89687500e-02,-1.41742188e+00
-3.07906250e-08,-1.48531250e-01,-1.42406250e+00
-2.99906250e-08,-2.34531250e-01,-1.42414063e+00
-2.91906250e-08,-3.40718750e-01,-1.42257813e+00
-2.83906250e-08,-4.41312500e-01,-1.42562500e+00
-2.75906250e-08,-5.39125000e-01,-1.41851563e+00
-2.67906250e-08,-6.25375000e-01,-1.41132813e+00
-2.59906250e-08,-6.90906250e-01,-1.41718750e+00
-2.51906250e-08,-7.38812500e-01,-1.41093750e+00
-2.43906250e-08,-7.71593750e-01,-1.41375000e+00
-2.35906250e-08,-7.98218750e-01,-1.41281250e+00
-2.27906250e-08,-8.04250000e-01,-1.41273438e+00
-2.19906250e-08,-7.98812500e-01,-1.41796875e+00
-2.11906250e-08,-7.97312500e-01,-1.41757813e+00
-2.03906250e-08,-7.84781250e-01,-1.41429688e+00
-1.95906250e-08,-7.73812500e-01,-1.42406250e+00
-1.87906250e-08,-7.42531250e-01,-1.41242188e+00
-1.79906250e-08,-7.17906250e-01,-1.41867188e+00
-1.71906250e-08,-6.92812500e-01,-1.41296875e+00
-1.63906250e-08,-6.64843750e-01,-1.41265625e+00
-1.55906250e-08,-6.31562500e-01,-1.42968750e+00
-1.47906250e-08,-5.93718750e-01,-1.42242188e+00
-1.39906250e-08,-5.61812500e-01,-1.41867188e+00
-1.31906250e-08,-5.38781250e-01,-1.42710938e+00
-1.23906250e-08,-5.04406250e-01,-1.41945312e+00
-1.15906250e-08,-4.74156250e-01,-1.41828125e+00
-1.07906250e-08,-4.55343750e-01,-1.41820313e+00
-9.99062500e-09,-4.22531250e-01,-1.42476563e+00
-9.19062500e-09,-3.98468750e-01,-1.42976563e+00
-8.39062500e-09,-3.67250000e-01,-1.43187500e+00
-7.59062500e-09,-3.46312500e-01,-1.41515625e+00
-6.79062500e-09,-3.25718750e-01,-1.41804688e+00
-5.99062500e-09,-3.07781250e-01,-1.41171875e+00
-5.19062500e-09,-2.87218750e-01,-1.42617188e+00
-4.39062500e-09,-2.69968750e-01,-1.41578125e+00
-3.59062500e-09,-2.59375000e-01,-1.39906250e+00
-2.79062500e-09,-2.38937500e-01,-1.35046875e+00
-1.99062500e-09,-2.23250000e-01,-1.20625000e+00
-1.19062500e-09,-2.09906250e-01,-8.25546875e-01
-3.90625000e-10,-1.97125000e-01,-4.07031250e-01
4.09375000e-10,-1.78750000e-01,-2.17734375e-01
1.20937500e-09,-1.73343750e-01,-1.22187500e-01
2.00937500e-09,-1.67093750e-01,-8.08593750e-02
2.80937500e-09,-1.64156250e-01,-5.89062500e-02
3.60937500e-09,-1.50312500e-01,-3.24218750e-02
4.40937500e-09,-1.48312500e-01,-4.26562500e-02
5.20937500e-09,-1.36812500e-01,-2.91406250e-02
6.00937500e-09,-1.40187500e-01,-3.05468750e-02
6.80937500e-09,-1.23562500e-01,-3.30468750e-02
7.60937500e-09,-1.21218750e-01,-3.17968750e-02
8.40937500e-09,-1.11250000e-01,-2.88281250e-02
9.20937500e-09,-1.15031250e-01,-2.13281250e-02
1.00093750e-08,-1.10875000e-01,-2.69531250e-02
1.08093750e-08,-9.99062500e-02,-1.96093750e-02
1.16093750e-08,-9.64375000e-02,-1.46093750e-02
1.24093750e-08,-9.98437500e-02,-1.01562500e-02
1.32093750e-08,-9.12500000e-02,-7.65625000e-03
1.40093750e-08,-8.85937500e-02,-1.18750000e-02
1.48093750e-08,-8.85312500e-02,-1.28906250e-02
1.56093750e-08,-8.00000000e-02,-8.82812500e-03
1.64093750e-08,-7.98125000e-02,-1.00000000e-02
1.72093750e-08,-7.55937500e-02,-5.46875000e-04
1.80093750e-08,-7.40312500e-02,-2.57812500e-03
1.88093750e-08,-6.98125000e-02,4.68750000e-04
1.96093750e-08,-6.55312500e-02,3.90625000e-03
2.04093750e-08,-6.56250000e-02,8.04687500e-03
2.12093750e-08,-5.95312500e-02,-1.71875000e-03
2.20093750e-08,-5.89687500e-02,-3.59375000e-03
2.28093750e-08,-5.05937500e-02,8.12500000e-03
2.36093750e-08,-4.93437500e-02,1.14843750e-02
2.44093750e-08,-5.03750000e-02,1.17187500e-02
2.52093750e-08,-5.18750000e-02,3.98437500e-03
2.60093750e-08,-4.30312500e-02,5.31250000e-03
2.68093750e-08,-3.99062500e-02,8.90625000e-03
2.76093750e-08,-4.02500000e-02,1.12500000e-02
2.84093750e-08,-3.49375000e-02,1.54687500e-02
2.92093750e-08,-3.52500000e-02,1.76562500e-02
3.00093750e-08,-3.51875000e-02,1.86718750e-02
3.08093750e-08,-3.02812500e-02,1.37500000e-02
3.16093750e-08,-3.18437500e-02,1.64062500e-02
3.24093750e-08,-2.65000000e-02,3.72656250e-02
3.32093750e-08,-2.98750000e-02,4.42968750e-02
3.40093750e-08,-1.97500000e-02,3.32812500e-02
3.48093750e-08,-2.72187500e-02,3.79687500e-02
3.56093750e-08,-2.10000000e-02,4.72656250e-02
3.64093750e-08,-1.48750000e-02,3.09375000e-02
3.72093750e-08,-1.80000000e-02,3.44531250e-02
3.80093750e-08,-2.04375000e-02,2.87500000e-02
3.88093750e-08,-1.86562500e-02,2.89843750e-02
3.96093750e-08,-1.49062500e-02,2.93750000e-02
4.04093750e-08,-1.69375000e-02,2.80468750e-02
4.12093750e-08,-1.31562500e-02,2.85937500e-02
4.20093750e-08,-1.40312500e-02,2.19531250e-02
4.28093750e-08,-1.22500000e-02,3.12500000e-02
4.36093750e-08,-1.12812500e-02,2.69531250e-02
4.44093750e-08,-1.12187500e-02,2.57031250e-02
4.52093750e-08,-1.23437500e-02,3.35156250e-02
4.60093750e-08,-1.31875000e-02,2.45312500e-02
4.68093750e-08,-1.40312500e-02,1.95312500e-02
4.76093750e-08,-1.47812500e-02,2.35156250e-02
4.84093750e-08,-1.40625000e-02,2.53906250e-02
4.92093750e-08,-1.39687500e-02,2.58593750e-02
5.00093750e-08,-1.24375000e-02,2.32031250e-02
5.08093750e-08,-2.02812500e-02,2.71093750e-02
5.16093750e-08,-1.24687500e-02,1.70312500e-02
5.24093750e-08,-1.32187500e-02,2.99218750e-02
5.32093750e-08,-1.20937500e-02,2.73437500e-02
5.40093750e-08,-1.61250000e-02,2.29687500e-02
5.48093750e-08,-9.28125000e-03,3.53906250e-02
5.56093750e-08,-1.15000000e-02,2.36718750e-02
5.64093750e-08,-7.37500000e-03,2.46093750e-02
