muon_CSV/TriggerAuto_ALL_20231205193115666.csv

Model,MSO64B
Channel,CH1,,Channel,CH2
Label,,,Label,
Waveform Type,ANALOG,,Waveform Type,ANALOG
Horizontal Units,s,,Horizontal Units,s
Sample Interval,8.00000000e-10,,Sample Interval,8.00000000e-10
Record Length,5000,,Record Length,5000
Zero Index,349.07031250,,Zero Index,349.07031250
Vertical Units,V,,Vertical Units,V
,,,,
ANALOG_Thumbnail,,,ANALOG_Thumbnail,
yOffset,0.000000,,yOffset,0.000000
yPosition,2.160000,,yPosition,2.180000

Labels,,
TIME,CH1,CH2
-2.79256250e-07,7.87500000e-03,1.60937500e-02
-2.78456250e-07,3.59375000e-03,3.20312500e-03
-2.77656250e-07,1.14062500e-02,6.32812500e-03
-2.76856250e-07,6.06250000e-03,7.34375000e-03
-2.76056250e-07,1.10937500e-02,-4.37500000e-03
-2.75256250e-07,4.25000000e-03,8.51562500e-03
-2.74456250e-07,3.78125000e-03,-4.68750000e-04
-2.73656250e-07,8.78125000e-03,1.06250000e-02
-2.72856250e-07,9.06250000e-03,9.45312500e-03
-2.72056250e-07,8.31250000e-03,1.09375000e-02
-2.71256250e-07,5.87500000e-03,8.75000000e-03
-2.70456250e-07,1.26875000e-02,8.28125000e-03
-2.69656250e-07,1.13125000e-02,1.34375000e-02
-2.68856250e-07,7.65625000e-03,1.14062500e-02
-2.68056250e-07,1.12500000e-02,1.20312500e-02
-2.67256250e-07,7.46875000e-03,1.40625000e-02
-2.66456250e-07,7.56250000e-03,1.65625000e-02
-2.65656250e-07,6.65625000e-03,1.11718750e-02
-2.64856250e-07,1.04687500e-02,1.46875000e-02
-2.64056250e-07,3.46875000e-03,1.90625000e-02
-2.63256250e-07,6.00000000e-03,3.82812500e-03
-2.62456250e-07,9.37500000e-03,2.14843750e-02
-2.61656250e-07,9.00000000e-03,1.07031250e-02
-2.60856250e-07,3.68750000e-03,-4.68750000e-04
-2.60056250e-07,7.40625000e-03,1.67968750e-02
-2.59256250e-07,2.37500000e-03,8.35937500e-03
-2.58456250e-07,9.87500000e-03,3.51562500e-03
-2.57656250e-07,9.40625000e-03,6.25000000e-03
-2.56856250e-07,9.78125000e-03,1.21093750e-02
-2.56056250e-07,8.93750000e-03,8.04687500e-03
-2.55256250e-07,9.09375000e-03,1.34375000e-02
-2.54456250e-07,4.59375000e-03,9.21875000e-03
-2.53656250e-07,5.62500000e-03,8.82812500e-03
-2.52856250e-07,8.65625000e-03,9.37500000e-03
-2.52056250e-07,1.11875000e-02,9.45312500e-03
-2.51256250e-07,5.68750000e-03,1.00000000e-02
-2.50456250e-07,8.96875000e-03,6.79687500e-03
-2.49656250e-07,4.12500000e-03,1.21093750e-02
-2.48856250e-07,1.11875000e-02,1.06250000e-02
-2.48056250e-07,1.19375000e-02,4.06250000e-03
-2.47256250e-07,7.96875000e-03,8.28125000e-03
-2.46456250e-07,7.93750000e-03,1.85156250e-02
-2.45656250e-07,8.59375000e-03,4.68750000e-04
-2.44856250e-07,7.87500000e-03,1.71875000e-03
-2.44056250e-07,5.81250000e-03,8.28125000e-03
-2.43256250e-07,3.50000000e-03,1.53906250e-02
-2.42456250e-07,6.40625000e-03,6.01562500e-03
-2.41656250e-07,9.15625000e-03,1.35156250e-02
-2.40856250e-07,8.46875000e-03,1.52343750e-02
-2.40056250e-07,6.71875000e-03,1.64843750e-02
-2.39256250e-07,7.15625000e-03,4.45312500e-03
-2.38456250e-07,5.81250000e-03,1.07812500e-02
-2.37656250e-07,1.03750000e-02,7.81250000e-03
-2.36856250e-07,4.25000000e-03,7.42187500e-03
-2.36056250e-07,9.18750000e-03,5.31250000e-03
-2.35256250e-07,5.62500000e-03,1.64062500e-03
-2.34456250e-07,1.00937500e-02,1.36718750e-02
-2.33656250e-07,-6.56250000e-04,1.71875000e-02
-2.32856250e-07,8.53125000e-03,5.93750000e-03
-2.32056250e-07,7.15625000e-03,1.22656250e-02
-2.31256250e-07,1.00000000e-02,1.52343750e-02
-2.30456250e-07,5.34375000e-03,1.52343750e-02
-2.29656250e-07,1.35312500e-02,1.83593750e-02
-2.28856250e-07,5.25000000e-03,8.98437500e-03
-2.28056250e-07,8.71875000e-03,4.68750000e-03
-2.27256250e-07,8.43750000e-04,8.12500000e-03
-2.26456250e-07,9.65625000e-03,1.07031250e-02
-2.25656250e-07,8.28125000e-03,1.65625000e-02
-2.24856250e-07,9.43750000e-03,5.07812500e-03
-2.24056250e-07,7.50000000e-04,7.50000000e-03
-2.23256250e-07,6.00000000e-03,8.67187500e-03
-2.22456250e-07,1.06250000e-02,4.76562500e-03
-2.21656250e-07,1.01250000e-02,1.08593750e-02
-2.20856250e-07,2.15625000e-03,1.58593750e-02
-2.20056250e-07,9.40625000e-03,1.25000000e-03
-2.19256250e-07,1.16875000e-02,7.03125000e-03
-2.18456250e-07,6.37500000e-03,9.45312500e-03
-2.17656250e-07,4.18750000e-03,1.33593750e-02
-2.16856250e-07,5.59375000e-03,3.98437500e-03
-2.16056250e-07,7.21875000e-03,1.02343750e-02
-2.15256250e-07,6.18750000e-03,4.68750000e-03
-2.14456250e-07,3.46875000e-03,1.03125000e-02
-2.13656250e-07,3.93750000e-03,8.75000000e-03
-2.12856250e-07,3.43750000e-03,1.54687500e-02
-2.12056250e-07,8.62500000e-03,1.04687500e-02
-2.11256250e-07,8.56250000e-03,1.53125000e-02
-2.10456250e-07,8.50000000e-03,3.04687500e-03
-2.09656250e-07,4.06250000e-03,5.00000000e-03
-2.08856250e-07,8.43750000e-03,5.39062500e-03
-2.08056250e-07,3.18750000e-03,1.16406250e-02
-2.07256250e-07,8.34375000e-03,1.05468750e-02
-2.06456250e-07,7.46875000e-03,7.50000000e-03
-2.05656250e-07,7.68750000e-03,1.33593750e-02
-2.04856250e-07,1.71875000e-03,1.20312500e-02
-2.04056250e-07,1.06875000e-02,1.25781250e-02
-2.03256250e-07,2.96875000e-03,1.00000000e-02
-2.02456250e-07,4.31250000e-03,1.65625000e-02
-2.01656250e-07,3.18750000e-03,9.76562500e-03
-2.00856250e-07,1.27812500e-02,6.56250000e-03
-2.00056250e-07,2.43750000e-03,4.76562500e-03
-1.99256250e-07,1.08437500e-02,3.43750000e-03
-1.98456250e-07,2.31250000e-03,7.57812500e-03
-1.97656250e-07,9.18750000e-03,1.20312500e-02
-1.96856250e-07,7.68750000e-03,7.81250000e-05
-1.96056250e-07,8.53125000e-03,9.76562500e-03
-1.95256250e-07,3.71875000e-03,1.45312500e-02
-1.94456250e-07,6.62500000e-03,-5.23437500e-03
-1.93656250e-07,5.31250000e-03,8.59375000e-03
-1.92856250e-07,2.84375000e-03,1.71875000e-02
-1.92056250e-07,9.28125000e-03,4.60937500e-03
-1.91256250e-07,1.00312500e-02,-3.90625000e-04
-1.90456250e-07,1.09062500e-02,8.35937500e-03
-1.89656250e-07,1.03437500e-02,8.75000000e-03
-1.88856250e-07,5.93750000e-03,6.17187500e-03
-1.88056250e-07,6.28125000e-03,4.14062500e-03
-1.87256250e-07,6.96875000e-03,5.54687500e-03
-1.86456250e-07,7.78125000e-03,-3.90625000e-04
-1.85656250e-07,5.65625000e-03,8.43750000e-03
-1.84856250e-07,9.68750000e-03,1.40625000e-03
-1.84056250e-07,3.31250000e-03,3.90625000e-03
-1.83256250e-07,5.34375000e-03,1.02343750e-02
-1.82456250e-07,4.65625000e-03,1.49218750e-02
-1.81656250e-07,9.06250000e-03,9.84375000e-03
-1.80856250e-07,8.50000000e-03,3.59375000e-03
-1.80056250e-07,5.15625000e-03,1.27343750e-02
-1.79256250e-07,6.25000000e-05,7.81250000e-04
-1.78456250e-07,1.10000000e-02,8.98437500e-03
-1.77656250e-07,4.46875000e-03,6.87500000e-03
-1.76856250e-07,9.78125000e-03,1.41406250e-02
-1.76056250e-07,1.84375000e-03,8.67187500e-03
-1.75256250e-07,1.35000000e-02,1.46875000e-02
-1.74456250e-07,3.37500000e-03,1.95312500e-03
-1.73656250e-07,1.17187500e-02,9.60937500e-03
-1.72856250e-07,3.46875000e-03,1.32812500e-03
-1.72056250e-07,6.71875000e-03,8.98437500e-03
-1.71256250e-07,6.15625000e-03,3.98437500e-03
-1.70456250e-07,6.50000000e-03,2.34375000e-03
-1.69656250e-07,5.21875000e-03,6.95312500e-03
-1.68856250e-07,7.65625000e-03,4.21875000e-03
-1.68056250e-07,8.62500000e-03,1.01562500e-03
-1.67256250e-07,6.87500000e-03,6.40625000e-03
-1.66456250e-07,7.34375000e-03,6.79687500e-03
-1.65656250e-07,4.15625000e-03,-5.54687500e-03
-1.64856250e-07,9.62500000e-03,1.13281250e-02
-1.64056250e-07,1.08125000e-02,1.46875000e-02
-1.63256250e-07,6.65625000e-03,9.45312500e-03
-1.62456250e-07,8.25000000e-03,1.00781250e-02
-1.61656250e-07,5.75000000e-03,6.09375000e-03
-1.60856250e-07,1.25312500e-02,9.53125000e-03
-1.60056250e-07,1.03125000e-03,8.75000000e-03
-1.59256250e-07,6.78125000e-03,6.79687500e-03
-1.58456250e-07,4.25000000e-03,8.20312500e-03
-1.57656250e-07,8.18750000e-03,6.79687500e-03
-1.56856250e-07,3.28125000e-03,6.87500000e-03
-1.56056250e-07,1.25000000e-02,8.12500000e-03
-1.55256250e-07,1.56250000e-03,3.51562500e-03
-1.54456250e-07,9.25000000e-03,8.28125000e-03
-1.53656250e-07,-6.56250000e-04,1.28125000e-02
-1.52856250e-07,5.50000000e-03,1.18750000e-02
-1.52056250e-07,3.03125000e-03,-3.90625000e-03
-1.51256250e-07,6.46875000e-03,5.85937500e-03
-1.50456250e-07,7.75000000e-03,1.01562500e-02
-1.49656250e-07,1.06250000e-02,1.21093750e-02
-1.48856250e-07,4.84375000e-03,-2.03125000e-03
-1.48056250e-07,1.05000000e-02,-7.81250000e-05
-1.47256250e-07,1.09375000e-03,1.42968750e-02
-1.46456250e-07,3.68750000e-03,2.03125000e-03
-1.45656250e-07,8.75000000e-03,-2.18750000e-03
-1.44856250e-07,6.78125000e-03,1.17187500e-02
-1.44056250e-07,1.87500000e-04,5.39062500e-03
-1.43256250e-07,8.84375000e-03,4.45312500e-03
-1.42456250e-07,1.30937500e-02,7.50000000e-03
-1.41656250e-07,8.59375000e-03,4.21875000e-03
-1.40856250e-07,4.84375000e-03,8.12500000e-03
-1.40056250e-07,6.84375000e-03,8.59375000e-04
-1.39256250e-07,1.02187500e-02,9.68750000e-03
-1.38456250e-07,4.34375000e-03,1.00781250e-02
-1.37656250e-07,7.53125000e-03,8.04687500e-03
-1.36856250e-07,4.25000000e-03,2.89062500e-03
-1.36056250e-07,6.18750000e-03,1.28906250e-02
-1.35256250e-07,1.10000000e-02,1.32812500e-03
-1.34456250e-07,5.43750000e-03,3.82812500e-03
-1.33656250e-07,6.06250000e-03,2.96875000e-03
-1.32856250e-07,5.93750000e-03,5.31250000e-03
-1.32056250e-07,7.21875000e-03,9.14062500e-03
-1.31256250e-07,1.68750000e-03,1.38281250e-02
-1.30456250e-07,9.15625000e-03,1.35156250e-02
-1.29656250e-07,5.78125000e-03,5.15625000e-03
-1.28856250e-07,7.06250000e-03,2.04687500e-02
-1.28056250e-07,1.37500000e-03,7.50000000e-03
-1.27256250e-07,8.62500000e-03,1.39843750e-02
-1.26456250e-07,1.75000000e-03,1.89062500e-02
-1.25656250e-07,8.03125000e-03,5.62500000e-03
-1.24856250e-07,6.03125000e-03,1.59375000e-02
-1.24056250e-07,9.65625000e-03,3.12500000e-04
-1.23256250e-07,5.75000000e-03,-3.43750000e-03
-1.22456250e-07,1.15312500e-02,1.24218750e-02
-1.21656250e-07,4.15625000e-03,1.28125000e-02
-1.20856250e-07,7.71875000e-03,1.48437500e-02
-1.20056250e-07,6.93750000e-03,8.82812500e-03
-1.19256250e-07,6.15625000e-03,1.68750000e-02
-1.18456250e-07,5.25000000e-03,1.56250000e-04
-1.17656250e-07,7.62500000e-03,5.46875000e-03
-1.16856250e-07,9.18750000e-03,2.57812500e-03
-1.16056250e-07,6.81250000e-03,1.22656250e-02
-1.15256250e-07,7.15625000e-03,1.71093750e-02
-1.14456250e-07,6.84375000e-03,6.64062500e-03
-1.13656250e-07,8.28125000e-03,1.54687500e-02
-1.12856250e-07,7.25000000e-03,1.32812500e-02
-1.12056250e-07,6.96875000e-03,1.00781250e-02
-1.11256250e-07,5.84375000e-03,1.48437500e-02
-1.10456250e-07,6.43750000e-03,1.25781250e-02
-1.09656250e-07,1.25312500e-02,-7.65625000e-03
-1.08856250e-07,4.65625000e-03,6.95312500e-03
-1.08056250e-07,8.96875000e-03,9.84375000e-03
-1.07256250e-07,5.03125000e-03,2.10937500e-03
-1.06456250e-07,1.00312500e-02,5.00000000e-03
-1.05656250e-07,3.68750000e-03,5.70312500e-03
-1.04856250e-07,1.09687500e-02,1.18750000e-02
-1.04056250e-07,5.18750000e-03,1.50000000e-02
-1.03256250e-07,9.34375000e-03,1.42968750e-02
-1.02456250e-07,2.93750000e-03,1.10156250e-02
-1.01656250e-07,1.22812500e-02,1.25000000e-02
-1.00856250e-07,5.43750000e-03,9.21875000e-03
-1.00056250e-07,1.06875000e-02,1.80468750e-02
-9.92562500e-08,5.03125000e-03,8.35937500e-03
-9.84562500e-08,1.19062500e-02,6.32812500e-03
-9.76562500e-08,6.00000000e-03,1.48437500e-02
-9.68562500e-08,9.00000000e-03,6.32812500e-03
-9.60562500e-08,4.31250000e-03,1.44531250e-02
-9.52562500e-08,7.65625000e-03,3.75000000e-03
-9.44562500e-08,9.87500000e-03,1.81250000e-02
-9.36562500e-08,9.34375000e-03,1.03906250e-02
-9.28562500e-08,2.68750000e-03,1.80468750e-02
-9.20562500e-08,1.12187500e-02,9.76562500e-03
-9.12562500e-08,6.62500000e-03,6.25000000e-03
-9.04562500e-08,6.65625000e-03,1.71875000e-03
-8.96562500e-08,9.53125000e-03,8.59375000e-03
-8.88562500e-08,6.37500000e-03,1.03125000e-02
-8.80562500e-08,1.07187500e-02,1.04687500e-02
-8.72562500e-08,4.12500000e-03,2.09375000e-02
-8.64562500e-08,5.37500000e-03,1.73437500e-02
-8.56562500e-08,8.06250000e-03,1.00781250e-02
-8.48562500e-08,6.18750000e-03,1.03125000e-02
-8.40562500e-08,9.21875000e-03,9.60937500e-03
-8.32562500e-08,1.05625000e-02,1.17187500e-02
-8.24562500e-08,7.78125000e-03,7.65625000e-03
-8.16562500e-08,7.75000000e-03,7.18750000e-03
-8.08562500e-08,6.56250000e-03,4.53125000e-03
-8.00562500e-08,6.25000000e-05,1.46875000e-02
-7.92562500e-08,9.09375000e-03,1.09375000e-02
-7.84562500e-08,6.18750000e-03,1.11718750e-02
-7.76562500e-08,4.90625000e-03,1.75781250e-02
-7.68562500e-08,5.78125000e-03,1.35156250e-02
-7.60562500e-08,7.87500000e-03,1.42187500e-02
-7.52562500e-08,7.65625000e-03,1.34375000e-02
-7.44562500e-08,6.18750000e-03,1.66406250e-02
-7.36562500e-08,5.53125000e-03,1.18750000e-02
-7.28562500e-08,1.06250000e-02,1.40625000e-03
-7.20562500e-08,2.90625000e-03,1.10156250e-02
-7.12562500e-08,7.84375000e-03,2.03906250e-02
-7.04562500e-08,4.90625000e-03,4.37500000e-03
-6.96562500e-08,6.87500000e-03,1.60156250e-02
-6.88562500e-08,9.00000000e-03,1.07812500e-02
-6.80562500e-08,1.25312500e-02,1.16406250e-02
-6.72562500e-08,4.93750000e-03,1.32812500e-02
-6.64562500e-08,6.78125000e-03,5.23437500e-03
-6.56562500e-08,9.00000000e-03,7.96875000e-03
-6.48562500e-08,8.12500000e-03,7.57812500e-03
-6.40562500e-08,4.75000000e-03,5.93750000e-03
-6.32562500e-08,8.18750000e-03,-1.32812500e-03
-6.24562500e-08,9.81250000e-03,1.00781250e-02
-6.16562500e-08,4.34375000e-03,2.66406250e-02
-6.08562500e-08,5.06250000e-03,-3.73437500e-02
-6.00562500e-08,4.93750000e-03,-4.91562500e-01
-5.92562500e-08,3.06250000e-03,-1.05101563e+00
-5.84562500e-08,9.37500000e-03,-1.28875000e+00
-5.76562500e-08,4.87500000e-03,-1.36078125e+00
-5.68562500e-08,9.93750000e-03,-1.39640625e+00
-5.60562500e-08,8.00000000e-03,-1.39796875e+00
-5.52562500e-08,1.09375000e-02,-1.39765625e+00
-5.44562500e-08,3.53125000e-03,-1.39367188e+00
-5.36562500e-08,8.18750000e-03,-1.40671875e+00
-5.28562500e-08,6.81250000e-03,-1.40515625e+00
-5.20562500e-08,1.21875000e-02,-1.41125000e+00
-5.12562500e-08,4.93750000e-03,-1.41039063e+00
-5.04562500e-08,1.16562500e-02,-1.41406250e+00
-4.96562500e-08,3.09375000e-03,-1.40304688e+00
-4.88562500e-08,9.09375000e-03,-1.41531250e+00
-4.80562500e-08,4.18750000e-03,-1.42390625e+00
-4.72562500e-08,1.17187500e-02,-1.41453125e+00
-4.64562500e-08,6.31250000e-03,-1.41406250e+00
-4.56562500e-08,9.18750000e-03,-1.41671875e+00
-4.48562500e-08,6.87500000e-03,-1.40960938e+00
-4.40562500e-08,8.21875000e-03,-1.42929688e+00
-4.32562500e-08,7.25000000e-03,-1.42859375e+00
-4.24562500e-08,1.20312500e-02,-1.42375000e+00
-4.16562500e-08,2.84375000e-03,-1.42257813e+00
-4.08562500e-08,8.96875000e-03,-1.42828125e+00
-4.00562500e-08,8.90625000e-03,-1.41632813e+00
-3.92562500e-08,6.15625000e-03,-1.41265625e+00
-3.84562500e-08,6.12500000e-03,-1.41757813e+00
-3.76562500e-08,3.90625000e-03,-1.42601563e+00
-3.68562500e-08,4.93750000e-03,-1.41945312e+00
-3.60562500e-08,3.81250000e-03,-1.42429688e+00
-3.52562500e-08,2.15625000e-03,-1.42304688e+00
-3.44562500e-08,-6.87500000e-04,-1.43117187e+00
-3.36562500e-08,-9.12500000e-03,-1.43421875e+00
-3.28562500e-08,-2.08750000e-02,-1.41632813e+00
-3.20562500e-08,-5.29062500e-02,-1.43023438e+00
-3.12562500e-08,-9.51250000e-02,-1.42101563e+00
-3.04562500e-08,-1.54500000e-01,-1.42296875e+00
-2.96562500e-08,-2.35562500e-01,-1.42726562e+00
-2.88562500e-08,-3.22125000e-01,-1.41812500e+00
-2.80562500e-08,-3.95281250e-01,-1.41453125e+00
-2.72562500e-08,-4.70437500e-01,-1.42593750e+00
-2.64562500e-08,-5.28562500e-01,-1.41171875e+00
-2.56562500e-08,-5.82281250e-01,-1.42171875e+00
-2.48562500e-08,-6.09500000e-01,-1.40078125e+00
-2.40562500e-08,-6.32812500e-01,-1.41195313e+00
-2.32562500e-08,-6.48156250e-01,-1.41210938e+00
-2.24562500e-08,-6.56468750e-01,-1.41539063e+00
-2.16562500e-08,-6.54500000e-01,-1.41718750e+00
-2.08562500e-08,-6.48656250e-01,-1.42429688e+00
-2.00562500e-08,-6.42718750e-01,-1.42070313e+00
-1.92562500e-08,-6.26718750e-01,-1.42328125e+00
-1.84562500e-08,-6.10281250e-01,-1.43023438e+00
-1.76562500e-08,-5.84406250e-01,-1.42390625e+00
-1.68562500e-08,-5.64406250e-01,-1.40945313e+00
-1.60562500e-08,-5.41187500e-01,-1.42031250e+00
-1.52562500e-08,-5.16031250e-01,-1.41726563e+00
-1.44562500e-08,-4.82906250e-01,-1.42539063e+00
-1.36562500e-08,-4.63281250e-01,-1.41765625e+00
-1.28562500e-08,-4.39875000e-01,-1.42578125e+00
-1.20562500e-08,-4.12218750e-01,-1.42656250e+00
-1.12562500e-08,-3.84593750e-01,-1.41132813e+00
-1.04562500e-08,-3.62250000e-01,-1.41835938e+00
-9.65625000e-09,-3.34437500e-01,-1.42312500e+00
-8.85625000e-09,-3.13687500e-01,-1.42031250e+00
-8.05625000e-09,-2.94437500e-01,-1.42078125e+00
-7.25625000e-09,-2.71156250e-01,-1.40156250e+00
-6.45625000e-09,-2.60750000e-01,-1.42851563e+00
-5.65625000e-09,-2.38093750e-01,-1.42835938e+00
-4.85625000e-09,-2.25843750e-01,-1.41164062e+00
-4.05625000e-09,-2.10343750e-01,-1.40312500e+00
-3.25625000e-09,-2.00500000e-01,-1.37125000e+00
-2.45625000e-09,-1.81406250e-01,-1.31132813e+00
-1.65625000e-09,-1.75625000e-01,-1.06250000e+00
-8.56250000e-10,-1.66625000e-01,-6.20937500e-01
-5.62500000e-11,-1.62125000e-01,-3.03046875e-01
7.43750000e-10,-1.50062500e-01,-1.65781250e-01
1.54375000e-09,-1.44843750e-01,-9.71875000e-02
2.34375000e-09,-1.34812500e-01,-7.52343750e-02
3.14375000e-09,-1.38531250e-01,-5.46093750e-02
3.94375000e-09,-1.23406250e-01,-4.64843750e-02
4.74375000e-09,-1.18437500e-01,-3.89062500e-02
5.54375000e-09,-1.11750000e-01,-4.16406250e-02
6.34375000e-09,-1.12843750e-01,-3.46093750e-02
7.14375000e-09,-1.05156250e-01,-3.23437500e-02
7.94375000e-09,-9.34687500e-02,-4.59375000e-02
8.74375000e-09,-9.01250000e-02,-2.53906250e-02
9.54375000e-09,-9.37500000e-02,-1.77343750e-02
1.03437500e-08,-8.16562500e-02,-2.39843750e-02
1.11437500e-08,-7.38125000e-02,-2.32812500e-02
1.19437500e-08,-7.79062500e-02,-1.28906250e-02
1.27437500e-08,-7.16875000e-02,-1.97656250e-02
1.35437500e-08,-6.71562500e-02,-1.61718750e-02
1.43437500e-08,-6.21250000e-02,-6.48437500e-03
1.51437500e-08,-5.80312500e-02,-1.32031250e-02
1.59437500e-08,-5.85312500e-02,-1.21875000e-02
1.67437500e-08,-5.33750000e-02,-6.87500000e-03
1.75437500e-08,-5.54062500e-02,-1.40625000e-02
1.83437500e-08,-4.25937500e-02,-1.14843750e-02
1.91437500e-08,-5.13750000e-02,-5.46875000e-03
1.99437500e-08,-4.90625000e-02,-6.48437500e-03
2.07437500e-08,-4.12500000e-02,3.67187500e-03
2.15437500e-08,-3.66562500e-02,-9.37500000e-04
2.23437500e-08,-3.95625000e-02,-1.64062500e-03
2.31437500e-08,-3.31562500e-02,-8.51562500e-03
2.39437500e-08,-3.16562500e-02,6.01562500e-03
2.47437500e-08,-2.67812500e-02,8.43750000e-03
2.55437500e-08,-3.07500000e-02,3.59375000e-03
2.63437500e-08,-2.08750000e-02,-1.40625000e-03
2.71437500e-08,-2.38437500e-02,4.53125000e-03
2.79437500e-08,-2.08125000e-02,1.44531250e-02
2.87437500e-08,-2.31250000e-02,-6.56250000e-03
2.95437500e-08,-1.67500000e-02,-2.81250000e-03
3.03437500e-08,-2.13750000e-02,1.07031250e-02
3.11437500e-08,-1.22812500e-02,1.34375000e-02
3.19437500e-08,-2.00937500e-02,1.32812500e-02
3.27437500e-08,-1.76562500e-02,2.67968750e-02
3.35437500e-08,-1.44062500e-02,3.21875000e-02
3.43437500e-08,-1.05000000e-02,3.77343750e-02
3.51437500e-08,-1.90937500e-02,3.05468750e-02
3.59437500e-08,-8.75000000e-03,3.51562500e-02
3.67437500e-08,-1.10312500e-02,3.19531250e-02
3.75437500e-08,-1.29375000e-02,2.85937500e-02
3.83437500e-08,-9.46875000e-03,2.57812500e-02
3.91437500e-08,-1.25625000e-02,2.31250000e-02
3.99437500e-08,-9.56250000e-03,3.03906250e-02
4.07437500e-08,-6.34375000e-03,2.73437500e-02
4.15437500e-08,-1.00312500e-02,2.07812500e-02
4.23437500e-08,-7.75000000e-03,2.35156250e-02
4.31437500e-08,-1.20000000e-02,2.26562500e-02
4.39437500e-08,-7.40625000e-03,2.19531250e-02
4.47437500e-08,-8.90625000e-03,1.92187500e-02
4.55437500e-08,-5.46875000e-03,2.05468750e-02
4.63437500e-08,-6.93750000e-03,1.78906250e-02
4.71437500e-08,-7.93750000e-03,2.25781250e-02
4.79437500e-08,-1.13437500e-02,2.89843750e-02
4.87437500e-08,-5.03125000e-03,2.92968750e-02
4.95437500e-08,-6.12500000e-03,2.19531250e-02
5.03437500e-08,7.81250000e-04,2.46093750e-02
5.11437500e-08,-1.10937500e-02,2.04687500e-02
5.19437500e-08,-1.12500000e-02,2.38281250e-02
5.27437500e-08,-8.56250000e-03,1.24218750e-02
5.35437500e-08,-5.96875000e-03,2.53125000e-02
5.43437500e-08,-1.19375000e-02,1.81250000e-02
5.51437500e-08,-5.75000000e-03,1.39062500e-02
5.59437500e-08,-8.75000000e-03,1.50781250e-02
5.67437500e-08,-7.81250000e-04,9.84375000e-03
