muon_CSV/TriggerAuto_ALL_20231205193519806.csv

Model,MSO64B
Channel,CH1,,Channel,CH2
Label,,,Label,
Waveform Type,ANALOG,,Waveform Type,ANALOG
Horizontal Units,s,,Horizontal Units,s
Sample Interval,8.00000000e-10,,Sample Interval,8.00000000e-10
Record Length,5000,,Record Length,5000
Zero Index,349.90625000,,Zero Index,349.90625000
Vertical Units,V,,Vertical Units,V
,,,,
ANALOG_Thumbnail,,,ANALOG_Thumbnail,
yOffset,0.000000,,yOffset,0.000000
yPosition,2.160000,,yPosition,2.180000

Labels,,
TIME,CH1,CH2
-2.79925000e-07,8.75000000e-04,2.03125000e-03
-2.79125000e-07,4.21875000e-03,1.03125000e-02
-2.78325000e-07,-7.50000000e-04,2.73437500e-03
-2.77525000e-07,8.81250000e-03,2.57812500e-03
-2.76725000e-07,6.96875000e-03,1.69531250e-02
-2.75925000e-07,7.56250000e-03,1.39062500e-02
-2.75125000e-07,2.50000000e-04,1.21093750e-02
-2.74325000e-07,2.37500000e-03,1.27343750e-02
-2.73525000e-07,8.43750000e-03,1.46093750e-02
-2.72725000e-07,8.71875000e-03,1.25000000e-02
-2.71925000e-07,1.75000000e-03,5.85937500e-03
-2.71125000e-07,8.40625000e-03,-1.79687500e-03
-2.70325000e-07,6.34375000e-03,1.03906250e-02
-2.69525000e-07,5.06250000e-03,1.07031250e-02
-2.68725000e-07,8.71875000e-03,1.60937500e-02
-2.67925000e-07,4.15625000e-03,5.23437500e-03
-2.67125000e-07,5.81250000e-03,1.17187500e-02
-2.66325000e-07,9.06250000e-03,2.64062500e-02
-2.65525000e-07,7.62500000e-03,5.46875000e-03
-2.64725000e-07,5.37500000e-03,-4.68750000e-04
-2.63925000e-07,1.43750000e-03,8.20312500e-03
-2.63125000e-07,9.25000000e-03,1.48437500e-03
-2.62325000e-07,2.90625000e-03,1.71093750e-02
-2.61525000e-07,3.68750000e-03,1.09375000e-02
-2.60725000e-07,3.71875000e-03,1.64062500e-03
-2.59925000e-07,3.56250000e-03,1.55468750e-02
-2.59125000e-07,2.84375000e-03,9.29687500e-03
-2.58325000e-07,6.93750000e-03,1.14062500e-02
-2.57525000e-07,9.12500000e-03,6.71875000e-03
-2.56725000e-07,7.03125000e-03,1.21093750e-02
-2.55925000e-07,4.93750000e-03,7.34375000e-03
-2.55125000e-07,9.28125000e-03,6.17187500e-03
-2.54325000e-07,3.93750000e-03,1.42187500e-02
-2.53525000e-07,9.18750000e-03,1.51562500e-02
-2.52725000e-07,4.09375000e-03,1.40625000e-03
-2.51925000e-07,8.71875000e-03,2.02343750e-02
-2.51125000e-07,6.43750000e-03,1.42968750e-02
-2.50325000e-07,6.34375000e-03,9.92187500e-03
-2.49525000e-07,9.37500000e-05,3.35937500e-03
-2.48725000e-07,4.15625000e-03,1.28125000e-02
-2.47925000e-07,7.50000000e-03,6.56250000e-03
-2.47125000e-07,7.75000000e-03,1.54687500e-02
-2.46325000e-07,3.84375000e-03,6.32812500e-03
-2.45525000e-07,5.37500000e-03,2.96875000e-03
-2.44725000e-07,1.00937500e-02,8.82812500e-03
-2.43925000e-07,4.62500000e-03,1.08593750e-02
-2.43125000e-07,6.28125000e-03,1.52343750e-02
-2.42325000e-07,6.56250000e-03,7.26562500e-03
-2.41525000e-07,7.06250000e-03,1.07031250e-02
-2.40725000e-07,8.34375000e-03,9.37500000e-03
-2.39925000e-07,3.06250000e-03,1.13281250e-02
-2.39125000e-07,3.18750000e-03,4.68750000e-03
-2.38325000e-07,2.56250000e-03,1.60937500e-02
-2.37525000e-07,6.25000000e-03,7.81250000e-03
-2.36725000e-07,5.12500000e-03,1.21875000e-02
-2.35925000e-07,5.62500000e-03,1.25000000e-02
-2.35125000e-07,8.06250000e-03,6.71875000e-03
-2.34325000e-07,1.25625000e-02,1.92968750e-02
-2.33525000e-07,3.31250000e-03,7.65625000e-03
-2.32725000e-07,8.93750000e-03,6.09375000e-03
-2.31925000e-07,7.12500000e-03,4.84375000e-03
-2.31125000e-07,1.03125000e-02,2.27343750e-02
-2.30325000e-07,3.81250000e-03,8.20312500e-03
-2.29525000e-07,9.15625000e-03,5.62500000e-03
-2.28725000e-07,3.96875000e-03,1.92968750e-02
-2.27925000e-07,5.81250000e-03,1.37500000e-02
-2.27125000e-07,6.84375000e-03,9.76562500e-03
-2.26325000e-07,6.93750000e-03,2.65625000e-03
-2.25525000e-07,8.31250000e-03,1.53906250e-02
-2.24725000e-07,1.10312500e-02,5.46875000e-04
-2.23925000e-07,3.09375000e-03,1.09375000e-02
-2.23125000e-07,4.00000000e-03,7.18750000e-03
-2.22325000e-07,9.93750000e-03,7.50000000e-03
-2.21525000e-07,9.37500000e-03,9.45312500e-03
-2.20725000e-07,4.37500000e-03,1.27343750e-02
-2.19925000e-07,6.21875000e-03,9.29687500e-03
-2.19125000e-07,7.37500000e-03,1.08593750e-02
-2.18325000e-07,6.40625000e-03,1.66406250e-02
-2.17525000e-07,9.06250000e-03,1.91406250e-02
-2.16725000e-07,5.93750000e-03,8.35937500e-03
-2.15925000e-07,9.18750000e-03,8.75000000e-03
-2.15125000e-07,6.53125000e-03,1.45312500e-02
-2.14325000e-07,6.00000000e-03,1.51562500e-02
-2.13525000e-07,4.68750000e-03,9.76562500e-03
-2.12725000e-07,1.90625000e-03,1.39062500e-02
-2.11925000e-07,7.68750000e-03,8.35937500e-03
-2.11125000e-07,5.50000000e-03,5.46875000e-03
-2.10325000e-07,8.12500000e-03,9.37500000e-03
-2.09525000e-07,7.50000000e-03,1.40625000e-02
-2.08725000e-07,1.31875000e-02,1.96875000e-02
-2.07925000e-07,4.37500000e-04,7.73437500e-03
-2.07125000e-07,1.24687500e-02,9.29687500e-03
-2.06325000e-07,6.62500000e-03,7.34375000e-03
-2.05525000e-07,9.50000000e-03,1.33593750e-02
-2.04725000e-07,2.78125000e-03,1.45312500e-02
-2.03925000e-07,9.96875000e-03,8.51562500e-03
-2.03125000e-07,5.09375000e-03,1.21093750e-02
-2.02325000e-07,6.90625000e-03,1.84375000e-02
-2.01525000e-07,3.53125000e-03,6.40625000e-03
-2.00725000e-07,1.36875000e-02,7.42187500e-03
-1.99925000e-07,3.84375000e-03,1.46875000e-02
-1.99125000e-07,1.14375000e-02,1.11718750e-02
-1.98325000e-07,2.21875000e-03,1.53125000e-02
-1.97525000e-07,-1.25000000e-04,1.56250000e-02
-1.96725000e-07,8.81250000e-03,4.60937500e-03
-1.95925000e-07,1.37500000e-02,1.81250000e-02
-1.95125000e-07,3.40625000e-03,1.55468750e-02
-1.94325000e-07,5.31250000e-04,7.81250000e-03
-1.93525000e-07,6.78125000e-03,8.67187500e-03
-1.92725000e-07,6.15625000e-03,1.26562500e-02
-1.91925000e-07,6.93750000e-03,1.92187500e-02
-1.91125000e-07,4.93750000e-03,8.35937500e-03
-1.90325000e-07,4.37500000e-03,1.67187500e-02
-1.89525000e-07,7.56250000e-03,1.61718750e-02
-1.88725000e-07,9.03125000e-03,2.57812500e-03
-1.87925000e-07,4.75000000e-03,1.41406250e-02
-1.87125000e-07,3.00000000e-03,2.10156250e-02
-1.86325000e-07,1.45312500e-02,1.09375000e-02
-1.85525000e-07,7.46875000e-03,9.29687500e-03
-1.84725000e-07,3.81250000e-03,1.31250000e-02
-1.83925000e-07,1.16250000e-02,1.05468750e-02
-1.83125000e-07,8.21875000e-03,1.32031250e-02
-1.82325000e-07,1.68750000e-03,1.44531250e-02
-1.81525000e-07,7.81250000e-03,6.40625000e-03
-1.80725000e-07,9.09375000e-03,1.61718750e-02
-1.79925000e-07,8.71875000e-03,1.67968750e-02
-1.79125000e-07,3.84375000e-03,3.28125000e-03
-1.78325000e-07,1.25000000e-02,1.72656250e-02
-1.77525000e-07,5.53125000e-03,6.40625000e-03
-1.76725000e-07,6.06250000e-03,1.85937500e-02
-1.75925000e-07,5.71875000e-03,-4.29687500e-03
-1.75125000e-07,1.18437500e-02,1.43750000e-02
-1.74325000e-07,4.59375000e-03,7.10937500e-03
-1.73525000e-07,9.21875000e-03,1.55468750e-02
-1.72725000e-07,-6.25000000e-04,1.49218750e-02
-1.71925000e-07,1.93750000e-03,5.23437500e-03
-1.71125000e-07,6.15625000e-03,3.43750000e-03
-1.70325000e-07,1.27812500e-02,1.22656250e-02
-1.69525000e-07,5.37500000e-03,1.52343750e-02
-1.68725000e-07,1.08125000e-02,1.79687500e-02
-1.67925000e-07,7.15625000e-03,1.68750000e-02
-1.67125000e-07,1.05312500e-02,8.51562500e-03
-1.66325000e-07,8.96875000e-03,1.52343750e-02
-1.65525000e-07,7.68750000e-03,6.48437500e-03
-1.64725000e-07,9.40625000e-03,1.73437500e-02
-1.63925000e-07,5.37500000e-03,1.28906250e-02
-1.63125000e-07,8.09375000e-03,1.11718750e-02
-1.62325000e-07,7.34375000e-03,9.76562500e-03
-1.61525000e-07,1.87500000e-03,7.26562500e-03
-1.60725000e-07,6.75000000e-03,3.35937500e-03
-1.59925000e-07,5.84375000e-03,1.28125000e-02
-1.59125000e-07,7.68750000e-03,8.43750000e-03
-1.58325000e-07,5.56250000e-03,2.89062500e-03
-1.57525000e-07,5.78125000e-03,1.21093750e-02
-1.56725000e-07,6.06250000e-03,8.04687500e-03
-1.55925000e-07,9.40625000e-03,1.21093750e-02
-1.55125000e-07,5.34375000e-03,1.73437500e-02
-1.54325000e-07,9.46875000e-03,2.03125000e-02
-1.53525000e-07,3.96875000e-03,8.43750000e-03
-1.52725000e-07,1.06875000e-02,1.39062500e-02
-1.51925000e-07,6.21875000e-03,9.84375000e-03
-1.51125000e-07,9.50000000e-03,2.04687500e-02
-1.50325000e-07,4.43750000e-03,3.59375000e-03
-1.49525000e-07,1.20937500e-02,1.01562500e-02
-1.48725000e-07,7.34375000e-03,1.17968750e-02
-1.47925000e-07,8.71875000e-03,1.19531250e-02
-1.47125000e-07,2.31250000e-03,1.50781250e-02
-1.46325000e-07,4.03125000e-03,3.04687500e-03
-1.45525000e-07,1.16250000e-02,9.37500000e-04
-1.44725000e-07,1.21250000e-02,1.61718750e-02
-1.43925000e-07,3.09375000e-03,7.81250000e-03
-1.43125000e-07,2.46875000e-03,1.07812500e-02
-1.42325000e-07,8.00000000e-03,3.90625000e-03
-1.41525000e-07,9.53125000e-03,1.68750000e-02
-1.40725000e-07,4.68750000e-04,1.88281250e-02
-1.39925000e-07,9.65625000e-03,1.09375000e-03
-1.39125000e-07,9.93750000e-03,1.54687500e-02
-1.38325000e-07,8.09375000e-03,1.57031250e-02
-1.37525000e-07,7.43750000e-03,1.58593750e-02
-1.36725000e-07,7.15625000e-03,1.44531250e-02
-1.35925000e-07,4.71875000e-03,1.77343750e-02
-1.35125000e-07,1.27500000e-02,1.50000000e-02
-1.34325000e-07,7.75000000e-03,1.37500000e-02
-1.33525000e-07,8.90625000e-03,2.42187500e-03
-1.32725000e-07,7.71875000e-03,-2.34375000e-04
-1.31925000e-07,1.11562500e-02,1.57031250e-02
-1.31125000e-07,3.59375000e-03,1.53125000e-02
-1.30325000e-07,1.04687500e-02,8.12500000e-03
-1.29525000e-07,1.09062500e-02,9.76562500e-03
-1.28725000e-07,1.36250000e-02,1.62500000e-02
-1.27925000e-07,5.31250000e-04,1.48437500e-02
-1.27125000e-07,1.13125000e-02,1.08593750e-02
-1.26325000e-07,2.37500000e-03,9.14062500e-03
-1.25525000e-07,1.44375000e-02,1.57812500e-02
-1.24725000e-07,4.87500000e-03,1.23437500e-02
-1.23925000e-07,7.18750000e-03,1.05468750e-02
-1.23125000e-07,6.09375000e-03,1.52343750e-02
-1.22325000e-07,9.50000000e-03,9.84375000e-03
-1.21525000e-07,6.96875000e-03,1.34375000e-02
-1.20725000e-07,2.43750000e-03,9.21875000e-03
-1.19925000e-07,7.90625000e-03,8.35937500e-03
-1.19125000e-07,1.21562500e-02,1.61718750e-02
-1.18325000e-07,4.87500000e-03,6.25000000e-03
-1.17525000e-07,4.46875000e-03,1.76562500e-02
-1.16725000e-07,1.03437500e-02,4.14062500e-03
-1.15925000e-07,7.75000000e-03,9.37500000e-03
-1.15125000e-07,5.75000000e-03,5.93750000e-03
-1.14325000e-07,5.00000000e-03,1.08593750e-02
-1.13525000e-07,7.90625000e-03,2.00000000e-02
-1.12725000e-07,1.10625000e-02,2.17187500e-02
-1.11925000e-07,1.05625000e-02,1.70312500e-02
-1.11125000e-07,9.68750000e-03,9.92187500e-03
-1.10325000e-07,3.90625000e-03,1.02343750e-02
-1.09525000e-07,1.03750000e-02,1.41406250e-02
-1.08725000e-07,6.90625000e-03,1.09375000e-02
-1.07925000e-07,5.65625000e-03,1.03906250e-02
-1.07125000e-07,3.81250000e-03,1.32031250e-02
-1.06325000e-07,9.28125000e-03,1.90625000e-02
-1.05525000e-07,4.78125000e-03,3.20312500e-03
-1.04725000e-07,1.07187500e-02,1.50781250e-02
-1.03925000e-07,6.78125000e-03,2.06250000e-02
-1.03125000e-07,1.01250000e-02,1.72656250e-02
-1.02325000e-07,4.18750000e-03,1.21875000e-02
-1.01525000e-07,1.14687500e-02,1.69531250e-02
-1.00725000e-07,7.78125000e-03,1.36718750e-02
-9.99250000e-08,6.78125000e-03,2.10156250e-02
-9.91250000e-08,2.84375000e-03,5.07812500e-03
-9.83250000e-08,9.90625000e-03,2.02343750e-02
-9.75250000e-08,1.02812500e-02,1.90625000e-02
-9.67250000e-08,8.43750000e-03,1.46875000e-02
-9.59250000e-08,2.68750000e-03,1.60937500e-02
-9.51250000e-08,6.78125000e-03,1.81250000e-02
-9.43250000e-08,5.34375000e-03,8.98437500e-03
-9.35250000e-08,1.35000000e-02,2.32812500e-02
-9.27250000e-08,3.37500000e-03,1.60937500e-02
-9.19250000e-08,3.50000000e-03,2.00781250e-02
-9.11250000e-08,1.33125000e-02,2.50000000e-02
-9.03250000e-08,5.31250000e-03,1.97656250e-02
-8.95250000e-08,5.43750000e-03,2.03906250e-02
-8.87250000e-08,5.59375000e-03,1.25000000e-02
-8.79250000e-08,8.87500000e-03,2.13281250e-02
-8.71250000e-08,5.87500000e-03,2.10156250e-02
-8.63250000e-08,7.25000000e-03,1.96875000e-02
-8.55250000e-08,3.81250000e-03,1.10937500e-02
-8.47250000e-08,3.81250000e-03,1.41406250e-02
-8.39250000e-08,1.28125000e-02,1.79687500e-02
-8.31250000e-08,5.21875000e-03,2.19531250e-02
-8.23250000e-08,6.68750000e-03,1.96875000e-02
-8.15250000e-08,5.78125000e-03,4.68750000e-03
-8.07250000e-08,1.00312500e-02,1.63281250e-02
-7.99250000e-08,4.25000000e-03,9.37500000e-03
-7.91250000e-08,8.56250000e-03,1.50000000e-02
-7.83250000e-08,5.71875000e-03,8.12500000e-03
-7.75250000e-08,1.09687500e-02,2.96093750e-02
-7.67250000e-08,5.37500000e-03,1.95312500e-02
-7.59250000e-08,1.07500000e-02,1.93750000e-02
-7.51250000e-08,1.90625000e-03,2.61718750e-02
-7.43250000e-08,1.01562500e-02,9.45312500e-03
-7.35250000e-08,5.21875000e-03,3.90625000e-03
-7.27250000e-08,1.07500000e-02,7.42187500e-03
-7.19250000e-08,5.84375000e-03,1.71093750e-02
-7.11250000e-08,1.19687500e-02,7.03125000e-03
-7.03250000e-08,4.56250000e-03,1.18750000e-02
-6.95250000e-08,2.96875000e-03,1.35937500e-02
-6.87250000e-08,1.17812500e-02,8.90625000e-03
-6.79250000e-08,1.01875000e-02,1.29687500e-02
-6.71250000e-08,4.65625000e-03,1.32812500e-02
-6.63250000e-08,6.21875000e-03,1.46093750e-02
-6.55250000e-08,1.21562500e-02,1.89062500e-02
-6.47250000e-08,8.75000000e-03,1.50781250e-02
-6.39250000e-08,7.37500000e-03,1.14843750e-02
-6.31250000e-08,8.50000000e-03,2.34375000e-04
-6.23250000e-08,1.22812500e-02,1.55468750e-02
-6.15250000e-08,9.18750000e-03,2.59375000e-02
-6.07250000e-08,7.46875000e-03,-1.06171875e-01
-5.99250000e-08,7.46875000e-03,-6.06718750e-01
-5.91250000e-08,7.09375000e-03,-1.12906250e+00
-5.83250000e-08,1.06562500e-02,-1.30835937e+00
-5.75250000e-08,6.53125000e-03,-1.36632813e+00
-5.67250000e-08,8.00000000e-03,-1.40226563e+00
-5.59250000e-08,7.78125000e-03,-1.39273438e+00
-5.51250000e-08,1.11562500e-02,-1.39093750e+00
-5.43250000e-08,1.37500000e-03,-1.38710938e+00
-5.35250000e-08,1.16250000e-02,-1.39546875e+00
-5.27250000e-08,7.78125000e-03,-1.42046875e+00
-5.19250000e-08,1.03750000e-02,-1.40265625e+00
-5.11250000e-08,4.84375000e-03,-1.40875000e+00
-5.03250000e-08,1.27500000e-02,-1.41390625e+00
-4.95250000e-08,4.00000000e-03,-1.41429688e+00
-4.87250000e-08,1.17812500e-02,-1.40554688e+00
-4.79250000e-08,4.90625000e-03,-1.42031250e+00
-4.71250000e-08,1.14375000e-02,-1.42695313e+00
-4.63250000e-08,6.37500000e-03,-1.41507812e+00
-4.55250000e-08,1.15000000e-02,-1.41734375e+00
-4.47250000e-08,1.84375000e-03,-1.42539063e+00
-4.39250000e-08,6.25000000e-03,-1.43187500e+00
-4.31250000e-08,1.10000000e-02,-1.42789063e+00
-4.23250000e-08,1.21875000e-02,-1.42617188e+00
-4.15250000e-08,3.34375000e-03,-1.42445313e+00
-4.07250000e-08,6.75000000e-03,-1.42875000e+00
-3.99250000e-08,8.06250000e-03,-1.41695313e+00
-3.91250000e-08,9.68750000e-03,-1.41445313e+00
-3.83250000e-08,9.18750000e-03,-1.41953125e+00
-3.75250000e-08,6.25000000e-03,-1.43312500e+00
-3.67250000e-08,7.96875000e-03,-1.42648438e+00
-3.59250000e-08,6.12500000e-03,-1.41664063e+00
-3.51250000e-08,7.84375000e-03,-1.42523438e+00
-3.43250000e-08,-1.25000000e-04,-1.42750000e+00
-3.35250000e-08,-1.08437500e-02,-1.42976563e+00
-3.27250000e-08,-2.27500000e-02,-1.41757813e+00
-3.19250000e-08,-6.00312500e-02,-1.43031250e+00
-3.11250000e-08,-1.15250000e-01,-1.43015625e+00
-3.03250000e-08,-1.92812500e-01,-1.42140625e+00
-2.95250000e-08,-2.84500000e-01,-1.41726563e+00
-2.87250000e-08,-3.90906250e-01,-1.41914063e+00
-2.79250000e-08,-4.80687500e-01,-1.42679687e+00
-2.71250000e-08,-5.61343750e-01,-1.41445313e+00
-2.63250000e-08,-6.32843750e-01,-1.41265625e+00
-2.55250000e-08,-6.92437500e-01,-1.41515625e+00
-2.47250000e-08,-7.31937500e-01,-1.42359375e+00
-2.39250000e-08,-7.62250000e-01,-1.41914063e+00
-2.31250000e-08,-7.83687500e-01,-1.41125000e+00
-2.23250000e-08,-7.93750000e-01,-1.41921875e+00
-2.15250000e-08,-7.89562500e-01,-1.42351563e+00
-2.07250000e-08,-7.84031250e-01,-1.41734375e+00
-1.99250000e-08,-7.70468750e-01,-1.41546875e+00
-1.91250000e-08,-7.50906250e-01,-1.42187500e+00
-1.83250000e-08,-7.23718750e-01,-1.42304688e+00
-1.75250000e-08,-6.89000000e-01,-1.42617188e+00
-1.67250000e-08,-6.57437500e-01,-1.41476563e+00
-1.59250000e-08,-6.23562500e-01,-1.42820313e+00
-1.51250000e-08,-5.85406250e-01,-1.42093750e+00
-1.43250000e-08,-5.51656250e-01,-1.41726563e+00
-1.35250000e-08,-5.25781250e-01,-1.41648438e+00
-1.27250000e-08,-4.94656250e-01,-1.41984375e+00
-1.19250000e-08,-4.64906250e-01,-1.43007813e+00
-1.11250000e-08,-4.33406250e-01,-1.41578125e+00
-1.03250000e-08,-4.04437500e-01,-1.41218750e+00
-9.52500000e-09,-3.77312500e-01,-1.41671875e+00
-8.72500000e-09,-3.50093750e-01,-1.42382812e+00
-7.92500000e-09,-3.21406250e-01,-1.41421875e+00
-7.12500000e-09,-2.99218750e-01,-1.41906250e+00
-6.32500000e-09,-2.82500000e-01,-1.42976563e+00
-5.52500000e-09,-2.58343750e-01,-1.42781250e+00
-4.72500000e-09,-2.41343750e-01,-1.41929688e+00
-3.92500000e-09,-2.24593750e-01,-1.40078125e+00
-3.12500000e-09,-2.11656250e-01,-1.37140625e+00
-2.32500000e-09,-1.93531250e-01,-1.28343750e+00
-1.52500000e-09,-1.78500000e-01,-9.97109375e-01
-7.25000000e-10,-1.68687500e-01,-5.53359375e-01
7.50000000e-11,-1.61812500e-01,-2.75390625e-01
8.75000000e-10,-1.39093750e-01,-1.44453125e-01
1.67500000e-09,-1.36625000e-01,-9.33593750e-02
2.47500000e-09,-1.22437500e-01,-6.35156250e-02
3.27500000e-09,-1.23718750e-01,-5.91406250e-02
4.07500000e-09,-1.15625000e-01,-4.75781250e-02
4.87500000e-09,-1.15468750e-01,-3.74218750e-02
5.67500000e-09,-1.04218750e-01,-3.59375000e-02
6.47500000e-09,-1.05718750e-01,-3.10156250e-02
7.27500000e-09,-9.89375000e-02,-3.32031250e-02
8.07500000e-09,-8.98437500e-02,-3.55468750e-02
8.87500000e-09,-8.43437500e-02,-2.65625000e-02
9.67500000e-09,-9.07812500e-02,-2.11718750e-02
1.04750000e-08,-7.83750000e-02,-2.00781250e-02
1.12750000e-08,-7.45312500e-02,-2.22656250e-02
1.20750000e-08,-7.12187500e-02,-1.42968750e-02
1.28750000e-08,-6.64687500e-02,-1.26562500e-02
1.36750000e-08,-6.72187500e-02,-2.44531250e-02
1.44750000e-08,-6.25312500e-02,-6.79687500e-03
1.52750000e-08,-5.89687500e-02,3.82812500e-03
1.60750000e-08,-5.60312500e-02,-8.82812500e-03
1.68750000e-08,-5.69062500e-02,-1.56250000e-02
1.76750000e-08,-4.94062500e-02,-2.65625000e-03
1.84750000e-08,-4.53437500e-02,-8.12500000e-03
1.92750000e-08,-5.04062500e-02,-6.17187500e-03
2.00750000e-08,-4.37500000e-02,-2.89062500e-03
2.08750000e-08,-4.38125000e-02,-5.78125000e-03
2.16750000e-08,-3.29062500e-02,-2.73437500e-03
2.24750000e-08,-4.56250000e-02,-8.28125000e-03
2.32750000e-08,-3.35937500e-02,-4.68750000e-04
2.40750000e-08,-3.71562500e-02,-1.56250000e-03
2.48750000e-08,-3.12500000e-02,8.59375000e-04
2.56750000e-08,-3.98750000e-02,1.03906250e-02
2.64750000e-08,-3.05312500e-02,7.73437500e-03
2.72750000e-08,-2.93125000e-02,8.90625000e-03
2.80750000e-08,-2.43750000e-02,1.03125000e-02
2.88750000e-08,-2.57500000e-02,-2.42187500e-03
2.96750000e-08,-2.60312500e-02,1.22656250e-02
3.04750000e-08,-2.05937500e-02,1.15625000e-02
3.12750000e-08,-1.95937500e-02,2.80468750e-02
3.20750000e-08,-2.72812500e-02,2.71875000e-02
3.28750000e-08,-1.88125000e-02,3.03125000e-02
3.36750000e-08,-1.44375000e-02,2.85937500e-02
3.44750000e-08,-1.08125000e-02,4.42187500e-02
3.52750000e-08,-2.20937500e-02,3.00781250e-02
3.60750000e-08,-1.83437500e-02,3.04687500e-02
3.68750000e-08,-1.25625000e-02,3.18750000e-02
3.76750000e-08,-1.94062500e-02,2.73437500e-02
3.84750000e-08,-1.62500000e-02,3.42968750e-02
3.92750000e-08,-1.36250000e-02,1.88281250e-02
4.00750000e-08,-1.58125000e-02,2.50781250e-02
4.08750000e-08,-1.33750000e-02,1.95312500e-02
4.16750000e-08,-1.47500000e-02,2.23437500e-02
4.24750000e-08,-1.68437500e-02,1.95312500e-02
4.32750000e-08,-1.77187500e-02,3.07812500e-02
4.40750000e-08,-1.33437500e-02,2.36718750e-02
4.48750000e-08,-1.66250000e-02,2.39062500e-02
4.56750000e-08,-1.23125000e-02,2.29687500e-02
4.64750000e-08,-1.30000000e-02,1.58593750e-02
4.72750000e-08,-1.22500000e-02,2.96875000e-02
4.80750000e-08,-2.07500000e-02,2.06250000e-02
4.88750000e-08,-8.56250000e-03,2.14843750e-02
4.96750000e-08,-1.55625000e-02,7.42187500e-03
5.04750000e-08,-9.81250000e-03,2.18750000e-02
5.12750000e-08,-1.64375000e-02,2.84375000e-02
5.20750000e-08,-1.03750000e-02,9.84375000e-03
5.28750000e-08,-1.59062500e-02,1.89062500e-02
5.36750000e-08,-8.46875000e-03,2.04687500e-02
5.44750000e-08,-1.28125000e-02,2.17968750e-02
5.52750000e-08,-5.87500000e-03,1.50781250e-02
5.60750000e-08,-8.68750000e-03,1.71093750e-02
