muon_CSV/TriggerAuto_ALL_20231205194648792.csv

Model,MSO64B
Channel,CH1,,Channel,CH2
Label,,,Label,
Waveform Type,ANALOG,,Waveform Type,ANALOG
Horizontal Units,s,,Horizontal Units,s
Sample Interval,8.00000000e-10,,Sample Interval,8.00000000e-10
Record Length,5000,,Record Length,5000
Zero Index,349.60546875,,Zero Index,349.60546875
Vertical Units,V,,Vertical Units,V
,,,,
ANALOG_Thumbnail,,,ANALOG_Thumbnail,
yOffset,0.000000,,yOffset,0.000000
yPosition,2.160000,,yPosition,2.180000

Labels,,
TIME,CH1,CH2
-2.79684375e-07,1.56875000e-02,3.10937500e-02
-2.78884375e-07,4.65625000e-03,1.18750000e-02
-2.78084375e-07,1.28750000e-02,2.18750000e-02
-2.77284375e-07,1.05937500e-02,1.74218750e-02
-2.76484375e-07,1.46875000e-02,2.50000000e-02
-2.75684375e-07,8.84375000e-03,2.18750000e-02
-2.74884375e-07,9.81250000e-03,2.14062500e-02
-2.74084375e-07,5.96875000e-03,1.32812500e-02
-2.73284375e-07,1.59375000e-02,1.30468750e-02
-2.72484375e-07,6.21875000e-03,1.68750000e-02
-2.71684375e-07,7.84375000e-03,1.82812500e-02
-2.70884375e-07,1.12812500e-02,1.61718750e-02
-2.70084375e-07,1.40625000e-02,1.89843750e-02
-2.69284375e-07,3.12500000e-03,1.67968750e-02
-2.68484375e-07,8.37500000e-03,1.77343750e-02
-2.67684375e-07,1.45625000e-02,2.34375000e-02
-2.66884375e-07,9.62500000e-03,1.54687500e-02
-2.66084375e-07,1.35625000e-02,2.35156250e-02
-2.65284375e-07,4.78125000e-03,1.59375000e-02
-2.64484375e-07,1.09375000e-02,1.36718750e-02
-2.63684375e-07,1.25000000e-02,1.95312500e-02
-2.62884375e-07,1.00312500e-02,1.67968750e-02
-2.62084375e-07,1.03125000e-02,1.68750000e-02
-2.61284375e-07,3.96875000e-03,1.22656250e-02
-2.60484375e-07,1.40625000e-02,2.10156250e-02
-2.59684375e-07,8.87500000e-03,1.75000000e-02
-2.58884375e-07,6.56250000e-03,2.22656250e-02
-2.58084375e-07,7.12500000e-03,2.60156250e-02
-2.57284375e-07,1.39375000e-02,1.98437500e-02
-2.56484375e-07,1.34375000e-03,1.41406250e-02
-2.55684375e-07,1.26250000e-02,1.67968750e-02
-2.54884375e-07,5.71875000e-03,1.21875000e-02
-2.54084375e-07,1.23437500e-02,1.89843750e-02
-2.53284375e-07,7.25000000e-03,1.21093750e-02
-2.52484375e-07,9.00000000e-03,1.96875000e-02
-2.51684375e-07,8.06250000e-03,1.21093750e-02
-2.50884375e-07,1.04687500e-02,1.91406250e-02
-2.50084375e-07,6.46875000e-03,1.21093750e-02
-2.49284375e-07,1.35312500e-02,1.58593750e-02
-2.48484375e-07,6.75000000e-03,2.46875000e-02
-2.47684375e-07,1.39687500e-02,1.00000000e-02
-2.46884375e-07,7.46875000e-03,1.24218750e-02
-2.46084375e-07,4.71875000e-03,8.35937500e-03
-2.45284375e-07,1.60937500e-02,1.52343750e-02
-2.44484375e-07,1.61562500e-02,2.22656250e-02
-2.43684375e-07,5.31250000e-03,1.60937500e-02
-2.42884375e-07,9.96875000e-03,1.82812500e-02
-2.42084375e-07,1.15000000e-02,1.80468750e-02
-2.41284375e-07,6.37500000e-03,1.28125000e-02
-2.40484375e-07,7.00000000e-03,5.70312500e-03
-2.39684375e-07,5.81250000e-03,1.53125000e-02
-2.38884375e-07,1.50937500e-02,2.15625000e-02
-2.38084375e-07,1.38125000e-02,1.22656250e-02
-2.37284375e-07,1.15312500e-02,2.17968750e-02
-2.36484375e-07,1.14687500e-02,1.87500000e-02
-2.35684375e-07,8.03125000e-03,2.62500000e-02
-2.34884375e-07,1.00625000e-02,1.71875000e-02
-2.34084375e-07,7.46875000e-03,2.22656250e-02
-2.33284375e-07,6.37500000e-03,1.78125000e-02
-2.32484375e-07,1.11562500e-02,1.42968750e-02
-2.31684375e-07,1.31875000e-02,2.39843750e-02
-2.30884375e-07,5.03125000e-03,9.45312500e-03
-2.30084375e-07,1.44062500e-02,2.42968750e-02
-2.29284375e-07,7.75000000e-03,1.26562500e-02
-2.28484375e-07,1.57187500e-02,1.82812500e-02
-2.27684375e-07,4.87500000e-03,1.67968750e-02
-2.26884375e-07,1.52187500e-02,2.27343750e-02
-2.26084375e-07,8.12500000e-03,-5.46875000e-04
-2.25284375e-07,8.37500000e-03,1.95312500e-02
-2.24484375e-07,4.56250000e-03,2.14062500e-02
-2.23684375e-07,1.26562500e-02,2.35937500e-02
-2.22884375e-07,1.13125000e-02,2.65625000e-02
-2.22084375e-07,1.31562500e-02,1.32812500e-02
-2.21284375e-07,7.84375000e-03,1.70312500e-02
-2.20484375e-07,4.00000000e-03,2.67187500e-02
-2.19684375e-07,1.40000000e-02,1.12500000e-02
-2.18884375e-07,1.37187500e-02,2.30468750e-02
-2.18084375e-07,2.50000000e-03,1.38281250e-02
-2.17284375e-07,8.43750000e-03,2.23437500e-02
-2.16484375e-07,1.06250000e-02,1.77343750e-02
-2.15684375e-07,9.18750000e-03,5.62500000e-03
-2.14884375e-07,1.15625000e-02,1.90625000e-02
-2.14084375e-07,9.81250000e-03,1.08593750e-02
-2.13284375e-07,1.51875000e-02,2.44531250e-02
-2.12484375e-07,1.17812500e-02,2.11718750e-02
-2.11684375e-07,1.00625000e-02,7.57812500e-03
-2.10884375e-07,1.05312500e-02,2.24218750e-02
-2.10084375e-07,5.06250000e-03,1.79687500e-02
-2.09284375e-07,1.38750000e-02,1.75781250e-02
-2.08484375e-07,6.28125000e-03,1.14843750e-02
-2.07684375e-07,1.05000000e-02,1.30468750e-02
-2.06884375e-07,9.18750000e-03,1.70312500e-02
-2.06084375e-07,1.23750000e-02,1.89062500e-02
-2.05284375e-07,4.34375000e-03,1.68750000e-02
-2.04484375e-07,1.40937500e-02,2.42187500e-02
-2.03684375e-07,8.62500000e-03,1.99218750e-02
-2.02884375e-07,1.35000000e-02,1.75000000e-02
-2.02084375e-07,9.12500000e-03,1.35937500e-02
-2.01284375e-07,1.21250000e-02,3.08593750e-02
-2.00484375e-07,1.18125000e-02,1.82812500e-02
-1.99684375e-07,7.81250000e-03,1.61718750e-02
-1.98884375e-07,8.25000000e-03,4.76562500e-03
-1.98084375e-07,1.12812500e-02,1.93750000e-02
-1.97284375e-07,5.18750000e-03,2.39843750e-02
-1.96484375e-07,1.40000000e-02,1.94531250e-02
-1.95684375e-07,4.43750000e-03,2.39843750e-02
-1.94884375e-07,4.34375000e-03,1.92968750e-02
-1.94084375e-07,1.05625000e-02,1.86718750e-02
-1.93284375e-07,1.58437500e-02,1.47656250e-02
-1.92484375e-07,3.18750000e-03,1.28125000e-02
-1.91684375e-07,8.46875000e-03,1.89062500e-02
-1.90884375e-07,1.11875000e-02,1.40625000e-02
-1.90084375e-07,9.28125000e-03,1.76562500e-02
-1.89284375e-07,5.34375000e-03,7.50000000e-03
-1.88484375e-07,7.68750000e-03,2.06250000e-02
-1.87684375e-07,1.03125000e-02,2.06250000e-02
-1.86884375e-07,1.09375000e-02,1.63281250e-02
-1.86084375e-07,9.28125000e-03,2.33593750e-02
-1.85284375e-07,3.59375000e-03,1.07812500e-02
-1.84484375e-07,7.00000000e-03,1.36718750e-02
-1.83684375e-07,1.24687500e-02,1.10937500e-02
-1.82884375e-07,7.00000000e-03,3.03125000e-02
-1.82084375e-07,7.75000000e-03,1.71875000e-02
-1.81284375e-07,9.18750000e-03,1.96093750e-02
-1.80484375e-07,1.17500000e-02,2.14062500e-02
-1.79684375e-07,4.81250000e-03,2.46875000e-02
-1.78884375e-07,1.28437500e-02,1.78125000e-02
-1.78084375e-07,6.78125000e-03,1.07812500e-02
-1.77284375e-07,1.30625000e-02,1.29687500e-02
-1.76484375e-07,5.90625000e-03,1.57031250e-02
-1.75684375e-07,1.20000000e-02,2.09375000e-02
-1.74884375e-07,3.46875000e-03,2.60156250e-02
-1.74084375e-07,1.08437500e-02,1.71875000e-02
-1.73284375e-07,3.84375000e-03,6.32812500e-03
-1.72484375e-07,1.57812500e-02,2.32031250e-02
-1.71684375e-07,4.93750000e-03,2.64843750e-02
-1.70884375e-07,8.62500000e-03,1.52343750e-02
-1.70084375e-07,5.59375000e-03,1.54687500e-02
-1.69284375e-07,1.15937500e-02,1.01562500e-02
-1.68484375e-07,1.09375000e-02,1.57812500e-02
-1.67684375e-07,1.43750000e-02,1.75000000e-02
-1.66884375e-07,4.84375000e-03,1.68750000e-02
-1.66084375e-07,1.33437500e-02,2.01562500e-02
-1.65284375e-07,1.29687500e-02,1.54687500e-02
-1.64484375e-07,9.84375000e-03,2.35156250e-02
-1.63684375e-07,5.37500000e-03,9.84375000e-03
-1.62884375e-07,6.25000000e-03,4.60937500e-03
-1.62084375e-07,1.29375000e-02,2.31250000e-02
-1.61284375e-07,1.00312500e-02,1.14062500e-02
-1.60484375e-07,1.06875000e-02,1.85156250e-02
-1.59684375e-07,6.00000000e-03,1.67187500e-02
-1.58884375e-07,1.05937500e-02,1.42968750e-02
-1.58084375e-07,1.25625000e-02,1.03125000e-02
-1.57284375e-07,1.02812500e-02,1.97656250e-02
-1.56484375e-07,8.43750000e-03,1.07812500e-02
-1.55684375e-07,6.68750000e-03,1.52343750e-02
-1.54884375e-07,1.79375000e-02,1.94531250e-02
-1.54084375e-07,2.43750000e-03,8.35937500e-03
-1.53284375e-07,1.18437500e-02,2.37500000e-02
-1.52484375e-07,1.03750000e-02,1.60156250e-02
-1.51684375e-07,1.32500000e-02,1.75781250e-02
-1.50884375e-07,6.40625000e-03,7.57812500e-03
-1.50084375e-07,1.44687500e-02,1.98437500e-02
-1.49284375e-07,6.96875000e-03,1.61718750e-02
-1.48484375e-07,1.02812500e-02,2.22656250e-02
-1.47684375e-07,7.50000000e-03,1.66406250e-02
-1.46884375e-07,1.28437500e-02,1.42968750e-02
-1.46084375e-07,6.59375000e-03,2.08593750e-02
-1.45284375e-07,1.23750000e-02,1.60937500e-02
-1.44484375e-07,2.93750000e-03,1.89062500e-02
-1.43684375e-07,6.53125000e-03,1.87500000e-02
-1.42884375e-07,8.25000000e-03,1.21875000e-02
-1.42084375e-07,1.60625000e-02,2.75000000e-02
-1.41284375e-07,1.43750000e-03,6.32812500e-03
-1.40484375e-07,9.56250000e-03,1.19531250e-02
-1.39684375e-07,1.11875000e-02,1.54687500e-02
-1.38884375e-07,9.31250000e-03,1.63281250e-02
-1.38084375e-07,1.05000000e-02,2.27343750e-02
-1.37284375e-07,5.15625000e-03,1.21093750e-02
-1.36484375e-07,1.14375000e-02,2.17187500e-02
-1.35684375e-07,7.62500000e-03,2.27343750e-02
-1.34884375e-07,1.34375000e-02,1.86718750e-02
-1.34084375e-07,8.75000000e-03,8.28125000e-03
-1.33284375e-07,3.34375000e-03,1.78125000e-02
-1.32484375e-07,1.37187500e-02,1.63281250e-02
-1.31684375e-07,7.65625000e-03,1.90625000e-02
-1.30884375e-07,8.78125000e-03,1.30468750e-02
-1.30084375e-07,7.50000000e-03,1.73437500e-02
-1.29284375e-07,1.40000000e-02,1.59375000e-02
-1.28484375e-07,3.18750000e-03,2.66406250e-02
-1.27684375e-07,1.20000000e-02,1.96093750e-02
-1.26884375e-07,9.09375000e-03,2.26562500e-02
-1.26084375e-07,1.21562500e-02,2.29687500e-02
-1.25284375e-07,2.78125000e-03,1.20312500e-02
-1.24484375e-07,1.79687500e-02,1.88281250e-02
-1.23684375e-07,7.71875000e-03,1.93750000e-02
-1.22884375e-07,8.96875000e-03,1.53125000e-02
-1.22084375e-07,3.06250000e-03,3.20312500e-03
-1.21284375e-07,9.78125000e-03,1.93750000e-02
-1.20484375e-07,7.90625000e-03,2.37500000e-02
-1.19684375e-07,1.05312500e-02,2.42187500e-02
-1.18884375e-07,1.87500000e-03,1.04687500e-02
-1.18084375e-07,4.90625000e-03,2.79687500e-02
-1.17284375e-07,1.09062500e-02,1.35937500e-02
-1.16484375e-07,1.27812500e-02,2.34375000e-02
-1.15684375e-07,2.68750000e-03,1.10156250e-02
-1.14884375e-07,8.15625000e-03,1.24218750e-02
-1.14084375e-07,1.43750000e-02,1.75781250e-02
-1.13284375e-07,9.28125000e-03,2.29687500e-02
-1.12484375e-07,1.04687500e-02,2.00781250e-02
-1.11684375e-07,8.15625000e-03,1.71093750e-02
-1.10884375e-07,9.84375000e-03,2.29687500e-02
-1.10084375e-07,1.07812500e-02,2.03906250e-02
-1.09284375e-07,6.71875000e-03,2.64062500e-02
-1.08484375e-07,9.90625000e-03,2.03125000e-02
-1.07684375e-07,5.93750000e-03,2.32031250e-02
-1.06884375e-07,1.06250000e-02,1.25781250e-02
-1.06084375e-07,9.56250000e-03,2.50000000e-02
-1.05284375e-07,7.18750000e-03,2.25000000e-02
-1.04484375e-07,9.46875000e-03,1.70312500e-02
-1.03684375e-07,1.23750000e-02,2.75781250e-02
-1.02884375e-07,4.62500000e-03,1.55468750e-02
-1.02084375e-07,6.84375000e-03,2.72656250e-02
-1.01284375e-07,4.21875000e-03,1.30468750e-02
-1.00484375e-07,1.30000000e-02,2.42187500e-02
-9.96843750e-08,8.28125000e-03,1.92187500e-02
-9.88843750e-08,1.29375000e-02,2.61718750e-02
-9.80843750e-08,8.34375000e-03,1.39843750e-02
-9.72843750e-08,1.44375000e-02,2.25781250e-02
-9.64843750e-08,9.28125000e-03,1.94531250e-02
-9.56843750e-08,8.50000000e-03,1.07031250e-02
-9.48843750e-08,8.00000000e-03,2.53906250e-02
-9.40843750e-08,1.77500000e-02,2.25000000e-02
-9.32843750e-08,8.46875000e-03,1.92968750e-02
-9.24843750e-08,1.01875000e-02,1.22656250e-02
-9.16843750e-08,1.04375000e-02,1.91406250e-02
-9.08843750e-08,1.01875000e-02,2.30468750e-02
-9.00843750e-08,4.37500000e-03,2.02343750e-02
-8.92843750e-08,1.06562500e-02,2.04687500e-02
-8.84843750e-08,1.22812500e-02,2.29687500e-02
-8.76843750e-08,9.12500000e-03,2.56250000e-02
-8.68843750e-08,9.71875000e-03,2.87500000e-02
-8.60843750e-08,7.43750000e-03,1.54687500e-02
-8.52843750e-08,1.20937500e-02,2.45312500e-02
-8.44843750e-08,1.21562500e-02,3.07031250e-02
-8.36843750e-08,8.93750000e-03,2.39843750e-02
-8.28843750e-08,1.27500000e-02,1.42968750e-02
-8.20843750e-08,7.18750000e-03,2.25000000e-02
-8.12843750e-08,1.25937500e-02,2.02343750e-02
-8.04843750e-08,7.46875000e-03,1.91406250e-02
-7.96843750e-08,1.49687500e-02,1.64062500e-02
-7.88843750e-08,5.93750000e-03,2.19531250e-02
-7.80843750e-08,1.35000000e-02,2.55468750e-02
-7.72843750e-08,2.78125000e-03,1.64062500e-02
-7.64843750e-08,1.51250000e-02,3.43750000e-02
-7.56843750e-08,1.20000000e-02,2.11718750e-02
-7.48843750e-08,1.16562500e-02,2.55468750e-02
-7.40843750e-08,4.12500000e-03,1.72656250e-02
-7.32843750e-08,1.35312500e-02,2.09375000e-02
-7.24843750e-08,7.87500000e-03,2.72656250e-02
-7.16843750e-08,1.44375000e-02,2.23437500e-02
-7.08843750e-08,9.31250000e-03,1.32031250e-02
-7.00843750e-08,1.61250000e-02,2.60156250e-02
-6.92843750e-08,8.75000000e-03,1.88281250e-02
-6.84843750e-08,1.54687500e-02,2.24218750e-02
-6.76843750e-08,5.71875000e-03,1.26562500e-02
-6.68843750e-08,8.46875000e-03,1.44531250e-02
-6.60843750e-08,1.33125000e-02,1.54687500e-02
-6.52843750e-08,1.63437500e-02,2.73437500e-02
-6.44843750e-08,8.40625000e-03,2.03906250e-02
-6.36843750e-08,1.12812500e-02,1.47656250e-02
-6.28843750e-08,1.91562500e-02,1.69531250e-02
-6.20843750e-08,1.37812500e-02,3.16406250e-02
-6.12843750e-08,1.43750000e-02,3.03125000e-02
-6.04843750e-08,1.20000000e-02,-2.28593750e-01
-5.96843750e-08,1.45312500e-02,-7.81796875e-01
-5.88843750e-08,1.33125000e-02,-1.20937500e+00
-5.80843750e-08,1.77187500e-02,-1.27695313e+00
-5.72843750e-08,1.22187500e-02,-1.34554688e+00
-5.64843750e-08,8.21875000e-03,-1.37968750e+00
-5.56843750e-08,1.36875000e-02,-1.39015625e+00
-5.48843750e-08,7.37500000e-03,-1.39273438e+00
-5.40843750e-08,1.00000000e-02,-1.40000000e+00
-5.32843750e-08,8.03125000e-03,-1.39734375e+00
-5.24843750e-08,1.13437500e-02,-1.39609375e+00
-5.16843750e-08,3.40625000e-03,-1.40984375e+00
-5.08843750e-08,1.26875000e-02,-1.41093750e+00
-5.00843750e-08,6.65625000e-03,-1.40585938e+00
-4.92843750e-08,1.49375000e-02,-1.40585938e+00
-4.84843750e-08,6.59375000e-03,-1.41421875e+00
-4.76843750e-08,1.32187500e-02,-1.40945313e+00
-4.68843750e-08,5.18750000e-03,-1.41554687e+00
-4.60843750e-08,1.43437500e-02,-1.41593750e+00
-4.52843750e-08,6.25000000e-03,-1.41679688e+00
-4.44843750e-08,1.23750000e-02,-1.42476563e+00
-4.36843750e-08,6.46875000e-03,-1.42195313e+00
-4.28843750e-08,1.31250000e-02,-1.42296875e+00
-4.20843750e-08,5.40625000e-03,-1.42171875e+00
-4.12843750e-08,7.31250000e-03,-1.42796875e+00
-4.04843750e-08,9.50000000e-03,-1.41671875e+00
-3.96843750e-08,1.27187500e-02,-1.40625000e+00
-3.88843750e-08,3.50000000e-03,-1.42210938e+00
-3.80843750e-08,8.59375000e-03,-1.42195313e+00
-3.72843750e-08,8.84375000e-03,-1.41132813e+00
-3.64843750e-08,7.90625000e-03,-1.41406250e+00
-3.56843750e-08,5.00000000e-03,-1.42304688e+00
-3.48843750e-08,4.06250000e-03,-1.43125000e+00
-3.40843750e-08,4.06250000e-04,-1.42132813e+00
-3.32843750e-08,-1.52187500e-02,-1.41156250e+00
-3.24843750e-08,-2.87187500e-02,-1.41546875e+00
-3.16843750e-08,-7.11250000e-02,-1.42257813e+00
-3.08843750e-08,-1.32968750e-01,-1.43195313e+00
-3.00843750e-08,-2.02375000e-01,-1.41546875e+00
-2.92843750e-08,-3.02187500e-01,-1.42500000e+00
-2.84843750e-08,-4.03906250e-01,-1.43218750e+00
-2.76843750e-08,-4.94906250e-01,-1.41453125e+00
-2.68843750e-08,-5.86250000e-01,-1.41093750e+00
-2.60843750e-08,-6.69937500e-01,-1.42453125e+00
-2.52843750e-08,-7.21687500e-01,-1.41148438e+00
-2.44843750e-08,-7.69218750e-01,-1.41367188e+00
-2.36843750e-08,-8.12156250e-01,-1.40007813e+00
-2.28843750e-08,-8.30656250e-01,-1.40726562e+00
-2.20843750e-08,-8.43000000e-01,-1.41343750e+00
-2.12843750e-08,-8.51843750e-01,-1.40875000e+00
-2.04843750e-08,-8.51093750e-01,-1.41937500e+00
-1.96843750e-08,-8.40906250e-01,-1.42492188e+00
-1.88843750e-08,-8.21187500e-01,-1.42664063e+00
-1.80843750e-08,-8.01656250e-01,-1.43031250e+00
-1.72843750e-08,-7.69656250e-01,-1.41929688e+00
-1.64843750e-08,-7.46750000e-01,-1.41367188e+00
-1.56843750e-08,-7.15156250e-01,-1.42554688e+00
-1.48843750e-08,-6.75750000e-01,-1.42171875e+00
-1.40843750e-08,-6.44218750e-01,-1.40796875e+00
-1.32843750e-08,-6.09687500e-01,-1.41812500e+00
-1.24843750e-08,-5.70343750e-01,-1.42367188e+00
-1.16843750e-08,-5.36781250e-01,-1.42085938e+00
-1.08843750e-08,-5.03156250e-01,-1.40562500e+00
-1.00843750e-08,-4.74375000e-01,-1.42648438e+00
-9.28437500e-09,-4.39375000e-01,-1.42164063e+00
-8.48437500e-09,-4.15281250e-01,-1.42320313e+00
-7.68437500e-09,-3.89906250e-01,-1.41945312e+00
-6.88437500e-09,-3.65250000e-01,-1.42085938e+00
-6.08437500e-09,-3.41062500e-01,-1.42695313e+00
-5.28437500e-09,-3.19468750e-01,-1.42382812e+00
-4.48437500e-09,-2.97250000e-01,-1.41390625e+00
-3.68437500e-09,-2.75687500e-01,-1.39664063e+00
-2.88437500e-09,-2.64187500e-01,-1.35750000e+00
-2.08437500e-09,-2.41593750e-01,-1.22906250e+00
-1.28437500e-09,-2.26625000e-01,-8.74765625e-01
-4.84375000e-10,-2.14781250e-01,-4.46484375e-01
3.15625000e-10,-1.97656250e-01,-2.26093750e-01
1.11562500e-09,-1.87343750e-01,-1.15390625e-01
1.91562500e-09,-1.74343750e-01,-6.91406250e-02
2.71562500e-09,-1.68250000e-01,-4.63281250e-02
3.51562500e-09,-1.49281250e-01,-4.31250000e-02
4.31562500e-09,-1.52062500e-01,-3.54687500e-02
5.11562500e-09,-1.40812500e-01,-4.07812500e-02
5.91562500e-09,-1.37562500e-01,-3.64843750e-02
6.71562500e-09,-1.26687500e-01,-2.57031250e-02
7.51562500e-09,-1.27531250e-01,-2.78125000e-02
8.31562500e-09,-1.11406250e-01,-1.89062500e-02
9.11562500e-09,-1.15062500e-01,-2.15625000e-02
9.91562500e-09,-1.06187500e-01,-2.35937500e-02
1.07156250e-08,-1.02156250e-01,-1.64062500e-02
1.15156250e-08,-9.41250000e-02,-1.00781250e-02
1.23156250e-08,-9.64062500e-02,-5.70312500e-03
1.31156250e-08,-8.67500000e-02,-9.21875000e-03
1.39156250e-08,-7.89375000e-02,-5.07812500e-03
1.47156250e-08,-7.65625000e-02,-7.89062500e-03
1.55156250e-08,-7.03750000e-02,-5.00000000e-03
1.63156250e-08,-6.79062500e-02,-1.03125000e-02
1.71156250e-08,-6.43750000e-02,-1.04687500e-02
1.79156250e-08,-5.51875000e-02,3.12500000e-04
1.87156250e-08,-5.81875000e-02,3.90625000e-04
1.95156250e-08,-5.13750000e-02,1.19531250e-02
2.03156250e-08,-5.24375000e-02,9.14062500e-03
2.11156250e-08,-4.40625000e-02,6.25000000e-03
2.19156250e-08,-4.87812500e-02,6.64062500e-03
2.27156250e-08,-4.45312500e-02,1.01562500e-03
2.35156250e-08,-4.02500000e-02,2.34375000e-03
2.43156250e-08,-3.20000000e-02,1.44531250e-02
2.51156250e-08,-4.11562500e-02,4.68750000e-03
2.59156250e-08,-3.20000000e-02,1.39843750e-02
2.67156250e-08,-3.39687500e-02,1.46093750e-02
2.75156250e-08,-2.70937500e-02,2.10156250e-02
2.83156250e-08,-3.51562500e-02,9.68750000e-03
2.91156250e-08,-2.34375000e-02,1.18750000e-02
2.99156250e-08,-2.77812500e-02,1.66406250e-02
3.07156250e-08,-2.02500000e-02,6.64062500e-03
3.15156250e-08,-2.70937500e-02,2.85156250e-02
3.23156250e-08,-2.20000000e-02,4.15625000e-02
3.31156250e-08,-2.35625000e-02,3.63281250e-02
3.39156250e-08,-1.58750000e-02,4.28906250e-02
3.47156250e-08,-2.29687500e-02,5.46093750e-02
3.55156250e-08,-1.47500000e-02,2.96875000e-02
3.63156250e-08,-1.55625000e-02,3.60937500e-02
3.71156250e-08,-1.29062500e-02,4.21093750e-02
3.79156250e-08,-1.95625000e-02,4.18750000e-02
3.87156250e-08,-1.14687500e-02,2.78125000e-02
3.95156250e-08,-5.06250000e-03,3.60156250e-02
4.03156250e-08,-9.25000000e-03,3.22656250e-02
4.11156250e-08,-7.25000000e-03,3.04687500e-02
4.19156250e-08,-7.34375000e-03,2.82812500e-02
4.27156250e-08,-8.56250000e-03,3.10937500e-02
4.35156250e-08,-6.25000000e-03,3.34375000e-02
4.43156250e-08,-4.03125000e-03,3.07812500e-02
4.51156250e-08,-1.02812500e-02,2.85156250e-02
4.59156250e-08,-9.09375000e-03,2.34375000e-02
4.67156250e-08,-3.71875000e-03,2.86718750e-02
4.75156250e-08,-6.18750000e-03,3.06250000e-02
4.83156250e-08,-1.02812500e-02,3.68750000e-02
4.91156250e-08,-3.90625000e-03,2.67968750e-02
4.99156250e-08,-5.15625000e-03,2.88281250e-02
5.07156250e-08,-8.84375000e-03,1.03125000e-02
5.15156250e-08,-8.75000000e-04,2.60156250e-02
5.23156250e-08,-5.25000000e-03,2.41406250e-02
5.31156250e-08,9.37500000e-04,2.62500000e-02
5.39156250e-08,-4.50000000e-03,1.61718750e-02
5.47156250e-08,-2.31250000e-03,2.90625000e-02
5.55156250e-08,-1.40625000e-03,2.91406250e-02
5.63156250e-08,3.12500000e-04,2.25781250e-02
