muon_CSV/TriggerAuto_ALL_20231205193300105.csv

Model,MSO64B
Channel,CH1,,Channel,CH2
Label,,,Label,
Waveform Type,ANALOG,,Waveform Type,ANALOG
Horizontal Units,s,,Horizontal Units,s
Sample Interval,8.00000000e-10,,Sample Interval,8.00000000e-10
Record Length,5000,,Record Length,5000
Zero Index,349.81640625,,Zero Index,349.81640625
Vertical Units,V,,Vertical Units,V
,,,,
ANALOG_Thumbnail,,,ANALOG_Thumbnail,
yOffset,0.000000,,yOffset,0.000000
yPosition,2.160000,,yPosition,2.180000

Labels,,
TIME,CH1,CH2
-2.79853125e-07,7.84375000e-03,1.37500000e-02
-2.79053125e-07,6.90625000e-03,6.56250000e-03
-2.78253125e-07,6.93750000e-03,1.01562500e-02
-2.77453125e-07,9.87500000e-03,1.32812500e-02
-2.76653125e-07,3.90625000e-03,1.52343750e-02
-2.75853125e-07,4.71875000e-03,1.36718750e-02
-2.75053125e-07,6.18750000e-03,-2.65625000e-03
-2.74253125e-07,1.11250000e-02,1.50000000e-02
-2.73453125e-07,-2.25000000e-03,4.45312500e-03
-2.72653125e-07,8.71875000e-03,1.03125000e-02
-2.71853125e-07,7.50000000e-03,3.98437500e-03
-2.71053125e-07,3.34375000e-03,1.29687500e-02
-2.70253125e-07,1.62500000e-03,1.25781250e-02
-2.69453125e-07,1.10937500e-02,9.45312500e-03
-2.68653125e-07,6.46875000e-03,1.26562500e-02
-2.67853125e-07,5.21875000e-03,1.39843750e-02
-2.67053125e-07,1.43750000e-03,5.15625000e-03
-2.66253125e-07,8.71875000e-03,4.29687500e-03
-2.65453125e-07,3.93750000e-03,1.33593750e-02
-2.64653125e-07,9.50000000e-03,5.46875000e-03
-2.63853125e-07,3.71875000e-03,1.61718750e-02
-2.63053125e-07,4.25000000e-03,1.25781250e-02
-2.62253125e-07,8.25000000e-03,1.46093750e-02
-2.61453125e-07,1.35000000e-02,1.12500000e-02
-2.60653125e-07,5.28125000e-03,1.32031250e-02
-2.59853125e-07,8.96875000e-03,4.68750000e-03
-2.59053125e-07,8.84375000e-03,1.42187500e-02
-2.58253125e-07,7.84375000e-03,2.10937500e-02
-2.57453125e-07,3.84375000e-03,1.23437500e-02
-2.56653125e-07,7.59375000e-03,9.92187500e-03
-2.55853125e-07,7.87500000e-03,9.92187500e-03
-2.55053125e-07,7.65625000e-03,1.66406250e-02
-2.54253125e-07,5.43750000e-03,1.10156250e-02
-2.53453125e-07,3.40625000e-03,4.14062500e-03
-2.52653125e-07,4.43750000e-03,2.59375000e-02
-2.51853125e-07,6.90625000e-03,5.39062500e-03
-2.51053125e-07,4.81250000e-03,6.17187500e-03
-2.50253125e-07,4.75000000e-03,-2.03125000e-03
-2.49453125e-07,5.00000000e-03,2.50000000e-03
-2.48653125e-07,7.37500000e-03,1.75000000e-02
-2.47853125e-07,4.40625000e-03,1.10937500e-02
-2.47053125e-07,9.31250000e-03,5.39062500e-03
-2.46253125e-07,6.37500000e-03,5.62500000e-03
-2.45453125e-07,6.65625000e-03,1.88281250e-02
-2.44653125e-07,-1.18750000e-03,1.77343750e-02
-2.43853125e-07,9.03125000e-03,6.56250000e-03
-2.43053125e-07,3.90625000e-03,2.20312500e-02
-2.42253125e-07,6.65625000e-03,1.81250000e-02
-2.41453125e-07,6.87500000e-04,7.10937500e-03
-2.40653125e-07,1.41562500e-02,1.39062500e-02
-2.39853125e-07,4.12500000e-03,1.23437500e-02
-2.39053125e-07,1.10000000e-02,4.60937500e-03
-2.38253125e-07,4.56250000e-03,9.45312500e-03
-2.37453125e-07,6.78125000e-03,1.26562500e-02
-2.36653125e-07,1.05625000e-02,1.85156250e-02
-2.35853125e-07,1.13437500e-02,7.03125000e-03
-2.35053125e-07,4.90625000e-03,1.60156250e-02
-2.34253125e-07,5.87500000e-03,4.37500000e-03
-2.33453125e-07,1.26875000e-02,1.21875000e-02
-2.32653125e-07,7.90625000e-03,5.07812500e-03
-2.31853125e-07,5.21875000e-03,3.04687500e-03
-2.31053125e-07,5.78125000e-03,1.80468750e-02
-2.30253125e-07,3.96875000e-03,1.17968750e-02
-2.29453125e-07,6.53125000e-03,1.32031250e-02
-2.28653125e-07,8.75000000e-03,7.18750000e-03
-2.27853125e-07,4.81250000e-03,7.81250000e-05
-2.27053125e-07,4.21875000e-03,1.17187500e-02
-2.26253125e-07,9.84375000e-03,9.14062500e-03
-2.25453125e-07,5.96875000e-03,5.54687500e-03
-2.24653125e-07,4.15625000e-03,1.26562500e-02
-2.23853125e-07,6.43750000e-03,3.43750000e-03
-2.23053125e-07,1.06250000e-02,1.88281250e-02
-2.22253125e-07,-4.68750000e-04,9.76562500e-03
-2.21453125e-07,4.21875000e-03,7.34375000e-03
-2.20653125e-07,4.65625000e-03,8.12500000e-03
-2.19853125e-07,8.28125000e-03,1.79687500e-02
-2.19053125e-07,4.84375000e-03,9.21875000e-03
-2.18253125e-07,9.00000000e-03,1.52343750e-02
-2.17453125e-07,4.21875000e-03,8.43750000e-03
-2.16653125e-07,7.34375000e-03,1.18750000e-02
-2.15853125e-07,-1.62500000e-03,-4.68750000e-03
-2.15053125e-07,6.68750000e-03,9.14062500e-03
-2.14253125e-07,1.93750000e-03,9.29687500e-03
-2.13453125e-07,1.33750000e-02,8.12500000e-03
-2.12653125e-07,1.56250000e-03,8.75000000e-03
-2.11853125e-07,5.06250000e-03,1.01562500e-02
-2.11053125e-07,7.34375000e-03,1.21093750e-02
-2.10253125e-07,8.06250000e-03,1.92187500e-02
-2.09453125e-07,3.81250000e-03,6.40625000e-03
-2.08653125e-07,6.93750000e-03,1.14843750e-02
-2.07853125e-07,8.12500000e-03,7.26562500e-03
-2.07053125e-07,9.62500000e-03,1.94531250e-02
-2.06253125e-07,3.81250000e-03,1.49218750e-02
-2.05453125e-07,1.62500000e-03,1.32031250e-02
-2.04653125e-07,9.43750000e-03,9.76562500e-03
-2.03853125e-07,5.18750000e-03,1.40625000e-02
-2.03053125e-07,7.40625000e-03,1.70312500e-02
-2.02253125e-07,9.68750000e-03,1.31250000e-02
-2.01453125e-07,5.46875000e-03,1.50000000e-02
-2.00653125e-07,7.18750000e-03,8.51562500e-03
-1.99853125e-07,4.40625000e-03,1.78125000e-02
-1.99053125e-07,6.53125000e-03,2.34375000e-03
-1.98253125e-07,8.21875000e-03,6.25000000e-03
-1.97453125e-07,4.50000000e-03,1.92187500e-02
-1.96653125e-07,-1.25000000e-04,1.71875000e-03
-1.95853125e-07,6.93750000e-03,1.30468750e-02
-1.95053125e-07,6.65625000e-03,1.10937500e-02
-1.94253125e-07,5.75000000e-03,1.40625000e-02
-1.93453125e-07,1.37500000e-03,1.70312500e-02
-1.92653125e-07,7.40625000e-03,5.15625000e-03
-1.91853125e-07,4.37500000e-03,1.34375000e-02
-1.91053125e-07,3.03125000e-03,1.64843750e-02
-1.90253125e-07,3.65625000e-03,1.77343750e-02
-1.89453125e-07,7.28125000e-03,1.24218750e-02
-1.88653125e-07,3.15625000e-03,1.57031250e-02
-1.87853125e-07,4.96875000e-03,5.78125000e-03
-1.87053125e-07,4.06250000e-03,1.20312500e-02
-1.86253125e-07,6.34375000e-03,1.11718750e-02
-1.85453125e-07,8.68750000e-03,1.53125000e-02
-1.84653125e-07,1.13750000e-02,1.84375000e-02
-1.83853125e-07,5.84375000e-03,1.64062500e-02
-1.83053125e-07,4.81250000e-03,2.09375000e-02
-1.82253125e-07,6.15625000e-03,8.20312500e-03
-1.81453125e-07,5.46875000e-03,1.45312500e-02
-1.80653125e-07,1.34375000e-03,6.87500000e-03
-1.79853125e-07,5.90625000e-03,3.43750000e-03
-1.79053125e-07,9.34375000e-03,1.60156250e-02
-1.78253125e-07,5.78125000e-03,7.10937500e-03
-1.77453125e-07,1.03437500e-02,1.60156250e-02
-1.76653125e-07,8.65625000e-03,4.37500000e-03
-1.75853125e-07,6.53125000e-03,6.25000000e-03
-1.75053125e-07,8.50000000e-03,1.00781250e-02
-1.74253125e-07,3.40625000e-03,1.67187500e-02
-1.73453125e-07,2.56250000e-03,2.36718750e-02
-1.72653125e-07,5.03125000e-03,6.17187500e-03
-1.71853125e-07,1.25312500e-02,1.20312500e-02
-1.71053125e-07,6.56250000e-04,5.70312500e-03
-1.70253125e-07,6.84375000e-03,-4.68750000e-04
-1.69453125e-07,6.00000000e-03,8.28125000e-03
-1.68653125e-07,1.24375000e-02,9.37500000e-03
-1.67853125e-07,1.31250000e-03,1.21093750e-02
-1.67053125e-07,7.75000000e-03,1.26562500e-02
-1.66253125e-07,6.78125000e-03,1.46093750e-02
-1.65453125e-07,7.12500000e-03,1.38281250e-02
-1.64653125e-07,2.34375000e-03,5.15625000e-03
-1.63853125e-07,7.34375000e-03,1.01562500e-02
-1.63053125e-07,5.25000000e-03,1.05468750e-02
-1.62253125e-07,6.09375000e-03,8.75000000e-03
-1.61453125e-07,4.68750000e-04,1.92187500e-02
-1.60653125e-07,4.56250000e-03,8.28125000e-03
-1.59853125e-07,7.12500000e-03,4.76562500e-03
-1.59053125e-07,1.07812500e-02,1.01562500e-02
-1.58253125e-07,0.00000000e+00,1.71875000e-02
-1.57453125e-07,6.59375000e-03,6.56250000e-03
-1.56653125e-07,7.84375000e-03,1.54687500e-02
-1.55853125e-07,5.84375000e-03,1.76562500e-02
-1.55053125e-07,4.78125000e-03,1.63281250e-02
-1.54253125e-07,4.46875000e-03,1.09375000e-03
-1.53453125e-07,2.50000000e-03,1.49218750e-02
-1.52653125e-07,5.00000000e-03,1.62500000e-02
-1.51853125e-07,8.25000000e-03,9.21875000e-03
-1.51053125e-07,1.10312500e-02,1.11718750e-02
-1.50253125e-07,4.93750000e-03,7.96875000e-03
-1.49453125e-07,8.00000000e-03,1.06250000e-02
-1.48653125e-07,3.59375000e-03,1.39843750e-02
-1.47853125e-07,5.18750000e-03,9.76562500e-03
-1.47053125e-07,7.06250000e-03,9.53125000e-03
-1.46253125e-07,8.00000000e-03,2.44531250e-02
-1.45453125e-07,-5.93750000e-04,6.95312500e-03
-1.44653125e-07,5.65625000e-03,1.47656250e-02
-1.43853125e-07,7.81250000e-03,1.37500000e-02
-1.43053125e-07,7.00000000e-03,1.85156250e-02
-1.42253125e-07,1.68750000e-03,1.35937500e-02
-1.41453125e-07,8.37500000e-03,1.43750000e-02
-1.40653125e-07,3.84375000e-03,1.49218750e-02
-1.39853125e-07,2.37500000e-03,1.49218750e-02
-1.39053125e-07,3.12500000e-04,1.29687500e-02
-1.38253125e-07,8.68750000e-03,1.57031250e-02
-1.37453125e-07,1.84375000e-03,1.03125000e-02
-1.36653125e-07,9.00000000e-03,1.58593750e-02
-1.35853125e-07,-8.43750000e-04,1.76562500e-02
-1.35053125e-07,3.78125000e-03,1.36718750e-02
-1.34253125e-07,7.03125000e-03,7.89062500e-03
-1.33453125e-07,9.93750000e-03,1.92968750e-02
-1.32653125e-07,3.43750000e-03,1.02343750e-02
-1.31853125e-07,4.65625000e-03,5.54687500e-03
-1.31053125e-07,1.17500000e-02,1.08593750e-02
-1.30253125e-07,6.37500000e-03,1.48437500e-02
-1.29453125e-07,4.31250000e-03,1.73437500e-02
-1.28653125e-07,4.21875000e-03,2.89062500e-03
-1.27853125e-07,5.34375000e-03,2.18750000e-02
-1.27053125e-07,9.87500000e-03,2.25781250e-02
-1.26253125e-07,7.06250000e-03,1.41406250e-02
-1.25453125e-07,4.59375000e-03,1.82031250e-02
-1.24653125e-07,4.03125000e-03,1.53906250e-02
-1.23853125e-07,1.19687500e-02,3.75000000e-03
-1.23053125e-07,4.84375000e-03,1.53125000e-02
-1.22253125e-07,5.28125000e-03,4.37500000e-03
-1.21453125e-07,3.62500000e-03,8.35937500e-03
-1.20653125e-07,1.04375000e-02,8.12500000e-03
-1.19853125e-07,4.65625000e-03,1.71093750e-02
-1.19053125e-07,8.56250000e-03,2.45312500e-02
-1.18253125e-07,4.15625000e-03,9.29687500e-03
-1.17453125e-07,8.34375000e-03,1.95312500e-02
-1.16653125e-07,4.15625000e-03,4.76562500e-03
-1.15853125e-07,8.37500000e-03,1.92187500e-02
-1.15053125e-07,7.68750000e-03,1.21875000e-02
-1.14253125e-07,1.04687500e-02,2.44531250e-02
-1.13453125e-07,-2.81250000e-04,1.46093750e-02
-1.12653125e-07,7.00000000e-03,1.19531250e-02
-1.11853125e-07,4.31250000e-03,1.51562500e-02
-1.11053125e-07,6.87500000e-03,1.26562500e-02
-1.10253125e-07,3.84375000e-03,1.73437500e-02
-1.09453125e-07,6.62500000e-03,1.33593750e-02
-1.08653125e-07,6.03125000e-03,1.28906250e-02
-1.07853125e-07,7.56250000e-03,1.90625000e-02
-1.07053125e-07,2.93750000e-03,2.20312500e-02
-1.06253125e-07,3.28125000e-03,1.22656250e-02
-1.05453125e-07,6.90625000e-03,1.24218750e-02
-1.04653125e-07,3.81250000e-03,1.46093750e-02
-1.03853125e-07,5.15625000e-03,1.78125000e-02
-1.03053125e-07,4.25000000e-03,7.81250000e-05
-1.02253125e-07,1.06250000e-02,1.78906250e-02
-1.01453125e-07,4.62500000e-03,1.67187500e-02
-1.00653125e-07,7.34375000e-03,1.50781250e-02
-9.98531250e-08,4.62500000e-03,1.30468750e-02
-9.90531250e-08,2.40625000e-03,1.78125000e-02
-9.82531250e-08,7.78125000e-03,8.43750000e-03
-9.74531250e-08,7.37500000e-03,1.16406250e-02
-9.66531250e-08,7.93750000e-03,1.60156250e-02
-9.58531250e-08,8.87500000e-03,8.28125000e-03
-9.50531250e-08,9.75000000e-03,2.64062500e-02
-9.42531250e-08,-1.93750000e-03,1.79687500e-02
-9.34531250e-08,7.68750000e-03,1.64843750e-02
-9.26531250e-08,6.59375000e-03,2.42968750e-02
-9.18531250e-08,6.68750000e-03,1.88281250e-02
-9.10531250e-08,3.12500000e-04,1.64843750e-02
-9.02531250e-08,6.71875000e-03,1.52343750e-02
-8.94531250e-08,2.15625000e-03,2.18750000e-02
-8.86531250e-08,8.31250000e-03,1.83593750e-02
-8.78531250e-08,8.75000000e-04,1.31250000e-02
-8.70531250e-08,5.78125000e-03,1.20312500e-02
-8.62531250e-08,3.40625000e-03,2.12500000e-02
-8.54531250e-08,9.37500000e-03,1.10937500e-02
-8.46531250e-08,3.31250000e-03,1.47656250e-02
-8.38531250e-08,3.21875000e-03,7.34375000e-03
-8.30531250e-08,6.18750000e-03,1.36718750e-02
-8.22531250e-08,1.11562500e-02,1.21093750e-02
-8.14531250e-08,0.00000000e+00,1.35937500e-02
-8.06531250e-08,4.71875000e-03,5.54687500e-03
-7.98531250e-08,4.96875000e-03,1.78125000e-02
-7.90531250e-08,3.71875000e-03,1.19531250e-02
-7.82531250e-08,5.46875000e-03,1.57031250e-02
-7.74531250e-08,3.62500000e-03,1.64843750e-02
-7.66531250e-08,6.21875000e-03,6.79687500e-03
-7.58531250e-08,5.25000000e-03,1.21875000e-02
-7.50531250e-08,1.00937500e-02,1.34375000e-02
-7.42531250e-08,7.00000000e-03,1.46093750e-02
-7.34531250e-08,2.78125000e-03,1.60156250e-02
-7.26531250e-08,1.17812500e-02,1.76562500e-02
-7.18531250e-08,2.87500000e-03,1.31250000e-02
-7.10531250e-08,5.34375000e-03,1.10156250e-02
-7.02531250e-08,3.28125000e-03,1.10937500e-02
-6.94531250e-08,6.43750000e-03,1.02343750e-02
-6.86531250e-08,2.06250000e-03,9.06250000e-03
-6.78531250e-08,6.40625000e-03,1.21093750e-02
-6.70531250e-08,6.53125000e-03,1.14843750e-02
-6.62531250e-08,1.07187500e-02,1.78906250e-02
-6.54531250e-08,2.65625000e-03,1.83593750e-02
-6.46531250e-08,1.16250000e-02,2.30468750e-02
-6.38531250e-08,5.40625000e-03,1.14062500e-02
-6.30531250e-08,9.21875000e-03,1.26562500e-02
-6.22531250e-08,5.81250000e-03,3.20312500e-03
-6.14531250e-08,9.12500000e-03,2.06250000e-02
-6.06531250e-08,6.43750000e-03,-8.58593750e-02
-5.98531250e-08,9.71875000e-03,-5.68750000e-01
-5.90531250e-08,-2.56250000e-03,-1.10765625e+00
-5.82531250e-08,7.53125000e-03,-1.30328125e+00
-5.74531250e-08,6.53125000e-03,-1.37125000e+00
-5.66531250e-08,9.75000000e-03,-1.39492188e+00
-5.58531250e-08,3.65625000e-03,-1.37296875e+00
-5.50531250e-08,6.71875000e-03,-1.34117188e+00
-5.42531250e-08,1.04062500e-02,-1.36046875e+00
-5.34531250e-08,4.46875000e-03,-1.38523438e+00
-5.26531250e-08,4.81250000e-03,-1.40882813e+00
-5.18531250e-08,8.59375000e-03,-1.40687500e+00
-5.10531250e-08,6.06250000e-03,-1.41296875e+00
-5.02531250e-08,6.40625000e-03,-1.40101563e+00
-4.94531250e-08,8.46875000e-03,-1.41179688e+00
-4.86531250e-08,3.75000000e-03,-1.41765625e+00
-4.78531250e-08,9.68750000e-04,-1.41617188e+00
-4.70531250e-08,8.62500000e-03,-1.41406250e+00
-4.62531250e-08,4.87500000e-03,-1.41492188e+00
-4.54531250e-08,8.15625000e-03,-1.42617188e+00
-4.46531250e-08,3.21875000e-03,-1.42257813e+00
-4.38531250e-08,8.37500000e-03,-1.42281250e+00
-4.30531250e-08,-9.37500000e-04,-1.42085938e+00
-4.22531250e-08,7.09375000e-03,-1.42250000e+00
-4.14531250e-08,6.03125000e-03,-1.41789063e+00
-4.06531250e-08,9.78125000e-03,-1.41000000e+00
-3.98531250e-08,-2.81250000e-04,-1.41960938e+00
-3.90531250e-08,1.06562500e-02,-1.40875000e+00
-3.82531250e-08,9.68750000e-04,-1.43523438e+00
-3.74531250e-08,6.93750000e-03,-1.41234375e+00
-3.66531250e-08,6.87500000e-04,-1.43351563e+00
-3.58531250e-08,4.18750000e-03,-1.43156250e+00
-3.50531250e-08,2.68750000e-03,-1.42171875e+00
-3.42531250e-08,3.87500000e-03,-1.42218750e+00
-3.34531250e-08,-1.54687500e-02,-1.42273438e+00
-3.26531250e-08,-2.67187500e-02,-1.41843750e+00
-3.18531250e-08,-5.70000000e-02,-1.42843750e+00
-3.10531250e-08,-1.04500000e-01,-1.42562500e+00
-3.02531250e-08,-1.75218750e-01,-1.41843750e+00
-2.94531250e-08,-2.47500000e-01,-1.42929688e+00
-2.86531250e-08,-3.22187500e-01,-1.41554687e+00
-2.78531250e-08,-3.97250000e-01,-1.41375000e+00
-2.70531250e-08,-4.57875000e-01,-1.41429688e+00
-2.62531250e-08,-5.15218750e-01,-1.42726562e+00
-2.54531250e-08,-5.58187500e-01,-1.41414063e+00
-2.46531250e-08,-5.86062500e-01,-1.41570313e+00
-2.38531250e-08,-6.13031250e-01,-1.41273438e+00
-2.30531250e-08,-6.31531250e-01,-1.41546875e+00
-2.22531250e-08,-6.42031250e-01,-1.41648438e+00
-2.14531250e-08,-6.43406250e-01,-1.41453125e+00
-2.06531250e-08,-6.38937500e-01,-1.42234375e+00
-1.98531250e-08,-6.26375000e-01,-1.43062500e+00
-1.90531250e-08,-6.03937500e-01,-1.42281250e+00
-1.82531250e-08,-5.87000000e-01,-1.41445313e+00
-1.74531250e-08,-5.70250000e-01,-1.42500000e+00
-1.66531250e-08,-5.37437500e-01,-1.41351563e+00
-1.58531250e-08,-5.11656250e-01,-1.42562500e+00
-1.50531250e-08,-4.90281250e-01,-1.42242188e+00
-1.42531250e-08,-4.74125000e-01,-1.41914063e+00
-1.34531250e-08,-4.43125000e-01,-1.41843750e+00
-1.26531250e-08,-4.25593750e-01,-1.41828125e+00
-1.18531250e-08,-4.01625000e-01,-1.41101563e+00
-1.10531250e-08,-3.90031250e-01,-1.41976563e+00
-1.02531250e-08,-3.56968750e-01,-1.41875000e+00
-9.45312500e-09,-3.40312500e-01,-1.42273438e+00
-8.65312500e-09,-3.25250000e-01,-1.41773438e+00
-7.85312500e-09,-3.04937500e-01,-1.42250000e+00
-7.05312500e-09,-2.83718750e-01,-1.43195313e+00
-6.25312500e-09,-2.65187500e-01,-1.42742188e+00
-5.45312500e-09,-2.48406250e-01,-1.42171875e+00
-4.65312500e-09,-2.37625000e-01,-1.40742188e+00
-3.85312500e-09,-2.18062500e-01,-1.39898438e+00
-3.05312500e-09,-2.03062500e-01,-1.36062500e+00
-2.25312500e-09,-1.90562500e-01,-1.26554688e+00
-1.45312500e-09,-1.75343750e-01,-9.56953125e-01
-6.53125000e-10,-1.62531250e-01,-5.05703125e-01
1.46875000e-10,-1.53125000e-01,-2.61953125e-01
9.46875000e-10,-1.46250000e-01,-1.39375000e-01
1.74687500e-09,-1.38625000e-01,-9.61718750e-02
2.54687500e-09,-1.31906250e-01,-6.17968750e-02
3.34687500e-09,-1.23000000e-01,-4.50781250e-02
4.14687500e-09,-1.13843750e-01,-4.03906250e-02
4.94687500e-09,-1.10187500e-01,-3.07031250e-02
5.74687500e-09,-1.04750000e-01,-3.64843750e-02
6.54687500e-09,-9.68437500e-02,-3.58593750e-02
7.34687500e-09,-8.93125000e-02,-3.00000000e-02
8.14687500e-09,-9.40000000e-02,-3.85937500e-02
8.94687500e-09,-8.42812500e-02,-2.58593750e-02
9.74687500e-09,-8.02500000e-02,-2.26562500e-02
1.05468750e-08,-7.21562500e-02,-1.67187500e-02
1.13468750e-08,-7.37187500e-02,-1.39062500e-02
1.21468750e-08,-6.83750000e-02,-2.05468750e-02
1.29468750e-08,-6.96250000e-02,-1.17968750e-02
1.37468750e-08,-5.60937500e-02,-8.12500000e-03
1.45468750e-08,-6.15937500e-02,-9.45312500e-03
1.53468750e-08,-5.62812500e-02,-9.37500000e-03
1.61468750e-08,-5.48437500e-02,-6.64062500e-03
1.69468750e-08,-5.05312500e-02,-6.48437500e-03
1.77468750e-08,-5.57812500e-02,-4.29687500e-03
1.85468750e-08,-4.46250000e-02,-9.37500000e-03
1.93468750e-08,-3.93437500e-02,-2.34375000e-04
2.01468750e-08,-3.99687500e-02,2.96875000e-03
2.09468750e-08,-4.03437500e-02,7.81250000e-05
2.17468750e-08,-3.60625000e-02,1.16406250e-02
2.25468750e-08,-2.68125000e-02,3.12500000e-03
2.33468750e-08,-3.13437500e-02,8.35937500e-03
2.41468750e-08,-3.07187500e-02,-7.03125000e-04
2.49468750e-08,-2.73750000e-02,1.05468750e-02
2.57468750e-08,-2.48437500e-02,6.56250000e-03
2.65468750e-08,-2.51562500e-02,1.37500000e-02
2.73468750e-08,-2.53750000e-02,1.03906250e-02
2.81468750e-08,-2.45312500e-02,1.42968750e-02
2.89468750e-08,-2.49687500e-02,1.24218750e-02
2.97468750e-08,-2.37500000e-02,7.03125000e-03
3.05468750e-08,-2.42812500e-02,1.35156250e-02
3.13468750e-08,-2.20000000e-02,2.03906250e-02
3.21468750e-08,-2.14687500e-02,2.26562500e-02
3.29468750e-08,-2.05000000e-02,3.29687500e-02
3.37468750e-08,-2.71875000e-02,3.16406250e-02
3.45468750e-08,-1.73125000e-02,3.75781250e-02
3.53468750e-08,-1.52812500e-02,3.62500000e-02
3.61468750e-08,-1.29687500e-02,3.94531250e-02
3.69468750e-08,-1.76875000e-02,3.23437500e-02
3.77468750e-08,-1.19687500e-02,2.85156250e-02
3.85468750e-08,-1.95625000e-02,3.16406250e-02
3.93468750e-08,-1.20312500e-02,2.88281250e-02
4.01468750e-08,-1.49375000e-02,3.00781250e-02
4.09468750e-08,-1.10312500e-02,2.85937500e-02
4.17468750e-08,-1.64375000e-02,2.38281250e-02
4.25468750e-08,-1.12187500e-02,2.66406250e-02
4.33468750e-08,-1.41875000e-02,2.16406250e-02
4.41468750e-08,-1.28750000e-02,1.32812500e-02
4.49468750e-08,-8.40625000e-03,1.93750000e-02
4.57468750e-08,-6.96875000e-03,2.32031250e-02
4.65468750e-08,-1.23437500e-02,2.75781250e-02
4.73468750e-08,-1.12500000e-02,1.67968750e-02
4.81468750e-08,-5.31250000e-03,1.77343750e-02
4.89468750e-08,-1.07812500e-02,2.02343750e-02
4.97468750e-08,-8.46875000e-03,1.82031250e-02
5.05468750e-08,-1.19062500e-02,1.75781250e-02
5.13468750e-08,-8.65625000e-03,3.07812500e-02
5.21468750e-08,-1.07187500e-02,2.89843750e-02
5.29468750e-08,-1.22812500e-02,3.03125000e-02
5.37468750e-08,-1.49062500e-02,2.59375000e-02
5.45468750e-08,-1.35625000e-02,1.81250000e-02
5.53468750e-08,-1.11250000e-02,1.23437500e-02
5.61468750e-08,-1.35000000e-02,2.24218750e-02
