muon_CSV/TriggerAuto_ALL_20231205194510712.csv

Model,MSO64B
Channel,CH1,,Channel,CH2
Label,,,Label,
Waveform Type,ANALOG,,Waveform Type,ANALOG
Horizontal Units,s,,Horizontal Units,s
Sample Interval,8.00000000e-10,,Sample Interval,8.00000000e-10
Record Length,5000,,Record Length,5000
Zero Index,349.37890625,,Zero Index,349.37890625
Vertical Units,V,,Vertical Units,V
,,,,
ANALOG_Thumbnail,,,ANALOG_Thumbnail,
yOffset,0.000000,,yOffset,0.000000
yPosition,2.160000,,yPosition,2.180000

Labels,,
TIME,CH1,CH2
-2.79503125e-07,8.75000000e-04,9.60937500e-03
-2.78703125e-07,1.31875000e-02,1.97656250e-02
-2.77903125e-07,9.56250000e-03,1.14843750e-02
-2.77103125e-07,1.38437500e-02,1.39062500e-02
-2.76303125e-07,6.37500000e-03,2.16406250e-02
-2.75503125e-07,1.50312500e-02,1.88281250e-02
-2.74703125e-07,6.68750000e-03,1.94531250e-02
-2.73903125e-07,1.02187500e-02,6.95312500e-03
-2.73103125e-07,5.15625000e-03,1.72656250e-02
-2.72303125e-07,1.70625000e-02,2.16406250e-02
-2.71503125e-07,7.56250000e-03,2.93750000e-02
-2.70703125e-07,1.08750000e-02,1.32031250e-02
-2.69903125e-07,5.65625000e-03,1.96093750e-02
-2.69103125e-07,9.65625000e-03,1.40625000e-02
-2.68303125e-07,9.90625000e-03,1.44531250e-02
-2.67503125e-07,1.30000000e-02,1.89062500e-02
-2.66703125e-07,1.12500000e-03,2.34375000e-02
-2.65903125e-07,1.35625000e-02,1.46875000e-02
-2.65103125e-07,1.31562500e-02,1.83593750e-02
-2.64303125e-07,9.78125000e-03,1.61718750e-02
-2.63503125e-07,1.05000000e-02,2.89062500e-02
-2.62703125e-07,8.15625000e-03,1.31250000e-02
-2.61903125e-07,1.58750000e-02,2.30468750e-02
-2.61103125e-07,1.05312500e-02,9.84375000e-03
-2.60303125e-07,1.05937500e-02,1.07031250e-02
-2.59503125e-07,1.19687500e-02,2.74218750e-02
-2.58703125e-07,5.59375000e-03,1.59375000e-02
-2.57903125e-07,9.96875000e-03,1.08593750e-02
-2.57103125e-07,7.71875000e-03,1.11718750e-02
-2.56303125e-07,7.18750000e-03,2.35937500e-02
-2.55503125e-07,9.21875000e-03,1.67968750e-02
-2.54703125e-07,1.24375000e-02,1.41406250e-02
-2.53903125e-07,-6.87500000e-04,1.10937500e-02
-2.53103125e-07,1.22812500e-02,2.17187500e-02
-2.52303125e-07,1.11875000e-02,2.00781250e-02
-2.51503125e-07,1.32812500e-02,1.67187500e-02
-2.50703125e-07,6.62500000e-03,9.60937500e-03
-2.49903125e-07,1.12187500e-02,1.38281250e-02
-2.49103125e-07,5.90625000e-03,2.10156250e-02
-2.48303125e-07,1.10000000e-02,1.53906250e-02
-2.47503125e-07,5.21875000e-03,1.69531250e-02
-2.46703125e-07,1.75625000e-02,1.53906250e-02
-2.45903125e-07,7.65625000e-03,9.76562500e-03
-2.45103125e-07,1.40312500e-02,2.03906250e-02
-2.44303125e-07,2.75000000e-03,1.14843750e-02
-2.43503125e-07,8.62500000e-03,1.57812500e-02
-2.42703125e-07,1.25625000e-02,1.10156250e-02
-2.41903125e-07,1.50937500e-02,1.98437500e-02
-2.41103125e-07,3.12500000e-03,2.28125000e-02
-2.40303125e-07,1.32500000e-02,2.14062500e-02
-2.39503125e-07,1.49687500e-02,1.80468750e-02
-2.38703125e-07,6.31250000e-03,1.42187500e-02
-2.37903125e-07,7.34375000e-03,1.75781250e-02
-2.37103125e-07,1.19375000e-02,1.35156250e-02
-2.36303125e-07,1.35312500e-02,2.22656250e-02
-2.35503125e-07,1.02187500e-02,1.33593750e-02
-2.34703125e-07,9.93750000e-03,1.64062500e-02
-2.33903125e-07,1.15625000e-02,2.21093750e-02
-2.33103125e-07,6.40625000e-03,2.46875000e-02
-2.32303125e-07,1.20312500e-02,9.21875000e-03
-2.31503125e-07,3.50000000e-03,1.32031250e-02
-2.30703125e-07,8.18750000e-03,1.94531250e-02
-2.29903125e-07,1.15625000e-02,1.29687500e-02
-2.29103125e-07,1.16250000e-02,1.88281250e-02
-2.28303125e-07,7.81250000e-03,8.98437500e-03
-2.27503125e-07,1.39375000e-02,2.37500000e-02
-2.26703125e-07,9.40625000e-03,1.40625000e-02
-2.25903125e-07,8.46875000e-03,2.49218750e-02
-2.25103125e-07,6.06250000e-03,8.67187500e-03
-2.24303125e-07,1.36875000e-02,1.51562500e-02
-2.23503125e-07,5.71875000e-03,2.01562500e-02
-2.22703125e-07,1.11562500e-02,1.93750000e-02
-2.21903125e-07,6.03125000e-03,2.81250000e-03
-2.21103125e-07,1.25312500e-02,1.26562500e-02
-2.20303125e-07,6.71875000e-03,1.29687500e-02
-2.19503125e-07,1.14687500e-02,9.92187500e-03
-2.18703125e-07,5.03125000e-03,1.32031250e-02
-2.17903125e-07,7.68750000e-03,2.57031250e-02
-2.17103125e-07,1.12812500e-02,1.00781250e-02
-2.16303125e-07,1.44687500e-02,1.93750000e-02
-2.15503125e-07,5.65625000e-03,1.73437500e-02
-2.14703125e-07,4.18750000e-03,1.71875000e-02
-2.13903125e-07,1.21875000e-02,2.46875000e-02
-2.13103125e-07,1.12187500e-02,9.53125000e-03
-2.12303125e-07,9.50000000e-03,3.10156250e-02
-2.11503125e-07,8.09375000e-03,1.64843750e-02
-2.10703125e-07,1.10000000e-02,2.95312500e-02
-2.09903125e-07,7.90625000e-03,1.56250000e-02
-2.09103125e-07,1.00937500e-02,1.22656250e-02
-2.08303125e-07,9.34375000e-03,1.82031250e-02
-2.07503125e-07,4.43750000e-03,2.14062500e-02
-2.06703125e-07,1.05625000e-02,1.27343750e-02
-2.05903125e-07,6.34375000e-03,1.77343750e-02
-2.05103125e-07,7.65625000e-03,2.19531250e-02
-2.04303125e-07,7.87500000e-03,1.28906250e-02
-2.03503125e-07,8.81250000e-03,1.96093750e-02
-2.02703125e-07,6.00000000e-03,2.53906250e-02
-2.01903125e-07,7.90625000e-03,1.97656250e-02
-2.01103125e-07,1.15625000e-02,1.01562500e-02
-2.00303125e-07,1.36250000e-02,1.75781250e-02
-1.99503125e-07,5.12500000e-03,8.28125000e-03
-1.98703125e-07,1.29687500e-02,2.11718750e-02
-1.97903125e-07,7.59375000e-03,1.99218750e-02
-1.97103125e-07,9.09375000e-03,1.35156250e-02
-1.96303125e-07,4.15625000e-03,9.68750000e-03
-1.95503125e-07,1.41875000e-02,1.97656250e-02
-1.94703125e-07,8.37500000e-03,1.87500000e-02
-1.93903125e-07,1.48750000e-02,1.22656250e-02
-1.93103125e-07,4.50000000e-03,2.09375000e-02
-1.92303125e-07,4.00000000e-03,1.34375000e-02
-1.91503125e-07,1.25312500e-02,1.57031250e-02
-1.90703125e-07,1.27187500e-02,1.42187500e-02
-1.89903125e-07,8.46875000e-03,1.82812500e-02
-1.89103125e-07,1.08750000e-02,1.54687500e-02
-1.88303125e-07,1.33125000e-02,1.17187500e-02
-1.87503125e-07,1.18750000e-02,1.70312500e-02
-1.86703125e-07,1.00000000e-02,2.02343750e-02
-1.85903125e-07,6.03125000e-03,1.28125000e-02
-1.85103125e-07,1.14375000e-02,1.57812500e-02
-1.84303125e-07,1.67812500e-02,1.81250000e-02
-1.83503125e-07,8.93750000e-03,9.68750000e-03
-1.82703125e-07,1.12187500e-02,1.71093750e-02
-1.81903125e-07,1.31250000e-03,1.82812500e-02
-1.81103125e-07,1.39062500e-02,1.55468750e-02
-1.80303125e-07,1.30625000e-02,2.10937500e-02
-1.79503125e-07,1.05312500e-02,2.59375000e-02
-1.78703125e-07,8.31250000e-03,1.07812500e-02
-1.77903125e-07,1.19062500e-02,2.49218750e-02
-1.77103125e-07,5.00000000e-03,1.32031250e-02
-1.76303125e-07,1.03125000e-02,1.30468750e-02
-1.75503125e-07,6.06250000e-03,2.08593750e-02
-1.74703125e-07,1.16875000e-02,1.92968750e-02
-1.73903125e-07,4.62500000e-03,1.02343750e-02
-1.73103125e-07,1.17187500e-02,1.43750000e-02
-1.72303125e-07,1.20000000e-02,1.76562500e-02
-1.71503125e-07,7.43750000e-03,2.28906250e-02
-1.70703125e-07,5.68750000e-03,1.67187500e-02
-1.69903125e-07,1.18125000e-02,2.53906250e-02
-1.69103125e-07,1.09375000e-02,1.05468750e-02
-1.68303125e-07,5.84375000e-03,7.81250000e-03
-1.67503125e-07,5.12500000e-03,1.64062500e-02
-1.66703125e-07,5.62500000e-03,2.28125000e-02
-1.65903125e-07,1.06875000e-02,2.18750000e-03
-1.65103125e-07,1.08437500e-02,1.94531250e-02
-1.64303125e-07,6.12500000e-03,2.71875000e-02
-1.63503125e-07,9.09375000e-03,9.45312500e-03
-1.62703125e-07,1.12187500e-02,1.25000000e-02
-1.61903125e-07,8.21875000e-03,1.76562500e-02
-1.61103125e-07,6.75000000e-03,1.75781250e-02
-1.60303125e-07,7.46875000e-03,1.82812500e-02
-1.59503125e-07,1.57187500e-02,1.74218750e-02
-1.58703125e-07,8.90625000e-03,1.75781250e-02
-1.57903125e-07,1.01875000e-02,1.60937500e-02
-1.57103125e-07,8.93750000e-03,1.42968750e-02
-1.56303125e-07,4.59375000e-03,2.14843750e-02
-1.55503125e-07,1.04062500e-02,8.82812500e-03
-1.54703125e-07,6.53125000e-03,2.38281250e-02
-1.53903125e-07,7.68750000e-03,2.25000000e-02
-1.53103125e-07,7.71875000e-03,1.35156250e-02
-1.52303125e-07,1.77500000e-02,1.88281250e-02
-1.51503125e-07,2.87500000e-03,1.21093750e-02
-1.50703125e-07,7.03125000e-03,1.36718750e-02
-1.49903125e-07,8.40625000e-03,1.42968750e-02
-1.49103125e-07,8.75000000e-03,2.15625000e-02
-1.48303125e-07,3.68750000e-03,1.87500000e-02
-1.47503125e-07,1.00625000e-02,1.67968750e-02
-1.46703125e-07,7.03125000e-03,1.28906250e-02
-1.45903125e-07,9.15625000e-03,1.30468750e-02
-1.45103125e-07,6.37500000e-03,1.43750000e-02
-1.44303125e-07,1.26250000e-02,2.75781250e-02
-1.43503125e-07,5.03125000e-03,1.97656250e-02
-1.42703125e-07,1.12187500e-02,1.01562500e-02
-1.41903125e-07,6.84375000e-03,1.22656250e-02
-1.41103125e-07,9.87500000e-03,1.82031250e-02
-1.40303125e-07,1.00000000e-02,1.13281250e-02
-1.39503125e-07,1.55312500e-02,9.06250000e-03
-1.38703125e-07,8.46875000e-03,1.16406250e-02
-1.37903125e-07,8.21875000e-03,1.51562500e-02
-1.37103125e-07,1.01562500e-02,1.62500000e-02
-1.36303125e-07,8.78125000e-03,1.24218750e-02
-1.35503125e-07,8.37500000e-03,2.03906250e-02
-1.34703125e-07,9.12500000e-03,1.29687500e-02
-1.33903125e-07,1.05312500e-02,2.04687500e-02
-1.33103125e-07,8.75000000e-03,1.55468750e-02
-1.32303125e-07,1.29062500e-02,1.64062500e-02
-1.31503125e-07,1.37187500e-02,1.37500000e-02
-1.30703125e-07,7.28125000e-03,1.18750000e-02
-1.29903125e-07,1.24687500e-02,1.20312500e-02
-1.29103125e-07,7.96875000e-03,2.20312500e-02
-1.28303125e-07,7.90625000e-03,1.31250000e-02
-1.27503125e-07,8.90625000e-03,1.09375000e-02
-1.26703125e-07,1.18750000e-02,1.75781250e-02
-1.25903125e-07,1.06250000e-03,1.89062500e-02
-1.25103125e-07,1.63750000e-02,2.60937500e-02
-1.24303125e-07,1.10625000e-02,1.85937500e-02
-1.23503125e-07,1.48437500e-02,1.75781250e-02
-1.22703125e-07,6.03125000e-03,2.48437500e-02
-1.21903125e-07,1.55312500e-02,2.26562500e-02
-1.21103125e-07,2.21875000e-03,1.35156250e-02
-1.20303125e-07,7.96875000e-03,1.85156250e-02
-1.19503125e-07,8.78125000e-03,2.23437500e-02
-1.18703125e-07,1.15625000e-02,2.30468750e-02
-1.17903125e-07,6.62500000e-03,2.35937500e-02
-1.17103125e-07,1.24375000e-02,1.64062500e-02
-1.16303125e-07,4.46875000e-03,2.25781250e-02
-1.15503125e-07,5.21875000e-03,1.85156250e-02
-1.14703125e-07,7.96875000e-03,1.94531250e-02
-1.13903125e-07,1.46562500e-02,2.80468750e-02
-1.13103125e-07,8.75000000e-03,2.90625000e-02
-1.12303125e-07,9.68750000e-03,1.59375000e-02
-1.11503125e-07,1.40312500e-02,2.35937500e-02
-1.10703125e-07,8.90625000e-03,1.48437500e-02
-1.09903125e-07,8.31250000e-03,2.78906250e-02
-1.09103125e-07,7.75000000e-03,1.93750000e-02
-1.08303125e-07,9.78125000e-03,2.46093750e-02
-1.07503125e-07,8.75000000e-03,2.22656250e-02
-1.06703125e-07,1.20625000e-02,1.46875000e-02
-1.05903125e-07,1.24375000e-02,2.00781250e-02
-1.05103125e-07,5.43750000e-03,1.67968750e-02
-1.04303125e-07,1.19062500e-02,1.36718750e-02
-1.03503125e-07,1.06875000e-02,1.99218750e-02
-1.02703125e-07,9.53125000e-03,2.03125000e-02
-1.01903125e-07,1.05000000e-02,1.53906250e-02
-1.01103125e-07,1.19375000e-02,1.53906250e-02
-1.00303125e-07,2.12500000e-03,2.10156250e-02
-9.95031250e-08,9.96875000e-03,2.92968750e-02
-9.87031250e-08,9.46875000e-03,1.67187500e-02
-9.79031250e-08,1.38750000e-02,2.29687500e-02
-9.71031250e-08,4.31250000e-03,1.23437500e-02
-9.63031250e-08,1.47187500e-02,2.60156250e-02
-9.55031250e-08,3.25000000e-03,1.96093750e-02
-9.47031250e-08,1.12500000e-02,2.00000000e-02
-9.39031250e-08,3.06250000e-03,1.74218750e-02
-9.31031250e-08,1.30625000e-02,2.95312500e-02
-9.23031250e-08,8.18750000e-03,2.45312500e-02
-9.15031250e-08,6.37500000e-03,1.89062500e-02
-9.07031250e-08,6.50000000e-03,2.96093750e-02
-8.99031250e-08,7.12500000e-03,2.99218750e-02
-8.91031250e-08,1.00000000e-02,1.73437500e-02
-8.83031250e-08,1.58437500e-02,1.96875000e-02
-8.75031250e-08,2.40625000e-03,2.14843750e-02
-8.67031250e-08,1.25625000e-02,2.10937500e-02
-8.59031250e-08,1.13437500e-02,2.95312500e-02
-8.51031250e-08,7.46875000e-03,2.33593750e-02
-8.43031250e-08,6.96875000e-03,3.21875000e-02
-8.35031250e-08,1.18437500e-02,1.66406250e-02
-8.27031250e-08,1.05000000e-02,2.71875000e-02
-8.19031250e-08,9.00000000e-03,2.26562500e-02
-8.11031250e-08,1.15625000e-02,1.97656250e-02
-8.03031250e-08,1.26875000e-02,2.48437500e-02
-7.95031250e-08,2.81250000e-03,1.75781250e-02
-7.87031250e-08,1.35625000e-02,1.90625000e-02
-7.79031250e-08,1.51250000e-02,2.37500000e-02
-7.71031250e-08,8.56250000e-03,2.07812500e-02
-7.63031250e-08,1.00312500e-02,1.57812500e-02
-7.55031250e-08,1.15625000e-02,2.82812500e-02
-7.47031250e-08,8.68750000e-03,2.27343750e-02
-7.39031250e-08,1.17500000e-02,2.40625000e-02
-7.31031250e-08,1.03125000e-02,2.39062500e-02
-7.23031250e-08,1.29687500e-02,1.71093750e-02
-7.15031250e-08,4.90625000e-03,1.47656250e-02
-7.07031250e-08,1.04375000e-02,1.71875000e-02
-6.99031250e-08,7.40625000e-03,1.20312500e-02
-6.91031250e-08,8.46875000e-03,2.05468750e-02
-6.83031250e-08,4.00000000e-03,5.78125000e-03
-6.75031250e-08,1.46250000e-02,2.20312500e-02
-6.67031250e-08,6.25000000e-03,2.00781250e-02
-6.59031250e-08,1.01562500e-02,1.08593750e-02
-6.51031250e-08,6.71875000e-03,2.01562500e-02
-6.43031250e-08,1.04062500e-02,2.51562500e-02
-6.35031250e-08,7.68750000e-03,7.89062500e-03
-6.27031250e-08,1.45312500e-02,1.90625000e-02
-6.19031250e-08,7.81250000e-04,2.62500000e-02
-6.11031250e-08,7.81250000e-03,2.21093750e-02
-6.03031250e-08,1.14375000e-02,-3.45703125e-01
-5.95031250e-08,7.37500000e-03,-9.25156250e-01
-5.87031250e-08,7.96875000e-03,-1.25210938e+00
-5.79031250e-08,1.01250000e-02,-1.31804688e+00
-5.71031250e-08,1.13125000e-02,-1.33601563e+00
-5.63031250e-08,1.10312500e-02,-1.38421875e+00
-5.55031250e-08,1.27812500e-02,-1.39906250e+00
-5.47031250e-08,6.68750000e-03,-1.39140625e+00
-5.39031250e-08,9.68750000e-03,-1.39601562e+00
-5.31031250e-08,1.09687500e-02,-1.40500000e+00
-5.23031250e-08,1.19375000e-02,-1.40468750e+00
-5.15031250e-08,1.03125000e-02,-1.41406250e+00
-5.07031250e-08,5.12500000e-03,-1.41164062e+00
-4.99031250e-08,1.62187500e-02,-1.39250000e+00
-4.91031250e-08,2.96875000e-03,-1.42453125e+00
-4.83031250e-08,1.53125000e-02,-1.41875000e+00
-4.75031250e-08,8.65625000e-03,-1.41640625e+00
-4.67031250e-08,1.41562500e-02,-1.41429688e+00
-4.59031250e-08,5.50000000e-03,-1.41562500e+00
-4.51031250e-08,1.56250000e-02,-1.40656250e+00
-4.43031250e-08,5.15625000e-03,-1.42218750e+00
-4.35031250e-08,9.03125000e-03,-1.41593750e+00
-4.27031250e-08,6.59375000e-03,-1.43312500e+00
-4.19031250e-08,1.31250000e-02,-1.42656250e+00
-4.11031250e-08,3.37500000e-03,-1.42656250e+00
-4.03031250e-08,1.01562500e-02,-1.42125000e+00
-3.95031250e-08,3.25000000e-03,-1.41273438e+00
-3.87031250e-08,4.40625000e-03,-1.43046875e+00
-3.79031250e-08,9.71875000e-03,-1.42835938e+00
-3.71031250e-08,1.36875000e-02,-1.42031250e+00
-3.63031250e-08,2.46875000e-03,-1.42820313e+00
-3.55031250e-08,1.01875000e-02,-1.42828125e+00
-3.47031250e-08,7.15625000e-03,-1.42156250e+00
-3.39031250e-08,-3.96875000e-03,-1.41359375e+00
-3.31031250e-08,-1.74062500e-02,-1.42953125e+00
-3.23031250e-08,-4.08125000e-02,-1.43062500e+00
-3.15031250e-08,-7.15625000e-02,-1.41921875e+00
-3.07031250e-08,-1.13781250e-01,-1.41523438e+00
-2.99031250e-08,-1.61875000e-01,-1.42304688e+00
-2.91031250e-08,-2.09218750e-01,-1.42585938e+00
-2.83031250e-08,-2.48531250e-01,-1.42414063e+00
-2.75031250e-08,-2.78718750e-01,-1.41000000e+00
-2.67031250e-08,-3.06937500e-01,-1.41953125e+00
-2.59031250e-08,-3.25343750e-01,-1.41687500e+00
-2.51031250e-08,-3.32281250e-01,-1.40515625e+00
-2.43031250e-08,-3.44312500e-01,-1.41054688e+00
-2.35031250e-08,-3.51375000e-01,-1.41625000e+00
-2.27031250e-08,-3.47968750e-01,-1.41929688e+00
-2.19031250e-08,-3.53312500e-01,-1.41835938e+00
-2.11031250e-08,-3.48718750e-01,-1.41093750e+00
-2.03031250e-08,-3.45843750e-01,-1.40851563e+00
-1.95031250e-08,-3.24062500e-01,-1.41445313e+00
-1.87031250e-08,-3.22531250e-01,-1.42546875e+00
-1.79031250e-08,-3.11312500e-01,-1.41835938e+00
-1.71031250e-08,-2.97343750e-01,-1.42906250e+00
-1.63031250e-08,-2.76625000e-01,-1.41523438e+00
-1.55031250e-08,-2.67218750e-01,-1.42039063e+00
-1.47031250e-08,-2.51187500e-01,-1.41921875e+00
-1.39031250e-08,-2.42625000e-01,-1.42273438e+00
-1.31031250e-08,-2.28812500e-01,-1.42687500e+00
-1.23031250e-08,-2.12937500e-01,-1.41828125e+00
-1.15031250e-08,-1.98750000e-01,-1.42484375e+00
-1.07031250e-08,-1.93281250e-01,-1.42070313e+00
-9.90312500e-09,-1.77906250e-01,-1.42789063e+00
-9.10312500e-09,-1.65906250e-01,-1.41828125e+00
-8.30312500e-09,-1.57656250e-01,-1.42578125e+00
-7.50312500e-09,-1.39500000e-01,-1.42859375e+00
-6.70312500e-09,-1.32156250e-01,-1.42968750e+00
-5.90312500e-09,-1.22312500e-01,-1.42320313e+00
-5.10312500e-09,-1.10000000e-01,-1.41968750e+00
-4.30312500e-09,-1.05843750e-01,-1.41578125e+00
-3.50312500e-09,-9.62500000e-02,-1.39007813e+00
-2.70312500e-09,-9.36562500e-02,-1.33320313e+00
-1.90312500e-09,-8.29375000e-02,-1.18648438e+00
-1.10312500e-09,-7.72187500e-02,-7.85468750e-01
-3.03125000e-10,-7.21875000e-02,-3.70703125e-01
4.96875000e-10,-6.28437500e-02,-2.10312500e-01
1.29687500e-09,-6.19062500e-02,-1.06250000e-01
2.09687500e-09,-5.95000000e-02,-7.25781250e-02
2.89687500e-09,-5.04687500e-02,-3.92968750e-02
3.69687500e-09,-5.25312500e-02,-3.61718750e-02
4.49687500e-09,-4.63437500e-02,-3.14843750e-02
5.29687500e-09,-4.82187500e-02,-2.40625000e-02
6.09687500e-09,-3.18750000e-02,-2.41406250e-02
6.89687500e-09,-3.95312500e-02,-2.82812500e-02
7.69687500e-09,-3.56875000e-02,-2.07812500e-02
8.49687500e-09,-3.84375000e-02,-2.35156250e-02
9.29687500e-09,-2.62812500e-02,-1.55468750e-02
1.00968750e-08,-2.95625000e-02,-1.69531250e-02
1.08968750e-08,-2.18750000e-02,-1.67968750e-02
1.16968750e-08,-2.95000000e-02,-1.24218750e-02
1.24968750e-08,-2.51875000e-02,-9.76562500e-03
1.32968750e-08,-1.84375000e-02,-1.32812500e-02
1.40968750e-08,-1.35312500e-02,-5.62500000e-03
1.48968750e-08,-2.31250000e-02,5.46875000e-04
1.56968750e-08,-1.70000000e-02,-1.05468750e-02
1.64968750e-08,-1.06250000e-02,-6.17187500e-03
1.72968750e-08,-1.72812500e-02,1.95312500e-03
1.80968750e-08,-1.42500000e-02,1.05468750e-02
1.88968750e-08,-1.25000000e-02,1.25000000e-02
1.96968750e-08,-1.45312500e-02,1.95312500e-03
2.04968750e-08,-7.06250000e-03,5.31250000e-03
2.12968750e-08,-7.28125000e-03,-1.25000000e-03
2.20968750e-08,-4.90625000e-03,7.65625000e-03
2.28968750e-08,-7.71875000e-03,1.80468750e-02
2.36968750e-08,-2.06250000e-03,-2.18750000e-03
2.44968750e-08,-4.56250000e-03,1.25781250e-02
2.52968750e-08,-5.43750000e-03,5.15625000e-03
2.60968750e-08,-9.40625000e-03,5.31250000e-03
2.68968750e-08,-5.00000000e-04,1.81250000e-02
2.76968750e-08,-1.03125000e-02,1.14843750e-02
2.84968750e-08,1.65625000e-03,2.14843750e-02
2.92968750e-08,-4.50000000e-03,1.86718750e-02
3.00968750e-08,5.93750000e-04,2.32812500e-02
3.08968750e-08,-4.71875000e-03,2.21093750e-02
3.16968750e-08,1.28125000e-03,2.46093750e-02
3.24968750e-08,-4.28125000e-03,3.48437500e-02
3.32968750e-08,2.84375000e-03,4.16406250e-02
3.40968750e-08,-4.18750000e-03,3.98437500e-02
3.48968750e-08,4.03125000e-03,5.62500000e-02
3.56968750e-08,1.56250000e-03,4.26562500e-02
3.64968750e-08,4.93750000e-03,4.17968750e-02
3.72968750e-08,-4.25000000e-03,4.89843750e-02
3.80968750e-08,1.09375000e-03,3.29687500e-02
3.88968750e-08,4.81250000e-03,3.25000000e-02
3.96968750e-08,6.81250000e-03,3.25000000e-02
4.04968750e-08,-2.28125000e-03,4.15625000e-02
4.12968750e-08,2.43750000e-03,2.74218750e-02
4.20968750e-08,1.21875000e-03,2.82812500e-02
4.28968750e-08,1.21875000e-03,2.69531250e-02
4.36968750e-08,3.68750000e-03,3.41406250e-02
4.44968750e-08,-4.06250000e-04,2.46875000e-02
4.52968750e-08,3.37500000e-03,3.47656250e-02
4.60968750e-08,5.62500000e-04,2.63281250e-02
4.68968750e-08,6.65625000e-03,2.80468750e-02
4.76968750e-08,1.15625000e-03,2.77343750e-02
4.84968750e-08,-4.68750000e-04,2.38281250e-02
4.92968750e-08,3.87500000e-03,3.29687500e-02
5.00968750e-08,1.43750000e-03,1.82031250e-02
5.08968750e-08,3.21875000e-03,2.92187500e-02
5.16968750e-08,-1.40625000e-03,2.27343750e-02
5.24968750e-08,9.09375000e-03,2.77343750e-02
5.32968750e-08,1.28125000e-03,3.46875000e-02
5.40968750e-08,5.09375000e-03,3.10937500e-02
5.48968750e-08,4.09375000e-03,2.90625000e-02
5.56968750e-08,4.21875000e-03,1.91406250e-02
5.64968750e-08,2.81250000e-04,2.27343750e-02
5.72968750e-08,8.40625000e-03,3.04687500e-02
