muon_CSV/TriggerAuto_ALL_20231205194013455.csv

Model,MSO64B
Channel,CH1,,Channel,CH2
Label,,,Label,
Waveform Type,ANALOG,,Waveform Type,ANALOG
Horizontal Units,s,,Horizontal Units,s
Sample Interval,8.00000000e-10,,Sample Interval,8.00000000e-10
Record Length,5000,,Record Length,5000
Zero Index,349.66796875,,Zero Index,349.66796875
Vertical Units,V,,Vertical Units,V
,,,,
ANALOG_Thumbnail,,,ANALOG_Thumbnail,
yOffset,0.000000,,yOffset,0.000000
yPosition,2.160000,,yPosition,2.180000

Labels,,
TIME,CH1,CH2
-2.79734375e-07,9.59375000e-03,-3.43750000e-03
-2.78934375e-07,4.93750000e-03,1.45312500e-02
-2.78134375e-07,8.25000000e-03,1.96875000e-02
-2.77334375e-07,6.96875000e-03,1.58593750e-02
-2.76534375e-07,1.16562500e-02,1.36718750e-02
-2.75734375e-07,8.71875000e-03,1.45312500e-02
-2.74934375e-07,1.23750000e-02,7.03125000e-03
-2.74134375e-07,1.05000000e-02,7.50000000e-03
-2.73334375e-07,1.09687500e-02,3.28125000e-03
-2.72534375e-07,2.25000000e-03,1.10937500e-02
-2.71734375e-07,1.07500000e-02,1.58593750e-02
-2.70934375e-07,8.09375000e-03,1.40625000e-02
-2.70134375e-07,1.12187500e-02,1.77343750e-02
-2.69334375e-07,3.53125000e-03,8.04687500e-03
-2.68534375e-07,1.22812500e-02,2.79687500e-02
-2.67734375e-07,3.59375000e-03,2.26562500e-02
-2.66934375e-07,1.03437500e-02,1.41406250e-02
-2.66134375e-07,5.71875000e-03,3.82812500e-03
-2.65334375e-07,8.46875000e-03,2.32031250e-02
-2.64534375e-07,1.02500000e-02,4.06250000e-03
-2.63734375e-07,1.31875000e-02,3.59375000e-03
-2.62934375e-07,5.56250000e-03,1.53125000e-02
-2.62134375e-07,5.25000000e-03,7.81250000e-03
-2.61334375e-07,1.19375000e-02,1.15625000e-02
-2.60534375e-07,9.00000000e-03,2.04687500e-02
-2.59734375e-07,8.21875000e-03,1.36718750e-02
-2.58934375e-07,1.10000000e-02,1.06250000e-02
-2.58134375e-07,1.04687500e-02,1.91406250e-02
-2.57334375e-07,9.18750000e-03,1.09375000e-02
-2.56534375e-07,5.53125000e-03,1.19531250e-02
-2.55734375e-07,1.02187500e-02,1.30468750e-02
-2.54934375e-07,4.90625000e-03,9.21875000e-03
-2.54134375e-07,1.06875000e-02,1.32031250e-02
-2.53334375e-07,7.68750000e-03,7.96875000e-03
-2.52534375e-07,6.50000000e-03,1.78906250e-02
-2.51734375e-07,8.65625000e-03,6.48437500e-03
-2.50934375e-07,9.93750000e-03,1.67187500e-02
-2.50134375e-07,1.06250000e-03,1.16406250e-02
-2.49334375e-07,1.29687500e-02,9.84375000e-03
-2.48534375e-07,7.65625000e-03,3.35937500e-03
-2.47734375e-07,1.14062500e-02,1.94531250e-02
-2.46934375e-07,6.34375000e-03,9.68750000e-03
-2.46134375e-07,1.06562500e-02,1.93750000e-02
-2.45334375e-07,8.81250000e-03,1.54687500e-02
-2.44534375e-07,9.09375000e-03,1.05468750e-02
-2.43734375e-07,7.43750000e-03,1.32031250e-02
-2.42934375e-07,1.33125000e-02,2.11718750e-02
-2.42134375e-07,3.96875000e-03,1.48437500e-02
-2.41334375e-07,1.16875000e-02,1.97656250e-02
-2.40534375e-07,5.93750000e-04,8.67187500e-03
-2.39734375e-07,7.53125000e-03,6.09375000e-03
-2.38934375e-07,6.00000000e-03,1.17968750e-02
-2.38134375e-07,1.52812500e-02,9.29687500e-03
-2.37334375e-07,2.43750000e-03,1.84375000e-02
-2.36534375e-07,7.21875000e-03,9.06250000e-03
-2.35734375e-07,1.05625000e-02,1.57812500e-02
-2.34934375e-07,1.05000000e-02,1.79687500e-03
-2.34134375e-07,1.07187500e-02,5.54687500e-03
-2.33334375e-07,6.87500000e-03,1.08593750e-02
-2.32534375e-07,1.21250000e-02,2.45312500e-02
-2.31734375e-07,8.15625000e-03,7.57812500e-03
-2.30934375e-07,7.87500000e-03,1.53906250e-02
-2.30134375e-07,7.96875000e-03,1.62500000e-02
-2.29334375e-07,4.09375000e-03,7.10937500e-03
-2.28534375e-07,7.56250000e-03,1.06250000e-02
-2.27734375e-07,8.65625000e-03,1.50781250e-02
-2.26934375e-07,7.84375000e-03,5.78125000e-03
-2.26134375e-07,9.65625000e-03,9.37500000e-03
-2.25334375e-07,1.18750000e-02,8.59375000e-03
-2.24534375e-07,3.78125000e-03,1.07031250e-02
-2.23734375e-07,9.90625000e-03,9.29687500e-03
-2.22934375e-07,7.84375000e-03,1.86718750e-02
-2.22134375e-07,1.29062500e-02,1.23437500e-02
-2.21334375e-07,3.53125000e-03,1.33593750e-02
-2.20534375e-07,9.81250000e-03,1.64062500e-02
-2.19734375e-07,7.31250000e-03,1.96875000e-02
-2.18934375e-07,8.62500000e-03,1.28125000e-02
-2.18134375e-07,8.53125000e-03,8.51562500e-03
-2.17334375e-07,9.81250000e-03,1.25000000e-02
-2.16534375e-07,7.68750000e-03,1.78125000e-02
-2.15734375e-07,1.00937500e-02,1.22656250e-02
-2.14934375e-07,5.06250000e-03,9.29687500e-03
-2.14134375e-07,3.43750000e-03,2.03906250e-02
-2.13334375e-07,1.20000000e-02,1.09375000e-02
-2.12534375e-07,9.59375000e-03,7.89062500e-03
-2.11734375e-07,7.56250000e-03,8.59375000e-03
-2.10934375e-07,9.90625000e-03,1.25781250e-02
-2.10134375e-07,1.16562500e-02,1.51562500e-02
-2.09334375e-07,6.15625000e-03,1.03906250e-02
-2.08534375e-07,1.00312500e-02,1.13281250e-02
-2.07734375e-07,5.78125000e-03,1.05468750e-02
-2.06934375e-07,8.09375000e-03,1.86718750e-02
-2.06134375e-07,8.84375000e-03,1.95312500e-02
-2.05334375e-07,1.00312500e-02,1.30468750e-02
-2.04534375e-07,5.18750000e-03,1.96875000e-02
-2.03734375e-07,8.46875000e-03,1.48437500e-02
-2.02934375e-07,7.46875000e-03,4.37500000e-03
-2.02134375e-07,3.65625000e-03,1.07812500e-02
-2.01334375e-07,9.71875000e-03,2.15625000e-02
-2.00534375e-07,8.56250000e-03,5.70312500e-03
-1.99734375e-07,1.01875000e-02,1.65625000e-02
-1.98934375e-07,9.68750000e-04,6.32812500e-03
-1.98134375e-07,7.21875000e-03,1.60156250e-02
-1.97334375e-07,5.43750000e-03,3.04687500e-03
-1.96534375e-07,1.13125000e-02,1.41406250e-02
-1.95734375e-07,5.28125000e-03,9.68750000e-03
-1.94934375e-07,1.31875000e-02,8.12500000e-03
-1.94134375e-07,3.40625000e-03,1.26562500e-02
-1.93334375e-07,9.93750000e-03,1.46093750e-02
-1.92534375e-07,4.28125000e-03,1.38281250e-02
-1.91734375e-07,1.10312500e-02,1.46093750e-02
-1.90934375e-07,6.37500000e-03,2.16406250e-02
-1.90134375e-07,1.08750000e-02,1.09375000e-02
-1.89334375e-07,1.71875000e-03,1.78125000e-02
-1.88534375e-07,8.12500000e-03,1.42187500e-02
-1.87734375e-07,9.59375000e-03,1.30468750e-02
-1.86934375e-07,9.50000000e-03,1.17187500e-02
-1.86134375e-07,4.75000000e-03,9.76562500e-03
-1.85334375e-07,1.01250000e-02,1.11718750e-02
-1.84534375e-07,1.01875000e-02,1.31250000e-02
-1.83734375e-07,4.68750000e-03,9.14062500e-03
-1.82934375e-07,7.09375000e-03,8.04687500e-03
-1.82134375e-07,6.62500000e-03,1.33593750e-02
-1.81334375e-07,9.25000000e-03,2.12500000e-02
-1.80534375e-07,5.65625000e-03,1.82031250e-02
-1.79734375e-07,8.03125000e-03,1.83593750e-02
-1.78934375e-07,5.56250000e-03,1.67968750e-02
-1.78134375e-07,5.78125000e-03,1.50000000e-02
-1.77334375e-07,9.15625000e-03,1.35937500e-02
-1.76534375e-07,5.56250000e-03,7.81250000e-03
-1.75734375e-07,8.78125000e-03,2.03906250e-02
-1.74934375e-07,1.01250000e-02,6.87500000e-03
-1.74134375e-07,9.68750000e-03,1.13281250e-02
-1.73334375e-07,3.78125000e-03,1.43750000e-02
-1.72534375e-07,1.30625000e-02,8.43750000e-03
-1.71734375e-07,8.46875000e-03,1.13281250e-02
-1.70934375e-07,8.31250000e-03,7.10937500e-03
-1.70134375e-07,6.12500000e-03,8.82812500e-03
-1.69334375e-07,1.23125000e-02,1.66406250e-02
-1.68534375e-07,1.81250000e-03,1.64843750e-02
-1.67734375e-07,1.12500000e-02,2.16406250e-02
-1.66934375e-07,8.56250000e-03,8.98437500e-03
-1.66134375e-07,6.31250000e-03,1.92187500e-02
-1.65334375e-07,5.50000000e-03,1.55468750e-02
-1.64534375e-07,8.81250000e-03,1.37500000e-02
-1.63734375e-07,7.00000000e-03,1.57031250e-02
-1.62934375e-07,6.93750000e-03,1.75781250e-02
-1.62134375e-07,9.68750000e-03,8.98437500e-03
-1.61334375e-07,1.52812500e-02,2.11718750e-02
-1.60534375e-07,6.59375000e-03,1.07031250e-02
-1.59734375e-07,5.71875000e-03,1.12500000e-02
-1.58934375e-07,1.29375000e-02,1.75781250e-02
-1.58134375e-07,7.00000000e-03,6.32812500e-03
-1.57334375e-07,7.25000000e-03,8.04687500e-03
-1.56534375e-07,8.46875000e-03,1.72656250e-02
-1.55734375e-07,6.40625000e-03,1.83593750e-02
-1.54934375e-07,9.78125000e-03,1.44531250e-02
-1.54134375e-07,1.14375000e-02,2.17187500e-02
-1.53334375e-07,1.17500000e-02,2.20312500e-02
-1.52534375e-07,4.06250000e-03,1.14062500e-02
-1.51734375e-07,8.15625000e-03,3.82812500e-03
-1.50934375e-07,6.03125000e-03,1.32812500e-02
-1.50134375e-07,8.68750000e-03,1.29687500e-02
-1.49334375e-07,9.06250000e-03,2.50000000e-03
-1.48534375e-07,8.56250000e-03,9.45312500e-03
-1.47734375e-07,3.43750000e-04,1.19531250e-02
-1.46934375e-07,1.27500000e-02,1.33593750e-02
-1.46134375e-07,1.03750000e-02,1.45312500e-02
-1.45334375e-07,1.06250000e-02,2.04687500e-02
-1.44534375e-07,4.90625000e-03,1.96093750e-02
-1.43734375e-07,1.13437500e-02,1.43750000e-02
-1.42934375e-07,5.34375000e-03,2.10156250e-02
-1.42134375e-07,9.50000000e-03,1.73437500e-02
-1.41334375e-07,4.09375000e-03,1.28125000e-02
-1.40534375e-07,1.20625000e-02,1.15625000e-02
-1.39734375e-07,6.53125000e-03,1.10156250e-02
-1.38934375e-07,8.18750000e-03,1.50781250e-02
-1.38134375e-07,2.15625000e-03,1.29687500e-02
-1.37334375e-07,7.96875000e-03,1.64843750e-02
-1.36534375e-07,7.87500000e-03,2.28906250e-02
-1.35734375e-07,1.13750000e-02,1.07812500e-02
-1.34934375e-07,4.40625000e-03,1.39062500e-02
-1.34134375e-07,8.75000000e-03,1.70312500e-02
-1.33334375e-07,8.46875000e-03,9.84375000e-03
-1.32534375e-07,8.28125000e-03,1.92968750e-02
-1.31734375e-07,9.03125000e-03,1.77343750e-02
-1.30934375e-07,4.65625000e-03,1.59375000e-02
-1.30134375e-07,9.78125000e-03,2.05468750e-02
-1.29334375e-07,1.05937500e-02,1.84375000e-02
-1.28534375e-07,8.15625000e-03,1.59375000e-02
-1.27734375e-07,8.12500000e-03,1.66406250e-02
-1.26934375e-07,1.81250000e-03,1.79687500e-02
-1.26134375e-07,1.08125000e-02,5.39062500e-03
-1.25334375e-07,7.12500000e-03,1.39062500e-02
-1.24534375e-07,6.90625000e-03,2.01562500e-02
-1.23734375e-07,8.50000000e-03,1.89062500e-02
-1.22934375e-07,8.46875000e-03,1.42187500e-02
-1.22134375e-07,2.62500000e-03,1.19531250e-02
-1.21334375e-07,8.62500000e-03,2.50781250e-02
-1.20534375e-07,9.84375000e-03,6.32812500e-03
-1.19734375e-07,1.05937500e-02,1.28906250e-02
-1.18934375e-07,3.93750000e-03,1.14062500e-02
-1.18134375e-07,1.27812500e-02,2.42187500e-02
-1.17334375e-07,5.43750000e-03,1.97656250e-02
-1.16534375e-07,6.40625000e-03,1.39843750e-02
-1.15734375e-07,6.12500000e-03,1.09375000e-02
-1.14934375e-07,1.18750000e-02,1.70312500e-02
-1.14134375e-07,5.37500000e-03,2.28125000e-02
-1.13334375e-07,1.17187500e-02,1.34375000e-02
-1.12534375e-07,3.03125000e-03,7.89062500e-03
-1.11734375e-07,8.84375000e-03,1.92968750e-02
-1.10934375e-07,8.50000000e-03,1.10937500e-02
-1.10134375e-07,1.06562500e-02,1.88281250e-02
-1.09334375e-07,7.03125000e-03,1.77343750e-02
-1.08534375e-07,6.46875000e-03,1.07812500e-02
-1.07734375e-07,1.02812500e-02,8.98437500e-03
-1.06934375e-07,9.43750000e-03,1.57812500e-02
-1.06134375e-07,9.75000000e-03,1.29687500e-02
-1.05334375e-07,1.16250000e-02,4.76562500e-03
-1.04534375e-07,1.16875000e-02,1.89062500e-02
-1.03734375e-07,6.06250000e-03,2.11718750e-02
-1.02934375e-07,7.56250000e-03,1.20312500e-02
-1.02134375e-07,4.78125000e-03,1.69531250e-02
-1.01334375e-07,4.50000000e-03,2.32812500e-02
-1.00534375e-07,1.20000000e-02,2.18750000e-03
-9.97343750e-08,3.28125000e-03,2.14843750e-02
-9.89343750e-08,7.87500000e-03,1.67187500e-02
-9.81343750e-08,8.25000000e-03,1.07031250e-02
-9.73343750e-08,1.38437500e-02,1.99218750e-02
-9.65343750e-08,4.81250000e-03,3.98437500e-03
-9.57343750e-08,1.15312500e-02,1.97656250e-02
-9.49343750e-08,8.40625000e-03,7.42187500e-03
-9.41343750e-08,1.13437500e-02,1.66406250e-02
-9.33343750e-08,1.53125000e-03,8.98437500e-03
-9.25343750e-08,1.07812500e-02,1.75000000e-02
-9.17343750e-08,4.43750000e-03,2.17187500e-02
-9.09343750e-08,1.30937500e-02,1.11718750e-02
-9.01343750e-08,9.53125000e-03,1.08593750e-02
-8.93343750e-08,7.93750000e-03,2.00781250e-02
-8.85343750e-08,9.06250000e-03,1.64062500e-02
-8.77343750e-08,9.25000000e-03,1.07812500e-02
-8.69343750e-08,1.65625000e-03,1.60156250e-02
-8.61343750e-08,6.34375000e-03,1.40625000e-02
-8.53343750e-08,1.21875000e-02,1.67187500e-02
-8.45343750e-08,6.87500000e-03,1.60156250e-02
-8.37343750e-08,5.40625000e-03,1.32812500e-02
-8.29343750e-08,1.19375000e-02,1.16406250e-02
-8.21343750e-08,7.34375000e-03,2.01562500e-02
-8.13343750e-08,9.50000000e-03,1.73437500e-02
-8.05343750e-08,5.90625000e-03,1.67187500e-02
-7.97343750e-08,3.78125000e-03,1.27343750e-02
-7.89343750e-08,1.29062500e-02,2.14062500e-02
-7.81343750e-08,9.28125000e-03,1.19531250e-02
-7.73343750e-08,6.75000000e-03,2.02343750e-02
-7.65343750e-08,9.62500000e-03,2.50000000e-02
-7.57343750e-08,6.31250000e-03,2.08593750e-02
-7.49343750e-08,1.39062500e-02,2.96875000e-03
-7.41343750e-08,7.09375000e-03,2.96875000e-03
-7.33343750e-08,8.75000000e-03,1.34375000e-02
-7.25343750e-08,7.90625000e-03,1.59375000e-02
-7.17343750e-08,1.39062500e-02,2.35937500e-02
-7.09343750e-08,7.53125000e-03,1.33593750e-02
-7.01343750e-08,1.08437500e-02,9.68750000e-03
-6.93343750e-08,6.84375000e-03,9.68750000e-03
-6.85343750e-08,1.41562500e-02,1.61718750e-02
-6.77343750e-08,-2.50000000e-04,1.06250000e-02
-6.69343750e-08,1.33750000e-02,1.53125000e-02
-6.61343750e-08,7.15625000e-03,1.63281250e-02
-6.53343750e-08,1.19687500e-02,2.00781250e-02
-6.45343750e-08,9.81250000e-03,6.95312500e-03
-6.37343750e-08,1.25625000e-02,1.44531250e-02
-6.29343750e-08,6.68750000e-03,9.68750000e-03
-6.21343750e-08,1.47500000e-02,1.39843750e-02
-6.13343750e-08,8.75000000e-03,2.14062500e-02
-6.05343750e-08,7.00000000e-03,-2.58437500e-01
-5.97343750e-08,1.19375000e-02,-8.32343750e-01
-5.89343750e-08,1.11250000e-02,-1.22710938e+00
-5.81343750e-08,7.53125000e-03,-1.31671875e+00
-5.73343750e-08,9.18750000e-03,-1.39132813e+00
-5.65343750e-08,9.62500000e-03,-1.39757813e+00
-5.57343750e-08,9.31250000e-03,-1.39929688e+00
-5.49343750e-08,1.06875000e-02,-1.38492188e+00
-5.41343750e-08,9.56250000e-03,-1.40156250e+00
-5.33343750e-08,1.04062500e-02,-1.39937500e+00
-5.25343750e-08,1.21250000e-02,-1.41210938e+00
-5.17343750e-08,1.25937500e-02,-1.40750000e+00
-5.09343750e-08,1.20312500e-02,-1.40687500e+00
-5.01343750e-08,1.00312500e-02,-1.41156250e+00
-4.93343750e-08,1.01875000e-02,-1.40820312e+00
-4.85343750e-08,1.93750000e-03,-1.41578125e+00
-4.77343750e-08,9.31250000e-03,-1.41304688e+00
-4.69343750e-08,6.71875000e-03,-1.40898438e+00
-4.61343750e-08,1.49062500e-02,-1.40343750e+00
-4.53343750e-08,3.21875000e-03,-1.41679688e+00
-4.45343750e-08,1.12187500e-02,-1.41812500e+00
-4.37343750e-08,1.03437500e-02,-1.43195313e+00
-4.29343750e-08,7.87500000e-03,-1.41984375e+00
-4.21343750e-08,1.75000000e-03,-1.42375000e+00
-4.13343750e-08,1.04687500e-02,-1.41984375e+00
-4.05343750e-08,9.18750000e-03,-1.41765625e+00
-3.97343750e-08,7.28125000e-03,-1.41546875e+00
-3.89343750e-08,4.81250000e-03,-1.42843750e+00
-3.81343750e-08,9.75000000e-03,-1.42375000e+00
-3.73343750e-08,4.87500000e-03,-1.41906250e+00
-3.65343750e-08,1.15312500e-02,-1.42281250e+00
-3.57343750e-08,3.12500000e-05,-1.41593750e+00
-3.49343750e-08,2.75000000e-03,-1.41867188e+00
-3.41343750e-08,3.00000000e-03,-1.41757813e+00
-3.33343750e-08,-6.96875000e-03,-1.41820313e+00
-3.25343750e-08,-3.44687500e-02,-1.42320313e+00
-3.17343750e-08,-8.03437500e-02,-1.41687500e+00
-3.09343750e-08,-1.49093750e-01,-1.42273438e+00
-3.01343750e-08,-2.52156250e-01,-1.41695313e+00
-2.93343750e-08,-3.66781250e-01,-1.42421875e+00
-2.85343750e-08,-4.85531250e-01,-1.42554688e+00
-2.77343750e-08,-6.04718750e-01,-1.41281250e+00
-2.69343750e-08,-7.11843750e-01,-1.42218750e+00
-2.61343750e-08,-7.94156250e-01,-1.41164062e+00
-2.53343750e-08,-8.65812500e-01,-1.41726563e+00
-2.45343750e-08,-9.15125000e-01,-1.41796875e+00
-2.37343750e-08,-9.58593750e-01,-1.40945313e+00
-2.29343750e-08,-9.76625000e-01,-1.41273438e+00
-2.21343750e-08,-9.87750000e-01,-1.41656250e+00
-2.13343750e-08,-9.91093750e-01,-1.41031250e+00
-2.05343750e-08,-9.98812500e-01,-1.41328125e+00
-1.97343750e-08,-9.80125000e-01,-1.42601563e+00
-1.89343750e-08,-9.52281250e-01,-1.41320313e+00
-1.81343750e-08,-9.30937500e-01,-1.41929688e+00
-1.73343750e-08,-8.99156250e-01,-1.41250000e+00
-1.65343750e-08,-8.61875000e-01,-1.42515625e+00
-1.57343750e-08,-8.20562500e-01,-1.42265625e+00
-1.49343750e-08,-7.90500000e-01,-1.42265625e+00
-1.41343750e-08,-7.46093750e-01,-1.41796875e+00
-1.33343750e-08,-7.09562500e-01,-1.42789063e+00
-1.25343750e-08,-6.70031250e-01,-1.42812500e+00
-1.17343750e-08,-6.37812500e-01,-1.43117187e+00
-1.09343750e-08,-5.98718750e-01,-1.40906250e+00
-1.01343750e-08,-5.64281250e-01,-1.41835938e+00
-9.33437500e-09,-5.25875000e-01,-1.42570313e+00
-8.53437500e-09,-4.92343750e-01,-1.41757813e+00
-7.73437500e-09,-4.63562500e-01,-1.42093750e+00
-6.93437500e-09,-4.36531250e-01,-1.42718750e+00
-6.13437500e-09,-4.07250000e-01,-1.41679688e+00
-5.33437500e-09,-3.82125000e-01,-1.41812500e+00
-4.53437500e-09,-3.66375000e-01,-1.41468750e+00
-3.73437500e-09,-3.45437500e-01,-1.39531250e+00
-2.93437500e-09,-3.26968750e-01,-1.35906250e+00
-2.13437500e-09,-3.01375000e-01,-1.23445313e+00
-1.33437500e-09,-2.87031250e-01,-8.93437500e-01
-5.34375000e-10,-2.69125000e-01,-4.67812500e-01
2.65625000e-10,-2.60093750e-01,-2.35546875e-01
1.06562500e-09,-2.41875000e-01,-1.32812500e-01
1.86562500e-09,-2.32781250e-01,-8.24218750e-02
2.66562500e-09,-2.29000000e-01,-6.02343750e-02
3.46562500e-09,-2.14406250e-01,-4.77343750e-02
4.26562500e-09,-2.06062500e-01,-4.28906250e-02
5.06562500e-09,-1.93843750e-01,-3.42968750e-02
5.86562500e-09,-1.83343750e-01,-3.71875000e-02
6.66562500e-09,-1.71750000e-01,-3.27343750e-02
7.46562500e-09,-1.64687500e-01,-2.81250000e-02
8.26562500e-09,-1.57531250e-01,-2.54687500e-02
9.06562500e-09,-1.57343750e-01,-2.83593750e-02
9.86562500e-09,-1.39343750e-01,-1.20312500e-02
1.06656250e-08,-1.40125000e-01,-1.39843750e-02
1.14656250e-08,-1.30000000e-01,-9.37500000e-03
1.22656250e-08,-1.29062500e-01,-1.75781250e-02
1.30656250e-08,-1.17500000e-01,-6.01562500e-03
1.38656250e-08,-1.11343750e-01,-5.46875000e-04
1.46656250e-08,-1.05625000e-01,-3.90625000e-03
1.54656250e-08,-1.08500000e-01,-1.17187500e-02
1.62656250e-08,-1.01218750e-01,-5.39062500e-03
1.70656250e-08,-9.14062500e-02,-7.81250000e-05
1.78656250e-08,-8.67500000e-02,-3.98437500e-03
1.86656250e-08,-8.56562500e-02,-9.53125000e-03
1.94656250e-08,-7.57500000e-02,-1.17187500e-03
2.02656250e-08,-6.72500000e-02,-4.68750000e-04
2.10656250e-08,-6.88437500e-02,-3.98437500e-03
2.18656250e-08,-6.27500000e-02,1.17187500e-03
2.26656250e-08,-5.65000000e-02,4.68750000e-03
2.34656250e-08,-5.60937500e-02,4.45312500e-03
2.42656250e-08,-5.66875000e-02,1.21093750e-02
2.50656250e-08,-5.42187500e-02,1.48437500e-02
2.58656250e-08,-5.01250000e-02,2.03125000e-02
2.66656250e-08,-4.64687500e-02,1.30468750e-02
2.74656250e-08,-3.53750000e-02,-3.12500000e-04
2.82656250e-08,-4.20625000e-02,5.07812500e-03
2.90656250e-08,-3.93750000e-02,-7.81250000e-04
2.98656250e-08,-3.58437500e-02,2.81250000e-03
3.06656250e-08,-3.00000000e-02,1.68750000e-02
3.14656250e-08,-3.32812500e-02,9.21875000e-03
3.22656250e-08,-3.09375000e-02,3.43750000e-02
3.30656250e-08,-2.90937500e-02,3.06250000e-02
3.38656250e-08,-2.60312500e-02,3.52343750e-02
3.46656250e-08,-2.89375000e-02,3.66406250e-02
3.54656250e-08,-2.35937500e-02,4.02343750e-02
3.62656250e-08,-2.53437500e-02,2.67187500e-02
3.70656250e-08,-2.42187500e-02,3.67187500e-02
3.78656250e-08,-2.65000000e-02,2.88281250e-02
3.86656250e-08,-2.06562500e-02,3.17187500e-02
3.94656250e-08,-2.27187500e-02,2.40625000e-02
4.02656250e-08,-2.50937500e-02,3.03125000e-02
4.10656250e-08,-2.82812500e-02,2.65625000e-02
4.18656250e-08,-2.57187500e-02,2.47656250e-02
4.26656250e-08,-1.82187500e-02,2.59375000e-02
4.34656250e-08,-2.21875000e-02,3.44531250e-02
4.42656250e-08,-2.74062500e-02,2.33593750e-02
4.50656250e-08,-2.14062500e-02,2.17968750e-02
4.58656250e-08,-1.88125000e-02,2.22656250e-02
4.66656250e-08,-2.47812500e-02,2.43750000e-02
4.74656250e-08,-2.11250000e-02,2.34375000e-02
4.82656250e-08,-2.18437500e-02,3.34375000e-02
4.90656250e-08,-1.97812500e-02,1.96093750e-02
4.98656250e-08,-1.90000000e-02,1.96093750e-02
5.06656250e-08,-1.76562500e-02,2.64843750e-02
5.14656250e-08,-2.02812500e-02,2.85156250e-02
5.22656250e-08,-1.64687500e-02,3.27343750e-02
5.30656250e-08,-1.62500000e-02,1.81250000e-02
5.38656250e-08,-1.67187500e-02,3.03125000e-02
5.46656250e-08,-1.60000000e-02,2.19531250e-02
5.54656250e-08,-1.43125000e-02,2.41406250e-02
5.62656250e-08,-1.33750000e-02,1.73437500e-02
