muon_CSV/TriggerAuto_ALL_20231205193711208.csv

Model,MSO64B
Channel,CH1,,Channel,CH2
Label,,,Label,
Waveform Type,ANALOG,,Waveform Type,ANALOG
Horizontal Units,s,,Horizontal Units,s
Sample Interval,8.00000000e-10,,Sample Interval,8.00000000e-10
Record Length,5000,,Record Length,5000
Zero Index,349.50781250,,Zero Index,349.50781250
Vertical Units,V,,Vertical Units,V
,,,,
ANALOG_Thumbnail,,,ANALOG_Thumbnail,
yOffset,0.000000,,yOffset,0.000000
yPosition,2.160000,,yPosition,2.180000

Labels,,
TIME,CH1,CH2
-2.79606250e-07,4.18750000e-03,9.92187500e-03
-2.78806250e-07,7.81250000e-03,1.80468750e-02
-2.78006250e-07,2.81250000e-04,9.06250000e-03
-2.77206250e-07,8.93750000e-03,5.54687500e-03
-2.76406250e-07,5.40625000e-03,1.60156250e-02
-2.75606250e-07,4.65625000e-03,3.20312500e-03
-2.74806250e-07,1.87500000e-03,1.02343750e-02
-2.74006250e-07,4.00000000e-03,4.60937500e-03
-2.73206250e-07,4.71875000e-03,5.62500000e-03
-2.72406250e-07,8.09375000e-03,4.14062500e-03
-2.71606250e-07,8.43750000e-04,4.29687500e-03
-2.70806250e-07,2.09375000e-03,6.25000000e-03
-2.70006250e-07,7.59375000e-03,2.34375000e-03
-2.69206250e-07,4.53125000e-03,7.03125000e-03
-2.68406250e-07,4.65625000e-03,8.90625000e-03
-2.67606250e-07,2.71875000e-03,8.82812500e-03
-2.66806250e-07,6.75000000e-03,5.62500000e-03
-2.66006250e-07,5.40625000e-03,1.28906250e-02
-2.65206250e-07,2.34375000e-03,7.34375000e-03
-2.64406250e-07,4.87500000e-03,4.92187500e-03
-2.63606250e-07,5.65625000e-03,9.53125000e-03
-2.62806250e-07,1.04375000e-02,2.10937500e-03
-2.62006250e-07,7.37500000e-03,7.73437500e-03
-2.61206250e-07,3.18750000e-03,8.04687500e-03
-2.60406250e-07,1.96875000e-03,1.01562500e-03
-2.59606250e-07,6.25000000e-03,1.49218750e-02
-2.58806250e-07,-2.18750000e-03,2.57812500e-03
-2.58006250e-07,8.65625000e-03,-4.14062500e-03
-2.57206250e-07,4.93750000e-03,2.65625000e-03
-2.56406250e-07,2.40625000e-03,1.50781250e-02
-2.55606250e-07,1.46875000e-03,1.67187500e-02
-2.54806250e-07,9.18750000e-03,1.12500000e-02
-2.54006250e-07,5.71875000e-03,7.81250000e-04
-2.53206250e-07,8.34375000e-03,1.10156250e-02
-2.52406250e-07,-2.12500000e-03,1.13281250e-02
-2.51606250e-07,6.96875000e-03,9.37500000e-03
-2.50806250e-07,5.93750000e-04,6.71875000e-03
-2.50006250e-07,1.29062500e-02,8.82812500e-03
-2.49206250e-07,-4.06250000e-04,1.01562500e-02
-2.48406250e-07,3.75000000e-04,1.20312500e-02
-2.47606250e-07,6.28125000e-03,3.98437500e-03
-2.46806250e-07,8.12500000e-03,1.02343750e-02
-2.46006250e-07,2.46875000e-03,1.95312500e-03
-2.45206250e-07,3.31250000e-03,2.42187500e-03
-2.44406250e-07,6.12500000e-03,8.28125000e-03
-2.43606250e-07,3.90625000e-03,1.28906250e-02
-2.42806250e-07,6.46875000e-03,1.65625000e-02
-2.42006250e-07,2.71875000e-03,5.23437500e-03
-2.41206250e-07,8.90625000e-03,5.54687500e-03
-2.40406250e-07,8.06250000e-03,7.50000000e-03
-2.39606250e-07,5.90625000e-03,1.01562500e-02
-2.38806250e-07,3.21875000e-03,1.14062500e-02
-2.38006250e-07,5.31250000e-04,1.19531250e-02
-2.37206250e-07,5.81250000e-03,8.67187500e-03
-2.36406250e-07,6.81250000e-03,1.32812500e-02
-2.35606250e-07,4.34375000e-03,-1.56250000e-04
-2.34806250e-07,4.68750000e-03,4.68750000e-04
-2.34006250e-07,8.28125000e-03,6.95312500e-03
-2.33206250e-07,1.87500000e-04,9.53125000e-03
-2.32406250e-07,8.15625000e-03,8.75000000e-03
-2.31606250e-07,3.50000000e-03,2.89062500e-03
-2.30806250e-07,6.96875000e-03,7.57812500e-03
-2.30006250e-07,1.50000000e-03,5.54687500e-03
-2.29206250e-07,1.03437500e-02,6.95312500e-03
-2.28406250e-07,4.93750000e-03,7.57812500e-03
-2.27606250e-07,7.46875000e-03,1.47656250e-02
-2.26806250e-07,1.34375000e-03,7.34375000e-03
-2.26006250e-07,1.01875000e-02,1.07812500e-02
-2.25206250e-07,7.56250000e-03,8.59375000e-03
-2.24406250e-07,8.18750000e-03,5.39062500e-03
-2.23606250e-07,9.37500000e-04,2.89062500e-03
-2.22806250e-07,7.81250000e-03,7.57812500e-03
-2.22006250e-07,7.34375000e-03,5.54687500e-03
-2.21206250e-07,8.21875000e-03,1.09375000e-02
-2.20406250e-07,1.62500000e-03,8.04687500e-03
-2.19606250e-07,3.03125000e-03,1.14843750e-02
-2.18806250e-07,9.00000000e-03,6.71875000e-03
-2.18006250e-07,9.18750000e-03,1.67968750e-02
-2.17206250e-07,6.12500000e-03,3.75000000e-03
-2.16406250e-07,8.46875000e-03,-8.59375000e-04
-2.15606250e-07,4.18750000e-03,1.16406250e-02
-2.14806250e-07,8.15625000e-03,1.40625000e-02
-2.14006250e-07,8.62500000e-03,1.58593750e-02
-2.13206250e-07,1.81250000e-03,3.90625000e-03
-2.12406250e-07,1.81250000e-03,1.28125000e-02
-2.11606250e-07,1.25625000e-02,7.18750000e-03
-2.10806250e-07,2.93750000e-03,6.17187500e-03
-2.10006250e-07,5.81250000e-03,6.09375000e-03
-2.09206250e-07,7.28125000e-03,3.59375000e-03
-2.08406250e-07,9.15625000e-03,1.35937500e-02
-2.07606250e-07,1.56250000e-04,1.66406250e-02
-2.06806250e-07,7.53125000e-03,1.31250000e-02
-2.06006250e-07,7.06250000e-03,6.64062500e-03
-2.05206250e-07,5.81250000e-03,1.07031250e-02
-2.04406250e-07,4.06250000e-03,7.03125000e-04
-2.03606250e-07,7.75000000e-03,1.62500000e-02
-2.02806250e-07,3.37500000e-03,3.04687500e-03
-2.02006250e-07,3.53125000e-03,2.42187500e-03
-2.01206250e-07,2.90625000e-03,9.53125000e-03
-2.00406250e-07,9.15625000e-03,8.82812500e-03
-1.99606250e-07,3.09375000e-03,1.14062500e-02
-1.98806250e-07,6.53125000e-03,1.56250000e-04
-1.98006250e-07,1.28125000e-03,1.03906250e-02
-1.97206250e-07,7.12500000e-03,1.27343750e-02
-1.96406250e-07,1.14687500e-02,1.46875000e-02
-1.95606250e-07,8.43750000e-03,1.52343750e-02
-1.94806250e-07,1.87500000e-04,9.14062500e-03
-1.94006250e-07,6.43750000e-03,5.46875000e-03
-1.93206250e-07,7.68750000e-03,1.14843750e-02
-1.92406250e-07,5.46875000e-03,1.52343750e-02
-1.91606250e-07,3.03125000e-03,1.18750000e-02
-1.90806250e-07,6.96875000e-03,1.45312500e-02
-1.90006250e-07,2.93750000e-03,5.15625000e-03
-1.89206250e-07,5.71875000e-03,8.90625000e-03
-1.88406250e-07,3.75000000e-03,1.19531250e-02
-1.87606250e-07,4.00000000e-03,8.75000000e-03
-1.86806250e-07,2.15625000e-03,1.85937500e-02
-1.86006250e-07,9.15625000e-03,5.78125000e-03
-1.85206250e-07,2.03125000e-03,1.14843750e-02
-1.84406250e-07,5.81250000e-03,1.05468750e-02
-1.83606250e-07,3.56250000e-03,7.34375000e-03
-1.82806250e-07,9.68750000e-03,4.14062500e-03
-1.82006250e-07,-5.62500000e-04,1.80468750e-02
-1.81206250e-07,4.28125000e-03,2.96875000e-03
-1.80406250e-07,7.96875000e-03,2.34375000e-03
-1.79606250e-07,3.59375000e-03,7.42187500e-03
-1.78806250e-07,1.00000000e-03,1.01562500e-03
-1.78006250e-07,5.71875000e-03,1.89843750e-02
-1.77206250e-07,1.06250000e-03,1.30468750e-02
-1.76406250e-07,2.65625000e-03,1.19531250e-02
-1.75606250e-07,1.81250000e-03,2.57812500e-03
-1.74806250e-07,7.50000000e-03,6.25000000e-03
-1.74006250e-07,6.12500000e-03,8.04687500e-03
-1.73206250e-07,4.93750000e-03,4.14062500e-03
-1.72406250e-07,-5.09375000e-03,1.01562500e-02
-1.71606250e-07,3.65625000e-03,4.68750000e-03
-1.70806250e-07,6.68750000e-03,7.57812500e-03
-1.70006250e-07,5.43750000e-03,8.12500000e-03
-1.69206250e-07,2.09375000e-03,9.45312500e-03
-1.68406250e-07,2.78125000e-03,7.81250000e-05
-1.67606250e-07,8.43750000e-03,3.82812500e-03
-1.66806250e-07,4.12500000e-03,1.54687500e-02
-1.66006250e-07,3.34375000e-03,1.95312500e-03
-1.65206250e-07,1.06250000e-03,5.78125000e-03
-1.64406250e-07,4.21875000e-03,1.21093750e-02
-1.63606250e-07,7.78125000e-03,1.07031250e-02
-1.62806250e-07,7.06250000e-03,1.39843750e-02
-1.62006250e-07,4.56250000e-03,6.25000000e-04
-1.61206250e-07,3.34375000e-03,9.76562500e-03
-1.60406250e-07,8.40625000e-03,1.26562500e-02
-1.59606250e-07,2.06250000e-03,1.07031250e-02
-1.58806250e-07,9.65625000e-03,1.00000000e-02
-1.58006250e-07,4.56250000e-03,8.04687500e-03
-1.57206250e-07,9.46875000e-03,1.00781250e-02
-1.56406250e-07,-1.12500000e-03,1.79687500e-02
-1.55606250e-07,9.12500000e-03,1.03125000e-02
-1.54806250e-07,2.50000000e-03,-4.68750000e-04
-1.54006250e-07,7.93750000e-03,1.69531250e-02
-1.53206250e-07,6.25000000e-04,1.77343750e-02
-1.52406250e-07,7.59375000e-03,9.14062500e-03
-1.51606250e-07,2.37500000e-03,6.01562500e-03
-1.50806250e-07,3.53125000e-03,1.32812500e-02
-1.50006250e-07,1.53125000e-03,1.95312500e-03
-1.49206250e-07,3.90625000e-03,1.01562500e-03
-1.48406250e-07,7.81250000e-03,8.98437500e-03
-1.47606250e-07,6.37500000e-03,1.66406250e-02
-1.46806250e-07,4.00000000e-03,7.18750000e-03
-1.46006250e-07,3.56250000e-03,6.17187500e-03
-1.45206250e-07,5.65625000e-03,6.17187500e-03
-1.44406250e-07,1.14375000e-02,8.82812500e-03
-1.43606250e-07,4.68750000e-04,8.12500000e-03
-1.42806250e-07,5.00000000e-03,1.34375000e-02
-1.42006250e-07,7.06250000e-03,1.05468750e-02
-1.41206250e-07,3.21875000e-03,1.06250000e-02
-1.40406250e-07,2.53125000e-03,9.84375000e-03
-1.39606250e-07,5.34375000e-03,2.65625000e-03
-1.38806250e-07,9.40625000e-03,9.53125000e-03
-1.38006250e-07,4.59375000e-03,1.59375000e-02
-1.37206250e-07,4.40625000e-03,1.44531250e-02
-1.36406250e-07,2.59375000e-03,8.67187500e-03
-1.35606250e-07,4.37500000e-03,1.92968750e-02
-1.34806250e-07,6.53125000e-03,1.03906250e-02
-1.34006250e-07,2.28125000e-03,1.07812500e-02
-1.33206250e-07,4.28125000e-03,1.12500000e-02
-1.32406250e-07,3.84375000e-03,1.86718750e-02
-1.31606250e-07,9.81250000e-03,7.73437500e-03
-1.30806250e-07,2.15625000e-03,-1.56250000e-03
-1.30006250e-07,8.09375000e-03,1.31250000e-02
-1.29206250e-07,2.34375000e-03,8.28125000e-03
-1.28406250e-07,5.96875000e-03,9.06250000e-03
-1.27606250e-07,8.75000000e-04,7.81250000e-03
-1.26806250e-07,7.43750000e-03,1.04687500e-02
-1.26006250e-07,3.93750000e-03,7.26562500e-03
-1.25206250e-07,5.12500000e-03,1.18750000e-02
-1.24406250e-07,1.75000000e-03,3.98437500e-03
-1.23606250e-07,9.28125000e-03,1.09375000e-02
-1.22806250e-07,2.46875000e-03,1.67187500e-02
-1.22006250e-07,5.03125000e-03,1.58593750e-02
-1.21206250e-07,2.15625000e-03,1.33593750e-02
-1.20406250e-07,7.00000000e-03,1.12500000e-02
-1.19606250e-07,6.68750000e-03,3.12500000e-04
-1.18806250e-07,1.05000000e-02,1.77343750e-02
-1.18006250e-07,5.84375000e-03,4.14062500e-03
-1.17206250e-07,4.93750000e-03,1.19531250e-02
-1.16406250e-07,6.68750000e-03,8.35937500e-03
-1.15606250e-07,6.06250000e-03,1.92187500e-02
-1.14806250e-07,4.00000000e-03,5.62500000e-03
-1.14006250e-07,4.56250000e-03,9.53125000e-03
-1.13206250e-07,3.00000000e-03,1.46093750e-02
-1.12406250e-07,4.96875000e-03,1.79687500e-02
-1.11606250e-07,7.40625000e-03,8.51562500e-03
-1.10806250e-07,8.68750000e-03,8.98437500e-03
-1.10006250e-07,7.56250000e-03,1.60937500e-02
-1.09206250e-07,1.04062500e-02,6.25000000e-03
-1.08406250e-07,5.62500000e-04,9.84375000e-03
-1.07606250e-07,2.62500000e-03,1.05468750e-02
-1.06806250e-07,6.75000000e-03,1.52343750e-02
-1.06006250e-07,1.04062500e-02,1.25000000e-02
-1.05206250e-07,-1.96875000e-03,7.34375000e-03
-1.04406250e-07,7.65625000e-03,9.60937500e-03
-1.03606250e-07,4.65625000e-03,1.29687500e-02
-1.02806250e-07,3.65625000e-03,1.62500000e-02
-1.02006250e-07,2.18750000e-03,1.68750000e-02
-1.01206250e-07,8.34375000e-03,1.42968750e-02
-1.00406250e-07,3.59375000e-03,1.24218750e-02
-9.96062500e-08,6.59375000e-03,1.90625000e-02
-9.88062500e-08,4.59375000e-03,5.07812500e-03
-9.80062500e-08,9.62500000e-03,5.70312500e-03
-9.72062500e-08,7.15625000e-03,1.22656250e-02
-9.64062500e-08,6.59375000e-03,1.49218750e-02
-9.56062500e-08,5.25000000e-03,1.49218750e-02
-9.48062500e-08,5.93750000e-03,1.10156250e-02
-9.40062500e-08,8.50000000e-03,1.39062500e-02
-9.32062500e-08,1.13125000e-02,1.91406250e-02
-9.24062500e-08,4.40625000e-03,1.64062500e-02
-9.16062500e-08,6.25000000e-03,1.39062500e-02
-9.08062500e-08,6.06250000e-03,1.26562500e-02
-9.00062500e-08,1.11875000e-02,1.53906250e-02
-8.92062500e-08,2.71875000e-03,9.37500000e-03
-8.84062500e-08,5.56250000e-03,1.42968750e-02
-8.76062500e-08,4.25000000e-03,2.33593750e-02
-8.68062500e-08,7.40625000e-03,1.97656250e-02
-8.60062500e-08,8.37500000e-03,1.25781250e-02
-8.52062500e-08,2.06250000e-03,1.14062500e-02
-8.44062500e-08,5.53125000e-03,1.54687500e-02
-8.36062500e-08,1.32187500e-02,1.33593750e-02
-8.28062500e-08,2.09375000e-03,1.14843750e-02
-8.20062500e-08,8.68750000e-03,1.42187500e-02
-8.12062500e-08,2.34375000e-03,7.50000000e-03
-8.04062500e-08,7.09375000e-03,4.45312500e-03
-7.96062500e-08,6.25000000e-05,1.17968750e-02
-7.88062500e-08,1.00312500e-02,1.15625000e-02
-7.80062500e-08,4.37500000e-03,1.09375000e-03
-7.72062500e-08,6.43750000e-03,1.46875000e-02
-7.64062500e-08,2.56250000e-03,1.87500000e-02
-7.56062500e-08,9.28125000e-03,1.41406250e-02
-7.48062500e-08,3.56250000e-03,1.46875000e-02
-7.40062500e-08,8.90625000e-03,1.39062500e-02
-7.32062500e-08,1.65625000e-03,1.12500000e-02
-7.24062500e-08,5.37500000e-03,9.37500000e-03
-7.16062500e-08,1.05625000e-02,1.65625000e-02
-7.08062500e-08,5.31250000e-03,1.82812500e-02
-7.00062500e-08,2.87500000e-03,1.21093750e-02
-6.92062500e-08,6.90625000e-03,3.67187500e-03
-6.84062500e-08,8.00000000e-03,1.10937500e-02
-6.76062500e-08,7.81250000e-03,1.14062500e-02
-6.68062500e-08,4.31250000e-03,1.79687500e-02
-6.60062500e-08,6.84375000e-03,5.62500000e-03
-6.52062500e-08,9.84375000e-03,8.04687500e-03
-6.44062500e-08,1.02500000e-02,2.25781250e-02
-6.36062500e-08,4.50000000e-03,1.00781250e-02
-6.28062500e-08,3.09375000e-03,8.82812500e-03
-6.20062500e-08,7.68750000e-03,1.15625000e-02
-6.12062500e-08,7.12500000e-03,2.45312500e-02
-6.04062500e-08,5.43750000e-03,-1.81406250e-01
-5.96062500e-08,6.12500000e-03,-7.28593750e-01
-5.88062500e-08,5.59375000e-03,-1.18812500e+00
-5.80062500e-08,1.11875000e-02,-1.32117188e+00
-5.72062500e-08,4.87500000e-03,-1.38507813e+00
-5.64062500e-08,8.84375000e-03,-1.41164062e+00
-5.56062500e-08,5.90625000e-03,-1.39242188e+00
-5.48062500e-08,8.21875000e-03,-1.34773438e+00
-5.40062500e-08,6.65625000e-03,-1.35460938e+00
-5.32062500e-08,6.90625000e-03,-1.38656250e+00
-5.24062500e-08,5.65625000e-03,-1.40234375e+00
-5.16062500e-08,1.02812500e-02,-1.40734375e+00
-5.08062500e-08,3.34375000e-03,-1.40921875e+00
-5.00062500e-08,4.75000000e-03,-1.40757813e+00
-4.92062500e-08,4.06250000e-03,-1.41859375e+00
-4.84062500e-08,7.31250000e-03,-1.40734375e+00
-4.76062500e-08,5.18750000e-03,-1.42351563e+00
-4.68062500e-08,5.25000000e-03,-1.41015625e+00
-4.60062500e-08,5.00000000e-03,-1.41492188e+00
-4.52062500e-08,6.87500000e-03,-1.41515625e+00
-4.44062500e-08,-1.96875000e-03,-1.41632813e+00
-4.36062500e-08,3.09375000e-03,-1.43078125e+00
-4.28062500e-08,5.68750000e-03,-1.42460938e+00
-4.20062500e-08,8.00000000e-03,-1.42164063e+00
-4.12062500e-08,3.81250000e-03,-1.42273438e+00
-4.04062500e-08,7.46875000e-03,-1.42546875e+00
-3.96062500e-08,4.96875000e-03,-1.42125000e+00
-3.88062500e-08,4.03125000e-03,-1.42226563e+00
-3.80062500e-08,-8.12500000e-04,-1.42273438e+00
-3.72062500e-08,4.71875000e-03,-1.42625000e+00
-3.64062500e-08,7.06250000e-03,-1.41937500e+00
-3.56062500e-08,3.03125000e-03,-1.41335938e+00
-3.48062500e-08,3.25000000e-03,-1.41351563e+00
-3.40062500e-08,-4.71875000e-03,-1.42710938e+00
-3.32062500e-08,-1.59375000e-02,-1.41664063e+00
-3.24062500e-08,-2.94687500e-02,-1.42273438e+00
-3.16062500e-08,-7.94687500e-02,-1.42085938e+00
-3.08062500e-08,-1.40000000e-01,-1.42867188e+00
-3.00062500e-08,-2.18750000e-01,-1.42007813e+00
-2.92062500e-08,-3.14531250e-01,-1.42015625e+00
-2.84062500e-08,-4.23250000e-01,-1.42632813e+00
-2.76062500e-08,-5.08718750e-01,-1.42328125e+00
-2.68062500e-08,-5.86406250e-01,-1.41312500e+00
-2.60062500e-08,-6.57843750e-01,-1.41203125e+00
-2.52062500e-08,-7.08656250e-01,-1.41570313e+00
-2.44062500e-08,-7.43812500e-01,-1.41039063e+00
-2.36062500e-08,-7.71812500e-01,-1.42554688e+00
-2.28062500e-08,-7.92718750e-01,-1.41437500e+00
-2.20062500e-08,-8.03000000e-01,-1.41992188e+00
-2.12062500e-08,-8.00718750e-01,-1.41679688e+00
-2.04062500e-08,-7.90093750e-01,-1.41164062e+00
-1.96062500e-08,-7.74937500e-01,-1.41632813e+00
-1.88062500e-08,-7.62687500e-01,-1.42210938e+00
-1.80062500e-08,-7.33468750e-01,-1.43171875e+00
-1.72062500e-08,-7.01812500e-01,-1.42593750e+00
-1.64062500e-08,-6.71156250e-01,-1.42195313e+00
-1.56062500e-08,-6.38000000e-01,-1.41398438e+00
-1.48062500e-08,-5.99375000e-01,-1.42476563e+00
-1.40062500e-08,-5.66656250e-01,-1.41757813e+00
-1.32062500e-08,-5.31156250e-01,-1.41335938e+00
-1.24062500e-08,-5.01312500e-01,-1.42382812e+00
-1.16062500e-08,-4.69312500e-01,-1.43015625e+00
-1.08062500e-08,-4.40218750e-01,-1.42773438e+00
-1.00062500e-08,-4.10656250e-01,-1.41515625e+00
-9.20625000e-09,-3.88906250e-01,-1.42320313e+00
-8.40625000e-09,-3.55781250e-01,-1.42359375e+00
-7.60625000e-09,-3.34718750e-01,-1.42468750e+00
-6.80625000e-09,-3.14968750e-01,-1.41921875e+00
-6.00625000e-09,-2.99625000e-01,-1.42828125e+00
-5.20625000e-09,-2.76656250e-01,-1.43023438e+00
-4.40625000e-09,-2.61250000e-01,-1.41421875e+00
-3.60625000e-09,-2.46437500e-01,-1.38375000e+00
-2.80625000e-09,-2.33156250e-01,-1.35156250e+00
-2.00625000e-09,-2.16593750e-01,-1.20695313e+00
-1.20625000e-09,-2.01437500e-01,-8.45546875e-01
-4.06250000e-10,-1.91906250e-01,-4.14921875e-01
3.93750000e-10,-1.89281250e-01,-2.20859375e-01
1.19375000e-09,-1.75218750e-01,-1.22578125e-01
1.99375000e-09,-1.69562500e-01,-8.08593750e-02
2.79375000e-09,-1.63937500e-01,-6.41406250e-02
3.59375000e-09,-1.53343750e-01,-5.01562500e-02
4.39375000e-09,-1.41687500e-01,-4.00000000e-02
5.19375000e-09,-1.40093750e-01,-4.39062500e-02
5.99375000e-09,-1.28593750e-01,-3.50000000e-02
6.79375000e-09,-1.30437500e-01,-3.17187500e-02
7.59375000e-09,-1.17531250e-01,-3.87500000e-02
8.39375000e-09,-1.08781250e-01,-3.32031250e-02
9.19375000e-09,-1.01812500e-01,-2.62500000e-02
9.99375000e-09,-1.06031250e-01,-1.81250000e-02
1.07937500e-08,-9.20312500e-02,-1.77343750e-02
1.15937500e-08,-8.52812500e-02,-1.72656250e-02
1.23937500e-08,-8.48750000e-02,-1.59375000e-02
1.31937500e-08,-7.85000000e-02,-8.82812500e-03
1.39937500e-08,-7.08750000e-02,-1.30468750e-02
1.47937500e-08,-6.95937500e-02,-1.55468750e-02
1.55937500e-08,-6.18750000e-02,-1.33593750e-02
1.63937500e-08,-6.45000000e-02,-1.25781250e-02
1.71937500e-08,-6.18437500e-02,-1.35937500e-02
1.79937500e-08,-5.74687500e-02,-4.14062500e-03
1.87937500e-08,-5.22812500e-02,-8.75000000e-03
1.95937500e-08,-5.03750000e-02,-6.87500000e-03
2.03937500e-08,-5.23125000e-02,-3.43750000e-03
2.11937500e-08,-4.45312500e-02,9.37500000e-04
2.19937500e-08,-4.03750000e-02,8.28125000e-03
2.27937500e-08,-4.69062500e-02,-7.81250000e-04
2.35937500e-08,-3.27500000e-02,1.87500000e-03
2.43937500e-08,-3.70937500e-02,1.56250000e-04
2.51937500e-08,-3.08125000e-02,4.53125000e-03
2.59937500e-08,-3.08437500e-02,8.59375000e-04
2.67937500e-08,-2.22500000e-02,1.32031250e-02
2.75937500e-08,-2.60625000e-02,6.48437500e-03
2.83937500e-08,-1.98437500e-02,1.17187500e-02
2.91937500e-08,-2.66875000e-02,1.17187500e-03
2.99937500e-08,-1.71562500e-02,7.42187500e-03
3.07937500e-08,-2.10000000e-02,1.21093750e-02
3.15937500e-08,-1.45937500e-02,1.19531250e-02
3.23937500e-08,-2.38437500e-02,1.82031250e-02
3.31937500e-08,-1.74687500e-02,2.06250000e-02
3.39937500e-08,-1.06562500e-02,2.95312500e-02
3.47937500e-08,-1.43125000e-02,4.03125000e-02
3.55937500e-08,-2.29062500e-02,3.42187500e-02
3.63937500e-08,-1.46250000e-02,3.16406250e-02
3.71937500e-08,-8.46875000e-03,2.32812500e-02
3.79937500e-08,-1.78125000e-02,2.22656250e-02
3.87937500e-08,-1.84375000e-02,2.72656250e-02
3.95937500e-08,-1.83750000e-02,2.51562500e-02
4.03937500e-08,-1.55312500e-02,3.28906250e-02
4.11937500e-08,-1.66875000e-02,2.39843750e-02
4.19937500e-08,-1.38125000e-02,2.40625000e-02
4.27937500e-08,-1.88750000e-02,1.67187500e-02
4.35937500e-08,-1.51562500e-02,2.08593750e-02
4.43937500e-08,-1.35000000e-02,2.19531250e-02
4.51937500e-08,-1.95625000e-02,2.51562500e-02
4.59937500e-08,-1.37187500e-02,1.37500000e-02
4.67937500e-08,-1.54375000e-02,1.60937500e-02
4.75937500e-08,-1.31875000e-02,2.77343750e-02
4.83937500e-08,-1.81562500e-02,1.67187500e-02
4.91937500e-08,-9.71875000e-03,9.76562500e-03
4.99937500e-08,-1.12500000e-02,1.57031250e-02
5.07937500e-08,-1.03750000e-02,1.23437500e-02
5.15937500e-08,-1.20000000e-02,2.10937500e-02
5.23937500e-08,-6.09375000e-03,1.93750000e-02
5.31937500e-08,-6.40625000e-03,2.67187500e-02
5.39937500e-08,-5.68750000e-03,2.16406250e-02
5.47937500e-08,-8.84375000e-03,1.72656250e-02
5.55937500e-08,-2.65625000e-03,2.90625000e-02
5.63937500e-08,-5.93750000e-03,1.73437500e-02
