muon_CSV/TriggerAuto_ALL_20231205194142259.csv

Model,MSO64B
Channel,CH1,,Channel,CH2
Label,,,Label,
Waveform Type,ANALOG,,Waveform Type,ANALOG
Horizontal Units,s,,Horizontal Units,s
Sample Interval,8.00000000e-10,,Sample Interval,8.00000000e-10
Record Length,5000,,Record Length,5000
Zero Index,349.45703125,,Zero Index,349.45703125
Vertical Units,V,,Vertical Units,V
,,,,
ANALOG_Thumbnail,,,ANALOG_Thumbnail,
yOffset,0.000000,,yOffset,0.000000
yPosition,2.160000,,yPosition,2.180000

Labels,,
TIME,CH1,CH2
-2.79565625e-07,1.30625000e-02,1.33593750e-02
-2.78765625e-07,6.43750000e-03,2.10156250e-02
-2.77965625e-07,1.15312500e-02,3.04687500e-03
-2.77165625e-07,9.87500000e-03,1.75781250e-02
-2.76365625e-07,8.31250000e-03,1.88281250e-02
-2.75565625e-07,6.00000000e-03,3.90625000e-03
-2.74765625e-07,1.56562500e-02,1.93750000e-02
-2.73965625e-07,3.59375000e-03,1.42187500e-02
-2.73165625e-07,1.18437500e-02,1.91406250e-02
-2.72365625e-07,1.07187500e-02,2.96875000e-03
-2.71565625e-07,1.67812500e-02,9.60937500e-03
-2.70765625e-07,7.46875000e-03,2.05468750e-02
-2.69965625e-07,1.48750000e-02,1.76562500e-02
-2.69165625e-07,9.18750000e-03,1.56250000e-02
-2.68365625e-07,8.90625000e-03,1.29687500e-02
-2.67565625e-07,7.75000000e-03,3.82812500e-03
-2.66765625e-07,1.15000000e-02,6.25000000e-03
-2.65965625e-07,5.81250000e-03,1.60156250e-02
-2.65165625e-07,1.39687500e-02,1.97656250e-02
-2.64365625e-07,1.00312500e-02,1.50000000e-02
-2.63565625e-07,1.01562500e-02,1.38281250e-02
-2.62765625e-07,1.51562500e-02,1.57031250e-02
-2.61965625e-07,1.19375000e-02,9.68750000e-03
-2.61165625e-07,5.53125000e-03,8.51562500e-03
-2.60365625e-07,1.15312500e-02,5.31250000e-03
-2.59565625e-07,1.37187500e-02,1.20312500e-02
-2.58765625e-07,1.10625000e-02,9.21875000e-03
-2.57965625e-07,9.18750000e-03,7.42187500e-03
-2.57165625e-07,7.53125000e-03,1.21093750e-02
-2.56365625e-07,1.33125000e-02,1.53125000e-02
-2.55565625e-07,1.33750000e-02,1.71875000e-02
-2.54765625e-07,1.33437500e-02,1.37500000e-02
-2.53965625e-07,1.02187500e-02,1.38281250e-02
-2.53165625e-07,6.34375000e-03,1.71093750e-02
-2.52365625e-07,1.39062500e-02,1.36718750e-02
-2.51565625e-07,1.08125000e-02,1.58593750e-02
-2.50765625e-07,1.00000000e-02,1.69531250e-02
-2.49965625e-07,1.19687500e-02,1.24218750e-02
-2.49165625e-07,1.35000000e-02,1.44531250e-02
-2.48365625e-07,9.00000000e-03,1.71093750e-02
-2.47565625e-07,1.77500000e-02,1.75000000e-02
-2.46765625e-07,1.10000000e-02,5.07812500e-03
-2.45965625e-07,1.66250000e-02,1.85937500e-02
-2.45165625e-07,7.62500000e-03,1.42187500e-02
-2.44365625e-07,1.07500000e-02,1.31250000e-02
-2.43565625e-07,1.22500000e-02,7.10937500e-03
-2.42765625e-07,1.10937500e-02,1.78906250e-02
-2.41965625e-07,6.09375000e-03,1.09375000e-02
-2.41165625e-07,1.73125000e-02,1.46093750e-02
-2.40365625e-07,7.43750000e-03,1.15625000e-02
-2.39565625e-07,1.53437500e-02,3.98437500e-03
-2.38765625e-07,7.50000000e-03,1.66406250e-02
-2.37965625e-07,7.12500000e-03,7.03125000e-03
-2.37165625e-07,1.14687500e-02,8.12500000e-03
-2.36365625e-07,1.82187500e-02,1.19531250e-02
-2.35565625e-07,5.40625000e-03,1.18750000e-02
-2.34765625e-07,1.19687500e-02,1.11718750e-02
-2.33965625e-07,1.81562500e-02,2.57812500e-03
-2.33165625e-07,1.10000000e-02,1.56250000e-03
-2.32365625e-07,7.18750000e-03,5.62500000e-03
-2.31565625e-07,1.06562500e-02,1.28125000e-02
-2.30765625e-07,1.09687500e-02,1.86718750e-02
-2.29965625e-07,1.20937500e-02,1.43750000e-02
-2.29165625e-07,8.96875000e-03,1.06250000e-02
-2.28365625e-07,8.59375000e-03,2.04687500e-02
-2.27565625e-07,6.34375000e-03,1.22656250e-02
-2.26765625e-07,1.28125000e-02,8.51562500e-03
-2.25965625e-07,7.62500000e-03,8.67187500e-03
-2.25165625e-07,8.25000000e-03,2.17968750e-02
-2.24365625e-07,9.34375000e-03,1.16406250e-02
-2.23565625e-07,1.14375000e-02,1.71093750e-02
-2.22765625e-07,2.81250000e-03,9.60937500e-03
-2.21965625e-07,1.28125000e-02,1.05468750e-02
-2.21165625e-07,1.18437500e-02,6.56250000e-03
-2.20365625e-07,1.68750000e-02,1.46093750e-02
-2.19565625e-07,7.87500000e-03,7.81250000e-03
-2.18765625e-07,1.63125000e-02,1.39843750e-02
-2.17965625e-07,1.09375000e-02,8.51562500e-03
-2.17165625e-07,1.25625000e-02,1.92968750e-02
-2.16365625e-07,3.12500000e-03,3.90625000e-04
-2.15565625e-07,1.54687500e-02,1.70312500e-02
-2.14765625e-07,7.65625000e-03,1.75000000e-02
-2.13965625e-07,1.46250000e-02,9.92187500e-03
-2.13165625e-07,7.28125000e-03,1.64843750e-02
-2.12365625e-07,9.93750000e-03,1.10937500e-02
-2.11565625e-07,1.35937500e-02,1.18750000e-02
-2.10765625e-07,1.60625000e-02,1.38281250e-02
-2.09965625e-07,5.43750000e-03,5.78125000e-03
-2.09165625e-07,1.08125000e-02,8.20312500e-03
-2.08365625e-07,1.33437500e-02,1.72656250e-02
-2.07565625e-07,1.03437500e-02,1.97656250e-02
-2.06765625e-07,1.08437500e-02,1.23437500e-02
-2.05965625e-07,9.56250000e-03,1.72656250e-02
-2.05165625e-07,1.32187500e-02,2.15625000e-02
-2.04365625e-07,1.39375000e-02,1.50000000e-02
-2.03565625e-07,1.49062500e-02,2.16406250e-02
-2.02765625e-07,1.36562500e-02,1.67187500e-02
-2.01965625e-07,8.71875000e-03,1.56250000e-02
-2.01165625e-07,9.65625000e-03,1.29687500e-02
-2.00365625e-07,9.84375000e-03,1.37500000e-02
-1.99565625e-07,1.37812500e-02,1.50000000e-02
-1.98765625e-07,7.40625000e-03,1.50000000e-02
-1.97965625e-07,1.95625000e-02,1.68750000e-02
-1.97165625e-07,3.28125000e-03,5.00000000e-03
-1.96365625e-07,1.24375000e-02,1.19531250e-02
-1.95565625e-07,1.35312500e-02,7.81250000e-03
-1.94765625e-07,1.79375000e-02,1.13281250e-02
-1.93965625e-07,8.40625000e-03,7.26562500e-03
-1.93165625e-07,1.05000000e-02,1.66406250e-02
-1.92365625e-07,2.84375000e-03,9.14062500e-03
-1.91565625e-07,1.23125000e-02,2.20312500e-02
-1.90765625e-07,7.00000000e-03,1.01562500e-02
-1.89965625e-07,1.21875000e-02,1.60156250e-02
-1.89165625e-07,7.59375000e-03,1.75000000e-02
-1.88365625e-07,1.56875000e-02,7.81250000e-03
-1.87565625e-07,6.93750000e-03,1.85937500e-02
-1.86765625e-07,7.56250000e-03,2.48437500e-02
-1.85965625e-07,1.37187500e-02,1.53906250e-02
-1.85165625e-07,1.65312500e-02,1.43750000e-02
-1.84365625e-07,2.71875000e-03,1.35937500e-02
-1.83565625e-07,9.37500000e-03,1.44531250e-02
-1.82765625e-07,1.25625000e-02,1.15625000e-02
-1.81965625e-07,1.05312500e-02,1.10937500e-02
-1.81165625e-07,1.40625000e-02,9.14062500e-03
-1.80365625e-07,1.20937500e-02,8.75000000e-03
-1.79565625e-07,1.30000000e-02,2.12500000e-02
-1.78765625e-07,9.90625000e-03,2.47656250e-02
-1.77965625e-07,1.26562500e-02,2.10937500e-03
-1.77165625e-07,1.06875000e-02,1.28125000e-02
-1.76365625e-07,4.96875000e-03,1.02343750e-02
-1.75565625e-07,1.28437500e-02,3.43750000e-03
-1.74765625e-07,8.53125000e-03,1.72656250e-02
-1.73965625e-07,1.22187500e-02,7.73437500e-03
-1.73165625e-07,1.00000000e-02,9.45312500e-03
-1.72365625e-07,1.68437500e-02,1.66406250e-02
-1.71565625e-07,4.31250000e-03,1.70312500e-02
-1.70765625e-07,1.38437500e-02,1.51562500e-02
-1.69965625e-07,8.03125000e-03,1.89843750e-02
-1.69165625e-07,1.48750000e-02,1.42187500e-02
-1.68365625e-07,9.25000000e-03,8.43750000e-03
-1.67565625e-07,1.29062500e-02,1.39062500e-02
-1.66765625e-07,9.59375000e-03,1.57031250e-02
-1.65965625e-07,1.04687500e-02,1.70312500e-02
-1.65165625e-07,9.56250000e-03,6.32812500e-03
-1.64365625e-07,1.33437500e-02,1.73437500e-02
-1.63565625e-07,1.05625000e-02,1.68750000e-02
-1.62765625e-07,1.65625000e-02,1.11718750e-02
-1.61965625e-07,1.01875000e-02,1.51562500e-02
-1.61165625e-07,8.34375000e-03,1.96875000e-02
-1.60365625e-07,1.49687500e-02,1.28906250e-02
-1.59565625e-07,2.22187500e-02,1.77343750e-02
-1.58765625e-07,4.09375000e-03,6.17187500e-03
-1.57965625e-07,1.08750000e-02,1.35156250e-02
-1.57165625e-07,1.29687500e-02,1.88281250e-02
-1.56365625e-07,8.71875000e-03,1.10937500e-02
-1.55565625e-07,1.04375000e-02,1.57031250e-02
-1.54765625e-07,1.15937500e-02,8.43750000e-03
-1.53965625e-07,1.02187500e-02,1.51562500e-02
-1.53165625e-07,1.62187500e-02,9.14062500e-03
-1.52365625e-07,1.08437500e-02,1.51562500e-02
-1.51565625e-07,1.05625000e-02,1.11718750e-02
-1.50765625e-07,7.65625000e-03,2.57812500e-02
-1.49965625e-07,1.25937500e-02,1.27343750e-02
-1.49165625e-07,9.93750000e-03,1.64843750e-02
-1.48365625e-07,9.81250000e-03,1.81250000e-02
-1.47565625e-07,1.02187500e-02,9.60937500e-03
-1.46765625e-07,1.14687500e-02,1.11718750e-02
-1.45965625e-07,4.59375000e-03,1.24218750e-02
-1.45165625e-07,1.37812500e-02,1.10937500e-02
-1.44365625e-07,8.56250000e-03,1.31250000e-02
-1.43565625e-07,9.62500000e-03,1.03906250e-02
-1.42765625e-07,7.59375000e-03,7.96875000e-03
-1.41965625e-07,1.57812500e-02,1.66406250e-02
-1.41165625e-07,7.96875000e-03,1.82031250e-02
-1.40365625e-07,1.00937500e-02,1.02343750e-02
-1.39565625e-07,2.59375000e-03,1.24218750e-02
-1.38765625e-07,1.15625000e-02,1.43750000e-02
-1.37965625e-07,6.03125000e-03,1.29687500e-02
-1.37165625e-07,1.47500000e-02,8.43750000e-03
-1.36365625e-07,6.18750000e-03,1.25781250e-02
-1.35565625e-07,9.00000000e-03,1.64843750e-02
-1.34765625e-07,1.05625000e-02,1.50000000e-02
-1.33965625e-07,1.29062500e-02,8.43750000e-03
-1.33165625e-07,6.59375000e-03,7.34375000e-03
-1.32365625e-07,1.11562500e-02,1.08593750e-02
-1.31565625e-07,1.26875000e-02,1.14062500e-02
-1.30765625e-07,7.56250000e-03,1.88281250e-02
-1.29965625e-07,1.03125000e-02,1.57812500e-02
-1.29165625e-07,5.90625000e-03,6.17187500e-03
-1.28365625e-07,1.19687500e-02,1.82812500e-02
-1.27565625e-07,1.03125000e-02,1.27343750e-02
-1.26765625e-07,1.37187500e-02,1.36718750e-02
-1.25965625e-07,8.90625000e-03,1.76562500e-02
-1.25165625e-07,7.25000000e-03,2.21093750e-02
-1.24365625e-07,1.43750000e-02,1.41406250e-02
-1.23565625e-07,9.18750000e-03,1.30468750e-02
-1.22765625e-07,1.00937500e-02,1.24218750e-02
-1.21965625e-07,1.05312500e-02,1.78125000e-02
-1.21165625e-07,1.14062500e-02,8.98437500e-03
-1.20365625e-07,3.06250000e-03,4.14062500e-03
-1.19565625e-07,1.30625000e-02,9.60937500e-03
-1.18765625e-07,9.25000000e-03,8.28125000e-03
-1.17965625e-07,1.25937500e-02,1.50781250e-02
-1.17165625e-07,1.04687500e-02,1.75000000e-02
-1.16365625e-07,1.69062500e-02,1.48437500e-02
-1.15565625e-07,5.50000000e-03,1.56250000e-02
-1.14765625e-07,1.00312500e-02,1.42187500e-02
-1.13965625e-07,5.56250000e-03,3.75000000e-03
-1.13165625e-07,1.49687500e-02,1.07812500e-02
-1.12365625e-07,6.53125000e-03,1.45312500e-02
-1.11565625e-07,1.32500000e-02,8.75000000e-03
-1.10765625e-07,8.43750000e-03,1.42187500e-02
-1.09965625e-07,3.59375000e-03,1.67968750e-02
-1.09165625e-07,1.35937500e-02,1.41406250e-02
-1.08365625e-07,1.34687500e-02,2.28906250e-02
-1.07565625e-07,9.68750000e-03,1.06250000e-02
-1.06765625e-07,8.03125000e-03,1.39843750e-02
-1.05965625e-07,9.93750000e-03,2.15625000e-02
-1.05165625e-07,1.03750000e-02,9.14062500e-03
-1.04365625e-07,5.25000000e-03,2.59375000e-02
-1.03565625e-07,7.09375000e-03,6.40625000e-03
-1.02765625e-07,1.38750000e-02,2.63281250e-02
-1.01965625e-07,1.30625000e-02,1.64062500e-02
-1.01165625e-07,1.29062500e-02,1.96093750e-02
-1.00365625e-07,9.53125000e-03,1.67187500e-02
-9.95656250e-08,1.16875000e-02,1.96093750e-02
-9.87656250e-08,1.35937500e-02,1.01562500e-02
-9.79656250e-08,8.00000000e-03,1.07031250e-02
-9.71656250e-08,9.40625000e-03,1.12500000e-02
-9.63656250e-08,1.18437500e-02,1.03906250e-02
-9.55656250e-08,1.15000000e-02,2.22656250e-02
-9.47656250e-08,2.84375000e-03,2.14062500e-02
-9.39656250e-08,1.33437500e-02,2.00781250e-02
-9.31656250e-08,1.35312500e-02,1.89062500e-02
-9.23656250e-08,1.80937500e-02,1.28906250e-02
-9.15656250e-08,3.03125000e-03,1.13281250e-02
-9.07656250e-08,1.59687500e-02,1.58593750e-02
-8.99656250e-08,1.19687500e-02,1.13281250e-02
-8.91656250e-08,1.17187500e-02,1.33593750e-02
-8.83656250e-08,6.96875000e-03,7.50000000e-03
-8.75656250e-08,1.64062500e-02,2.42968750e-02
-8.67656250e-08,6.56250000e-03,2.24218750e-02
-8.59656250e-08,1.50312500e-02,2.11718750e-02
-8.51656250e-08,7.56250000e-03,1.78125000e-02
-8.43656250e-08,6.50000000e-03,1.85156250e-02
-8.35656250e-08,1.32187500e-02,1.25781250e-02
-8.27656250e-08,9.00000000e-03,1.94531250e-02
-8.19656250e-08,5.21875000e-03,1.38281250e-02
-8.11656250e-08,1.05937500e-02,9.53125000e-03
-8.03656250e-08,1.33437500e-02,1.62500000e-02
-7.95656250e-08,1.04375000e-02,2.07812500e-02
-7.87656250e-08,8.84375000e-03,1.99218750e-02
-7.79656250e-08,7.96875000e-03,1.39843750e-02
-7.71656250e-08,1.28750000e-02,2.59375000e-02
-7.63656250e-08,1.00625000e-02,1.61718750e-02
-7.55656250e-08,9.46875000e-03,3.35937500e-03
-7.47656250e-08,7.15625000e-03,1.88281250e-02
-7.39656250e-08,4.03125000e-03,1.36718750e-02
-7.31656250e-08,1.60937500e-02,1.19531250e-02
-7.23656250e-08,9.09375000e-03,1.78125000e-02
-7.15656250e-08,1.02500000e-02,1.49218750e-02
-7.07656250e-08,1.20312500e-02,9.68750000e-03
-6.99656250e-08,1.33750000e-02,1.37500000e-02
-6.91656250e-08,1.62500000e-03,1.35156250e-02
-6.83656250e-08,1.43125000e-02,1.41406250e-02
-6.75656250e-08,1.16875000e-02,1.13281250e-02
-6.67656250e-08,1.45312500e-02,1.72656250e-02
-6.59656250e-08,9.96875000e-03,1.62500000e-02
-6.51656250e-08,1.50937500e-02,1.81250000e-02
-6.43656250e-08,7.53125000e-03,1.42187500e-02
-6.35656250e-08,1.07500000e-02,1.02343750e-02
-6.27656250e-08,6.21875000e-03,7.81250000e-05
-6.19656250e-08,1.40312500e-02,2.39843750e-02
-6.11656250e-08,4.71875000e-03,2.93750000e-02
-6.03656250e-08,1.31250000e-02,-1.73984375e-01
-5.95656250e-08,5.62500000e-04,-7.01250000e-01
-5.87656250e-08,1.07812500e-02,-1.20015625e+00
-5.79656250e-08,1.24687500e-02,-1.30687500e+00
-5.71656250e-08,1.61875000e-02,-1.37281250e+00
-5.63656250e-08,4.18750000e-03,-1.40710938e+00
-5.55656250e-08,8.25000000e-03,-1.41054688e+00
-5.47656250e-08,1.56875000e-02,-1.39281250e+00
-5.39656250e-08,9.56250000e-03,-1.39335938e+00
-5.31656250e-08,1.22500000e-02,-1.41265625e+00
-5.23656250e-08,6.43750000e-03,-1.43171875e+00
-5.15656250e-08,1.25000000e-02,-1.41289063e+00
-5.07656250e-08,1.02812500e-02,-1.39710938e+00
-4.99656250e-08,1.41562500e-02,-1.37437500e+00
-4.91656250e-08,8.93750000e-03,-1.37164063e+00
-4.83656250e-08,3.84375000e-03,-1.40648438e+00
-4.75656250e-08,1.41250000e-02,-1.40789063e+00
-4.67656250e-08,1.10000000e-02,-1.42039063e+00
-4.59656250e-08,9.65625000e-03,-1.41148438e+00
-4.51656250e-08,6.40625000e-03,-1.42234375e+00
-4.43656250e-08,1.19062500e-02,-1.41351563e+00
-4.35656250e-08,7.53125000e-03,-1.42437500e+00
-4.27656250e-08,1.18125000e-02,-1.41750000e+00
-4.19656250e-08,8.00000000e-03,-1.42265625e+00
-4.11656250e-08,1.35937500e-02,-1.42125000e+00
-4.03656250e-08,5.87500000e-03,-1.41648438e+00
-3.95656250e-08,1.34375000e-02,-1.42281250e+00
-3.87656250e-08,6.62500000e-03,-1.41562500e+00
-3.79656250e-08,6.68750000e-03,-1.41500000e+00
-3.71656250e-08,5.37500000e-03,-1.41937500e+00
-3.63656250e-08,8.15625000e-03,-1.41976563e+00
-3.55656250e-08,5.56250000e-03,-1.42687500e+00
-3.47656250e-08,9.81250000e-03,-1.41445313e+00
-3.39656250e-08,-2.06250000e-03,-1.42335937e+00
-3.31656250e-08,-9.43750000e-03,-1.42664063e+00
-3.23656250e-08,-3.01250000e-02,-1.41992188e+00
-3.15656250e-08,-6.62500000e-02,-1.42765625e+00
-3.07656250e-08,-1.33718750e-01,-1.43242188e+00
-2.99656250e-08,-2.00906250e-01,-1.42726562e+00
-2.91656250e-08,-2.88750000e-01,-1.41726563e+00
-2.83656250e-08,-3.87812500e-01,-1.42500000e+00
-2.75656250e-08,-4.69093750e-01,-1.41406250e+00
-2.67656250e-08,-5.48375000e-01,-1.42414063e+00
-2.59656250e-08,-6.12750000e-01,-1.41492188e+00
-2.51656250e-08,-6.70843750e-01,-1.41718750e+00
-2.43656250e-08,-7.13312500e-01,-1.41679688e+00
-2.35656250e-08,-7.42906250e-01,-1.41679688e+00
-2.27656250e-08,-7.66500000e-01,-1.41921875e+00
-2.19656250e-08,-7.87531250e-01,-1.41578125e+00
-2.11656250e-08,-7.93468750e-01,-1.41703125e+00
-2.03656250e-08,-7.94500000e-01,-1.42554688e+00
-1.95656250e-08,-7.83281250e-01,-1.41906250e+00
-1.87656250e-08,-7.72875000e-01,-1.41539063e+00
-1.79656250e-08,-7.56406250e-01,-1.42250000e+00
-1.71656250e-08,-7.29031250e-01,-1.42625000e+00
-1.63656250e-08,-7.06750000e-01,-1.42125000e+00
-1.55656250e-08,-6.83812500e-01,-1.41085938e+00
-1.47656250e-08,-6.44718750e-01,-1.42085938e+00
-1.39656250e-08,-6.10062500e-01,-1.41867188e+00
-1.31656250e-08,-5.85187500e-01,-1.42781250e+00
-1.23656250e-08,-5.48250000e-01,-1.41953125e+00
-1.15656250e-08,-5.16781250e-01,-1.42562500e+00
-1.07656250e-08,-4.80437500e-01,-1.42531250e+00
-9.96562500e-09,-4.54468750e-01,-1.43109375e+00
-9.16562500e-09,-4.25937500e-01,-1.41414063e+00
-8.36562500e-09,-3.98812500e-01,-1.42585938e+00
-7.56562500e-09,-3.76875000e-01,-1.42515625e+00
-6.76562500e-09,-3.48031250e-01,-1.42320313e+00
-5.96562500e-09,-3.31843750e-01,-1.42070313e+00
-5.16562500e-09,-3.17031250e-01,-1.42046875e+00
-4.36562500e-09,-2.93312500e-01,-1.41250000e+00
-3.56562500e-09,-2.74937500e-01,-1.38710938e+00
-2.76562500e-09,-2.63468750e-01,-1.34468750e+00
-1.96562500e-09,-2.47187500e-01,-1.19500000e+00
-1.16562500e-09,-2.31281250e-01,-8.13281250e-01
-3.65625000e-10,-2.19875000e-01,-3.95546875e-01
4.34375000e-10,-2.07968750e-01,-2.15546875e-01
1.23437500e-09,-1.98906250e-01,-1.15078125e-01
2.03437500e-09,-1.93250000e-01,-7.34375000e-02
2.83437500e-09,-1.86281250e-01,-5.86718750e-02
3.63437500e-09,-1.73593750e-01,-4.26562500e-02
4.43437500e-09,-1.64250000e-01,-4.35156250e-02
5.23437500e-09,-1.52468750e-01,-3.85937500e-02
6.03437500e-09,-1.44687500e-01,-3.14062500e-02
6.83437500e-09,-1.28750000e-01,-2.92187500e-02
7.63437500e-09,-1.28718750e-01,-3.50781250e-02
8.43437500e-09,-1.19375000e-01,-2.81250000e-02
9.23437500e-09,-1.16718750e-01,-2.64843750e-02
1.00343750e-08,-1.13593750e-01,-1.15625000e-02
1.08343750e-08,-1.08000000e-01,-1.75000000e-02
1.16343750e-08,-1.00500000e-01,-1.26562500e-02
1.24343750e-08,-9.98125000e-02,-1.37500000e-02
1.32343750e-08,-9.05937500e-02,-1.22656250e-02
1.40343750e-08,-8.75000000e-02,-1.10156250e-02
1.48343750e-08,-7.71250000e-02,-6.87500000e-03
1.56343750e-08,-7.17187500e-02,-4.45312500e-03
1.64343750e-08,-6.62187500e-02,-6.17187500e-03
1.72343750e-08,-6.42500000e-02,-3.43750000e-03
1.80343750e-08,-6.28750000e-02,-7.10937500e-03
1.88343750e-08,-5.32812500e-02,1.09375000e-03
1.96343750e-08,-4.96875000e-02,-5.46875000e-03
2.04343750e-08,-5.23125000e-02,-2.96875000e-03
2.12343750e-08,-4.64062500e-02,-1.32812500e-03
2.20343750e-08,-3.71562500e-02,-2.34375000e-03
2.28343750e-08,-4.15937500e-02,-1.09375000e-03
2.36343750e-08,-4.03437500e-02,1.10156250e-02
2.44343750e-08,-4.15000000e-02,-7.81250000e-05
2.52343750e-08,-3.09687500e-02,1.31250000e-02
2.60343750e-08,-3.02500000e-02,7.65625000e-03
2.68343750e-08,-2.88437500e-02,8.35937500e-03
2.76343750e-08,-2.85312500e-02,1.11718750e-02
2.84343750e-08,-3.08750000e-02,1.34375000e-02
2.92343750e-08,-2.07187500e-02,3.82812500e-03
3.00343750e-08,-1.95312500e-02,1.91406250e-02
3.08343750e-08,-2.33437500e-02,9.68750000e-03
3.16343750e-08,-2.44687500e-02,1.73437500e-02
3.24343750e-08,-1.41562500e-02,2.71875000e-02
3.32343750e-08,-2.62812500e-02,3.15625000e-02
3.40343750e-08,-1.40000000e-02,3.29687500e-02
3.48343750e-08,-1.35312500e-02,3.34375000e-02
3.56343750e-08,-9.50000000e-03,3.82812500e-02
3.64343750e-08,-1.85625000e-02,3.14062500e-02
3.72343750e-08,-3.93750000e-03,3.06250000e-02
3.80343750e-08,-1.18125000e-02,3.64843750e-02
3.88343750e-08,-8.87500000e-03,3.25781250e-02
3.96343750e-08,-1.44062500e-02,1.82812500e-02
4.04343750e-08,-7.06250000e-03,3.36718750e-02
4.12343750e-08,-1.24687500e-02,2.78125000e-02
4.20343750e-08,-6.40625000e-03,2.73437500e-02
4.28343750e-08,-1.32500000e-02,3.10937500e-02
4.36343750e-08,-6.03125000e-03,1.89843750e-02
4.44343750e-08,-6.75000000e-03,2.67187500e-02
4.52343750e-08,-6.00000000e-03,3.00781250e-02
4.60343750e-08,-9.28125000e-03,1.89062500e-02
4.68343750e-08,-7.06250000e-03,2.43750000e-02
4.76343750e-08,-8.93750000e-03,2.53906250e-02
4.84343750e-08,-1.19062500e-02,2.53125000e-02
4.92343750e-08,-3.50000000e-03,1.86718750e-02
5.00343750e-08,-8.46875000e-03,2.73437500e-02
5.08343750e-08,-6.50000000e-03,1.57812500e-02
5.16343750e-08,-7.93750000e-03,2.28125000e-02
5.24343750e-08,-4.68750000e-03,2.37500000e-02
5.32343750e-08,-9.12500000e-03,2.64843750e-02
5.40343750e-08,-1.19687500e-02,3.00781250e-02
5.48343750e-08,-2.21875000e-03,1.80468750e-02
5.56343750e-08,-7.31250000e-03,2.35937500e-02
5.64343750e-08,-9.34375000e-03,1.47656250e-02
