muon_CSV/TriggerAuto_ALL_20231205194418428.csv

Model,MSO64B
Channel,CH1,,Channel,CH2
Label,,,Label,
Waveform Type,ANALOG,,Waveform Type,ANALOG
Horizontal Units,s,,Horizontal Units,s
Sample Interval,8.00000000e-10,,Sample Interval,8.00000000e-10
Record Length,5000,,Record Length,5000
Zero Index,349.95703125,,Zero Index,349.95703125
Vertical Units,V,,Vertical Units,V
,,,,
ANALOG_Thumbnail,,,ANALOG_Thumbnail,
yOffset,0.000000,,yOffset,0.000000
yPosition,2.160000,,yPosition,2.180000

Labels,,
TIME,CH1,CH2
-2.79965625e-07,6.31250000e-03,2.22656250e-02
-2.79165625e-07,9.93750000e-03,1.14843750e-02
-2.78365625e-07,9.93750000e-03,1.78125000e-02
-2.77565625e-07,9.09375000e-03,1.68750000e-02
-2.76765625e-07,8.15625000e-03,2.15625000e-02
-2.75965625e-07,8.00000000e-03,6.79687500e-03
-2.75165625e-07,6.68750000e-03,1.26562500e-02
-2.74365625e-07,9.93750000e-03,1.69531250e-02
-2.73565625e-07,7.21875000e-03,1.64062500e-02
-2.72765625e-07,1.44687500e-02,2.09375000e-02
-2.71965625e-07,5.15625000e-03,1.68750000e-02
-2.71165625e-07,9.40625000e-03,2.08593750e-02
-2.70365625e-07,8.81250000e-03,1.48437500e-02
-2.69565625e-07,8.28125000e-03,1.35937500e-02
-2.68765625e-07,4.50000000e-03,1.31250000e-02
-2.67965625e-07,1.06250000e-02,2.29687500e-02
-2.67165625e-07,5.93750000e-03,2.28125000e-02
-2.66365625e-07,1.09687500e-02,2.65625000e-02
-2.65565625e-07,8.81250000e-03,7.96875000e-03
-2.64765625e-07,1.01875000e-02,1.97656250e-02
-2.63965625e-07,6.53125000e-03,1.53906250e-02
-2.63165625e-07,1.28750000e-02,2.02343750e-02
-2.62365625e-07,1.87500000e-04,6.01562500e-03
-2.61565625e-07,3.93750000e-03,1.06250000e-02
-2.60765625e-07,1.09375000e-02,1.57031250e-02
-2.59965625e-07,1.15000000e-02,1.50781250e-02
-2.59165625e-07,5.28125000e-03,1.70312500e-02
-2.58365625e-07,8.43750000e-03,2.09375000e-02
-2.57565625e-07,1.17500000e-02,1.35156250e-02
-2.56765625e-07,6.31250000e-03,1.84375000e-02
-2.55965625e-07,6.12500000e-03,1.61718750e-02
-2.55165625e-07,7.93750000e-03,1.90625000e-02
-2.54365625e-07,1.15000000e-02,2.14062500e-02
-2.53565625e-07,1.05625000e-02,1.61718750e-02
-2.52765625e-07,1.06250000e-02,2.15625000e-02
-2.51965625e-07,9.03125000e-03,2.39843750e-02
-2.51165625e-07,6.59375000e-03,1.78906250e-02
-2.50365625e-07,1.45312500e-02,9.53125000e-03
-2.49565625e-07,3.68750000e-03,1.83593750e-02
-2.48765625e-07,9.50000000e-03,1.81250000e-02
-2.47965625e-07,3.56250000e-03,2.01562500e-02
-2.47165625e-07,1.11875000e-02,1.00781250e-02
-2.46365625e-07,3.90625000e-03,1.19531250e-02
-2.45565625e-07,6.46875000e-03,2.67968750e-02
-2.44765625e-07,7.21875000e-03,1.06250000e-02
-2.43965625e-07,1.12812500e-02,1.96093750e-02
-2.43165625e-07,3.81250000e-03,-4.68750000e-04
-2.42365625e-07,1.07500000e-02,2.08593750e-02
-2.41565625e-07,7.65625000e-03,1.79687500e-02
-2.40765625e-07,5.37500000e-03,1.36718750e-02
-2.39965625e-07,3.00000000e-03,1.16406250e-02
-2.39165625e-07,9.56250000e-03,2.17968750e-02
-2.38365625e-07,4.78125000e-03,2.00000000e-02
-2.37565625e-07,1.55625000e-02,1.62500000e-02
-2.36765625e-07,5.18750000e-03,1.60937500e-02
-2.35965625e-07,4.71875000e-03,1.76562500e-02
-2.35165625e-07,9.40625000e-03,2.20312500e-02
-2.34365625e-07,1.53125000e-02,1.14062500e-02
-2.33565625e-07,7.15625000e-03,8.35937500e-03
-2.32765625e-07,7.53125000e-03,1.64843750e-02
-2.31965625e-07,1.20625000e-02,1.08593750e-02
-2.31165625e-07,7.28125000e-03,1.07031250e-02
-2.30365625e-07,4.46875000e-03,2.36718750e-02
-2.29565625e-07,7.68750000e-03,1.89062500e-02
-2.28765625e-07,9.84375000e-03,2.82031250e-02
-2.27965625e-07,9.03125000e-03,2.38281250e-02
-2.27165625e-07,8.81250000e-03,2.25781250e-02
-2.26365625e-07,1.02500000e-02,1.13281250e-02
-2.25565625e-07,6.93750000e-03,1.62500000e-02
-2.24765625e-07,1.22500000e-02,1.07812500e-02
-2.23965625e-07,7.50000000e-03,1.10937500e-02
-2.23165625e-07,7.03125000e-03,1.96093750e-02
-2.22365625e-07,3.96875000e-03,1.28125000e-02
-2.21565625e-07,1.43750000e-02,1.50000000e-02
-2.20765625e-07,1.56250000e-04,9.06250000e-03
-2.19965625e-07,8.15625000e-03,1.72656250e-02
-2.19165625e-07,3.56250000e-03,1.69531250e-02
-2.18365625e-07,1.01562500e-02,2.82812500e-02
-2.17565625e-07,2.65625000e-03,1.85156250e-02
-2.16765625e-07,6.18750000e-03,1.89843750e-02
-2.15965625e-07,4.00000000e-03,2.85937500e-02
-2.15165625e-07,7.90625000e-03,2.10937500e-02
-2.14365625e-07,8.75000000e-04,8.67187500e-03
-2.13565625e-07,1.26875000e-02,1.90625000e-02
-2.12765625e-07,1.81250000e-03,2.18750000e-02
-2.11965625e-07,1.34375000e-02,1.01562500e-02
-2.11165625e-07,2.75000000e-03,2.09375000e-02
-2.10365625e-07,5.28125000e-03,1.73437500e-02
-2.09565625e-07,8.65625000e-03,8.35937500e-03
-2.08765625e-07,1.06250000e-02,2.64843750e-02
-2.07965625e-07,3.59375000e-03,2.43750000e-02
-2.07165625e-07,7.62500000e-03,1.41406250e-02
-2.06365625e-07,1.41250000e-02,1.94531250e-02
-2.05565625e-07,7.06250000e-03,1.86718750e-02
-2.04765625e-07,5.00000000e-03,1.40625000e-02
-2.03965625e-07,8.53125000e-03,1.03906250e-02
-2.03165625e-07,8.06250000e-03,2.22656250e-02
-2.02365625e-07,5.78125000e-03,1.74218750e-02
-2.01565625e-07,9.68750000e-03,2.01562500e-02
-2.00765625e-07,9.75000000e-03,1.73437500e-02
-1.99965625e-07,5.28125000e-03,1.14843750e-02
-1.99165625e-07,9.75000000e-03,9.06250000e-03
-1.98365625e-07,7.34375000e-03,1.50781250e-02
-1.97565625e-07,9.15625000e-03,1.95312500e-02
-1.96765625e-07,9.09375000e-03,6.25000000e-03
-1.95965625e-07,1.15000000e-02,2.12500000e-02
-1.95165625e-07,6.25000000e-05,1.27343750e-02
-1.94365625e-07,8.21875000e-03,2.12500000e-02
-1.93565625e-07,9.12500000e-03,1.85937500e-02
-1.92765625e-07,1.57187500e-02,1.56250000e-02
-1.91965625e-07,2.18750000e-03,1.67968750e-02
-1.91165625e-07,1.03437500e-02,1.63281250e-02
-1.90365625e-07,6.00000000e-03,2.46875000e-02
-1.89565625e-07,7.03125000e-03,1.00781250e-02
-1.88765625e-07,8.65625000e-03,1.43750000e-02
-1.87965625e-07,1.91562500e-02,1.76562500e-02
-1.87165625e-07,1.02500000e-02,1.81250000e-02
-1.86365625e-07,1.21250000e-02,1.29687500e-02
-1.85565625e-07,5.00000000e-03,1.68750000e-02
-1.84765625e-07,7.62500000e-03,1.43750000e-02
-1.83965625e-07,7.78125000e-03,2.15625000e-02
-1.83165625e-07,1.39687500e-02,1.75781250e-02
-1.82365625e-07,9.40625000e-03,2.67187500e-02
-1.81565625e-07,6.50000000e-03,1.12500000e-02
-1.80765625e-07,1.24687500e-02,1.89062500e-02
-1.79965625e-07,4.43750000e-03,6.17187500e-03
-1.79165625e-07,7.78125000e-03,1.39062500e-02
-1.78365625e-07,8.15625000e-03,1.69531250e-02
-1.77565625e-07,1.46250000e-02,2.34375000e-02
-1.76765625e-07,7.31250000e-03,8.12500000e-03
-1.75965625e-07,6.28125000e-03,1.65625000e-02
-1.75165625e-07,1.03125000e-02,1.42187500e-02
-1.74365625e-07,7.71875000e-03,2.29687500e-02
-1.73565625e-07,1.20000000e-02,1.06250000e-02
-1.72765625e-07,8.59375000e-03,1.71093750e-02
-1.71965625e-07,8.71875000e-03,1.14062500e-02
-1.71165625e-07,9.75000000e-03,9.29687500e-03
-1.70365625e-07,1.29375000e-02,1.97656250e-02
-1.69565625e-07,6.25000000e-04,1.63281250e-02
-1.68765625e-07,1.04375000e-02,2.36718750e-02
-1.67965625e-07,8.15625000e-03,2.92968750e-02
-1.67165625e-07,1.32500000e-02,2.04687500e-02
-1.66365625e-07,1.84375000e-03,1.21875000e-02
-1.65565625e-07,1.26250000e-02,2.28906250e-02
-1.64765625e-07,4.31250000e-03,2.12500000e-02
-1.63965625e-07,7.81250000e-03,1.47656250e-02
-1.63165625e-07,4.90625000e-03,1.29687500e-02
-1.62365625e-07,1.12187500e-02,2.49218750e-02
-1.61565625e-07,5.84375000e-03,2.51562500e-02
-1.60765625e-07,1.12187500e-02,1.59375000e-02
-1.59965625e-07,4.62500000e-03,1.81250000e-02
-1.59165625e-07,7.93750000e-03,1.41406250e-02
-1.58365625e-07,9.68750000e-03,1.69531250e-02
-1.57565625e-07,1.12812500e-02,2.27343750e-02
-1.56765625e-07,5.50000000e-03,1.39062500e-02
-1.55965625e-07,8.84375000e-03,1.36718750e-02
-1.55165625e-07,7.12500000e-03,1.48437500e-02
-1.54365625e-07,7.21875000e-03,9.76562500e-03
-1.53565625e-07,9.46875000e-03,2.29687500e-02
-1.52765625e-07,9.15625000e-03,1.47656250e-02
-1.51965625e-07,1.03125000e-02,2.42187500e-02
-1.51165625e-07,9.50000000e-03,8.12500000e-03
-1.50365625e-07,8.18750000e-03,2.91406250e-02
-1.49565625e-07,8.37500000e-03,2.03125000e-02
-1.48765625e-07,3.43750000e-03,1.34375000e-02
-1.47965625e-07,8.93750000e-03,6.25000000e-03
-1.47165625e-07,2.25000000e-03,2.11718750e-02
-1.46365625e-07,8.65625000e-03,1.66406250e-02
-1.45565625e-07,7.06250000e-03,1.77343750e-02
-1.44765625e-07,7.84375000e-03,2.07031250e-02
-1.43965625e-07,5.93750000e-03,1.75000000e-02
-1.43165625e-07,1.20937500e-02,1.74218750e-02
-1.42365625e-07,4.25000000e-03,1.02343750e-02
-1.41565625e-07,8.56250000e-03,1.49218750e-02
-1.40765625e-07,6.03125000e-03,1.82031250e-02
-1.39965625e-07,1.08437500e-02,2.00000000e-02
-1.39165625e-07,5.12500000e-03,1.27343750e-02
-1.38365625e-07,1.09375000e-02,1.55468750e-02
-1.37565625e-07,6.71875000e-03,7.65625000e-03
-1.36765625e-07,1.25000000e-02,2.18750000e-02
-1.35965625e-07,6.53125000e-03,2.32812500e-02
-1.35165625e-07,1.03750000e-02,1.61718750e-02
-1.34365625e-07,4.12500000e-03,1.55468750e-02
-1.33565625e-07,7.40625000e-03,1.30468750e-02
-1.32765625e-07,1.05937500e-02,1.63281250e-02
-1.31965625e-07,1.41562500e-02,7.10937500e-03
-1.31165625e-07,3.68750000e-03,1.60156250e-02
-1.30365625e-07,8.34375000e-03,1.25781250e-02
-1.29565625e-07,1.35000000e-02,1.53906250e-02
-1.28765625e-07,5.21875000e-03,1.60937500e-02
-1.27965625e-07,7.03125000e-03,2.72656250e-02
-1.27165625e-07,1.15625000e-02,1.11718750e-02
-1.26365625e-07,9.34375000e-03,2.75781250e-02
-1.25565625e-07,8.31250000e-03,1.50000000e-02
-1.24765625e-07,9.53125000e-03,1.89843750e-02
-1.23965625e-07,1.00312500e-02,1.59375000e-02
-1.23165625e-07,6.00000000e-03,2.29687500e-02
-1.22365625e-07,9.40625000e-03,1.00000000e-02
-1.21565625e-07,7.06250000e-03,1.67187500e-02
-1.20765625e-07,8.87500000e-03,2.47656250e-02
-1.19965625e-07,7.46875000e-03,1.03906250e-02
-1.19165625e-07,1.22500000e-02,1.78906250e-02
-1.18365625e-07,4.75000000e-03,1.06250000e-02
-1.17565625e-07,7.18750000e-03,1.67968750e-02
-1.16765625e-07,8.81250000e-03,2.14843750e-02
-1.15965625e-07,1.05312500e-02,2.51562500e-02
-1.15165625e-07,2.90625000e-03,1.93750000e-02
-1.14365625e-07,1.50625000e-02,2.73437500e-02
-1.13565625e-07,9.06250000e-03,2.57812500e-02
-1.12765625e-07,9.75000000e-03,1.11718750e-02
-1.11965625e-07,6.90625000e-03,8.51562500e-03
-1.11165625e-07,8.37500000e-03,2.37500000e-02
-1.10365625e-07,6.81250000e-03,1.42968750e-02
-1.09565625e-07,9.71875000e-03,1.73437500e-02
-1.08765625e-07,6.40625000e-03,1.92968750e-02
-1.07965625e-07,5.18750000e-03,2.32812500e-02
-1.07165625e-07,9.68750000e-03,1.72656250e-02
-1.06365625e-07,1.65000000e-02,1.54687500e-02
-1.05565625e-07,-9.06250000e-04,1.37500000e-02
-1.04765625e-07,1.43437500e-02,2.57812500e-02
-1.03965625e-07,8.40625000e-03,2.21093750e-02
-1.03165625e-07,8.43750000e-03,1.96875000e-02
-1.02365625e-07,8.28125000e-03,1.51562500e-02
-1.01565625e-07,7.56250000e-03,1.81250000e-02
-1.00765625e-07,1.18125000e-02,1.86718750e-02
-9.99656250e-08,9.12500000e-03,1.88281250e-02
-9.91656250e-08,9.56250000e-03,1.88281250e-02
-9.83656250e-08,1.15937500e-02,2.03125000e-02
-9.75656250e-08,7.93750000e-03,2.49218750e-02
-9.67656250e-08,1.45000000e-02,1.89062500e-02
-9.59656250e-08,7.37500000e-03,1.64843750e-02
-9.51656250e-08,9.59375000e-03,2.19531250e-02
-9.43656250e-08,7.90625000e-03,1.58593750e-02
-9.35656250e-08,7.31250000e-03,1.56250000e-02
-9.27656250e-08,4.21875000e-03,2.48437500e-02
-9.19656250e-08,9.68750000e-03,1.75000000e-02
-9.11656250e-08,7.43750000e-03,2.57031250e-02
-9.03656250e-08,1.51875000e-02,1.15625000e-02
-8.95656250e-08,6.75000000e-03,2.00781250e-02
-8.87656250e-08,1.34062500e-02,2.56250000e-02
-8.79656250e-08,8.00000000e-03,2.42968750e-02
-8.71656250e-08,1.11250000e-02,2.49218750e-02
-8.63656250e-08,5.65625000e-03,2.21875000e-02
-8.55656250e-08,1.11875000e-02,2.29687500e-02
-8.47656250e-08,6.18750000e-03,2.75000000e-02
-8.39656250e-08,1.46875000e-02,2.00781250e-02
-8.31656250e-08,6.00000000e-03,2.10156250e-02
-8.23656250e-08,6.78125000e-03,1.96875000e-02
-8.15656250e-08,1.05312500e-02,2.17968750e-02
-8.07656250e-08,1.25000000e-02,1.77343750e-02
-7.99656250e-08,6.03125000e-03,2.78125000e-02
-7.91656250e-08,1.10000000e-02,2.01562500e-02
-7.83656250e-08,1.17187500e-02,1.91406250e-02
-7.75656250e-08,1.17500000e-02,2.35937500e-02
-7.67656250e-08,7.18750000e-03,1.95312500e-02
-7.59656250e-08,1.10000000e-02,1.23437500e-02
-7.51656250e-08,9.90625000e-03,1.98437500e-02
-7.43656250e-08,8.28125000e-03,2.02343750e-02
-7.35656250e-08,1.10625000e-02,3.02343750e-02
-7.27656250e-08,7.25000000e-03,1.97656250e-02
-7.19656250e-08,5.59375000e-03,2.14843750e-02
-7.11656250e-08,1.40937500e-02,8.51562500e-03
-7.03656250e-08,8.12500000e-03,2.17187500e-02
-6.95656250e-08,1.10000000e-02,2.15625000e-02
-6.87656250e-08,9.96875000e-03,1.20312500e-02
-6.79656250e-08,1.05000000e-02,2.44531250e-02
-6.71656250e-08,2.65625000e-03,1.82031250e-02
-6.63656250e-08,1.15937500e-02,2.75000000e-02
-6.55656250e-08,7.15625000e-03,2.30468750e-02
-6.47656250e-08,1.28437500e-02,1.81250000e-02
-6.39656250e-08,6.87500000e-03,2.06250000e-02
-6.31656250e-08,1.42500000e-02,1.49218750e-02
-6.23656250e-08,5.87500000e-03,1.78125000e-02
-6.15656250e-08,1.01250000e-02,3.07031250e-02
-6.07656250e-08,8.00000000e-03,-6.92187500e-02
-5.99656250e-08,1.31562500e-02,-5.28125000e-01
-5.91656250e-08,7.62500000e-03,-1.06835938e+00
-5.83656250e-08,1.52812500e-02,-1.25179688e+00
-5.75656250e-08,4.46875000e-03,-1.34921875e+00
-5.67656250e-08,5.09375000e-03,-1.39859375e+00
-5.59656250e-08,7.28125000e-03,-1.40335937e+00
-5.51656250e-08,1.63750000e-02,-1.38882813e+00
-5.43656250e-08,6.78125000e-03,-1.38742188e+00
-5.35656250e-08,9.96875000e-03,-1.40171875e+00
-5.27656250e-08,1.65625000e-02,-1.39765625e+00
-5.19656250e-08,8.03125000e-03,-1.41554687e+00
-5.11656250e-08,1.12812500e-02,-1.40109375e+00
-5.03656250e-08,1.19687500e-02,-1.41257813e+00
-4.95656250e-08,1.02187500e-02,-1.40500000e+00
-4.87656250e-08,1.11562500e-02,-1.40023438e+00
-4.79656250e-08,7.65625000e-03,-1.42046875e+00
-4.71656250e-08,8.00000000e-03,-1.40890625e+00
-4.63656250e-08,8.12500000e-03,-1.42375000e+00
-4.55656250e-08,1.16875000e-02,-1.41406250e+00
-4.47656250e-08,1.08437500e-02,-1.42312500e+00
-4.39656250e-08,9.12500000e-03,-1.42882813e+00
-4.31656250e-08,3.53125000e-03,-1.42203125e+00
-4.23656250e-08,1.26562500e-02,-1.41468750e+00
-4.15656250e-08,1.21875000e-03,-1.42093750e+00
-4.07656250e-08,1.13125000e-02,-1.42125000e+00
-3.99656250e-08,1.20937500e-02,-1.42281250e+00
-3.91656250e-08,1.00312500e-02,-1.41789063e+00
-3.83656250e-08,4.93750000e-03,-1.42945313e+00
-3.75656250e-08,6.96875000e-03,-1.41507812e+00
-3.67656250e-08,4.40625000e-03,-1.41664063e+00
-3.59656250e-08,1.56250000e-03,-1.42695313e+00
-3.51656250e-08,4.93750000e-03,-1.42960938e+00
-3.43656250e-08,1.29375000e-02,-1.41820313e+00
-3.35656250e-08,-5.21875000e-03,-1.42273438e+00
-3.27656250e-08,-1.55625000e-02,-1.40859375e+00
-3.19656250e-08,-5.57187500e-02,-1.42210938e+00
-3.11656250e-08,-1.02218750e-01,-1.42203125e+00
-3.03656250e-08,-1.64843750e-01,-1.42312500e+00
-2.95656250e-08,-2.40375000e-01,-1.41617188e+00
-2.87656250e-08,-3.20531250e-01,-1.42734375e+00
-2.79656250e-08,-3.78343750e-01,-1.41468750e+00
-2.71656250e-08,-4.42000000e-01,-1.40976563e+00
-2.63656250e-08,-4.90343750e-01,-1.41218750e+00
-2.55656250e-08,-5.29812500e-01,-1.41992188e+00
-2.47656250e-08,-5.55718750e-01,-1.41414063e+00
-2.39656250e-08,-5.76750000e-01,-1.40765625e+00
-2.31656250e-08,-5.90625000e-01,-1.40562500e+00
-2.23656250e-08,-5.94406250e-01,-1.41367188e+00
-2.15656250e-08,-5.90343750e-01,-1.41851563e+00
-2.07656250e-08,-5.83218750e-01,-1.41304688e+00
-1.99656250e-08,-5.69218750e-01,-1.41570313e+00
-1.91656250e-08,-5.55843750e-01,-1.41750000e+00
-1.83656250e-08,-5.34093750e-01,-1.42132813e+00
-1.75656250e-08,-5.05531250e-01,-1.41312500e+00
-1.67656250e-08,-4.84906250e-01,-1.42000000e+00
-1.59656250e-08,-4.62906250e-01,-1.42546875e+00
-1.51656250e-08,-4.26625000e-01,-1.42593750e+00
-1.43656250e-08,-4.10875000e-01,-1.41570313e+00
-1.35656250e-08,-3.86750000e-01,-1.40953125e+00
-1.27656250e-08,-3.61562500e-01,-1.42328125e+00
-1.19656250e-08,-3.35625000e-01,-1.41500000e+00
-1.11656250e-08,-3.21062500e-01,-1.42046875e+00
-1.03656250e-08,-2.91781250e-01,-1.42226563e+00
-9.56562500e-09,-2.80812500e-01,-1.44179688e+00
-8.76562500e-09,-2.57375000e-01,-1.41914063e+00
-7.96562500e-09,-2.38781250e-01,-1.41960938e+00
-7.16562500e-09,-2.24281250e-01,-1.40812500e+00
-6.36562500e-09,-2.20125000e-01,-1.42757813e+00
-5.56562500e-09,-2.04281250e-01,-1.41976563e+00
-4.76562500e-09,-1.84062500e-01,-1.41781250e+00
-3.96562500e-09,-1.78812500e-01,-1.40414063e+00
-3.16562500e-09,-1.68343750e-01,-1.36921875e+00
-2.36562500e-09,-1.57343750e-01,-1.29515625e+00
-1.56562500e-09,-1.41187500e-01,-1.04171875e+00
-7.65625000e-10,-1.37781250e-01,-5.96875000e-01
3.43750000e-11,-1.23000000e-01,-2.80781250e-01
8.34375000e-10,-1.17187500e-01,-1.56015625e-01
1.63437500e-09,-1.16062500e-01,-8.99218750e-02
2.43437500e-09,-1.04093750e-01,-7.24218750e-02
3.23437500e-09,-1.01281250e-01,-4.71093750e-02
4.03437500e-09,-9.80312500e-02,-3.82812500e-02
4.83437500e-09,-9.50937500e-02,-2.88281250e-02
5.63437500e-09,-8.12500000e-02,-3.47656250e-02
6.43437500e-09,-7.98750000e-02,-2.50000000e-02
7.23437500e-09,-7.39375000e-02,-2.74218750e-02
8.03437500e-09,-6.69062500e-02,-2.17968750e-02
8.83437500e-09,-6.10625000e-02,-2.25781250e-02
9.63437500e-09,-6.31875000e-02,-2.78125000e-02
1.04343750e-08,-5.38750000e-02,-8.12500000e-03
1.12343750e-08,-5.24687500e-02,-1.74218750e-02
1.20343750e-08,-4.30312500e-02,-1.31250000e-02
1.28343750e-08,-4.62500000e-02,-1.14062500e-02
1.36343750e-08,-3.46875000e-02,-6.71875000e-03
1.44343750e-08,-3.87500000e-02,-9.37500000e-04
1.52343750e-08,-3.22812500e-02,-9.68750000e-03
1.60343750e-08,-3.41875000e-02,-1.04687500e-02
1.68343750e-08,-2.49687500e-02,9.37500000e-04
1.76343750e-08,-3.08750000e-02,2.89062500e-03
1.84343750e-08,-2.14687500e-02,1.09375000e-02
1.92343750e-08,-3.13125000e-02,2.34375000e-04
2.00343750e-08,-2.76250000e-02,-1.71875000e-03
2.08343750e-08,-2.41562500e-02,-7.81250000e-05
2.16343750e-08,-2.01562500e-02,4.29687500e-03
2.24343750e-08,-2.96875000e-02,-1.32812500e-03
2.32343750e-08,-1.54375000e-02,1.32031250e-02
2.40343750e-08,-1.99062500e-02,7.65625000e-03
2.48343750e-08,-2.12812500e-02,7.81250000e-03
2.56343750e-08,-1.63437500e-02,1.05468750e-02
2.64343750e-08,-1.73125000e-02,1.36718750e-02
2.72343750e-08,-1.80625000e-02,2.23437500e-02
2.80343750e-08,-1.50937500e-02,1.25000000e-02
2.88343750e-08,-1.18437500e-02,7.26562500e-03
2.96343750e-08,-1.49062500e-02,1.83593750e-02
3.04343750e-08,-1.92812500e-02,1.70312500e-02
3.12343750e-08,-1.07187500e-02,1.57812500e-02
3.20343750e-08,-1.24687500e-02,3.14062500e-02
3.28343750e-08,-1.29062500e-02,4.00000000e-02
3.36343750e-08,-1.00625000e-02,4.07812500e-02
3.44343750e-08,-5.21875000e-03,4.17968750e-02
3.52343750e-08,-1.05312500e-02,4.00781250e-02
3.60343750e-08,-4.90625000e-03,4.18750000e-02
3.68343750e-08,-7.31250000e-03,4.54687500e-02
3.76343750e-08,-6.81250000e-03,3.38281250e-02
3.84343750e-08,-7.40625000e-03,3.14843750e-02
3.92343750e-08,-2.53125000e-03,3.78906250e-02
4.00343750e-08,-1.26250000e-02,3.29687500e-02
4.08343750e-08,-5.12500000e-03,3.17187500e-02
4.16343750e-08,-1.00937500e-02,2.36718750e-02
4.24343750e-08,-7.15625000e-03,3.44531250e-02
4.32343750e-08,-1.13125000e-02,3.00000000e-02
4.40343750e-08,-4.50000000e-03,2.54687500e-02
4.48343750e-08,-1.24687500e-02,1.88281250e-02
4.56343750e-08,-8.43750000e-03,2.70312500e-02
4.64343750e-08,-5.93750000e-04,2.60156250e-02
4.72343750e-08,8.75000000e-04,2.47656250e-02
4.80343750e-08,-4.53125000e-03,2.59375000e-02
4.88343750e-08,-1.09375000e-03,2.78906250e-02
4.96343750e-08,-8.43750000e-04,2.37500000e-02
5.04343750e-08,-5.62500000e-04,2.59375000e-02
5.12343750e-08,-1.68750000e-03,3.14843750e-02
5.20343750e-08,2.50000000e-04,2.21093750e-02
5.28343750e-08,1.78125000e-03,2.36718750e-02
5.36343750e-08,2.96875000e-03,2.68750000e-02
5.44343750e-08,3.81250000e-03,2.46875000e-02
5.52343750e-08,4.59375000e-03,2.35156250e-02
5.60343750e-08,1.78125000e-03,2.60156250e-02
