muon_CSV/TriggerAuto_ALL_20231205193046610.csv

Model,MSO64B
Channel,CH1,,Channel,CH2
Label,,,Label,
Waveform Type,ANALOG,,Waveform Type,ANALOG
Horizontal Units,s,,Horizontal Units,s
Sample Interval,8.00000000e-10,,Sample Interval,8.00000000e-10
Record Length,5000,,Record Length,5000
Zero Index,349.16406250,,Zero Index,349.16406250
Vertical Units,V,,Vertical Units,V
,,,,
ANALOG_Thumbnail,,,ANALOG_Thumbnail,
yOffset,0.000000,,yOffset,0.000000
yPosition,2.160000,,yPosition,2.180000

Labels,,
TIME,CH1,CH2
-2.79331250e-07,1.00000000e-03,1.41406250e-02
-2.78531250e-07,9.59375000e-03,9.84375000e-03
-2.77731250e-07,7.34375000e-03,9.53125000e-03
-2.76931250e-07,6.18750000e-03,1.78906250e-02
-2.76131250e-07,1.81250000e-03,7.96875000e-03
-2.75331250e-07,1.17812500e-02,1.53906250e-02
-2.74531250e-07,3.62500000e-03,1.97656250e-02
-2.73731250e-07,1.18750000e-02,1.02343750e-02
-2.72931250e-07,3.40625000e-03,4.76562500e-03
-2.72131250e-07,7.93750000e-03,1.19531250e-02
-2.71331250e-07,4.75000000e-03,1.00000000e-02
-2.70531250e-07,1.37812500e-02,1.13281250e-02
-2.69731250e-07,6.18750000e-03,1.26562500e-02
-2.68931250e-07,8.15625000e-03,1.43750000e-02
-2.68131250e-07,6.62500000e-03,-1.32812500e-03
-2.67331250e-07,5.59375000e-03,1.09375000e-02
-2.66531250e-07,3.28125000e-03,5.93750000e-03
-2.65731250e-07,9.68750000e-04,9.53125000e-03
-2.64931250e-07,8.40625000e-03,3.43750000e-03
-2.64131250e-07,1.15625000e-02,1.49218750e-02
-2.63331250e-07,7.59375000e-03,7.89062500e-03
-2.62531250e-07,4.56250000e-03,7.57812500e-03
-2.61731250e-07,5.59375000e-03,1.66406250e-02
-2.60931250e-07,8.59375000e-03,6.48437500e-03
-2.60131250e-07,7.12500000e-03,6.09375000e-03
-2.59331250e-07,9.15625000e-03,-1.87500000e-03
-2.58531250e-07,1.03125000e-03,6.56250000e-03
-2.57731250e-07,1.38125000e-02,1.34375000e-02
-2.56931250e-07,-5.62500000e-04,1.00781250e-02
-2.56131250e-07,9.96875000e-03,1.19531250e-02
-2.55331250e-07,5.06250000e-03,1.56250000e-04
-2.54531250e-07,7.18750000e-03,1.37500000e-02
-2.53731250e-07,2.18750000e-03,1.59375000e-02
-2.52931250e-07,1.01875000e-02,1.51562500e-02
-2.52131250e-07,1.71875000e-03,5.85937500e-03
-2.51331250e-07,9.84375000e-03,1.27343750e-02
-2.50531250e-07,2.37500000e-03,6.25000000e-04
-2.49731250e-07,6.93750000e-03,1.24218750e-02
-2.48931250e-07,4.46875000e-03,1.77343750e-02
-2.48131250e-07,9.65625000e-03,7.89062500e-03
-2.47331250e-07,-8.75000000e-04,1.39843750e-02
-2.46531250e-07,5.34375000e-03,5.85937500e-03
-2.45731250e-07,7.37500000e-03,8.12500000e-03
-2.44931250e-07,7.78125000e-03,7.96875000e-03
-2.44131250e-07,4.68750000e-03,8.04687500e-03
-2.43331250e-07,8.12500000e-03,7.42187500e-03
-2.42531250e-07,6.56250000e-03,8.12500000e-03
-2.41731250e-07,9.65625000e-03,1.27343750e-02
-2.40931250e-07,5.03125000e-03,8.59375000e-03
-2.40131250e-07,5.21875000e-03,9.37500000e-03
-2.39331250e-07,9.40625000e-03,7.96875000e-03
-2.38531250e-07,9.12500000e-03,6.71875000e-03
-2.37731250e-07,7.75000000e-03,7.42187500e-03
-2.36931250e-07,1.03750000e-02,3.51562500e-03
-2.36131250e-07,1.71875000e-03,1.28906250e-02
-2.35331250e-07,1.07187500e-02,7.26562500e-03
-2.34531250e-07,1.00625000e-02,1.21093750e-02
-2.33731250e-07,5.90625000e-03,-7.81250000e-05
-2.32931250e-07,7.31250000e-03,7.81250000e-03
-2.32131250e-07,7.87500000e-03,7.96875000e-03
-2.31331250e-07,2.09375000e-03,1.28906250e-02
-2.30531250e-07,1.44375000e-02,7.10937500e-03
-2.29731250e-07,5.78125000e-03,-4.92187500e-03
-2.28931250e-07,1.09375000e-02,1.82812500e-02
-2.28131250e-07,3.65625000e-03,1.17187500e-03
-2.27331250e-07,6.68750000e-03,4.45312500e-03
-2.26531250e-07,1.50000000e-03,9.60937500e-03
-2.25731250e-07,7.62500000e-03,1.40625000e-02
-2.24931250e-07,3.37500000e-03,1.13281250e-02
-2.24131250e-07,9.21875000e-03,7.26562500e-03
-2.23331250e-07,4.03125000e-03,5.54687500e-03
-2.22531250e-07,7.31250000e-03,1.27343750e-02
-2.21731250e-07,1.65625000e-03,7.34375000e-03
-2.20931250e-07,4.53125000e-03,9.37500000e-03
-2.20131250e-07,5.21875000e-03,7.81250000e-04
-2.19331250e-07,1.34062500e-02,8.98437500e-03
-2.18531250e-07,1.87500000e-03,6.09375000e-03
-2.17731250e-07,5.53125000e-03,9.53125000e-03
-2.16931250e-07,8.65625000e-03,-4.68750000e-04
-2.16131250e-07,8.00000000e-03,1.32031250e-02
-2.15331250e-07,5.15625000e-03,2.52343750e-02
-2.14531250e-07,6.03125000e-03,1.70312500e-02
-2.13731250e-07,1.04062500e-02,1.38281250e-02
-2.12931250e-07,7.40625000e-03,1.71093750e-02
-2.12131250e-07,2.87500000e-03,1.30468750e-02
-2.11331250e-07,5.31250000e-03,5.85937500e-03
-2.10531250e-07,3.28125000e-03,1.53125000e-02
-2.09731250e-07,8.09375000e-03,1.16406250e-02
-2.08931250e-07,4.37500000e-03,6.71875000e-03
-2.08131250e-07,3.46875000e-03,1.85937500e-02
-2.07331250e-07,5.12500000e-03,3.75000000e-03
-2.06531250e-07,1.02500000e-02,1.35156250e-02
-2.05731250e-07,7.50000000e-04,4.45312500e-03
-2.04931250e-07,9.90625000e-03,5.00000000e-03
-2.04131250e-07,8.15625000e-03,1.54687500e-02
-2.03331250e-07,1.21875000e-02,1.51562500e-02
-2.02531250e-07,3.68750000e-03,1.78125000e-02
-2.01731250e-07,1.09375000e-02,6.32812500e-03
-2.00931250e-07,1.05937500e-02,2.26562500e-03
-2.00131250e-07,7.43750000e-03,2.21093750e-02
-1.99331250e-07,2.37500000e-03,1.67968750e-02
-1.98531250e-07,1.18437500e-02,7.10937500e-03
-1.97731250e-07,3.31250000e-03,4.68750000e-03
-1.96931250e-07,9.40625000e-03,8.75000000e-03
-1.96131250e-07,5.00000000e-03,9.37500000e-03
-1.95331250e-07,-5.62500000e-04,2.73437500e-03
-1.94531250e-07,9.43750000e-03,1.50000000e-02
-1.93731250e-07,1.06875000e-02,1.70312500e-02
-1.92931250e-07,4.65625000e-03,6.64062500e-03
-1.92131250e-07,8.40625000e-03,1.53125000e-02
-1.91331250e-07,9.15625000e-03,8.51562500e-03
-1.90531250e-07,7.06250000e-03,1.46093750e-02
-1.89731250e-07,5.53125000e-03,5.46875000e-04
-1.88931250e-07,6.93750000e-03,1.69531250e-02
-1.88131250e-07,8.50000000e-03,1.17187500e-02
-1.87331250e-07,5.59375000e-03,1.34375000e-02
-1.86531250e-07,6.06250000e-03,1.97656250e-02
-1.85731250e-07,8.25000000e-03,1.02343750e-02
-1.84931250e-07,3.56250000e-03,5.31250000e-03
-1.84131250e-07,1.04062500e-02,4.06250000e-03
-1.83331250e-07,5.43750000e-03,8.82812500e-03
-1.82531250e-07,7.12500000e-03,8.67187500e-03
-1.81731250e-07,6.00000000e-03,7.42187500e-03
-1.80931250e-07,1.17812500e-02,1.33593750e-02
-1.80131250e-07,1.96875000e-03,2.03125000e-03
-1.79331250e-07,1.03125000e-02,1.55468750e-02
-1.78531250e-07,6.09375000e-03,7.10937500e-03
-1.77731250e-07,7.18750000e-03,9.53125000e-03
-1.76931250e-07,4.75000000e-03,8.67187500e-03
-1.76131250e-07,7.09375000e-03,1.40625000e-02
-1.75331250e-07,3.21875000e-03,1.11718750e-02
-1.74531250e-07,8.75000000e-03,1.12500000e-02
-1.73731250e-07,-1.56250000e-04,1.25000000e-03
-1.72931250e-07,7.84375000e-03,2.42187500e-03
-1.72131250e-07,6.03125000e-03,1.28125000e-02
-1.71331250e-07,1.02187500e-02,8.67187500e-03
-1.70531250e-07,4.25000000e-03,9.45312500e-03
-1.69731250e-07,6.59375000e-03,1.20312500e-02
-1.68931250e-07,8.28125000e-03,9.92187500e-03
-1.68131250e-07,9.96875000e-03,3.43750000e-03
-1.67331250e-07,3.81250000e-03,1.09375000e-02
-1.66531250e-07,7.59375000e-03,9.37500000e-03
-1.65731250e-07,6.34375000e-03,1.35156250e-02
-1.64931250e-07,1.13125000e-02,2.31250000e-02
-1.64131250e-07,9.00000000e-03,8.35937500e-03
-1.63331250e-07,6.50000000e-03,1.34375000e-02
-1.62531250e-07,5.81250000e-03,1.44531250e-02
-1.61731250e-07,4.62500000e-03,1.91406250e-02
-1.60931250e-07,5.56250000e-03,9.60937500e-03
-1.60131250e-07,8.21875000e-03,1.05468750e-02
-1.59331250e-07,4.06250000e-04,7.18750000e-03
-1.58531250e-07,1.33437500e-02,8.75000000e-03
-1.57731250e-07,7.59375000e-03,1.39843750e-02
-1.56931250e-07,6.25000000e-03,1.45312500e-02
-1.56131250e-07,1.62500000e-03,1.17968750e-02
-1.55331250e-07,9.43750000e-03,5.93750000e-03
-1.54531250e-07,3.62500000e-03,1.14062500e-02
-1.53731250e-07,9.15625000e-03,7.26562500e-03
-1.52931250e-07,4.65625000e-03,7.50000000e-03
-1.52131250e-07,9.31250000e-03,1.53906250e-02
-1.51331250e-07,1.43750000e-03,1.59375000e-02
-1.50531250e-07,1.06875000e-02,1.71875000e-02
-1.49731250e-07,4.40625000e-03,1.77343750e-02
-1.48931250e-07,6.28125000e-03,2.14843750e-02
-1.48131250e-07,3.31250000e-03,2.26562500e-03
-1.47331250e-07,5.18750000e-03,1.28125000e-02
-1.46531250e-07,3.03125000e-03,1.10937500e-02
-1.45731250e-07,1.10312500e-02,1.85156250e-02
-1.44931250e-07,-1.81250000e-03,8.20312500e-03
-1.44131250e-07,2.75000000e-03,2.65625000e-03
-1.43331250e-07,5.03125000e-03,6.09375000e-03
-1.42531250e-07,6.59375000e-03,8.04687500e-03
-1.41731250e-07,2.28125000e-03,5.93750000e-03
-1.40931250e-07,7.65625000e-03,6.09375000e-03
-1.40131250e-07,8.84375000e-03,1.00000000e-02
-1.39331250e-07,6.15625000e-03,9.37500000e-03
-1.38531250e-07,6.56250000e-03,1.12500000e-02
-1.37731250e-07,5.03125000e-03,7.96875000e-03
-1.36931250e-07,5.65625000e-03,1.39843750e-02
-1.36131250e-07,6.34375000e-03,1.11718750e-02
-1.35331250e-07,2.93750000e-03,9.92187500e-03
-1.34531250e-07,6.78125000e-03,2.03125000e-03
-1.33731250e-07,3.06250000e-03,4.29687500e-03
-1.32931250e-07,2.56250000e-03,4.92187500e-03
-1.32131250e-07,6.15625000e-03,6.40625000e-03
-1.31331250e-07,8.93750000e-03,5.00000000e-03
-1.30531250e-07,2.96875000e-03,5.15625000e-03
-1.29731250e-07,9.71875000e-03,5.78125000e-03
-1.28931250e-07,3.78125000e-03,8.59375000e-03
-1.28131250e-07,7.71875000e-03,-1.56250000e-04
-1.27331250e-07,8.15625000e-03,8.35937500e-03
-1.26531250e-07,6.71875000e-03,1.57031250e-02
-1.25731250e-07,-3.12500000e-05,-7.03125000e-04
-1.24931250e-07,6.34375000e-03,1.22656250e-02
-1.24131250e-07,1.75000000e-03,6.01562500e-03
-1.23331250e-07,4.53125000e-03,1.60937500e-02
-1.22531250e-07,4.09375000e-03,-2.65625000e-03
-1.21731250e-07,9.50000000e-03,1.18750000e-02
-1.20931250e-07,3.50000000e-03,5.39062500e-03
-1.20131250e-07,5.81250000e-03,5.85937500e-03
-1.19331250e-07,3.90625000e-03,4.37500000e-03
-1.18531250e-07,6.37500000e-03,2.03125000e-03
-1.17731250e-07,6.96875000e-03,6.71875000e-03
-1.16931250e-07,9.59375000e-03,1.27343750e-02
-1.16131250e-07,3.50000000e-03,7.89062500e-03
-1.15331250e-07,7.18750000e-03,1.21875000e-02
-1.14531250e-07,6.81250000e-03,1.78125000e-02
-1.13731250e-07,9.40625000e-03,1.19531250e-02
-1.12931250e-07,4.15625000e-03,2.12500000e-02
-1.12131250e-07,3.96875000e-03,7.81250000e-03
-1.11331250e-07,7.40625000e-03,1.42187500e-02
-1.10531250e-07,4.53125000e-03,1.13281250e-02
-1.09731250e-07,8.12500000e-03,1.42968750e-02
-1.08931250e-07,7.53125000e-03,9.53125000e-03
-1.08131250e-07,4.31250000e-03,1.18750000e-02
-1.07331250e-07,9.18750000e-03,1.10937500e-02
-1.06531250e-07,6.37500000e-03,1.00000000e-02
-1.05731250e-07,1.56250000e-03,1.46093750e-02
-1.04931250e-07,4.59375000e-03,8.12500000e-03
-1.04131250e-07,6.84375000e-03,1.89062500e-02
-1.03331250e-07,2.28125000e-03,1.46093750e-02
-1.02531250e-07,6.06250000e-03,5.62500000e-03
-1.01731250e-07,4.15625000e-03,5.39062500e-03
-1.00931250e-07,5.84375000e-03,1.79687500e-02
-1.00131250e-07,5.40625000e-03,1.57812500e-02
-9.93312500e-08,7.59375000e-03,2.12500000e-02
-9.85312500e-08,1.62500000e-03,1.50000000e-02
-9.77312500e-08,5.81250000e-03,1.21093750e-02
-9.69312500e-08,4.50000000e-03,1.60937500e-02
-9.61312500e-08,8.68750000e-03,9.45312500e-03
-9.53312500e-08,2.28125000e-03,1.70312500e-02
-9.45312500e-08,1.00625000e-02,8.82812500e-03
-9.37312500e-08,3.40625000e-03,1.13281250e-02
-9.29312500e-08,5.37500000e-03,1.05468750e-02
-9.21312500e-08,7.78125000e-03,1.07812500e-02
-9.13312500e-08,9.87500000e-03,1.00781250e-02
-9.05312500e-08,5.68750000e-03,1.10156250e-02
-8.97312500e-08,5.96875000e-03,1.14843750e-02
-8.89312500e-08,7.71875000e-03,7.65625000e-03
-8.81312500e-08,6.50000000e-03,1.15625000e-02
-8.73312500e-08,3.78125000e-03,1.10156250e-02
-8.65312500e-08,9.43750000e-03,1.54687500e-02
-8.57312500e-08,9.65625000e-03,7.65625000e-03
-8.49312500e-08,8.03125000e-03,1.70312500e-02
-8.41312500e-08,1.11250000e-02,1.42187500e-02
-8.33312500e-08,8.31250000e-03,2.75000000e-02
-8.25312500e-08,4.68750000e-04,1.38281250e-02
-8.17312500e-08,9.75000000e-03,1.88281250e-02
-8.09312500e-08,5.21875000e-03,9.92187500e-03
-8.01312500e-08,4.18750000e-03,8.98437500e-03
-7.93312500e-08,2.53125000e-03,3.04687500e-03
-7.85312500e-08,1.14687500e-02,2.04687500e-02
-7.77312500e-08,-4.68750000e-04,1.59375000e-02
-7.69312500e-08,1.28125000e-02,1.35937500e-02
-7.61312500e-08,6.81250000e-03,1.54687500e-02
-7.53312500e-08,1.28750000e-02,2.00781250e-02
-7.45312500e-08,2.75000000e-03,2.24218750e-02
-7.37312500e-08,8.96875000e-03,1.43750000e-02
-7.29312500e-08,7.31250000e-03,1.85156250e-02
-7.21312500e-08,9.93750000e-03,1.88281250e-02
-7.13312500e-08,7.43750000e-03,5.70312500e-03
-7.05312500e-08,9.71875000e-03,1.92187500e-02
-6.97312500e-08,6.46875000e-03,1.92968750e-02
-6.89312500e-08,7.96875000e-03,1.93750000e-02
-6.81312500e-08,4.75000000e-03,1.31250000e-02
-6.73312500e-08,5.43750000e-03,9.92187500e-03
-6.65312500e-08,3.50000000e-03,9.29687500e-03
-6.57312500e-08,1.04062500e-02,1.77343750e-02
-6.49312500e-08,1.50000000e-03,1.44531250e-02
-6.41312500e-08,3.62500000e-03,6.32812500e-03
-6.33312500e-08,7.75000000e-03,3.75000000e-03
-6.25312500e-08,3.21875000e-03,1.05468750e-02
-6.17312500e-08,5.34375000e-03,2.19531250e-02
-6.09312500e-08,4.03125000e-03,-3.35156250e-02
-6.01312500e-08,6.78125000e-03,-4.51015625e-01
-5.93312500e-08,7.43750000e-03,-1.01164063e+00
-5.85312500e-08,7.37500000e-03,-1.24171875e+00
-5.77312500e-08,5.65625000e-03,-1.35414063e+00
-5.69312500e-08,3.75000000e-03,-1.39109375e+00
-5.61312500e-08,9.03125000e-03,-1.39765625e+00
-5.53312500e-08,5.31250000e-03,-1.40398438e+00
-5.45312500e-08,7.06250000e-03,-1.38742188e+00
-5.37312500e-08,5.03125000e-03,-1.40585938e+00
-5.29312500e-08,8.09375000e-03,-1.40343750e+00
-5.21312500e-08,6.53125000e-03,-1.40875000e+00
-5.13312500e-08,9.87500000e-03,-1.40671875e+00
-5.05312500e-08,9.25000000e-03,-1.41351563e+00
-4.97312500e-08,8.15625000e-03,-1.39992187e+00
-4.89312500e-08,3.90625000e-03,-1.40945313e+00
-4.81312500e-08,1.00625000e-02,-1.41640625e+00
-4.73312500e-08,8.06250000e-03,-1.42023438e+00
-4.65312500e-08,3.87500000e-03,-1.41875000e+00
-4.57312500e-08,6.03125000e-03,-1.42734375e+00
-4.49312500e-08,6.46875000e-03,-1.41859375e+00
-4.41312500e-08,8.12500000e-03,-1.41976563e+00
-4.33312500e-08,8.81250000e-03,-1.42437500e+00
-4.25312500e-08,1.93750000e-03,-1.42984375e+00
-4.17312500e-08,5.78125000e-03,-1.43046875e+00
-4.09312500e-08,9.28125000e-03,-1.42015625e+00
-4.01312500e-08,1.02812500e-02,-1.42132813e+00
-3.93312500e-08,5.62500000e-04,-1.41898437e+00
-3.85312500e-08,4.37500000e-03,-1.42015625e+00
-3.77312500e-08,6.06250000e-03,-1.41726563e+00
-3.69312500e-08,5.90625000e-03,-1.42382812e+00
-3.61312500e-08,4.65625000e-03,-1.42593750e+00
-3.53312500e-08,5.81250000e-03,-1.41914063e+00
-3.45312500e-08,3.53125000e-03,-1.41976563e+00
-3.37312500e-08,-3.25000000e-03,-1.41828125e+00
-3.29312500e-08,-1.90625000e-02,-1.42609375e+00
-3.21312500e-08,-4.98750000e-02,-1.43484375e+00
-3.13312500e-08,-9.14375000e-02,-1.43015625e+00
-3.05312500e-08,-1.55687500e-01,-1.41500000e+00
-2.97312500e-08,-2.34468750e-01,-1.42757813e+00
-2.89312500e-08,-3.23187500e-01,-1.43148438e+00
-2.81312500e-08,-4.00718750e-01,-1.42320313e+00
-2.73312500e-08,-4.79812500e-01,-1.41328125e+00
-2.65312500e-08,-5.35468750e-01,-1.41585938e+00
-2.57312500e-08,-5.81500000e-01,-1.41703125e+00
-2.49312500e-08,-6.24500000e-01,-1.41484375e+00
-2.41312500e-08,-6.62406250e-01,-1.40757813e+00
-2.33312500e-08,-6.86031250e-01,-1.42023438e+00
-2.25312500e-08,-7.02281250e-01,-1.42039063e+00
-2.17312500e-08,-7.18250000e-01,-1.42351563e+00
-2.09312500e-08,-7.18781250e-01,-1.40875000e+00
-2.01312500e-08,-7.09937500e-01,-1.41773438e+00
-1.93312500e-08,-6.96125000e-01,-1.42187500e+00
-1.85312500e-08,-6.81593750e-01,-1.41906250e+00
-1.77312500e-08,-6.58562500e-01,-1.41171875e+00
-1.69312500e-08,-6.42843750e-01,-1.41187500e+00
-1.61312500e-08,-6.08218750e-01,-1.41914063e+00
-1.53312500e-08,-5.82093750e-01,-1.42945313e+00
-1.45312500e-08,-5.61343750e-01,-1.42039063e+00
-1.37312500e-08,-5.39781250e-01,-1.41664063e+00
-1.29312500e-08,-5.08625000e-01,-1.42710938e+00
-1.21312500e-08,-4.82437500e-01,-1.41671875e+00
-1.13312500e-08,-4.57500000e-01,-1.41382813e+00
-1.05312500e-08,-4.31187500e-01,-1.42421875e+00
-9.73125000e-09,-3.99031250e-01,-1.42656250e+00
-8.93125000e-09,-3.74343750e-01,-1.42812500e+00
-8.13125000e-09,-3.48562500e-01,-1.41218750e+00
-7.33125000e-09,-3.34531250e-01,-1.42765625e+00
-6.53125000e-09,-3.12156250e-01,-1.42820313e+00
-5.73125000e-09,-2.97906250e-01,-1.42117188e+00
-4.93125000e-09,-2.81312500e-01,-1.40765625e+00
-4.13125000e-09,-2.65000000e-01,-1.40328125e+00
-3.33125000e-09,-2.50937500e-01,-1.37671875e+00
-2.53125000e-09,-2.46781250e-01,-1.31937500e+00
-1.73125000e-09,-2.28750000e-01,-1.08640625e+00
-9.31250000e-10,-2.21968750e-01,-6.50156250e-01
-1.31250000e-10,-2.03625000e-01,-3.19375000e-01
6.68750000e-10,-1.93093750e-01,-1.82578125e-01
1.46875000e-09,-1.85250000e-01,-1.04218750e-01
2.26875000e-09,-1.78875000e-01,-7.52343750e-02
3.06875000e-09,-1.61656250e-01,-4.70312500e-02
3.86875000e-09,-1.59031250e-01,-5.28906250e-02
4.66875000e-09,-1.44093750e-01,-3.05468750e-02
5.46875000e-09,-1.40281250e-01,-3.71875000e-02
6.26875000e-09,-1.24187500e-01,-3.71875000e-02
7.06875000e-09,-1.19187500e-01,-3.93750000e-02
7.86875000e-09,-1.13093750e-01,-2.39062500e-02
8.66875000e-09,-1.11062500e-01,-3.14062500e-02
9.46875000e-09,-1.04593750e-01,-2.26562500e-02
1.02687500e-08,-9.63437500e-02,-2.85937500e-02
1.10687500e-08,-9.15937500e-02,-1.36718750e-02
1.18687500e-08,-9.40937500e-02,-1.05468750e-02
1.26687500e-08,-8.65000000e-02,-1.50781250e-02
1.34687500e-08,-8.34062500e-02,-1.45312500e-02
1.42687500e-08,-7.53750000e-02,-1.36718750e-02
1.50687500e-08,-7.15937500e-02,-4.53125000e-03
1.58687500e-08,-7.35937500e-02,-1.57812500e-02
1.66687500e-08,-6.89687500e-02,-1.06250000e-02
1.74687500e-08,-6.53125000e-02,0.00000000e+00
1.82687500e-08,-5.98750000e-02,3.90625000e-03
1.90687500e-08,-6.01875000e-02,-1.24218750e-02
1.98687500e-08,-5.76562500e-02,-3.12500000e-04
2.06687500e-08,-4.89062500e-02,1.45312500e-02
2.14687500e-08,-5.25000000e-02,-4.53125000e-03
2.22687500e-08,-4.63750000e-02,-9.37500000e-04
2.30687500e-08,-4.62500000e-02,-1.40625000e-03
2.38687500e-08,-4.19062500e-02,1.16406250e-02
2.46687500e-08,-4.44375000e-02,-3.12500000e-04
2.54687500e-08,-3.46250000e-02,5.78125000e-03
2.62687500e-08,-3.75312500e-02,9.84375000e-03
2.70687500e-08,-3.15625000e-02,1.54687500e-02
2.78687500e-08,-3.37812500e-02,1.15625000e-02
2.86687500e-08,-2.44062500e-02,8.75000000e-03
2.94687500e-08,-3.07500000e-02,1.11718750e-02
3.02687500e-08,-2.42812500e-02,2.14062500e-02
3.10687500e-08,-2.48750000e-02,7.03125000e-03
3.18687500e-08,-2.06562500e-02,2.26562500e-02
3.26687500e-08,-2.59375000e-02,3.68750000e-02
3.34687500e-08,-1.61250000e-02,3.57812500e-02
3.42687500e-08,-2.21562500e-02,3.27343750e-02
3.50687500e-08,-1.62500000e-02,3.78125000e-02
3.58687500e-08,-1.63125000e-02,3.21093750e-02
3.66687500e-08,-1.52500000e-02,3.60937500e-02
3.74687500e-08,-2.18125000e-02,3.35156250e-02
3.82687500e-08,-1.44062500e-02,2.30468750e-02
3.90687500e-08,-1.29687500e-02,2.57812500e-02
3.98687500e-08,-1.45312500e-02,3.22656250e-02
4.06687500e-08,-1.89687500e-02,2.79687500e-02
4.14687500e-08,-1.64375000e-02,2.60937500e-02
4.22687500e-08,-1.44687500e-02,2.52343750e-02
4.30687500e-08,-1.67812500e-02,2.66406250e-02
4.38687500e-08,-1.45000000e-02,3.23437500e-02
4.46687500e-08,-2.03125000e-02,2.67968750e-02
4.54687500e-08,-1.86875000e-02,2.28906250e-02
4.62687500e-08,-1.33750000e-02,2.55468750e-02
4.70687500e-08,-9.65625000e-03,1.87500000e-02
4.78687500e-08,-9.15625000e-03,2.22656250e-02
4.86687500e-08,-1.43437500e-02,1.60156250e-02
4.94687500e-08,-1.38750000e-02,1.89843750e-02
5.02687500e-08,-1.52500000e-02,2.33593750e-02
5.10687500e-08,-1.13750000e-02,1.72656250e-02
5.18687500e-08,-9.46875000e-03,1.74218750e-02
5.26687500e-08,-9.96875000e-03,2.39062500e-02
5.34687500e-08,-1.15625000e-02,1.84375000e-02
5.42687500e-08,-4.56250000e-03,1.79687500e-02
5.50687500e-08,-9.56250000e-03,2.70312500e-02
5.58687500e-08,-6.00000000e-03,2.67187500e-02
5.66687500e-08,-8.71875000e-03,1.34375000e-02
