muon_CSV/TriggerAuto_ALL_20231205193000214.csv

Model,MSO64B
Channel,CH1,,Channel,CH2
Label,,,Label,
Waveform Type,ANALOG,,Waveform Type,ANALOG
Horizontal Units,s,,Horizontal Units,s
Sample Interval,8.00000000e-10,,Sample Interval,8.00000000e-10
Record Length,5000,,Record Length,5000
Zero Index,349.79296875,,Zero Index,349.79296875
Vertical Units,V,,Vertical Units,V
,,,,
ANALOG_Thumbnail,,,ANALOG_Thumbnail,
yOffset,0.000000,,yOffset,0.000000
yPosition,2.160000,,yPosition,2.180000

Labels,,
TIME,CH1,CH2
-2.79834375e-07,8.71875000e-03,1.72656250e-02
-2.79034375e-07,9.06250000e-03,8.51562500e-03
-2.78234375e-07,8.56250000e-03,1.00781250e-02
-2.77434375e-07,6.34375000e-03,8.75000000e-03
-2.76634375e-07,3.90625000e-03,1.07031250e-02
-2.75834375e-07,1.27500000e-02,4.14062500e-03
-2.75034375e-07,1.18437500e-02,1.87500000e-02
-2.74234375e-07,4.50000000e-03,4.37500000e-03
-2.73434375e-07,6.53125000e-03,1.71875000e-03
-2.72634375e-07,9.46875000e-03,7.57812500e-03
-2.71834375e-07,6.21875000e-03,1.01562500e-02
-2.71034375e-07,5.81250000e-03,6.79687500e-03
-2.70234375e-07,3.40625000e-03,1.64062500e-03
-2.69434375e-07,1.01562500e-02,1.57812500e-02
-2.68634375e-07,7.28125000e-03,1.85937500e-02
-2.67834375e-07,5.50000000e-03,1.46093750e-02
-2.67034375e-07,6.15625000e-03,1.44531250e-02
-2.66234375e-07,7.84375000e-03,4.60937500e-03
-2.65434375e-07,1.20937500e-02,1.28125000e-02
-2.64634375e-07,6.87500000e-04,7.81250000e-03
-2.63834375e-07,7.09375000e-03,2.81250000e-03
-2.63034375e-07,1.00937500e-02,7.57812500e-03
-2.62234375e-07,1.30937500e-02,1.00781250e-02
-2.61434375e-07,1.56250000e-04,4.84375000e-03
-2.60634375e-07,1.22187500e-02,1.41406250e-02
-2.59834375e-07,8.00000000e-03,6.25000000e-04
-2.59034375e-07,1.01875000e-02,9.76562500e-03
-2.58234375e-07,1.65625000e-03,1.00000000e-02
-2.57434375e-07,8.93750000e-03,1.34375000e-02
-2.56634375e-07,6.25000000e-03,6.56250000e-03
-2.55834375e-07,7.84375000e-03,1.02343750e-02
-2.55034375e-07,1.09375000e-03,5.31250000e-03
-2.54234375e-07,1.30937500e-02,5.78125000e-03
-2.53434375e-07,7.37500000e-03,1.74218750e-02
-2.52634375e-07,1.34062500e-02,1.25781250e-02
-2.51834375e-07,4.15625000e-03,1.78906250e-02
-2.51034375e-07,5.37500000e-03,5.07812500e-03
-2.50234375e-07,9.21875000e-03,3.51562500e-03
-2.49434375e-07,1.03125000e-02,1.01562500e-02
-2.48634375e-07,5.53125000e-03,1.06250000e-02
-2.47834375e-07,7.68750000e-03,4.76562500e-03
-2.47034375e-07,1.28437500e-02,1.28125000e-02
-2.46234375e-07,6.87500000e-03,8.59375000e-03
-2.45434375e-07,6.96875000e-03,1.14843750e-02
-2.44634375e-07,1.11562500e-02,7.26562500e-03
-2.43834375e-07,1.16875000e-02,1.01562500e-02
-2.43034375e-07,5.78125000e-03,1.18750000e-02
-2.42234375e-07,9.46875000e-03,4.68750000e-03
-2.41434375e-07,8.81250000e-03,9.45312500e-03
-2.40634375e-07,4.06250000e-03,9.29687500e-03
-2.39834375e-07,9.78125000e-03,5.93750000e-03
-2.39034375e-07,7.62500000e-03,8.59375000e-04
-2.38234375e-07,7.40625000e-03,2.26562500e-03
-2.37434375e-07,3.00000000e-03,3.75000000e-03
-2.36634375e-07,9.21875000e-03,1.48437500e-02
-2.35834375e-07,2.28125000e-03,3.35937500e-03
-2.35034375e-07,8.15625000e-03,1.49218750e-02
-2.34234375e-07,9.06250000e-03,-3.43750000e-03
-2.33434375e-07,9.75000000e-03,7.96875000e-03
-2.32634375e-07,1.56250000e-03,6.64062500e-03
-2.31834375e-07,1.05000000e-02,2.42187500e-03
-2.31034375e-07,6.18750000e-03,1.15625000e-02
-2.30234375e-07,8.96875000e-03,9.45312500e-03
-2.29434375e-07,2.21875000e-03,1.27343750e-02
-2.28634375e-07,8.12500000e-03,5.39062500e-03
-2.27834375e-07,4.12500000e-03,1.27343750e-02
-2.27034375e-07,8.28125000e-03,1.95312500e-03
-2.26234375e-07,-8.75000000e-04,5.54687500e-03
-2.25434375e-07,2.90625000e-03,-5.78125000e-03
-2.24634375e-07,1.00625000e-02,5.39062500e-03
-2.23834375e-07,1.21250000e-02,1.42187500e-02
-2.23034375e-07,6.71875000e-03,1.27343750e-02
-2.22234375e-07,9.12500000e-03,9.29687500e-03
-2.21434375e-07,1.02500000e-02,2.18750000e-03
-2.20634375e-07,8.56250000e-03,1.28906250e-02
-2.19834375e-07,8.56250000e-03,6.01562500e-03
-2.19034375e-07,1.17187500e-02,6.87500000e-03
-2.18234375e-07,6.78125000e-03,9.53125000e-03
-2.17434375e-07,1.16562500e-02,1.73437500e-02
-2.16634375e-07,1.01875000e-02,6.48437500e-03
-2.15834375e-07,1.02500000e-02,9.53125000e-03
-2.15034375e-07,3.87500000e-03,4.68750000e-03
-2.14234375e-07,1.19687500e-02,7.65625000e-03
-2.13434375e-07,6.25000000e-03,1.33593750e-02
-2.12634375e-07,5.53125000e-03,5.31250000e-03
-2.11834375e-07,8.75000000e-03,6.25000000e-03
-2.11034375e-07,1.47812500e-02,1.14843750e-02
-2.10234375e-07,1.50000000e-03,1.13281250e-02
-2.09434375e-07,9.46875000e-03,4.14062500e-03
-2.08634375e-07,5.28125000e-03,1.35156250e-02
-2.07834375e-07,8.25000000e-03,9.29687500e-03
-2.07034375e-07,2.46875000e-03,1.07812500e-02
-2.06234375e-07,8.46875000e-03,1.07031250e-02
-2.05434375e-07,8.15625000e-03,1.34375000e-02
-2.04634375e-07,1.05625000e-02,1.71875000e-02
-2.03834375e-07,6.84375000e-03,1.17968750e-02
-2.03034375e-07,1.40312500e-02,1.52343750e-02
-2.02234375e-07,4.37500000e-03,5.78125000e-03
-2.01434375e-07,1.18437500e-02,5.46875000e-03
-2.00634375e-07,2.34375000e-03,1.46875000e-02
-1.99834375e-07,8.78125000e-03,5.78125000e-03
-1.99034375e-07,1.25000000e-02,2.26562500e-03
-1.98234375e-07,1.35000000e-02,8.90625000e-03
-1.97434375e-07,7.84375000e-03,1.46875000e-02
-1.96634375e-07,4.37500000e-03,7.96875000e-03
-1.95834375e-07,1.21875000e-02,6.87500000e-03
-1.95034375e-07,8.68750000e-03,1.67187500e-02
-1.94234375e-07,6.43750000e-03,1.37500000e-02
-1.93434375e-07,5.18750000e-03,5.31250000e-03
-1.92634375e-07,7.43750000e-03,1.21093750e-02
-1.91834375e-07,5.93750000e-03,1.25000000e-02
-1.91034375e-07,7.03125000e-03,1.18750000e-02
-1.90234375e-07,8.18750000e-03,-7.03125000e-04
-1.89434375e-07,2.12500000e-03,1.03906250e-02
-1.88634375e-07,8.68750000e-03,1.25000000e-02
-1.87834375e-07,9.28125000e-03,1.00781250e-02
-1.87034375e-07,1.06250000e-02,1.11718750e-02
-1.86234375e-07,3.50000000e-03,-5.85937500e-03
-1.85434375e-07,7.12500000e-03,6.56250000e-03
-1.84634375e-07,3.75000000e-04,9.53125000e-03
-1.83834375e-07,8.43750000e-03,1.46875000e-02
-1.83034375e-07,1.12187500e-02,3.98437500e-03
-1.82234375e-07,5.28125000e-03,1.28906250e-02
-1.81434375e-07,4.71875000e-03,6.64062500e-03
-1.80634375e-07,1.08750000e-02,1.09375000e-02
-1.79834375e-07,7.03125000e-03,1.46093750e-02
-1.79034375e-07,8.40625000e-03,1.32031250e-02
-1.78234375e-07,5.75000000e-03,7.26562500e-03
-1.77434375e-07,7.59375000e-03,1.34375000e-02
-1.76634375e-07,4.62500000e-03,9.21875000e-03
-1.75834375e-07,1.32812500e-02,1.33593750e-02
-1.75034375e-07,1.40625000e-03,7.81250000e-03
-1.74234375e-07,7.62500000e-03,1.28125000e-02
-1.73434375e-07,1.08125000e-02,8.43750000e-03
-1.72634375e-07,1.40000000e-02,1.07812500e-02
-1.71834375e-07,5.50000000e-03,1.04687500e-02
-1.71034375e-07,5.56250000e-03,-4.53125000e-03
-1.70234375e-07,1.18437500e-02,1.17968750e-02
-1.69434375e-07,7.46875000e-03,1.52343750e-02
-1.68634375e-07,8.12500000e-03,7.26562500e-03
-1.67834375e-07,5.40625000e-03,1.01562500e-02
-1.67034375e-07,9.71875000e-03,1.32031250e-02
-1.66234375e-07,7.84375000e-03,1.19531250e-02
-1.65434375e-07,5.09375000e-03,6.56250000e-03
-1.64634375e-07,7.28125000e-03,2.89062500e-03
-1.63834375e-07,6.81250000e-03,1.48437500e-02
-1.63034375e-07,1.23125000e-02,6.64062500e-03
-1.62234375e-07,4.53125000e-03,1.67968750e-02
-1.61434375e-07,6.12500000e-03,1.50000000e-02
-1.60634375e-07,9.25000000e-03,4.53125000e-03
-1.59834375e-07,1.09687500e-02,7.81250000e-04
-1.59034375e-07,2.81250000e-04,6.87500000e-03
-1.58234375e-07,1.32812500e-02,-5.46875000e-04
-1.57434375e-07,7.87500000e-03,5.23437500e-03
-1.56634375e-07,9.18750000e-03,1.81250000e-02
-1.55834375e-07,1.65625000e-03,1.25000000e-02
-1.55034375e-07,9.56250000e-03,6.64062500e-03
-1.54234375e-07,7.53125000e-03,2.89062500e-03
-1.53434375e-07,9.50000000e-03,1.41406250e-02
-1.52634375e-07,3.56250000e-03,3.98437500e-03
-1.51834375e-07,1.16562500e-02,1.03125000e-02
-1.51034375e-07,7.34375000e-03,1.33593750e-02
-1.50234375e-07,1.07187500e-02,1.85937500e-02
-1.49434375e-07,4.87500000e-03,7.73437500e-03
-1.48634375e-07,7.46875000e-03,1.14062500e-02
-1.47834375e-07,1.15937500e-02,7.81250000e-03
-1.47034375e-07,1.34375000e-02,1.07812500e-02
-1.46234375e-07,6.59375000e-03,7.81250000e-03
-1.45434375e-07,6.31250000e-03,3.59375000e-03
-1.44634375e-07,1.16562500e-02,1.79687500e-02
-1.43834375e-07,3.15625000e-03,5.46875000e-04
-1.43034375e-07,5.90625000e-03,1.16406250e-02
-1.42234375e-07,4.43750000e-03,6.56250000e-03
-1.41434375e-07,1.03125000e-02,1.40625000e-02
-1.40634375e-07,8.50000000e-03,7.10937500e-03
-1.39834375e-07,1.03750000e-02,1.19531250e-02
-1.39034375e-07,4.75000000e-03,5.78125000e-03
-1.38234375e-07,3.18750000e-03,4.84375000e-03
-1.37434375e-07,6.40625000e-03,4.06250000e-03
-1.36634375e-07,3.40625000e-03,7.57812500e-03
-1.35834375e-07,8.15625000e-03,4.68750000e-03
-1.35034375e-07,6.34375000e-03,4.68750000e-04
-1.34234375e-07,1.22500000e-02,1.03906250e-02
-1.33434375e-07,2.84375000e-03,1.21875000e-02
-1.32634375e-07,1.20312500e-02,9.45312500e-03
-1.31834375e-07,5.34375000e-03,3.04687500e-03
-1.31034375e-07,9.84375000e-03,1.25000000e-02
-1.30234375e-07,4.93750000e-03,8.98437500e-03
-1.29434375e-07,1.08750000e-02,1.64062500e-02
-1.28634375e-07,3.15625000e-03,1.07812500e-02
-1.27834375e-07,7.59375000e-03,4.45312500e-03
-1.27034375e-07,5.50000000e-03,1.18750000e-02
-1.26234375e-07,1.09687500e-02,3.12500000e-03
-1.25434375e-07,6.12500000e-03,9.45312500e-03
-1.24634375e-07,1.01562500e-02,9.84375000e-03
-1.23834375e-07,4.65625000e-03,4.68750000e-03
-1.23034375e-07,4.40625000e-03,2.34375000e-04
-1.22234375e-07,8.62500000e-03,1.87500000e-03
-1.21434375e-07,1.17500000e-02,1.38281250e-02
-1.20634375e-07,2.03125000e-03,1.14843750e-02
-1.19834375e-07,6.96875000e-03,2.42187500e-03
-1.19034375e-07,8.56250000e-03,1.07031250e-02
-1.18234375e-07,6.62500000e-03,1.83593750e-02
-1.17434375e-07,8.18750000e-03,8.98437500e-03
-1.16634375e-07,6.71875000e-03,1.05468750e-02
-1.15834375e-07,6.65625000e-03,1.43750000e-02
-1.15034375e-07,6.21875000e-03,5.78125000e-03
-1.14234375e-07,6.50000000e-03,4.21875000e-03
-1.13434375e-07,8.00000000e-03,1.42187500e-02
-1.12634375e-07,2.90625000e-03,2.05468750e-02
-1.11834375e-07,6.09375000e-03,3.20312500e-03
-1.11034375e-07,2.37500000e-03,7.81250000e-03
-1.10234375e-07,4.34375000e-03,8.28125000e-03
-1.09434375e-07,5.90625000e-03,7.89062500e-03
-1.08634375e-07,1.18750000e-02,1.44531250e-02
-1.07834375e-07,5.50000000e-03,3.82812500e-03
-1.07034375e-07,1.03750000e-02,1.15625000e-02
-1.06234375e-07,6.81250000e-03,1.00781250e-02
-1.05434375e-07,8.34375000e-03,2.21875000e-02
-1.04634375e-07,2.15625000e-03,1.71093750e-02
-1.03834375e-07,1.03437500e-02,1.07812500e-02
-1.03034375e-07,8.84375000e-03,2.02343750e-02
-1.02234375e-07,1.43437500e-02,8.67187500e-03
-1.01434375e-07,4.28125000e-03,1.19531250e-02
-1.00634375e-07,9.06250000e-03,1.69531250e-02
-9.98343750e-08,4.00000000e-03,6.48437500e-03
-9.90343750e-08,1.01250000e-02,1.01562500e-02
-9.82343750e-08,6.40625000e-03,8.04687500e-03
-9.74343750e-08,6.96875000e-03,8.35937500e-03
-9.66343750e-08,9.53125000e-03,3.20312500e-03
-9.58343750e-08,1.20937500e-02,2.39062500e-02
-9.50343750e-08,5.53125000e-03,1.39843750e-02
-9.42343750e-08,6.81250000e-03,4.60937500e-03
-9.34343750e-08,7.12500000e-03,7.42187500e-03
-9.26343750e-08,6.50000000e-03,1.16406250e-02
-9.18343750e-08,6.50000000e-03,2.27343750e-02
-9.10343750e-08,8.46875000e-03,6.64062500e-03
-9.02343750e-08,1.03750000e-02,1.50781250e-02
-8.94343750e-08,4.06250000e-03,1.53906250e-02
-8.86343750e-08,7.56250000e-03,1.87500000e-02
-8.78343750e-08,5.78125000e-03,6.64062500e-03
-8.70343750e-08,3.93750000e-03,1.77343750e-02
-8.62343750e-08,1.34687500e-02,1.45312500e-02
-8.54343750e-08,5.15625000e-03,1.35937500e-02
-8.46343750e-08,9.25000000e-03,1.39843750e-02
-8.38343750e-08,8.56250000e-03,8.90625000e-03
-8.30343750e-08,1.35937500e-02,1.08593750e-02
-8.22343750e-08,2.50000000e-04,1.87500000e-03
-8.14343750e-08,1.34062500e-02,1.51562500e-02
-8.06343750e-08,5.87500000e-03,1.71875000e-03
-7.98343750e-08,1.35000000e-02,1.93750000e-02
-7.90343750e-08,1.65625000e-03,1.74218750e-02
-7.82343750e-08,5.84375000e-03,1.41406250e-02
-7.74343750e-08,6.15625000e-03,9.53125000e-03
-7.66343750e-08,8.53125000e-03,1.95312500e-02
-7.58343750e-08,3.03125000e-03,7.89062500e-03
-7.50343750e-08,1.02812500e-02,6.40625000e-03
-7.42343750e-08,8.87500000e-03,1.55468750e-02
-7.34343750e-08,7.93750000e-03,2.18750000e-02
-7.26343750e-08,4.34375000e-03,8.98437500e-03
-7.18343750e-08,8.68750000e-03,6.01562500e-03
-7.10343750e-08,1.20312500e-02,6.01562500e-03
-7.02343750e-08,1.03750000e-02,1.59375000e-02
-6.94343750e-08,3.00000000e-03,1.02343750e-02
-6.86343750e-08,1.06562500e-02,9.06250000e-03
-6.78343750e-08,1.22500000e-02,1.15625000e-02
-6.70343750e-08,2.96875000e-03,1.60937500e-02
-6.62343750e-08,7.15625000e-03,1.78125000e-02
-6.54343750e-08,8.40625000e-03,1.75000000e-02
-6.46343750e-08,5.46875000e-03,9.21875000e-03
-6.38343750e-08,8.43750000e-03,2.43750000e-02
-6.30343750e-08,6.25000000e-03,5.62500000e-03
-6.22343750e-08,8.75000000e-03,1.52343750e-02
-6.14343750e-08,5.40625000e-03,2.43750000e-02
-6.06343750e-08,7.21875000e-03,-1.72500000e-01
-5.98343750e-08,5.75000000e-03,-7.07500000e-01
-5.90343750e-08,6.75000000e-03,-1.17703125e+00
-5.82343750e-08,1.23125000e-02,-1.27484375e+00
-5.74343750e-08,1.00937500e-02,-1.33054688e+00
-5.66343750e-08,3.31250000e-03,-1.39992187e+00
-5.58343750e-08,1.02812500e-02,-1.39773438e+00
-5.50343750e-08,7.25000000e-03,-1.39710938e+00
-5.42343750e-08,6.28125000e-03,-1.39257812e+00
-5.34343750e-08,5.87500000e-03,-1.39585938e+00
-5.26343750e-08,1.10312500e-02,-1.41445313e+00
-5.18343750e-08,7.62500000e-03,-1.40273438e+00
-5.10343750e-08,8.37500000e-03,-1.41125000e+00
-5.02343750e-08,5.25000000e-03,-1.41906250e+00
-4.94343750e-08,1.05625000e-02,-1.42515625e+00
-4.86343750e-08,7.15625000e-03,-1.40093750e+00
-4.78343750e-08,1.19687500e-02,-1.40445313e+00
-4.70343750e-08,3.84375000e-03,-1.41882813e+00
-4.62343750e-08,6.28125000e-03,-1.42648438e+00
-4.54343750e-08,8.87500000e-03,-1.42687500e+00
-4.46343750e-08,8.09375000e-03,-1.41375000e+00
-4.38343750e-08,4.06250000e-04,-1.42554688e+00
-4.30343750e-08,6.21875000e-03,-1.42859375e+00
-4.22343750e-08,6.65625000e-03,-1.42289062e+00
-4.14343750e-08,1.31250000e-03,-1.42320313e+00
-4.06343750e-08,5.78125000e-03,-1.41687500e+00
-3.98343750e-08,7.00000000e-03,-1.42867188e+00
-3.90343750e-08,7.06250000e-03,-1.41398438e+00
-3.82343750e-08,3.84375000e-03,-1.41835938e+00
-3.74343750e-08,4.00000000e-03,-1.42109375e+00
-3.66343750e-08,4.81250000e-03,-1.41906250e+00
-3.58343750e-08,-4.06250000e-04,-1.43000000e+00
-3.50343750e-08,6.03125000e-03,-1.41640625e+00
-3.42343750e-08,-7.81250000e-04,-1.43453125e+00
-3.34343750e-08,-1.13750000e-02,-1.43687500e+00
-3.26343750e-08,-3.49375000e-02,-1.43390625e+00
-3.18343750e-08,-6.39375000e-02,-1.41640625e+00
-3.10343750e-08,-1.41062500e-01,-1.42132813e+00
-3.02343750e-08,-2.27406250e-01,-1.42812500e+00
-2.94343750e-08,-3.38406250e-01,-1.42507813e+00
-2.86343750e-08,-4.50781250e-01,-1.42156250e+00
-2.78343750e-08,-5.52500000e-01,-1.42664063e+00
-2.70343750e-08,-6.38281250e-01,-1.41242188e+00
-2.62343750e-08,-7.23843750e-01,-1.42070313e+00
-2.54343750e-08,-7.77781250e-01,-1.41812500e+00
-2.46343750e-08,-8.24187500e-01,-1.42750000e+00
-2.38343750e-08,-8.51125000e-01,-1.41882813e+00
-2.30343750e-08,-8.78281250e-01,-1.41390625e+00
-2.22343750e-08,-8.79093750e-01,-1.41968750e+00
-2.14343750e-08,-8.83906250e-01,-1.42218750e+00
-2.06343750e-08,-8.69343750e-01,-1.41921875e+00
-1.98343750e-08,-8.52906250e-01,-1.42000000e+00
-1.90343750e-08,-8.33375000e-01,-1.41898437e+00
-1.82343750e-08,-8.10750000e-01,-1.41914063e+00
-1.74343750e-08,-7.76093750e-01,-1.41945312e+00
-1.66343750e-08,-7.47125000e-01,-1.41500000e+00
-1.58343750e-08,-7.17937500e-01,-1.42015625e+00
-1.50343750e-08,-6.79843750e-01,-1.41750000e+00
-1.42343750e-08,-6.43343750e-01,-1.43781250e+00
-1.34343750e-08,-6.08468750e-01,-1.42312500e+00
-1.26343750e-08,-5.78062500e-01,-1.41226563e+00
-1.18343750e-08,-5.45875000e-01,-1.41312500e+00
-1.10343750e-08,-5.13062500e-01,-1.42234375e+00
-1.02343750e-08,-4.77562500e-01,-1.42593750e+00
-9.43437500e-09,-4.43906250e-01,-1.42171875e+00
-8.63437500e-09,-4.14718750e-01,-1.43226563e+00
-7.83437500e-09,-3.83937500e-01,-1.42437500e+00
-7.03437500e-09,-3.58906250e-01,-1.42062500e+00
-6.23437500e-09,-3.36093750e-01,-1.41820313e+00
-5.43437500e-09,-3.16437500e-01,-1.42007813e+00
-4.63437500e-09,-2.92937500e-01,-1.41929688e+00
-3.83437500e-09,-2.80343750e-01,-1.40062500e+00
-3.03437500e-09,-2.65968750e-01,-1.36101563e+00
-2.23437500e-09,-2.56218750e-01,-1.25210938e+00
-1.43437500e-09,-2.37812500e-01,-9.48750000e-01
-6.34375000e-10,-2.27625000e-01,-5.01250000e-01
1.65625000e-10,-2.10500000e-01,-2.59453125e-01
9.65625000e-10,-2.08500000e-01,-1.43437500e-01
1.76562500e-09,-1.98312500e-01,-8.94531250e-02
2.56562500e-09,-1.85781250e-01,-6.61718750e-02
3.36562500e-09,-1.74875000e-01,-5.22656250e-02
4.16562500e-09,-1.78437500e-01,-4.40625000e-02
4.96562500e-09,-1.69625000e-01,-4.91406250e-02
5.76562500e-09,-1.59718750e-01,-4.50781250e-02
6.56562500e-09,-1.57343750e-01,-3.42968750e-02
7.36562500e-09,-1.54843750e-01,-3.85156250e-02
8.16562500e-09,-1.45062500e-01,-3.81250000e-02
8.96562500e-09,-1.39656250e-01,-2.92187500e-02
9.76562500e-09,-1.39375000e-01,-2.76562500e-02
1.05656250e-08,-1.32718750e-01,-2.32812500e-02
1.13656250e-08,-1.23218750e-01,-2.73437500e-02
1.21656250e-08,-1.20625000e-01,-1.01562500e-02
1.29656250e-08,-1.10937500e-01,-1.53906250e-02
1.37656250e-08,-1.12593750e-01,-1.12500000e-02
1.45656250e-08,-1.01812500e-01,-2.00781250e-02
1.53656250e-08,-9.64375000e-02,-2.08593750e-02
1.61656250e-08,-8.54375000e-02,-1.54687500e-02
1.69656250e-08,-8.31562500e-02,-6.71875000e-03
1.77656250e-08,-7.91562500e-02,-1.00781250e-02
1.85656250e-08,-7.15000000e-02,-1.02343750e-02
1.93656250e-08,-6.86250000e-02,1.71875000e-03
2.01656250e-08,-7.07187500e-02,-7.57812500e-03
2.09656250e-08,-6.07187500e-02,-7.57812500e-03
2.17656250e-08,-5.30937500e-02,-5.23437500e-03
2.25656250e-08,-5.40937500e-02,-2.10937500e-03
2.33656250e-08,-5.37500000e-02,6.79687500e-03
2.41656250e-08,-4.31562500e-02,8.75000000e-03
2.49656250e-08,-4.66875000e-02,2.34375000e-03
2.57656250e-08,-4.09375000e-02,-1.64062500e-03
2.65656250e-08,-4.38437500e-02,4.68750000e-03
2.73656250e-08,-3.39062500e-02,9.60937500e-03
2.81656250e-08,-3.43125000e-02,1.29687500e-02
2.89656250e-08,-3.50000000e-02,1.56250000e-04
2.97656250e-08,-4.02500000e-02,1.60156250e-02
3.05656250e-08,-3.05937500e-02,4.68750000e-03
3.13656250e-08,-2.61250000e-02,1.69531250e-02
3.21656250e-08,-2.42500000e-02,2.21093750e-02
3.29656250e-08,-2.95625000e-02,2.71093750e-02
3.37656250e-08,-2.45937500e-02,2.72656250e-02
3.45656250e-08,-2.05312500e-02,2.77343750e-02
3.53656250e-08,-2.52500000e-02,3.00781250e-02
3.61656250e-08,-1.85312500e-02,3.17187500e-02
3.69656250e-08,-2.11562500e-02,1.68750000e-02
3.77656250e-08,-2.21250000e-02,3.31250000e-02
3.85656250e-08,-2.27187500e-02,3.28906250e-02
3.93656250e-08,-2.65937500e-02,2.50781250e-02
4.01656250e-08,-1.85312500e-02,2.17187500e-02
4.09656250e-08,-2.00312500e-02,3.10156250e-02
4.17656250e-08,-1.85000000e-02,2.39062500e-02
4.25656250e-08,-2.46250000e-02,3.07812500e-02
4.33656250e-08,-1.98125000e-02,1.62500000e-02
4.41656250e-08,-1.99062500e-02,1.56250000e-02
4.49656250e-08,-1.38437500e-02,2.45312500e-02
4.57656250e-08,-1.95312500e-02,2.31250000e-02
4.65656250e-08,-1.27500000e-02,1.56250000e-02
4.73656250e-08,-1.30625000e-02,1.92968750e-02
4.81656250e-08,-1.17500000e-02,2.41406250e-02
4.89656250e-08,-1.83437500e-02,1.69531250e-02
4.97656250e-08,-1.29375000e-02,1.41406250e-02
5.05656250e-08,-1.65312500e-02,1.04687500e-02
5.13656250e-08,-1.03437500e-02,2.29687500e-02
5.21656250e-08,-1.74062500e-02,2.13281250e-02
5.29656250e-08,-1.34062500e-02,1.19531250e-02
5.37656250e-08,-1.08437500e-02,1.82812500e-02
5.45656250e-08,-1.16250000e-02,2.10937500e-02
5.53656250e-08,-1.86875000e-02,1.20312500e-02
5.61656250e-08,-1.16562500e-02,2.39062500e-02
