muon_CSV/TriggerAuto_ALL_20231205194513595.csv

Model,MSO64B
Channel,CH1,,Channel,CH2
Label,,,Label,
Waveform Type,ANALOG,,Waveform Type,ANALOG
Horizontal Units,s,,Horizontal Units,s
Sample Interval,8.00000000e-10,,Sample Interval,8.00000000e-10
Record Length,5000,,Record Length,5000
Zero Index,349.88671875,,Zero Index,349.88671875
Vertical Units,V,,Vertical Units,V
,,,,
ANALOG_Thumbnail,,,ANALOG_Thumbnail,
yOffset,0.000000,,yOffset,0.000000
yPosition,2.160000,,yPosition,2.180000

Labels,,
TIME,CH1,CH2
-2.79909375e-07,9.40625000e-03,1.76562500e-02
-2.79109375e-07,9.71875000e-03,1.21093750e-02
-2.78309375e-07,7.90625000e-03,1.51562500e-02
-2.77509375e-07,1.39687500e-02,2.02343750e-02
-2.76709375e-07,2.84375000e-03,1.16406250e-02
-2.75909375e-07,1.38125000e-02,2.03906250e-02
-2.75109375e-07,1.33437500e-02,1.35937500e-02
-2.74309375e-07,1.08125000e-02,2.50781250e-02
-2.73509375e-07,1.10937500e-02,1.86718750e-02
-2.72709375e-07,1.60000000e-02,2.09375000e-02
-2.71909375e-07,7.06250000e-03,2.39843750e-02
-2.71109375e-07,1.55625000e-02,1.67187500e-02
-2.70309375e-07,9.06250000e-03,1.09375000e-02
-2.69509375e-07,1.60937500e-02,2.04687500e-02
-2.68709375e-07,6.96875000e-03,3.18750000e-02
-2.67909375e-07,1.04062500e-02,1.44531250e-02
-2.67109375e-07,8.00000000e-03,1.89062500e-02
-2.66309375e-07,8.78125000e-03,1.00781250e-02
-2.65509375e-07,1.26562500e-02,1.84375000e-02
-2.64709375e-07,1.63750000e-02,1.80468750e-02
-2.63909375e-07,6.28125000e-03,1.29687500e-02
-2.63109375e-07,1.15937500e-02,1.96875000e-02
-2.62309375e-07,1.30000000e-02,2.07812500e-02
-2.61509375e-07,9.31250000e-03,2.14062500e-02
-2.60709375e-07,9.78125000e-03,1.74218750e-02
-2.59909375e-07,9.62500000e-03,1.02343750e-02
-2.59109375e-07,1.08750000e-02,2.57031250e-02
-2.58309375e-07,7.37500000e-03,1.77343750e-02
-2.57509375e-07,1.08750000e-02,8.35937500e-03
-2.56709375e-07,1.03750000e-02,2.09375000e-02
-2.55909375e-07,4.90625000e-03,1.28125000e-02
-2.55109375e-07,9.78125000e-03,1.17187500e-02
-2.54309375e-07,1.08437500e-02,1.71093750e-02
-2.53509375e-07,1.37187500e-02,2.34375000e-02
-2.52709375e-07,8.81250000e-03,6.25000000e-03
-2.51909375e-07,1.48437500e-02,2.25000000e-02
-2.51109375e-07,4.00000000e-03,1.46875000e-02
-2.50309375e-07,1.25000000e-02,1.71093750e-02
-2.49509375e-07,1.39375000e-02,1.54687500e-02
-2.48709375e-07,1.35000000e-02,1.10156250e-02
-2.47909375e-07,8.81250000e-03,1.84375000e-02
-2.47109375e-07,9.93750000e-03,1.35937500e-02
-2.46309375e-07,9.75000000e-03,2.03906250e-02
-2.45509375e-07,7.71875000e-03,2.07031250e-02
-2.44709375e-07,1.00625000e-02,1.68750000e-02
-2.43909375e-07,1.27187500e-02,2.41406250e-02
-2.43109375e-07,9.59375000e-03,1.79687500e-02
-2.42309375e-07,1.46875000e-02,2.40625000e-02
-2.41509375e-07,7.62500000e-03,1.12500000e-02
-2.40709375e-07,8.31250000e-03,1.77343750e-02
-2.39909375e-07,1.55625000e-02,1.67187500e-02
-2.39109375e-07,1.26562500e-02,2.02343750e-02
-2.38309375e-07,5.43750000e-03,2.32812500e-02
-2.37509375e-07,7.65625000e-03,1.53125000e-02
-2.36709375e-07,1.12812500e-02,1.15625000e-02
-2.35909375e-07,8.40625000e-03,1.57812500e-02
-2.35109375e-07,1.04062500e-02,2.08593750e-02
-2.34309375e-07,1.37812500e-02,1.82031250e-02
-2.33509375e-07,1.28125000e-02,2.92968750e-02
-2.32709375e-07,1.28437500e-02,1.30468750e-02
-2.31909375e-07,1.20312500e-02,1.23437500e-02
-2.31109375e-07,1.25000000e-02,1.61718750e-02
-2.30309375e-07,9.96875000e-03,1.48437500e-02
-2.29509375e-07,1.75937500e-02,1.09375000e-02
-2.28709375e-07,1.56562500e-02,1.70312500e-02
-2.27909375e-07,9.15625000e-03,1.48437500e-02
-2.27109375e-07,1.17500000e-02,1.44531250e-02
-2.26309375e-07,1.32812500e-02,2.01562500e-02
-2.25509375e-07,5.46875000e-03,4.29687500e-03
-2.24709375e-07,1.46250000e-02,2.00000000e-02
-2.23909375e-07,1.05937500e-02,1.87500000e-02
-2.23109375e-07,1.35312500e-02,1.75781250e-02
-2.22309375e-07,2.87500000e-03,1.02343750e-02
-2.21509375e-07,1.32812500e-02,1.71093750e-02
-2.20709375e-07,9.50000000e-03,2.28125000e-02
-2.19909375e-07,1.23750000e-02,1.60937500e-02
-2.19109375e-07,4.00000000e-03,1.03125000e-02
-2.18309375e-07,1.54687500e-02,2.37500000e-02
-2.17509375e-07,1.06875000e-02,2.00000000e-02
-2.16709375e-07,1.29062500e-02,2.48437500e-02
-2.15909375e-07,2.43750000e-03,1.90625000e-02
-2.15109375e-07,1.11562500e-02,1.14843750e-02
-2.14309375e-07,1.35937500e-02,1.15625000e-02
-2.13509375e-07,1.65937500e-02,8.43750000e-03
-2.12709375e-07,5.46875000e-03,1.98437500e-02
-2.11909375e-07,1.12500000e-02,2.01562500e-02
-2.11109375e-07,9.87500000e-03,2.08593750e-02
-2.10309375e-07,1.07812500e-02,2.14843750e-02
-2.09509375e-07,9.40625000e-03,2.07812500e-02
-2.08709375e-07,8.93750000e-03,2.01562500e-02
-2.07909375e-07,1.42812500e-02,2.59375000e-02
-2.07109375e-07,1.27812500e-02,1.90625000e-02
-2.06309375e-07,1.15312500e-02,6.79687500e-03
-2.05509375e-07,1.30000000e-02,1.64843750e-02
-2.04709375e-07,7.75000000e-03,2.33593750e-02
-2.03909375e-07,1.40937500e-02,1.60156250e-02
-2.03109375e-07,9.68750000e-03,1.08593750e-02
-2.02309375e-07,1.00000000e-02,1.57031250e-02
-2.01509375e-07,1.18437500e-02,1.55468750e-02
-2.00709375e-07,2.03437500e-02,1.36718750e-02
-1.99909375e-07,2.25000000e-03,2.03125000e-02
-1.99109375e-07,1.28125000e-02,2.07031250e-02
-1.98309375e-07,7.53125000e-03,1.54687500e-02
-1.97509375e-07,1.56562500e-02,1.42187500e-02
-1.96709375e-07,8.71875000e-03,8.35937500e-03
-1.95909375e-07,1.37187500e-02,2.12500000e-02
-1.95109375e-07,9.09375000e-03,2.46093750e-02
-1.94309375e-07,1.39375000e-02,1.33593750e-02
-1.93509375e-07,7.96875000e-03,1.29687500e-02
-1.92709375e-07,1.24062500e-02,1.69531250e-02
-1.91909375e-07,7.78125000e-03,1.68750000e-02
-1.91109375e-07,1.46250000e-02,1.62500000e-02
-1.90309375e-07,7.03125000e-03,1.41406250e-02
-1.89509375e-07,1.27500000e-02,1.30468750e-02
-1.88709375e-07,1.59687500e-02,1.82812500e-02
-1.87909375e-07,1.44375000e-02,1.49218750e-02
-1.87109375e-07,5.65625000e-03,1.42187500e-02
-1.86309375e-07,8.93750000e-03,1.17187500e-02
-1.85509375e-07,1.25625000e-02,1.76562500e-02
-1.84709375e-07,1.01875000e-02,8.90625000e-03
-1.83909375e-07,1.10312500e-02,1.18750000e-02
-1.83109375e-07,1.00625000e-02,1.44531250e-02
-1.82309375e-07,1.96875000e-02,2.43750000e-02
-1.81509375e-07,8.40625000e-03,1.80468750e-02
-1.80709375e-07,9.90625000e-03,1.89062500e-02
-1.79909375e-07,1.27187500e-02,1.28125000e-02
-1.79109375e-07,8.03125000e-03,1.77343750e-02
-1.78309375e-07,1.10937500e-02,1.28125000e-02
-1.77509375e-07,8.62500000e-03,1.24218750e-02
-1.76709375e-07,1.45937500e-02,1.89843750e-02
-1.75909375e-07,1.03125000e-02,1.35937500e-02
-1.75109375e-07,1.39062500e-02,2.10156250e-02
-1.74309375e-07,4.06250000e-03,2.33593750e-02
-1.73509375e-07,1.12500000e-02,1.27343750e-02
-1.72709375e-07,1.27812500e-02,2.03906250e-02
-1.71909375e-07,1.41562500e-02,2.32812500e-02
-1.71109375e-07,7.09375000e-03,1.67187500e-02
-1.70309375e-07,1.39687500e-02,1.87500000e-02
-1.69509375e-07,1.13125000e-02,6.79687500e-03
-1.68709375e-07,1.37187500e-02,1.91406250e-02
-1.67909375e-07,8.43750000e-03,8.20312500e-03
-1.67109375e-07,1.54062500e-02,2.26562500e-02
-1.66309375e-07,6.68750000e-03,2.51562500e-02
-1.65509375e-07,1.69687500e-02,1.14843750e-02
-1.64709375e-07,2.96875000e-03,2.16406250e-02
-1.63909375e-07,5.15625000e-03,1.39843750e-02
-1.63109375e-07,1.22812500e-02,1.29687500e-02
-1.62309375e-07,1.05312500e-02,1.10156250e-02
-1.61509375e-07,3.65625000e-03,1.84375000e-02
-1.60709375e-07,1.14062500e-02,2.35156250e-02
-1.59909375e-07,1.15625000e-02,1.74218750e-02
-1.59109375e-07,1.35312500e-02,2.28906250e-02
-1.58309375e-07,1.15937500e-02,1.65625000e-02
-1.57509375e-07,8.09375000e-03,1.16406250e-02
-1.56709375e-07,1.38750000e-02,2.28906250e-02
-1.55909375e-07,9.87500000e-03,1.33593750e-02
-1.55109375e-07,9.96875000e-03,1.57812500e-02
-1.54309375e-07,1.21875000e-02,2.54687500e-02
-1.53509375e-07,1.22812500e-02,2.32031250e-02
-1.52709375e-07,1.41875000e-02,1.07812500e-02
-1.51909375e-07,7.75000000e-03,2.28906250e-02
-1.51109375e-07,9.96875000e-03,1.45312500e-02
-1.50309375e-07,1.28125000e-02,1.36718750e-02
-1.49509375e-07,1.10937500e-02,1.48437500e-02
-1.48709375e-07,4.56250000e-03,1.03125000e-02
-1.47909375e-07,1.14375000e-02,1.57812500e-02
-1.47109375e-07,1.30625000e-02,1.82031250e-02
-1.46309375e-07,1.19687500e-02,1.35156250e-02
-1.45509375e-07,5.90625000e-03,1.17968750e-02
-1.44709375e-07,1.31562500e-02,2.23437500e-02
-1.43909375e-07,8.18750000e-03,2.12500000e-02
-1.43109375e-07,1.50937500e-02,5.46875000e-03
-1.42309375e-07,1.17812500e-02,3.35937500e-03
-1.41509375e-07,1.54375000e-02,2.11718750e-02
-1.40709375e-07,1.17187500e-02,2.32812500e-02
-1.39909375e-07,1.42187500e-02,1.20312500e-02
-1.39109375e-07,4.90625000e-03,1.62500000e-02
-1.38309375e-07,8.09375000e-03,1.47656250e-02
-1.37509375e-07,1.23125000e-02,7.73437500e-03
-1.36709375e-07,1.54062500e-02,1.38281250e-02
-1.35909375e-07,9.53125000e-03,1.42968750e-02
-1.35109375e-07,1.21875000e-02,1.50781250e-02
-1.34309375e-07,1.36250000e-02,1.70312500e-02
-1.33509375e-07,1.10937500e-02,1.43750000e-02
-1.32709375e-07,1.21250000e-02,7.26562500e-03
-1.31909375e-07,9.15625000e-03,1.95312500e-02
-1.31109375e-07,1.21562500e-02,2.75781250e-02
-1.30309375e-07,1.39062500e-02,1.50000000e-02
-1.29509375e-07,1.30312500e-02,1.72656250e-02
-1.28709375e-07,1.23437500e-02,1.78906250e-02
-1.27909375e-07,5.31250000e-03,2.71093750e-02
-1.27109375e-07,1.29375000e-02,7.03125000e-03
-1.26309375e-07,1.18750000e-02,1.30468750e-02
-1.25509375e-07,1.14687500e-02,1.80468750e-02
-1.24709375e-07,8.06250000e-03,1.08593750e-02
-1.23909375e-07,1.25312500e-02,1.11718750e-02
-1.23109375e-07,-1.25000000e-04,1.71875000e-02
-1.22309375e-07,1.15000000e-02,2.10156250e-02
-1.21509375e-07,1.19062500e-02,2.42968750e-02
-1.20709375e-07,1.46562500e-02,1.67968750e-02
-1.19909375e-07,9.46875000e-03,1.46093750e-02
-1.19109375e-07,1.60312500e-02,2.32031250e-02
-1.18309375e-07,8.37500000e-03,2.03125000e-02
-1.17509375e-07,1.13437500e-02,1.78125000e-02
-1.16709375e-07,8.65625000e-03,1.19531250e-02
-1.15909375e-07,1.55937500e-02,2.02343750e-02
-1.15109375e-07,7.46875000e-03,2.25781250e-02
-1.14309375e-07,1.04062500e-02,1.47656250e-02
-1.13509375e-07,4.56250000e-03,2.09375000e-02
-1.12709375e-07,5.50000000e-03,2.07812500e-02
-1.11909375e-07,1.73750000e-02,2.21875000e-02
-1.11109375e-07,1.06562500e-02,1.56250000e-02
-1.10309375e-07,1.09375000e-02,2.44531250e-02
-1.09509375e-07,1.14687500e-02,1.62500000e-02
-1.08709375e-07,1.40625000e-02,1.86718750e-02
-1.07909375e-07,1.20312500e-02,1.59375000e-02
-1.07109375e-07,9.46875000e-03,2.01562500e-02
-1.06309375e-07,1.06875000e-02,1.74218750e-02
-1.05509375e-07,1.13750000e-02,2.62500000e-02
-1.04709375e-07,9.03125000e-03,1.59375000e-02
-1.03909375e-07,1.21875000e-02,1.53125000e-02
-1.03109375e-07,1.23437500e-02,1.98437500e-02
-1.02309375e-07,8.59375000e-03,2.46093750e-02
-1.01509375e-07,1.02187500e-02,1.77343750e-02
-1.00709375e-07,7.62500000e-03,1.82031250e-02
-9.99093750e-08,1.16250000e-02,2.32812500e-02
-9.91093750e-08,1.59687500e-02,1.56250000e-02
-9.83093750e-08,1.10312500e-02,2.82812500e-02
-9.75093750e-08,6.31250000e-03,2.07812500e-02
-9.67093750e-08,1.22500000e-02,2.23437500e-02
-9.59093750e-08,1.43125000e-02,2.43750000e-02
-9.51093750e-08,1.34375000e-02,2.55468750e-02
-9.43093750e-08,8.43750000e-03,1.38281250e-02
-9.35093750e-08,1.29687500e-02,1.87500000e-02
-9.27093750e-08,1.08750000e-02,1.81250000e-02
-9.19093750e-08,1.28437500e-02,1.62500000e-02
-9.11093750e-08,6.31250000e-03,7.89062500e-03
-9.03093750e-08,1.15000000e-02,2.60156250e-02
-8.95093750e-08,8.00000000e-03,2.01562500e-02
-8.87093750e-08,1.66250000e-02,1.85156250e-02
-8.79093750e-08,8.31250000e-03,2.36718750e-02
-8.71093750e-08,1.10937500e-02,2.16406250e-02
-8.63093750e-08,1.20000000e-02,2.16406250e-02
-8.55093750e-08,1.29062500e-02,1.69531250e-02
-8.47093750e-08,8.65625000e-03,1.78125000e-02
-8.39093750e-08,1.18125000e-02,1.92187500e-02
-8.31093750e-08,1.50000000e-02,2.85156250e-02
-8.23093750e-08,7.84375000e-03,2.61718750e-02
-8.15093750e-08,1.25000000e-02,1.96875000e-02
-8.07093750e-08,1.31250000e-02,2.17968750e-02
-7.99093750e-08,1.22500000e-02,2.76562500e-02
-7.91093750e-08,9.12500000e-03,2.01562500e-02
-7.83093750e-08,1.01250000e-02,2.43750000e-02
-7.75093750e-08,1.18750000e-02,1.60937500e-02
-7.67093750e-08,1.06875000e-02,2.18750000e-02
-7.59093750e-08,1.40937500e-02,1.94531250e-02
-7.51093750e-08,1.00625000e-02,1.71093750e-02
-7.43093750e-08,1.24062500e-02,2.08593750e-02
-7.35093750e-08,1.24687500e-02,1.56250000e-02
-7.27093750e-08,1.56875000e-02,2.55468750e-02
-7.19093750e-08,3.78125000e-03,1.92968750e-02
-7.11093750e-08,1.41562500e-02,2.00000000e-02
-7.03093750e-08,1.34062500e-02,2.00000000e-02
-6.95093750e-08,1.01562500e-02,2.17187500e-02
-6.87093750e-08,6.53125000e-03,7.89062500e-03
-6.79093750e-08,1.83437500e-02,2.52343750e-02
-6.71093750e-08,8.90625000e-03,1.67187500e-02
-6.63093750e-08,1.15000000e-02,2.68750000e-02
-6.55093750e-08,7.15625000e-03,1.16406250e-02
-6.47093750e-08,1.57187500e-02,2.11718750e-02
-6.39093750e-08,9.59375000e-03,1.84375000e-02
-6.31093750e-08,1.08125000e-02,1.52343750e-02
-6.23093750e-08,7.46875000e-03,2.07812500e-02
-6.15093750e-08,1.23750000e-02,3.28906250e-02
-6.07093750e-08,1.31562500e-02,-1.00546875e-01
-5.99093750e-08,1.59687500e-02,-6.20468750e-01
-5.91093750e-08,6.37500000e-03,-1.14812500e+00
-5.83093750e-08,1.14687500e-02,-1.30921875e+00
-5.75093750e-08,1.48125000e-02,-1.36250000e+00
-5.67093750e-08,1.30312500e-02,-1.40437500e+00
-5.59093750e-08,1.20312500e-02,-1.40468750e+00
-5.51093750e-08,9.78125000e-03,-1.39039063e+00
-5.43093750e-08,1.35625000e-02,-1.38523438e+00
-5.35093750e-08,1.03125000e-02,-1.39585938e+00
-5.27093750e-08,1.28125000e-02,-1.40273438e+00
-5.19093750e-08,1.19687500e-02,-1.41375000e+00
-5.11093750e-08,9.78125000e-03,-1.39843750e+00
-5.03093750e-08,1.38437500e-02,-1.41312500e+00
-4.95093750e-08,6.21875000e-03,-1.41492188e+00
-4.87093750e-08,1.03750000e-02,-1.41281250e+00
-4.79093750e-08,1.11875000e-02,-1.40078125e+00
-4.71093750e-08,1.28125000e-02,-1.40726562e+00
-4.63093750e-08,4.43750000e-03,-1.42148438e+00
-4.55093750e-08,1.67187500e-02,-1.41476563e+00
-4.47093750e-08,1.01250000e-02,-1.42226563e+00
-4.39093750e-08,1.45000000e-02,-1.42351563e+00
-4.31093750e-08,3.00000000e-03,-1.42625000e+00
-4.23093750e-08,1.08750000e-02,-1.42375000e+00
-4.15093750e-08,6.21875000e-03,-1.42398438e+00
-4.07093750e-08,8.09375000e-03,-1.41835938e+00
-3.99093750e-08,7.81250000e-03,-1.42406250e+00
-3.91093750e-08,1.30000000e-02,-1.41695313e+00
-3.83093750e-08,8.84375000e-03,-1.41500000e+00
-3.75093750e-08,1.23750000e-02,-1.42210938e+00
-3.67093750e-08,6.93750000e-03,-1.42828125e+00
-3.59093750e-08,4.12500000e-03,-1.42585938e+00
-3.51093750e-08,1.06250000e-02,-1.41507812e+00
-3.43093750e-08,7.18750000e-03,-1.41726563e+00
-3.35093750e-08,-1.35937500e-02,-1.42757813e+00
-3.27093750e-08,-2.82187500e-02,-1.42703125e+00
-3.19093750e-08,-5.80000000e-02,-1.42148438e+00
-3.11093750e-08,-1.12812500e-01,-1.42203125e+00
-3.03093750e-08,-1.88906250e-01,-1.42367188e+00
-2.95093750e-08,-2.70218750e-01,-1.42140625e+00
-2.87093750e-08,-3.52875000e-01,-1.41781250e+00
-2.79093750e-08,-4.30593750e-01,-1.41968750e+00
-2.71093750e-08,-5.00250000e-01,-1.42000000e+00
-2.63093750e-08,-5.49718750e-01,-1.41460938e+00
-2.55093750e-08,-5.90437500e-01,-1.42109375e+00
-2.47093750e-08,-6.17937500e-01,-1.41218750e+00
-2.39093750e-08,-6.36406250e-01,-1.41367188e+00
-2.31093750e-08,-6.53250000e-01,-1.42664063e+00
-2.23093750e-08,-6.55281250e-01,-1.42070313e+00
-2.15093750e-08,-6.63062500e-01,-1.40312500e+00
-2.07093750e-08,-6.59593750e-01,-1.42257813e+00
-1.99093750e-08,-6.52875000e-01,-1.42312500e+00
-1.91093750e-08,-6.45750000e-01,-1.41328125e+00
-1.83093750e-08,-6.25593750e-01,-1.41867188e+00
-1.75093750e-08,-6.09062500e-01,-1.42164063e+00
-1.67093750e-08,-5.73625000e-01,-1.41765625e+00
-1.59093750e-08,-5.57156250e-01,-1.41562500e+00
-1.51093750e-08,-5.27687500e-01,-1.42023438e+00
-1.43093750e-08,-5.04687500e-01,-1.43054688e+00
-1.35093750e-08,-4.73250000e-01,-1.42023438e+00
-1.27093750e-08,-4.47593750e-01,-1.42312500e+00
-1.19093750e-08,-4.20593750e-01,-1.41812500e+00
-1.11093750e-08,-3.98718750e-01,-1.42632813e+00
-1.03093750e-08,-3.67937500e-01,-1.42773438e+00
-9.50937500e-09,-3.47906250e-01,-1.42367188e+00
-8.70937500e-09,-3.23406250e-01,-1.41953125e+00
-7.90937500e-09,-3.02468750e-01,-1.42031250e+00
-7.10937500e-09,-2.77781250e-01,-1.42593750e+00
-6.30937500e-09,-2.60062500e-01,-1.41570313e+00
-5.50937500e-09,-2.46656250e-01,-1.42937500e+00
-4.70937500e-09,-2.24843750e-01,-1.41257813e+00
-3.90937500e-09,-2.17125000e-01,-1.40640625e+00
-3.10937500e-09,-2.04093750e-01,-1.36539063e+00
-2.30937500e-09,-1.94000000e-01,-1.28984375e+00
-1.50937500e-09,-1.83000000e-01,-1.01695313e+00
-7.09375000e-10,-1.71406250e-01,-5.70625000e-01
9.06250000e-11,-1.62781250e-01,-2.67500000e-01
8.90625000e-10,-1.48687500e-01,-1.48515625e-01
1.69062500e-09,-1.44218750e-01,-8.89062500e-02
2.49062500e-09,-1.30812500e-01,-5.89062500e-02
3.29062500e-09,-1.24375000e-01,-4.43750000e-02
4.09062500e-09,-1.16031250e-01,-3.54687500e-02
4.89062500e-09,-1.15593750e-01,-3.57031250e-02
5.69062500e-09,-9.98750000e-02,-3.01562500e-02
6.49062500e-09,-9.39375000e-02,-2.59375000e-02
7.29062500e-09,-8.43437500e-02,-2.55468750e-02
8.09062500e-09,-8.24687500e-02,-2.85156250e-02
8.89062500e-09,-7.43750000e-02,-1.70312500e-02
9.69062500e-09,-7.58125000e-02,-1.61718750e-02
1.04906250e-08,-6.48750000e-02,-1.44531250e-02
1.12906250e-08,-7.16875000e-02,-1.25000000e-02
1.20906250e-08,-6.21562500e-02,-8.04687500e-03
1.28906250e-08,-5.88750000e-02,-2.81250000e-03
1.36906250e-08,-5.42812500e-02,4.76562500e-03
1.44906250e-08,-5.76562500e-02,-6.01562500e-03
1.52906250e-08,-4.95312500e-02,-4.37500000e-03
1.60906250e-08,-4.08125000e-02,-8.20312500e-03
1.68906250e-08,-5.01562500e-02,-3.90625000e-03
1.76906250e-08,-5.02812500e-02,-3.04687500e-03
1.84906250e-08,-4.04062500e-02,3.12500000e-03
1.92906250e-08,-3.84687500e-02,6.56250000e-03
2.00906250e-08,-4.07187500e-02,4.68750000e-03
2.08906250e-08,-3.68125000e-02,3.20312500e-03
2.16906250e-08,-3.41562500e-02,1.34375000e-02
2.24906250e-08,-2.81250000e-02,6.32812500e-03
2.32906250e-08,-2.78437500e-02,1.21875000e-02
2.40906250e-08,-2.81875000e-02,7.73437500e-03
2.48906250e-08,-3.09687500e-02,1.88281250e-02
2.56906250e-08,-2.71562500e-02,1.40625000e-02
2.64906250e-08,-2.06250000e-02,1.14062500e-02
2.72906250e-08,-2.60312500e-02,1.16406250e-02
2.80906250e-08,-2.40000000e-02,9.45312500e-03
2.88906250e-08,-2.06250000e-02,1.91406250e-02
2.96906250e-08,-1.60937500e-02,9.37500000e-03
3.04906250e-08,-2.38437500e-02,1.75000000e-02
3.12906250e-08,-1.26562500e-02,2.94531250e-02
3.20906250e-08,-1.97187500e-02,3.10937500e-02
3.28906250e-08,-1.65937500e-02,4.06250000e-02
3.36906250e-08,-1.86875000e-02,4.20312500e-02
3.44906250e-08,-7.34375000e-03,4.76562500e-02
3.52906250e-08,-1.48437500e-02,5.11718750e-02
3.60906250e-08,-1.18125000e-02,4.32812500e-02
3.68906250e-08,-1.25000000e-02,3.54687500e-02
3.76906250e-08,-4.50000000e-03,4.19531250e-02
3.84906250e-08,-7.09375000e-03,3.64062500e-02
3.92906250e-08,-5.25000000e-03,4.17187500e-02
4.00906250e-08,-1.20937500e-02,3.07812500e-02
4.08906250e-08,-5.46875000e-03,3.57031250e-02
4.16906250e-08,-3.28125000e-03,3.20312500e-02
4.24906250e-08,-1.87500000e-04,3.34375000e-02
4.32906250e-08,-7.50000000e-03,2.66406250e-02
4.40906250e-08,-3.68750000e-03,2.42187500e-02
4.48906250e-08,-1.62500000e-03,3.14062500e-02
4.56906250e-08,-5.78125000e-03,2.58593750e-02
4.64906250e-08,-4.31250000e-03,2.01562500e-02
4.72906250e-08,1.03125000e-03,2.95312500e-02
4.80906250e-08,4.87500000e-03,3.50781250e-02
4.88906250e-08,-1.50000000e-03,3.02343750e-02
4.96906250e-08,1.56250000e-03,2.75781250e-02
5.04906250e-08,-1.46875000e-03,2.48437500e-02
5.12906250e-08,-4.50000000e-03,2.82812500e-02
5.20906250e-08,2.90625000e-03,2.27343750e-02
5.28906250e-08,-9.37500000e-05,3.03125000e-02
5.36906250e-08,1.43750000e-03,3.10937500e-02
5.44906250e-08,3.28125000e-03,1.93750000e-02
5.52906250e-08,4.93750000e-03,3.20312500e-02
5.60906250e-08,-5.46875000e-03,1.71093750e-02
