muon_CSV/TriggerAuto_ALL_20231205194100819.csv

Model,MSO64B
Channel,CH1,,Channel,CH2
Label,,,Label,
Waveform Type,ANALOG,,Waveform Type,ANALOG
Horizontal Units,s,,Horizontal Units,s
Sample Interval,8.00000000e-10,,Sample Interval,8.00000000e-10
Record Length,5000,,Record Length,5000
Zero Index,349.72265625,,Zero Index,349.72265625
Vertical Units,V,,Vertical Units,V
,,,,
ANALOG_Thumbnail,,,ANALOG_Thumbnail,
yOffset,0.000000,,yOffset,0.000000
yPosition,2.160000,,yPosition,2.180000

Labels,,
TIME,CH1,CH2
-2.79778125e-07,8.31250000e-03,2.14843750e-02
-2.78978125e-07,4.37500000e-03,6.25000000e-03
-2.78178125e-07,9.81250000e-03,2.32031250e-02
-2.77378125e-07,7.40625000e-03,1.07031250e-02
-2.76578125e-07,8.87500000e-03,1.72656250e-02
-2.75778125e-07,6.28125000e-03,1.15625000e-02
-2.74978125e-07,3.34375000e-03,1.98437500e-02
-2.74178125e-07,1.24375000e-02,7.57812500e-03
-2.73378125e-07,1.07812500e-02,1.53906250e-02
-2.72578125e-07,5.43750000e-03,1.62500000e-02
-2.71778125e-07,7.71875000e-03,1.71093750e-02
-2.70978125e-07,8.15625000e-03,1.62500000e-02
-2.70178125e-07,7.59375000e-03,1.56250000e-02
-2.69378125e-07,7.43750000e-03,1.01562500e-03
-2.68578125e-07,1.00937500e-02,8.35937500e-03
-2.67778125e-07,1.24062500e-02,1.78125000e-02
-2.66978125e-07,8.90625000e-03,1.78125000e-02
-2.66178125e-07,8.46875000e-03,1.56250000e-02
-2.65378125e-07,7.03125000e-03,1.97656250e-02
-2.64578125e-07,4.93750000e-03,1.81250000e-02
-2.63778125e-07,1.05312500e-02,7.10937500e-03
-2.62978125e-07,7.62500000e-03,1.51562500e-02
-2.62178125e-07,8.53125000e-03,9.06250000e-03
-2.61378125e-07,6.21875000e-03,1.46093750e-02
-2.60578125e-07,1.22187500e-02,1.37500000e-02
-2.59778125e-07,5.31250000e-04,1.51562500e-02
-2.58978125e-07,9.06250000e-03,1.89843750e-02
-2.58178125e-07,6.93750000e-03,7.65625000e-03
-2.57378125e-07,7.71875000e-03,1.33593750e-02
-2.56578125e-07,7.68750000e-03,2.23437500e-02
-2.55778125e-07,9.93750000e-03,1.21093750e-02
-2.54978125e-07,6.21875000e-03,6.56250000e-03
-2.54178125e-07,5.93750000e-03,1.57812500e-02
-2.53378125e-07,3.84375000e-03,-3.51562500e-03
-2.52578125e-07,1.02812500e-02,2.03125000e-02
-2.51778125e-07,1.15625000e-03,6.79687500e-03
-2.50978125e-07,1.04375000e-02,4.92187500e-03
-2.50178125e-07,5.50000000e-03,1.39843750e-02
-2.49378125e-07,8.21875000e-03,1.12500000e-02
-2.48578125e-07,1.00000000e-02,9.37500000e-03
-2.47778125e-07,1.12500000e-02,2.19531250e-02
-2.46978125e-07,4.46875000e-03,7.50000000e-03
-2.46178125e-07,8.43750000e-03,1.48437500e-02
-2.45378125e-07,8.50000000e-03,9.53125000e-03
-2.44578125e-07,6.90625000e-03,4.92187500e-03
-2.43778125e-07,7.84375000e-03,2.44531250e-02
-2.42978125e-07,5.53125000e-03,6.87500000e-03
-2.42178125e-07,1.15937500e-02,1.20312500e-02
-2.41378125e-07,9.40625000e-03,9.21875000e-03
-2.40578125e-07,6.87500000e-03,2.25781250e-02
-2.39778125e-07,6.59375000e-03,1.35156250e-02
-2.38978125e-07,4.03125000e-03,9.84375000e-03
-2.38178125e-07,6.21875000e-03,1.65625000e-02
-2.37378125e-07,3.00000000e-03,1.75781250e-02
-2.36578125e-07,7.18750000e-03,8.98437500e-03
-2.35778125e-07,7.06250000e-03,9.84375000e-03
-2.34978125e-07,8.78125000e-03,7.89062500e-03
-2.34178125e-07,2.21875000e-03,1.53125000e-02
-2.33378125e-07,1.16250000e-02,1.37500000e-02
-2.32578125e-07,9.43750000e-03,1.39062500e-02
-2.31778125e-07,1.04062500e-02,1.57812500e-02
-2.30978125e-07,8.00000000e-03,1.57812500e-02
-2.30178125e-07,1.20625000e-02,2.10156250e-02
-2.29378125e-07,-1.34375000e-03,1.41406250e-02
-2.28578125e-07,8.00000000e-03,1.37500000e-02
-2.27778125e-07,5.78125000e-03,1.03906250e-02
-2.26978125e-07,1.11250000e-02,1.85156250e-02
-2.26178125e-07,2.46875000e-03,1.48437500e-02
-2.25378125e-07,1.35312500e-02,9.76562500e-03
-2.24578125e-07,3.09375000e-03,1.25000000e-02
-2.23778125e-07,5.68750000e-03,1.05468750e-02
-2.22978125e-07,6.78125000e-03,2.25000000e-02
-2.22178125e-07,1.01875000e-02,1.28125000e-02
-2.21378125e-07,3.90625000e-03,7.18750000e-03
-2.20578125e-07,8.34375000e-03,1.46093750e-02
-2.19778125e-07,1.00625000e-02,1.57031250e-02
-2.18978125e-07,8.00000000e-03,1.04687500e-02
-2.18178125e-07,8.28125000e-03,1.85156250e-02
-2.17378125e-07,7.15625000e-03,1.69531250e-02
-2.16578125e-07,8.06250000e-03,2.03906250e-02
-2.15778125e-07,5.00000000e-03,1.81250000e-02
-2.14978125e-07,8.84375000e-03,1.35937500e-02
-2.14178125e-07,9.15625000e-03,1.96093750e-02
-2.13378125e-07,8.65625000e-03,1.46875000e-02
-2.12578125e-07,7.78125000e-03,5.00000000e-03
-2.11778125e-07,6.50000000e-03,9.21875000e-03
-2.10978125e-07,4.43750000e-03,1.17187500e-03
-2.10178125e-07,9.25000000e-03,8.20312500e-03
-2.09378125e-07,7.53125000e-03,5.85937500e-03
-2.08578125e-07,1.90625000e-03,9.60937500e-03
-2.07778125e-07,5.09375000e-03,1.39062500e-02
-2.06978125e-07,8.53125000e-03,1.26562500e-02
-2.06178125e-07,1.10312500e-02,1.77343750e-02
-2.05378125e-07,7.18750000e-04,6.56250000e-03
-2.04578125e-07,9.75000000e-03,1.78906250e-02
-2.03778125e-07,5.37500000e-03,5.78125000e-03
-2.02978125e-07,6.40625000e-03,1.85937500e-02
-2.02178125e-07,5.96875000e-03,2.42187500e-03
-2.01378125e-07,1.15625000e-02,2.67968750e-02
-2.00578125e-07,1.87500000e-03,7.96875000e-03
-1.99778125e-07,8.71875000e-03,8.20312500e-03
-1.98978125e-07,3.40625000e-03,1.64843750e-02
-1.98178125e-07,6.40625000e-03,2.36718750e-02
-1.97378125e-07,7.93750000e-03,2.18750000e-03
-1.96578125e-07,1.05937500e-02,1.82812500e-02
-1.95778125e-07,2.21875000e-03,2.06250000e-02
-1.94978125e-07,5.03125000e-03,1.04687500e-02
-1.94178125e-07,1.39687500e-02,1.50000000e-02
-1.93378125e-07,4.46875000e-03,7.10937500e-03
-1.92578125e-07,9.00000000e-03,1.45312500e-02
-1.91778125e-07,7.96875000e-03,1.18750000e-02
-1.90978125e-07,9.12500000e-03,1.90625000e-02
-1.90178125e-07,6.90625000e-03,1.76562500e-02
-1.89378125e-07,9.46875000e-03,1.42187500e-02
-1.88578125e-07,6.90625000e-03,7.81250000e-03
-1.87778125e-07,2.90625000e-03,1.38281250e-02
-1.86978125e-07,9.71875000e-03,4.45312500e-03
-1.86178125e-07,4.43750000e-03,1.67187500e-02
-1.85378125e-07,4.62500000e-03,7.03125000e-03
-1.84578125e-07,4.34375000e-03,1.42187500e-02
-1.83778125e-07,1.12500000e-02,2.30468750e-02
-1.82978125e-07,2.68750000e-03,1.62500000e-02
-1.82178125e-07,1.26875000e-02,1.57031250e-02
-1.81378125e-07,1.02187500e-02,1.24218750e-02
-1.80578125e-07,1.08125000e-02,1.96875000e-02
-1.79778125e-07,2.62500000e-03,1.09375000e-02
-1.78978125e-07,1.33750000e-02,1.64843750e-02
-1.78178125e-07,6.25000000e-03,1.49218750e-02
-1.77378125e-07,7.37500000e-03,1.69531250e-02
-1.76578125e-07,4.53125000e-03,4.37500000e-03
-1.75778125e-07,1.13437500e-02,1.47656250e-02
-1.74978125e-07,2.75000000e-03,1.62500000e-02
-1.74178125e-07,1.15312500e-02,1.64062500e-02
-1.73378125e-07,8.75000000e-04,8.28125000e-03
-1.72578125e-07,7.09375000e-03,1.32812500e-02
-1.71778125e-07,7.59375000e-03,1.36718750e-02
-1.70978125e-07,1.14062500e-02,1.25000000e-02
-1.70178125e-07,1.43750000e-03,9.76562500e-03
-1.69378125e-07,8.81250000e-03,1.60156250e-02
-1.68578125e-07,1.19062500e-02,1.82031250e-02
-1.67778125e-07,8.15625000e-03,1.24218750e-02
-1.66978125e-07,6.93750000e-03,1.23437500e-02
-1.66178125e-07,6.37500000e-03,1.05468750e-02
-1.65378125e-07,8.15625000e-03,1.57812500e-02
-1.64578125e-07,7.93750000e-03,1.17968750e-02
-1.63778125e-07,8.09375000e-03,1.57812500e-02
-1.62978125e-07,6.56250000e-03,1.30468750e-02
-1.62178125e-07,1.04375000e-02,1.77343750e-02
-1.61378125e-07,8.96875000e-03,1.10156250e-02
-1.60578125e-07,6.28125000e-03,1.51562500e-02
-1.59778125e-07,4.87500000e-03,1.16406250e-02
-1.58978125e-07,8.75000000e-03,8.59375000e-03
-1.58178125e-07,7.43750000e-03,1.92187500e-02
-1.57378125e-07,0.00000000e+00,1.16406250e-02
-1.56578125e-07,1.43125000e-02,2.64843750e-02
-1.55778125e-07,7.59375000e-03,1.71093750e-02
-1.54978125e-07,8.15625000e-03,3.75000000e-03
-1.54178125e-07,4.15625000e-03,7.96875000e-03
-1.53378125e-07,9.31250000e-03,1.73437500e-02
-1.52578125e-07,4.53125000e-03,2.02343750e-02
-1.51778125e-07,3.65625000e-03,1.36718750e-02
-1.50978125e-07,2.87500000e-03,1.62500000e-02
-1.50178125e-07,1.29375000e-02,1.24218750e-02
-1.49378125e-07,5.68750000e-03,2.09375000e-02
-1.48578125e-07,5.12500000e-03,9.60937500e-03
-1.47778125e-07,3.90625000e-03,1.84375000e-02
-1.46978125e-07,4.12500000e-03,1.68750000e-02
-1.46178125e-07,8.53125000e-03,1.54687500e-02
-1.45378125e-07,1.22812500e-02,6.32812500e-03
-1.44578125e-07,3.71875000e-03,9.21875000e-03
-1.43778125e-07,5.96875000e-03,9.92187500e-03
-1.42978125e-07,7.21875000e-03,1.50781250e-02
-1.42178125e-07,1.00625000e-02,4.45312500e-03
-1.41378125e-07,7.03125000e-03,1.39062500e-02
-1.40578125e-07,8.46875000e-03,1.10937500e-02
-1.39778125e-07,7.87500000e-03,2.10156250e-02
-1.38978125e-07,7.06250000e-03,5.54687500e-03
-1.38178125e-07,9.96875000e-03,1.92187500e-02
-1.37378125e-07,9.68750000e-03,4.21875000e-03
-1.36578125e-07,4.53125000e-03,1.94531250e-02
-1.35778125e-07,1.00625000e-02,1.07812500e-02
-1.34978125e-07,7.25000000e-03,7.42187500e-03
-1.34178125e-07,3.15625000e-03,1.32812500e-02
-1.33378125e-07,5.00000000e-03,1.32812500e-02
-1.32578125e-07,1.38437500e-02,1.00000000e-02
-1.31778125e-07,3.34375000e-03,2.14843750e-02
-1.30978125e-07,1.28125000e-02,1.63281250e-02
-1.30178125e-07,6.65625000e-03,1.80468750e-02
-1.29378125e-07,1.07500000e-02,1.11718750e-02
-1.28578125e-07,1.96875000e-03,1.69531250e-02
-1.27778125e-07,1.32500000e-02,1.71875000e-02
-1.26978125e-07,5.03125000e-03,1.75000000e-02
-1.26178125e-07,4.31250000e-03,1.52343750e-02
-1.25378125e-07,4.09375000e-03,6.32812500e-03
-1.24578125e-07,1.23750000e-02,1.10937500e-02
-1.23778125e-07,7.40625000e-03,6.01562500e-03
-1.22978125e-07,1.00937500e-02,1.73437500e-02
-1.22178125e-07,4.40625000e-03,1.71875000e-02
-1.21378125e-07,4.31250000e-03,1.77343750e-02
-1.20578125e-07,4.62500000e-03,1.00000000e-02
-1.19778125e-07,9.84375000e-03,1.73437500e-02
-1.18978125e-07,3.56250000e-03,1.53125000e-02
-1.18178125e-07,1.12500000e-02,1.92968750e-02
-1.17378125e-07,1.08125000e-02,9.37500000e-03
-1.16578125e-07,7.81250000e-03,1.62500000e-02
-1.15778125e-07,6.56250000e-03,8.90625000e-03
-1.14978125e-07,7.87500000e-03,1.85156250e-02
-1.14178125e-07,5.53125000e-03,1.28906250e-02
-1.13378125e-07,9.06250000e-03,2.31250000e-02
-1.12578125e-07,9.21875000e-03,1.40625000e-02
-1.11778125e-07,9.81250000e-03,8.04687500e-03
-1.10978125e-07,3.84375000e-03,2.46093750e-02
-1.10178125e-07,8.28125000e-03,1.35937500e-02
-1.09378125e-07,6.59375000e-03,1.08593750e-02
-1.08578125e-07,1.07812500e-02,1.21875000e-02
-1.07778125e-07,3.81250000e-03,1.23437500e-02
-1.06978125e-07,1.05000000e-02,1.77343750e-02
-1.06178125e-07,6.15625000e-03,1.43750000e-02
-1.05378125e-07,1.06875000e-02,2.37500000e-02
-1.04578125e-07,4.96875000e-03,1.22656250e-02
-1.03778125e-07,5.68750000e-03,1.28125000e-02
-1.02978125e-07,4.03125000e-03,1.47656250e-02
-1.02178125e-07,1.00625000e-02,1.75000000e-02
-1.01378125e-07,5.37500000e-03,1.74218750e-02
-1.00578125e-07,5.59375000e-03,1.15625000e-02
-9.97781250e-08,6.84375000e-03,1.12500000e-02
-9.89781250e-08,1.16562500e-02,2.58593750e-02
-9.81781250e-08,5.43750000e-03,1.88281250e-02
-9.73781250e-08,5.93750000e-03,1.06250000e-02
-9.65781250e-08,4.43750000e-03,1.34375000e-02
-9.57781250e-08,8.56250000e-03,2.14843750e-02
-9.49781250e-08,1.00000000e-02,1.53906250e-02
-9.41781250e-08,7.34375000e-03,1.96875000e-02
-9.33781250e-08,4.31250000e-03,2.21093750e-02
-9.25781250e-08,1.07500000e-02,2.22656250e-02
-9.17781250e-08,1.14687500e-02,2.14843750e-02
-9.09781250e-08,4.93750000e-03,1.90625000e-02
-9.01781250e-08,7.34375000e-03,1.89843750e-02
-8.93781250e-08,8.25000000e-03,1.11718750e-02
-8.85781250e-08,9.93750000e-03,2.52343750e-02
-8.77781250e-08,7.40625000e-03,1.42187500e-02
-8.69781250e-08,5.15625000e-03,2.00000000e-02
-8.61781250e-08,8.40625000e-03,1.83593750e-02
-8.53781250e-08,5.56250000e-03,1.85156250e-02
-8.45781250e-08,8.12500000e-03,1.25000000e-02
-8.37781250e-08,4.15625000e-03,1.87500000e-02
-8.29781250e-08,8.25000000e-03,1.38281250e-02
-8.21781250e-08,7.09375000e-03,2.15625000e-02
-8.13781250e-08,7.43750000e-03,2.22656250e-02
-8.05781250e-08,3.40625000e-03,4.76562500e-03
-7.97781250e-08,8.50000000e-03,2.35937500e-02
-7.89781250e-08,6.87500000e-03,1.90625000e-02
-7.81781250e-08,8.50000000e-03,1.64843750e-02
-7.73781250e-08,-3.12500000e-05,9.29687500e-03
-7.65781250e-08,1.04687500e-02,2.25781250e-02
-7.57781250e-08,7.53125000e-03,6.40625000e-03
-7.49781250e-08,6.96875000e-03,1.82031250e-02
-7.41781250e-08,4.15625000e-03,1.23437500e-02
-7.33781250e-08,1.09062500e-02,1.66406250e-02
-7.25781250e-08,4.53125000e-03,1.36718750e-02
-7.17781250e-08,1.09062500e-02,1.32031250e-02
-7.09781250e-08,8.21875000e-03,1.76562500e-02
-7.01781250e-08,9.21875000e-03,1.88281250e-02
-6.93781250e-08,9.81250000e-03,1.33593750e-02
-6.85781250e-08,1.09375000e-02,1.74218750e-02
-6.77781250e-08,6.25000000e-03,1.31250000e-02
-6.69781250e-08,8.03125000e-03,2.11718750e-02
-6.61781250e-08,9.40625000e-03,1.53906250e-02
-6.53781250e-08,1.00312500e-02,1.42187500e-02
-6.45781250e-08,7.15625000e-03,1.36718750e-02
-6.37781250e-08,5.59375000e-03,1.68750000e-02
-6.29781250e-08,7.65625000e-03,6.40625000e-03
-6.21781250e-08,4.46875000e-03,1.64062500e-02
-6.13781250e-08,1.00937500e-02,2.23437500e-02
-6.05781250e-08,5.87500000e-03,-1.65078125e-01
-5.97781250e-08,5.31250000e-04,-7.01250000e-01
-5.89781250e-08,1.00625000e-02,-1.17125000e+00
-5.81781250e-08,8.40625000e-03,-1.26609375e+00
-5.73781250e-08,8.12500000e-03,-1.35601562e+00
-5.65781250e-08,8.06250000e-03,-1.39187500e+00
-5.57781250e-08,1.21562500e-02,-1.39500000e+00
-5.49781250e-08,2.62500000e-03,-1.39765625e+00
-5.41781250e-08,9.12500000e-03,-1.39468750e+00
-5.33781250e-08,8.46875000e-03,-1.39367188e+00
-5.25781250e-08,9.31250000e-03,-1.40210938e+00
-5.17781250e-08,9.06250000e-03,-1.41304688e+00
-5.09781250e-08,1.15312500e-02,-1.41289063e+00
-5.01781250e-08,8.28125000e-03,-1.40843750e+00
-4.93781250e-08,6.28125000e-03,-1.40515625e+00
-4.85781250e-08,4.09375000e-03,-1.41492188e+00
-4.77781250e-08,1.22812500e-02,-1.41132813e+00
-4.69781250e-08,3.34375000e-03,-1.41007813e+00
-4.61781250e-08,1.11250000e-02,-1.41281250e+00
-4.53781250e-08,2.81250000e-03,-1.41875000e+00
-4.45781250e-08,4.84375000e-03,-1.41273438e+00
-4.37781250e-08,8.62500000e-03,-1.42304688e+00
-4.29781250e-08,1.17812500e-02,-1.41351563e+00
-4.21781250e-08,3.15625000e-03,-1.41960938e+00
-4.13781250e-08,1.00312500e-02,-1.43117187e+00
-4.05781250e-08,7.00000000e-03,-1.40554688e+00
-3.97781250e-08,7.18750000e-03,-1.41859375e+00
-3.89781250e-08,6.09375000e-03,-1.41375000e+00
-3.81781250e-08,9.34375000e-03,-1.42312500e+00
-3.73781250e-08,9.93750000e-03,-1.42171875e+00
-3.65781250e-08,7.46875000e-03,-1.41367188e+00
-3.57781250e-08,1.13437500e-02,-1.41429688e+00
-3.49781250e-08,5.87500000e-03,-1.41281250e+00
-3.41781250e-08,7.50000000e-04,-1.41664063e+00
-3.33781250e-08,-7.15625000e-03,-1.41437500e+00
-3.25781250e-08,-2.91250000e-02,-1.41687500e+00
-3.17781250e-08,-6.15625000e-02,-1.42390625e+00
-3.09781250e-08,-1.03406250e-01,-1.42265625e+00
-3.01781250e-08,-1.62218750e-01,-1.41921875e+00
-2.93781250e-08,-2.24250000e-01,-1.42812500e+00
-2.85781250e-08,-2.77031250e-01,-1.42164063e+00
-2.77781250e-08,-3.40968750e-01,-1.42289062e+00
-2.69781250e-08,-3.84187500e-01,-1.41585938e+00
-2.61781250e-08,-4.24062500e-01,-1.41523438e+00
-2.53781250e-08,-4.46281250e-01,-1.41171875e+00
-2.45781250e-08,-4.73843750e-01,-1.41039063e+00
-2.37781250e-08,-4.83125000e-01,-1.40570313e+00
-2.29781250e-08,-4.88406250e-01,-1.41437500e+00
-2.21781250e-08,-4.88500000e-01,-1.41781250e+00
-2.13781250e-08,-4.89093750e-01,-1.41109375e+00
-2.05781250e-08,-4.79125000e-01,-1.40914063e+00
-1.97781250e-08,-4.67687500e-01,-1.41046875e+00
-1.89781250e-08,-4.48343750e-01,-1.41437500e+00
-1.81781250e-08,-4.34031250e-01,-1.42148438e+00
-1.73781250e-08,-4.08812500e-01,-1.41906250e+00
-1.65781250e-08,-3.94343750e-01,-1.41773438e+00
-1.57781250e-08,-3.65187500e-01,-1.41882813e+00
-1.49781250e-08,-3.43875000e-01,-1.40625000e+00
-1.41781250e-08,-3.31187500e-01,-1.41382813e+00
-1.33781250e-08,-3.06875000e-01,-1.41812500e+00
-1.25781250e-08,-2.84718750e-01,-1.42656250e+00
-1.17781250e-08,-2.64312500e-01,-1.41875000e+00
-1.09781250e-08,-2.50781250e-01,-1.41109375e+00
-1.01781250e-08,-2.33625000e-01,-1.41843750e+00
-9.37812500e-09,-2.14812500e-01,-1.42531250e+00
-8.57812500e-09,-2.03562500e-01,-1.41757813e+00
-7.77812500e-09,-1.85750000e-01,-1.41187500e+00
-6.97812500e-09,-1.76406250e-01,-1.42296875e+00
-6.17812500e-09,-1.65531250e-01,-1.41976563e+00
-5.37812500e-09,-1.54437500e-01,-1.42203125e+00
-4.57812500e-09,-1.43843750e-01,-1.40687500e+00
-3.77812500e-09,-1.37875000e-01,-1.39703125e+00
-2.97812500e-09,-1.24937500e-01,-1.35468750e+00
-2.17812500e-09,-1.15625000e-01,-1.25679688e+00
-1.37812500e-09,-1.14875000e-01,-9.15390625e-01
-5.78125000e-10,-1.05875000e-01,-4.83828125e-01
2.21875000e-10,-1.00781250e-01,-2.43437500e-01
1.02187500e-09,-9.93125000e-02,-1.31796875e-01
1.82187500e-09,-8.85625000e-02,-7.75000000e-02
2.62187500e-09,-9.21250000e-02,-6.62500000e-02
3.42187500e-09,-8.17812500e-02,-4.58593750e-02
4.22187500e-09,-8.10625000e-02,-3.71093750e-02
5.02187500e-09,-7.15312500e-02,-4.40625000e-02
5.82187500e-09,-7.35312500e-02,-2.30468750e-02
6.62187500e-09,-6.40312500e-02,-3.37500000e-02
7.42187500e-09,-6.13437500e-02,-1.94531250e-02
8.22187500e-09,-5.28125000e-02,-3.04687500e-02
9.02187500e-09,-5.48125000e-02,-3.23437500e-02
9.82187500e-09,-4.90312500e-02,-2.32812500e-02
1.06218750e-08,-4.30000000e-02,-1.50781250e-02
1.14218750e-08,-4.04687500e-02,-2.06250000e-02
1.22218750e-08,-3.84062500e-02,-1.39062500e-02
1.30218750e-08,-3.77500000e-02,-1.89062500e-02
1.38218750e-08,-3.65625000e-02,-1.25781250e-02
1.46218750e-08,-3.41875000e-02,-1.48437500e-02
1.54218750e-08,-3.04062500e-02,-1.24218750e-02
1.62218750e-08,-3.09687500e-02,-5.46875000e-04
1.70218750e-08,-2.97187500e-02,0.00000000e+00
1.78218750e-08,-2.73125000e-02,-4.45312500e-03
1.86218750e-08,-2.46250000e-02,-1.32812500e-03
1.94218750e-08,-1.55625000e-02,7.18750000e-03
2.02218750e-08,-1.76875000e-02,-1.87500000e-03
2.10218750e-08,-1.78125000e-02,6.48437500e-03
2.18218750e-08,-2.06562500e-02,-4.60937500e-03
2.26218750e-08,-1.24687500e-02,2.18750000e-03
2.34218750e-08,-1.63437500e-02,-1.01562500e-03
2.42218750e-08,-1.19062500e-02,2.26562500e-03
2.50218750e-08,-1.18750000e-02,7.81250000e-03
2.58218750e-08,-7.28125000e-03,1.19531250e-02
2.66218750e-08,-1.54687500e-02,-3.90625000e-04
2.74218750e-08,-9.50000000e-03,1.50000000e-02
2.82218750e-08,-1.10625000e-02,1.26562500e-02
2.90218750e-08,-1.12500000e-03,1.53906250e-02
2.98218750e-08,-8.96875000e-03,1.40625000e-02
3.06218750e-08,-1.96875000e-03,1.27343750e-02
3.14218750e-08,-7.28125000e-03,2.42968750e-02
3.22218750e-08,-3.93750000e-03,2.18750000e-02
3.30218750e-08,-4.25000000e-03,2.96093750e-02
3.38218750e-08,-2.46875000e-03,3.38281250e-02
3.46218750e-08,-9.43750000e-03,4.46093750e-02
3.54218750e-08,1.56250000e-04,3.81250000e-02
3.62218750e-08,5.93750000e-04,3.52343750e-02
3.70218750e-08,-3.62500000e-03,2.92187500e-02
3.78218750e-08,5.93750000e-04,3.70312500e-02
3.86218750e-08,-1.00000000e-03,2.54687500e-02
3.94218750e-08,5.31250000e-04,3.62500000e-02
4.02218750e-08,-1.78125000e-03,3.24218750e-02
4.10218750e-08,-3.28125000e-03,2.65625000e-02
4.18218750e-08,-3.62500000e-03,2.92968750e-02
4.26218750e-08,-5.81250000e-03,3.10156250e-02
4.34218750e-08,3.12500000e-04,2.69531250e-02
4.42218750e-08,-1.84375000e-03,3.28906250e-02
4.50218750e-08,-2.06250000e-03,1.92968750e-02
4.58218750e-08,-1.03125000e-03,1.78125000e-02
4.66218750e-08,4.59375000e-03,2.62500000e-02
4.74218750e-08,-6.00000000e-03,2.85937500e-02
4.82218750e-08,3.62500000e-03,1.39843750e-02
4.90218750e-08,-4.09375000e-03,2.50000000e-02
4.98218750e-08,1.68750000e-03,2.24218750e-02
5.06218750e-08,-7.03125000e-03,1.74218750e-02
5.14218750e-08,3.09375000e-03,2.06250000e-02
5.22218750e-08,1.65625000e-03,2.71875000e-02
5.30218750e-08,1.81250000e-03,2.54687500e-02
5.38218750e-08,1.28125000e-03,1.57031250e-02
5.46218750e-08,3.37500000e-03,2.75781250e-02
5.54218750e-08,-4.43750000e-03,8.04687500e-03
5.62218750e-08,2.06250000e-03,1.33593750e-02
