muon_CSV/TriggerAuto_ALL_20231205193823428.csv

Model,MSO64B
Channel,CH1,,Channel,CH2
Label,,,Label,
Waveform Type,ANALOG,,Waveform Type,ANALOG
Horizontal Units,s,,Horizontal Units,s
Sample Interval,8.00000000e-10,,Sample Interval,8.00000000e-10
Record Length,5000,,Record Length,5000
Zero Index,349.30468750,,Zero Index,349.30468750
Vertical Units,V,,Vertical Units,V
,,,,
ANALOG_Thumbnail,,,ANALOG_Thumbnail,
yOffset,0.000000,,yOffset,0.000000
yPosition,2.160000,,yPosition,2.180000

Labels,,
TIME,CH1,CH2
-2.79443750e-07,6.53125000e-03,1.40625000e-02
-2.78643750e-07,9.31250000e-03,1.99218750e-02
-2.77843750e-07,8.09375000e-03,1.23437500e-02
-2.77043750e-07,3.81250000e-03,1.13281250e-02
-2.76243750e-07,1.84375000e-03,1.57812500e-02
-2.75443750e-07,9.68750000e-04,8.51562500e-03
-2.74643750e-07,4.43750000e-03,1.58593750e-02
-2.73843750e-07,1.71875000e-03,-1.56250000e-04
-2.73043750e-07,6.18750000e-03,9.68750000e-03
-2.72243750e-07,6.21875000e-03,1.19531250e-02
-2.71443750e-07,8.12500000e-03,1.20312500e-02
-2.70643750e-07,6.62500000e-03,1.07031250e-02
-2.69843750e-07,6.40625000e-03,1.65625000e-02
-2.69043750e-07,6.28125000e-03,1.87500000e-03
-2.68243750e-07,1.02812500e-02,1.36718750e-02
-2.67443750e-07,1.12500000e-03,1.05468750e-02
-2.66643750e-07,7.50000000e-03,2.27343750e-02
-2.65843750e-07,3.21875000e-03,1.67968750e-02
-2.65043750e-07,5.96875000e-03,1.05468750e-02
-2.64243750e-07,5.96875000e-03,8.51562500e-03
-2.63443750e-07,5.56250000e-03,7.50000000e-03
-2.62643750e-07,9.06250000e-03,1.99218750e-02
-2.61843750e-07,6.28125000e-03,1.03906250e-02
-2.61043750e-07,5.34375000e-03,1.19531250e-02
-2.60243750e-07,5.37500000e-03,1.25000000e-02
-2.59443750e-07,5.90625000e-03,1.05468750e-02
-2.58643750e-07,5.59375000e-03,8.04687500e-03
-2.57843750e-07,4.31250000e-03,9.37500000e-03
-2.57043750e-07,6.25000000e-03,2.00000000e-02
-2.56243750e-07,5.53125000e-03,1.42187500e-02
-2.55443750e-07,2.96875000e-03,7.89062500e-03
-2.54643750e-07,5.81250000e-03,2.03125000e-03
-2.53843750e-07,7.18750000e-03,8.98437500e-03
-2.53043750e-07,6.34375000e-03,1.99218750e-02
-2.52243750e-07,2.06250000e-03,5.78125000e-03
-2.51443750e-07,7.59375000e-03,1.21093750e-02
-2.50643750e-07,6.84375000e-03,8.51562500e-03
-2.49843750e-07,1.56250000e-03,1.00781250e-02
-2.49043750e-07,8.34375000e-03,5.93750000e-03
-2.48243750e-07,4.71875000e-03,8.12500000e-03
-2.47443750e-07,2.06250000e-03,9.29687500e-03
-2.46643750e-07,3.31250000e-03,7.81250000e-05
-2.45843750e-07,6.21875000e-03,3.67187500e-03
-2.45043750e-07,-5.31250000e-04,8.20312500e-03
-2.44243750e-07,8.25000000e-03,8.12500000e-03
-2.43443750e-07,6.46875000e-03,2.89062500e-03
-2.42643750e-07,8.09375000e-03,1.15625000e-02
-2.41843750e-07,-1.87500000e-04,6.71875000e-03
-2.41043750e-07,9.03125000e-03,1.03125000e-02
-2.40243750e-07,3.03125000e-03,1.33593750e-02
-2.39443750e-07,4.62500000e-03,1.26562500e-02
-2.38643750e-07,-1.00000000e-03,7.96875000e-03
-2.37843750e-07,6.78125000e-03,9.45312500e-03
-2.37043750e-07,3.37500000e-03,1.65625000e-02
-2.36243750e-07,4.37500000e-03,7.18750000e-03
-2.35443750e-07,-1.59375000e-03,1.27343750e-02
-2.34643750e-07,4.75000000e-03,5.15625000e-03
-2.33843750e-07,3.18750000e-03,8.20312500e-03
-2.33043750e-07,4.25000000e-03,6.64062500e-03
-2.32243750e-07,1.15625000e-03,5.54687500e-03
-2.31443750e-07,7.96875000e-03,1.40625000e-02
-2.30643750e-07,8.06250000e-03,3.98437500e-03
-2.29843750e-07,3.81250000e-03,8.35937500e-03
-2.29043750e-07,5.68750000e-03,1.53906250e-02
-2.28243750e-07,4.31250000e-03,1.38281250e-02
-2.27443750e-07,6.84375000e-03,5.31250000e-03
-2.26643750e-07,5.18750000e-03,1.28125000e-02
-2.25843750e-07,3.93750000e-03,1.18750000e-02
-2.25043750e-07,6.37500000e-03,8.04687500e-03
-2.24243750e-07,3.90625000e-03,1.20312500e-02
-2.23443750e-07,9.96875000e-03,1.71875000e-02
-2.22643750e-07,5.68750000e-03,1.03906250e-02
-2.21843750e-07,4.53125000e-03,7.96875000e-03
-2.21043750e-07,4.15625000e-03,7.26562500e-03
-2.20243750e-07,6.34375000e-03,5.46875000e-03
-2.19443750e-07,1.68750000e-03,1.21093750e-02
-2.18643750e-07,5.96875000e-03,6.64062500e-03
-2.17843750e-07,2.78125000e-03,1.41406250e-02
-2.17043750e-07,8.93750000e-03,1.05468750e-02
-2.16243750e-07,2.00000000e-03,6.79687500e-03
-2.15443750e-07,8.09375000e-03,1.40625000e-02
-2.14643750e-07,6.21875000e-03,1.17968750e-02
-2.13843750e-07,5.09375000e-03,1.25781250e-02
-2.13043750e-07,1.03125000e-03,4.53125000e-03
-2.12243750e-07,4.53125000e-03,2.96875000e-03
-2.11443750e-07,3.18750000e-03,2.07812500e-02
-2.10643750e-07,5.06250000e-03,5.70312500e-03
-2.09843750e-07,5.03125000e-03,1.75000000e-02
-2.09043750e-07,2.53125000e-03,8.90625000e-03
-2.08243750e-07,5.37500000e-03,4.21875000e-03
-2.07443750e-07,8.81250000e-03,8.75000000e-03
-2.06643750e-07,1.96875000e-03,1.00781250e-02
-2.05843750e-07,4.96875000e-03,1.98437500e-02
-2.05043750e-07,9.28125000e-03,1.09375000e-03
-2.04243750e-07,2.84375000e-03,9.68750000e-03
-2.03443750e-07,6.71875000e-03,1.32031250e-02
-2.02643750e-07,7.34375000e-03,2.73437500e-03
-2.01843750e-07,6.71875000e-03,1.42968750e-02
-2.01043750e-07,2.75000000e-03,1.11718750e-02
-2.00243750e-07,4.34375000e-03,1.53906250e-02
-1.99443750e-07,5.15625000e-03,1.64062500e-02
-1.98643750e-07,3.50000000e-03,1.43750000e-02
-1.97843750e-07,6.50000000e-03,4.68750000e-04
-1.97043750e-07,1.00000000e-03,5.70312500e-03
-1.96243750e-07,7.00000000e-03,9.37500000e-03
-1.95443750e-07,2.53125000e-03,1.28125000e-02
-1.94643750e-07,7.50000000e-03,1.57812500e-02
-1.93843750e-07,1.15625000e-03,4.60937500e-03
-1.93043750e-07,9.31250000e-03,1.67187500e-02
-1.92243750e-07,4.68750000e-03,5.46875000e-04
-1.91443750e-07,6.15625000e-03,1.62500000e-02
-1.90643750e-07,1.90625000e-03,1.17187500e-02
-1.89843750e-07,6.31250000e-03,6.71875000e-03
-1.89043750e-07,4.59375000e-03,9.45312500e-03
-1.88243750e-07,6.96875000e-03,2.25781250e-02
-1.87443750e-07,3.78125000e-03,5.62500000e-03
-1.86643750e-07,6.40625000e-03,5.54687500e-03
-1.85843750e-07,2.81250000e-03,1.32812500e-02
-1.85043750e-07,9.93750000e-03,1.05468750e-02
-1.84243750e-07,3.75000000e-04,9.92187500e-03
-1.83443750e-07,9.21875000e-03,5.93750000e-03
-1.82643750e-07,5.59375000e-03,6.09375000e-03
-1.81843750e-07,7.03125000e-03,9.53125000e-03
-1.81043750e-07,-1.06250000e-03,1.32812500e-02
-1.80243750e-07,4.37500000e-03,1.25000000e-02
-1.79443750e-07,9.84375000e-03,-1.40625000e-03
-1.78643750e-07,6.62500000e-03,3.75000000e-03
-1.77843750e-07,6.09375000e-03,6.09375000e-03
-1.77043750e-07,4.78125000e-03,5.62500000e-03
-1.76243750e-07,4.31250000e-03,9.45312500e-03
-1.75443750e-07,3.18750000e-03,1.56250000e-03
-1.74643750e-07,2.31250000e-03,1.50781250e-02
-1.73843750e-07,6.03125000e-03,1.58593750e-02
-1.73043750e-07,5.43750000e-03,8.59375000e-03
-1.72243750e-07,7.28125000e-03,8.67187500e-03
-1.71443750e-07,6.40625000e-03,1.06250000e-02
-1.70643750e-07,6.59375000e-03,2.03125000e-03
-1.69843750e-07,4.03125000e-03,6.32812500e-03
-1.69043750e-07,4.53125000e-03,1.00000000e-02
-1.68243750e-07,4.78125000e-03,3.51562500e-03
-1.67443750e-07,8.78125000e-03,1.21875000e-02
-1.66643750e-07,5.12500000e-03,2.10937500e-03
-1.65843750e-07,1.03750000e-02,1.62500000e-02
-1.65043750e-07,3.53125000e-03,4.45312500e-03
-1.64243750e-07,6.46875000e-03,6.95312500e-03
-1.63443750e-07,1.71875000e-03,4.76562500e-03
-1.62643750e-07,2.03125000e-03,8.43750000e-03
-1.61843750e-07,2.40625000e-03,1.81250000e-02
-1.61043750e-07,8.40625000e-03,1.78125000e-02
-1.60243750e-07,2.68750000e-03,1.64062500e-02
-1.59443750e-07,1.12187500e-02,7.18750000e-03
-1.58643750e-07,3.50000000e-03,1.07031250e-02
-1.57843750e-07,8.12500000e-04,1.12500000e-02
-1.57043750e-07,3.62500000e-03,7.89062500e-03
-1.56243750e-07,6.34375000e-03,4.14062500e-03
-1.55443750e-07,4.71875000e-03,1.61718750e-02
-1.54643750e-07,4.25000000e-03,1.37500000e-02
-1.53843750e-07,9.40625000e-03,4.68750000e-03
-1.53043750e-07,5.12500000e-03,1.60937500e-02
-1.52243750e-07,3.87500000e-03,1.17187500e-02
-1.51443750e-07,6.53125000e-03,6.64062500e-03
-1.50643750e-07,8.03125000e-03,6.71875000e-03
-1.49843750e-07,4.09375000e-03,1.40625000e-02
-1.49043750e-07,5.84375000e-03,7.81250000e-03
-1.48243750e-07,5.62500000e-03,5.54687500e-03
-1.47443750e-07,2.90625000e-03,1.66406250e-02
-1.46643750e-07,6.31250000e-03,5.15625000e-03
-1.45843750e-07,8.75000000e-04,1.08593750e-02
-1.45043750e-07,4.40625000e-03,7.26562500e-03
-1.44243750e-07,2.65625000e-03,8.20312500e-03
-1.43443750e-07,8.06250000e-03,1.92968750e-02
-1.42643750e-07,2.46875000e-03,1.03125000e-02
-1.41843750e-07,8.71875000e-03,6.56250000e-03
-1.41043750e-07,3.59375000e-03,3.35937500e-03
-1.40243750e-07,6.00000000e-03,1.27343750e-02
-1.39443750e-07,2.37500000e-03,8.51562500e-03
-1.38643750e-07,5.53125000e-03,9.37500000e-03
-1.37843750e-07,4.59375000e-03,9.21875000e-03
-1.37043750e-07,6.43750000e-03,6.71875000e-03
-1.36243750e-07,2.71875000e-03,4.14062500e-03
-1.35443750e-07,7.93750000e-03,8.98437500e-03
-1.34643750e-07,4.65625000e-03,1.46875000e-02
-1.33843750e-07,6.28125000e-03,5.39062500e-03
-1.33043750e-07,2.50000000e-03,1.56250000e-02
-1.32243750e-07,1.87500000e-03,1.12500000e-02
-1.31443750e-07,5.81250000e-03,6.25000000e-03
-1.30643750e-07,5.62500000e-03,9.68750000e-03
-1.29843750e-07,6.00000000e-03,8.98437500e-03
-1.29043750e-07,6.09375000e-03,1.63281250e-02
-1.28243750e-07,4.31250000e-03,9.53125000e-03
-1.27443750e-07,4.87500000e-03,9.21875000e-03
-1.26643750e-07,6.00000000e-03,2.03906250e-02
-1.25843750e-07,4.96875000e-03,8.82812500e-03
-1.25043750e-07,4.15625000e-03,1.13281250e-02
-1.24243750e-07,3.68750000e-03,1.03906250e-02
-1.23443750e-07,5.12500000e-03,6.71875000e-03
-1.22643750e-07,6.50000000e-03,1.66406250e-02
-1.21843750e-07,3.12500000e-03,-2.03125000e-03
-1.21043750e-07,5.25000000e-03,1.25781250e-02
-1.20243750e-07,2.71875000e-03,1.07031250e-02
-1.19443750e-07,8.46875000e-03,1.35937500e-02
-1.18643750e-07,1.68750000e-03,2.89062500e-03
-1.17843750e-07,7.00000000e-03,7.96875000e-03
-1.17043750e-07,1.96875000e-03,8.43750000e-03
-1.16243750e-07,7.53125000e-03,9.29687500e-03
-1.15443750e-07,2.21875000e-03,5.23437500e-03
-1.14643750e-07,7.78125000e-03,1.15625000e-02
-1.13843750e-07,9.06250000e-04,1.78906250e-02
-1.13043750e-07,1.14375000e-02,1.65625000e-02
-1.12243750e-07,1.46875000e-03,1.45312500e-02
-1.11443750e-07,2.68750000e-03,1.33593750e-02
-1.10643750e-07,2.00000000e-03,1.00000000e-02
-1.09843750e-07,8.00000000e-03,7.03125000e-03
-1.09043750e-07,4.71875000e-03,1.03125000e-02
-1.08243750e-07,5.59375000e-03,7.89062500e-03
-1.07443750e-07,-1.03125000e-03,1.19531250e-02
-1.06643750e-07,6.53125000e-03,1.72656250e-02
-1.05843750e-07,2.34375000e-03,1.71093750e-02
-1.05043750e-07,6.43750000e-03,8.67187500e-03
-1.04243750e-07,3.75000000e-04,1.61718750e-02
-1.03443750e-07,3.78125000e-03,1.00781250e-02
-1.02643750e-07,6.25000000e-03,1.50781250e-02
-1.01843750e-07,6.15625000e-03,1.88281250e-02
-1.01043750e-07,6.03125000e-03,8.90625000e-03
-1.00243750e-07,6.18750000e-03,9.37500000e-03
-9.94437500e-08,7.96875000e-03,1.46093750e-02
-9.86437500e-08,5.25000000e-03,1.52343750e-02
-9.78437500e-08,4.68750000e-03,1.32812500e-02
-9.70437500e-08,4.56250000e-03,9.45312500e-03
-9.62437500e-08,2.96875000e-03,1.03125000e-02
-9.54437500e-08,3.90625000e-03,1.17968750e-02
-9.46437500e-08,1.56250000e-03,1.77343750e-02
-9.38437500e-08,7.31250000e-03,1.35937500e-02
-9.30437500e-08,1.93750000e-03,7.81250000e-03
-9.22437500e-08,7.28125000e-03,3.51562500e-03
-9.14437500e-08,6.68750000e-03,1.16406250e-02
-9.06437500e-08,5.84375000e-03,8.20312500e-03
-8.98437500e-08,3.12500000e-03,9.76562500e-03
-8.90437500e-08,7.00000000e-03,1.28906250e-02
-8.82437500e-08,2.50000000e-03,1.02343750e-02
-8.74437500e-08,8.68750000e-03,1.42968750e-02
-8.66437500e-08,3.90625000e-03,1.74218750e-02
-8.58437500e-08,8.56250000e-03,8.75000000e-03
-8.50437500e-08,1.03125000e-03,1.17187500e-02
-8.42437500e-08,5.00000000e-03,1.61718750e-02
-8.34437500e-08,3.31250000e-03,1.35156250e-02
-8.26437500e-08,7.75000000e-03,1.09375000e-02
-8.18437500e-08,9.37500000e-05,1.43750000e-02
-8.10437500e-08,4.68750000e-03,1.55468750e-02
-8.02437500e-08,1.01562500e-02,1.29687500e-02
-7.94437500e-08,7.53125000e-03,2.21093750e-02
-7.86437500e-08,4.93750000e-03,5.39062500e-03
-7.78437500e-08,1.93750000e-03,2.04687500e-02
-7.70437500e-08,1.23750000e-02,1.58593750e-02
-7.62437500e-08,2.46875000e-03,2.46875000e-02
-7.54437500e-08,-2.84375000e-03,8.28125000e-03
-7.46437500e-08,5.93750000e-03,8.90625000e-03
-7.38437500e-08,6.34375000e-03,1.26562500e-02
-7.30437500e-08,6.56250000e-03,1.54687500e-02
-7.22437500e-08,8.40625000e-03,1.90625000e-02
-7.14437500e-08,7.96875000e-03,1.76562500e-02
-7.06437500e-08,4.59375000e-03,1.60937500e-02
-6.98437500e-08,1.00625000e-02,6.32812500e-03
-6.90437500e-08,1.46875000e-03,1.56250000e-02
-6.82437500e-08,7.00000000e-03,8.04687500e-03
-6.74437500e-08,2.78125000e-03,9.53125000e-03
-6.66437500e-08,1.03437500e-02,1.79687500e-02
-6.58437500e-08,3.43750000e-03,6.25000000e-03
-6.50437500e-08,8.62500000e-03,1.18750000e-02
-6.42437500e-08,6.18750000e-03,8.35937500e-03
-6.34437500e-08,6.28125000e-03,1.05468750e-02
-6.26437500e-08,2.46875000e-03,3.20312500e-03
-6.18437500e-08,1.02500000e-02,1.27343750e-02
-6.10437500e-08,4.53125000e-03,2.21875000e-02
-6.02437500e-08,5.12500000e-03,-3.16562500e-01
-5.94437500e-08,3.28125000e-03,-8.98828125e-01
-5.86437500e-08,8.84375000e-03,-1.25476563e+00
-5.78437500e-08,2.59375000e-03,-1.32992188e+00
-5.70437500e-08,1.10937500e-02,-1.40117188e+00
-5.62437500e-08,3.00000000e-03,-1.39437500e+00
-5.54437500e-08,9.34375000e-03,-1.37632813e+00
-5.46437500e-08,7.75000000e-03,-1.32914062e+00
-5.38437500e-08,8.68750000e-03,-1.38109375e+00
-5.30437500e-08,5.53125000e-03,-1.39335938e+00
-5.22437500e-08,7.15625000e-03,-1.41015625e+00
-5.14437500e-08,1.08437500e-02,-1.41703125e+00
-5.06437500e-08,6.15625000e-03,-1.40343750e+00
-4.98437500e-08,9.84375000e-03,-1.40343750e+00
-4.90437500e-08,2.84375000e-03,-1.42640625e+00
-4.82437500e-08,3.93750000e-03,-1.41390625e+00
-4.74437500e-08,4.84375000e-03,-1.40812500e+00
-4.66437500e-08,3.00000000e-03,-1.41757813e+00
-4.58437500e-08,8.09375000e-03,-1.41054688e+00
-4.50437500e-08,2.90625000e-03,-1.42117188e+00
-4.42437500e-08,5.40625000e-03,-1.41070313e+00
-4.34437500e-08,1.31250000e-03,-1.43414063e+00
-4.26437500e-08,4.15625000e-03,-1.42570313e+00
-4.18437500e-08,6.00000000e-03,-1.42554688e+00
-4.10437500e-08,9.62500000e-03,-1.42382812e+00
-4.02437500e-08,1.59375000e-03,-1.42609375e+00
-3.94437500e-08,6.71875000e-03,-1.42312500e+00
-3.86437500e-08,5.25000000e-03,-1.42867188e+00
-3.78437500e-08,2.84375000e-03,-1.41765625e+00
-3.70437500e-08,2.81250000e-04,-1.42046875e+00
-3.62437500e-08,1.07500000e-02,-1.41882813e+00
-3.54437500e-08,1.37500000e-03,-1.42476563e+00
-3.46437500e-08,2.59375000e-03,-1.42367188e+00
-3.38437500e-08,-5.71875000e-03,-1.42625000e+00
-3.30437500e-08,-1.34687500e-02,-1.43437500e+00
-3.22437500e-08,-4.40625000e-02,-1.42000000e+00
-3.14437500e-08,-8.41250000e-02,-1.42687500e+00
-3.06437500e-08,-1.47531250e-01,-1.42945313e+00
-2.98437500e-08,-2.24312500e-01,-1.42000000e+00
-2.90437500e-08,-3.07718750e-01,-1.42718750e+00
-2.82437500e-08,-3.91562500e-01,-1.42593750e+00
-2.74437500e-08,-4.73281250e-01,-1.41914063e+00
-2.66437500e-08,-5.36562500e-01,-1.41250000e+00
-2.58437500e-08,-5.92843750e-01,-1.41312500e+00
-2.50437500e-08,-6.45375000e-01,-1.41296875e+00
-2.42437500e-08,-6.80937500e-01,-1.40828125e+00
-2.34437500e-08,-7.10000000e-01,-1.41367188e+00
-2.26437500e-08,-7.24500000e-01,-1.41531250e+00
-2.18437500e-08,-7.39406250e-01,-1.41796875e+00
-2.10437500e-08,-7.37281250e-01,-1.42296875e+00
-2.02437500e-08,-7.36250000e-01,-1.42007813e+00
-1.94437500e-08,-7.23406250e-01,-1.42132813e+00
-1.86437500e-08,-7.05093750e-01,-1.42242188e+00
-1.78437500e-08,-6.87031250e-01,-1.42289062e+00
-1.70437500e-08,-6.53906250e-01,-1.41679688e+00
-1.62437500e-08,-6.22968750e-01,-1.41289063e+00
-1.54437500e-08,-5.91843750e-01,-1.41234375e+00
-1.46437500e-08,-5.63687500e-01,-1.42281250e+00
-1.38437500e-08,-5.26218750e-01,-1.42109375e+00
-1.30437500e-08,-4.95656250e-01,-1.41718750e+00
-1.22437500e-08,-4.69312500e-01,-1.41914063e+00
-1.14437500e-08,-4.46500000e-01,-1.42359375e+00
-1.06437500e-08,-4.14000000e-01,-1.42601563e+00
-9.84375000e-09,-3.90500000e-01,-1.42101563e+00
-9.04375000e-09,-3.66000000e-01,-1.40992188e+00
-8.24375000e-09,-3.43343750e-01,-1.42593750e+00
-7.44375000e-09,-3.20531250e-01,-1.42921875e+00
-6.64375000e-09,-2.97562500e-01,-1.42367188e+00
-5.84375000e-09,-2.83187500e-01,-1.41289063e+00
-5.04375000e-09,-2.71312500e-01,-1.43000000e+00
-4.24375000e-09,-2.51218750e-01,-1.42210938e+00
-3.44375000e-09,-2.38375000e-01,-1.39187500e+00
-2.64375000e-09,-2.23718750e-01,-1.33335938e+00
-1.84375000e-09,-2.11718750e-01,-1.15031250e+00
-1.04375000e-09,-2.00250000e-01,-7.48125000e-01
-2.43750000e-10,-1.89750000e-01,-3.58437500e-01
5.56250000e-10,-1.79093750e-01,-1.97187500e-01
1.35625000e-09,-1.72437500e-01,-1.15078125e-01
2.15625000e-09,-1.59062500e-01,-7.66406250e-02
2.95625000e-09,-1.51062500e-01,-5.26562500e-02
3.75625000e-09,-1.42031250e-01,-4.30468750e-02
4.55625000e-09,-1.36250000e-01,-4.42187500e-02
5.35625000e-09,-1.29625000e-01,-3.89843750e-02
6.15625000e-09,-1.23812500e-01,-4.23437500e-02
6.95625000e-09,-1.12593750e-01,-4.42187500e-02
7.75625000e-09,-1.13562500e-01,-3.94531250e-02
8.55625000e-09,-1.04468750e-01,-3.00000000e-02
9.35625000e-09,-9.90937500e-02,-3.05468750e-02
1.01562500e-08,-9.21562500e-02,-2.99218750e-02
1.09562500e-08,-9.70000000e-02,-1.68750000e-02
1.17562500e-08,-8.36562500e-02,-1.99218750e-02
1.25562500e-08,-7.85000000e-02,-2.65625000e-03
1.33562500e-08,-7.37187500e-02,-1.13281250e-02
1.41562500e-08,-7.14687500e-02,-8.90625000e-03
1.49562500e-08,-6.65312500e-02,-5.93750000e-03
1.57562500e-08,-6.18437500e-02,-1.75781250e-02
1.65562500e-08,-5.63437500e-02,-3.98437500e-03
1.73562500e-08,-5.48437500e-02,-1.07812500e-02
1.81562500e-08,-5.05000000e-02,-4.21875000e-03
1.89562500e-08,-4.55625000e-02,-4.21875000e-03
1.97562500e-08,-3.92500000e-02,5.39062500e-03
2.05562500e-08,-4.74062500e-02,-6.25000000e-04
2.13562500e-08,-3.60312500e-02,-5.31250000e-03
2.21562500e-08,-3.47500000e-02,6.40625000e-03
2.29562500e-08,-3.55000000e-02,-1.56250000e-04
2.37562500e-08,-3.89687500e-02,9.14062500e-03
2.45562500e-08,-3.11875000e-02,1.03125000e-02
2.53562500e-08,-3.19062500e-02,3.51562500e-03
2.61562500e-08,-2.80625000e-02,1.05468750e-02
2.69562500e-08,-2.66250000e-02,1.48437500e-03
2.77562500e-08,-2.86250000e-02,8.75000000e-03
2.85562500e-08,-2.74375000e-02,1.28125000e-02
2.93562500e-08,-2.71875000e-02,1.04687500e-02
3.01562500e-08,-2.47812500e-02,8.43750000e-03
3.09562500e-08,-2.24375000e-02,2.40625000e-02
3.17562500e-08,-2.69062500e-02,1.86718750e-02
3.25562500e-08,-1.81250000e-02,2.73437500e-02
3.33562500e-08,-2.15625000e-02,2.92968750e-02
3.41562500e-08,-1.60000000e-02,3.37500000e-02
3.49562500e-08,-1.96562500e-02,2.85937500e-02
3.57562500e-08,-1.51875000e-02,3.52343750e-02
3.65562500e-08,-2.19687500e-02,3.39062500e-02
3.73562500e-08,-1.20000000e-02,2.00781250e-02
3.81562500e-08,-1.38437500e-02,3.53906250e-02
3.89562500e-08,-1.46562500e-02,2.48437500e-02
3.97562500e-08,-1.25000000e-02,3.24218750e-02
4.05562500e-08,-6.65625000e-03,2.71875000e-02
4.13562500e-08,-1.14375000e-02,2.21093750e-02
4.21562500e-08,-6.25000000e-03,2.53125000e-02
4.29562500e-08,-1.25937500e-02,1.66406250e-02
4.37562500e-08,-8.00000000e-03,2.86718750e-02
4.45562500e-08,-8.81250000e-03,1.30468750e-02
4.53562500e-08,-1.45312500e-02,2.21875000e-02
4.61562500e-08,-7.71875000e-03,1.90625000e-02
4.69562500e-08,-6.50000000e-03,2.85156250e-02
4.77562500e-08,-3.46875000e-03,2.32812500e-02
4.85562500e-08,-4.59375000e-03,2.09375000e-02
4.93562500e-08,-1.20000000e-02,2.07031250e-02
5.01562500e-08,-2.62500000e-03,2.08593750e-02
5.09562500e-08,-4.43750000e-03,2.05468750e-02
5.17562500e-08,-7.00000000e-03,1.40625000e-02
5.25562500e-08,-2.28125000e-03,2.19531250e-02
5.33562500e-08,-5.00000000e-03,1.46093750e-02
5.41562500e-08,-4.96875000e-03,2.65625000e-02
5.49562500e-08,-5.50000000e-03,1.95312500e-02
5.57562500e-08,-4.68750000e-03,1.70312500e-02
5.65562500e-08,-3.43750000e-03,1.24218750e-02
