muon_CSV/TriggerAuto_ALL_20231205194021240.csv

Model,MSO64B
Channel,CH1,,Channel,CH2
Label,,,Label,
Waveform Type,ANALOG,,Waveform Type,ANALOG
Horizontal Units,s,,Horizontal Units,s
Sample Interval,8.00000000e-10,,Sample Interval,8.00000000e-10
Record Length,5000,,Record Length,5000
Zero Index,349.56250000,,Zero Index,349.56250000
Vertical Units,V,,Vertical Units,V
,,,,
ANALOG_Thumbnail,,,ANALOG_Thumbnail,
yOffset,0.000000,,yOffset,0.000000
yPosition,2.160000,,yPosition,2.180000

Labels,,
TIME,CH1,CH2
-2.79650000e-07,8.25000000e-03,5.23437500e-03
-2.78850000e-07,1.07812500e-02,3.59375000e-03
-2.78050000e-07,4.75000000e-03,1.49218750e-02
-2.77250000e-07,7.71875000e-03,1.38281250e-02
-2.76450000e-07,8.28125000e-03,1.34375000e-02
-2.75650000e-07,1.14062500e-02,2.37500000e-02
-2.74850000e-07,9.40625000e-03,1.15625000e-02
-2.74050000e-07,1.19062500e-02,9.92187500e-03
-2.73250000e-07,8.03125000e-03,7.18750000e-03
-2.72450000e-07,5.12500000e-03,8.75000000e-03
-2.71650000e-07,1.19062500e-02,7.42187500e-03
-2.70850000e-07,8.00000000e-03,1.94531250e-02
-2.70050000e-07,8.12500000e-03,1.89062500e-02
-2.69250000e-07,8.56250000e-03,7.89062500e-03
-2.68450000e-07,1.30312500e-02,1.46875000e-02
-2.67650000e-07,5.03125000e-03,1.71875000e-02
-2.66850000e-07,9.87500000e-03,1.77343750e-02
-2.66050000e-07,8.12500000e-03,1.64843750e-02
-2.65250000e-07,1.37812500e-02,2.49218750e-02
-2.64450000e-07,7.53125000e-03,1.41406250e-02
-2.63650000e-07,9.28125000e-03,2.30468750e-02
-2.62850000e-07,7.37500000e-03,1.67187500e-02
-2.62050000e-07,5.43750000e-03,1.89843750e-02
-2.61250000e-07,4.59375000e-03,8.82812500e-03
-2.60450000e-07,1.17812500e-02,1.79687500e-02
-2.59650000e-07,7.93750000e-03,2.14843750e-02
-2.58850000e-07,1.06562500e-02,1.29687500e-02
-2.58050000e-07,7.06250000e-03,2.10156250e-02
-2.57250000e-07,6.43750000e-03,2.20312500e-02
-2.56450000e-07,1.06562500e-02,1.14843750e-02
-2.55650000e-07,1.13437500e-02,1.51562500e-02
-2.54850000e-07,2.25000000e-03,1.41406250e-02
-2.54050000e-07,4.53125000e-03,1.37500000e-02
-2.53250000e-07,9.25000000e-03,7.57812500e-03
-2.52450000e-07,5.68750000e-03,9.37500000e-03
-2.51650000e-07,6.68750000e-03,1.64062500e-02
-2.50850000e-07,5.18750000e-03,7.26562500e-03
-2.50050000e-07,8.18750000e-03,2.52343750e-02
-2.49250000e-07,8.00000000e-03,1.34375000e-02
-2.48450000e-07,9.03125000e-03,1.98437500e-02
-2.47650000e-07,1.29062500e-02,1.67187500e-02
-2.46850000e-07,5.25000000e-03,1.03125000e-02
-2.46050000e-07,1.43125000e-02,7.18750000e-03
-2.45250000e-07,5.62500000e-03,1.65625000e-02
-2.44450000e-07,6.90625000e-03,1.42187500e-02
-2.43650000e-07,6.59375000e-03,1.31250000e-02
-2.42850000e-07,9.12500000e-03,1.10156250e-02
-2.42050000e-07,3.06250000e-03,1.39062500e-02
-2.41250000e-07,9.71875000e-03,1.63281250e-02
-2.40450000e-07,8.28125000e-03,8.43750000e-03
-2.39650000e-07,7.53125000e-03,1.98437500e-02
-2.38850000e-07,3.62500000e-03,1.02343750e-02
-2.38050000e-07,7.46875000e-03,1.39062500e-02
-2.37250000e-07,4.09375000e-03,1.24218750e-02
-2.36450000e-07,5.34375000e-03,1.90625000e-02
-2.35650000e-07,3.50000000e-03,1.02343750e-02
-2.34850000e-07,9.50000000e-03,1.39062500e-02
-2.34050000e-07,8.65625000e-03,1.23437500e-02
-2.33250000e-07,9.68750000e-03,1.45312500e-02
-2.32450000e-07,2.40625000e-03,1.76562500e-02
-2.31650000e-07,5.81250000e-03,1.23437500e-02
-2.30850000e-07,8.53125000e-03,1.70312500e-02
-2.30050000e-07,1.04687500e-02,1.29687500e-02
-2.29250000e-07,1.56250000e-03,7.10937500e-03
-2.28450000e-07,7.65625000e-03,1.66406250e-02
-2.27650000e-07,1.28750000e-02,1.28906250e-02
-2.26850000e-07,8.25000000e-03,1.06250000e-02
-2.26050000e-07,5.71875000e-03,2.03125000e-02
-2.25250000e-07,7.28125000e-03,-3.12500000e-04
-2.24450000e-07,1.30937500e-02,1.42968750e-02
-2.23650000e-07,1.05312500e-02,2.16406250e-02
-2.22850000e-07,9.43750000e-03,2.01562500e-02
-2.22050000e-07,7.34375000e-03,3.67187500e-03
-2.21250000e-07,6.71875000e-03,1.60156250e-02
-2.20450000e-07,9.12500000e-03,1.29687500e-02
-2.19650000e-07,8.56250000e-03,1.59375000e-02
-2.18850000e-07,1.16875000e-02,1.69531250e-02
-2.18050000e-07,7.31250000e-03,1.83593750e-02
-2.17250000e-07,9.84375000e-03,1.28906250e-02
-2.16450000e-07,5.18750000e-03,1.25000000e-02
-2.15650000e-07,8.96875000e-03,1.42968750e-02
-2.14850000e-07,8.78125000e-03,9.84375000e-03
-2.14050000e-07,1.15937500e-02,1.90625000e-02
-2.13250000e-07,1.93750000e-03,1.03125000e-02
-2.12450000e-07,1.07500000e-02,1.98437500e-02
-2.11650000e-07,5.31250000e-03,1.02343750e-02
-2.10850000e-07,1.08125000e-02,2.05468750e-02
-2.10050000e-07,8.71875000e-03,1.67187500e-02
-2.09250000e-07,9.21875000e-03,1.43750000e-02
-2.08450000e-07,7.25000000e-03,1.62500000e-02
-2.07650000e-07,8.12500000e-03,6.40625000e-03
-2.06850000e-07,5.40625000e-03,2.18750000e-02
-2.06050000e-07,6.15625000e-03,1.07812500e-02
-2.05250000e-07,1.03125000e-02,1.12500000e-02
-2.04450000e-07,1.59375000e-02,1.31250000e-02
-2.03650000e-07,4.78125000e-03,1.71093750e-02
-2.02850000e-07,7.34375000e-03,2.02343750e-02
-2.02050000e-07,9.93750000e-03,1.01562500e-02
-2.01250000e-07,8.03125000e-03,9.84375000e-03
-2.00450000e-07,7.37500000e-03,1.38281250e-02
-1.99650000e-07,9.46875000e-03,1.11718750e-02
-1.98850000e-07,9.71875000e-03,1.85156250e-02
-1.98050000e-07,8.78125000e-03,2.01562500e-02
-1.97250000e-07,8.68750000e-03,1.35156250e-02
-1.96450000e-07,6.50000000e-03,9.68750000e-03
-1.95650000e-07,3.84375000e-03,9.21875000e-03
-1.94850000e-07,1.05937500e-02,9.21875000e-03
-1.94050000e-07,6.75000000e-03,1.72656250e-02
-1.93250000e-07,9.00000000e-03,1.62500000e-02
-1.92450000e-07,1.06250000e-02,9.84375000e-03
-1.91650000e-07,8.78125000e-03,2.44531250e-02
-1.90850000e-07,1.62500000e-03,7.42187500e-03
-1.90050000e-07,1.04687500e-02,1.80468750e-02
-1.89250000e-07,9.25000000e-03,1.14843750e-02
-1.88450000e-07,1.27500000e-02,1.20312500e-02
-1.87650000e-07,4.53125000e-03,2.03125000e-02
-1.86850000e-07,1.17187500e-02,1.35937500e-02
-1.86050000e-07,7.12500000e-03,1.89843750e-02
-1.85250000e-07,9.21875000e-03,7.57812500e-03
-1.84450000e-07,5.65625000e-03,6.64062500e-03
-1.83650000e-07,9.21875000e-03,1.79687500e-02
-1.82850000e-07,4.62500000e-03,2.21093750e-02
-1.82050000e-07,1.06875000e-02,6.95312500e-03
-1.81250000e-07,3.56250000e-03,1.25781250e-02
-1.80450000e-07,4.71875000e-03,1.50781250e-02
-1.79650000e-07,7.75000000e-03,9.76562500e-03
-1.78850000e-07,9.93750000e-03,1.26562500e-02
-1.78050000e-07,2.40625000e-03,1.82812500e-02
-1.77250000e-07,6.93750000e-03,1.03906250e-02
-1.76450000e-07,8.06250000e-03,1.77343750e-02
-1.75650000e-07,6.34375000e-03,1.02343750e-02
-1.74850000e-07,6.06250000e-03,8.51562500e-03
-1.74050000e-07,8.06250000e-03,7.03125000e-04
-1.73250000e-07,1.13750000e-02,2.07812500e-02
-1.72450000e-07,8.50000000e-03,1.08593750e-02
-1.71650000e-07,8.75000000e-03,1.52343750e-02
-1.70850000e-07,8.84375000e-03,7.65625000e-03
-1.70050000e-07,1.06250000e-02,1.20312500e-02
-1.69250000e-07,7.78125000e-03,3.20312500e-03
-1.68450000e-07,6.46875000e-03,1.55468750e-02
-1.67650000e-07,8.18750000e-03,1.49218750e-02
-1.66850000e-07,6.25000000e-03,7.96875000e-03
-1.66050000e-07,9.96875000e-03,1.32031250e-02
-1.65250000e-07,-3.12500000e-04,8.59375000e-03
-1.64450000e-07,1.09687500e-02,1.12500000e-02
-1.63650000e-07,1.10625000e-02,5.31250000e-03
-1.62850000e-07,1.19375000e-02,1.07031250e-02
-1.62050000e-07,7.09375000e-03,1.26562500e-02
-1.61250000e-07,1.30937500e-02,1.91406250e-02
-1.60450000e-07,6.09375000e-03,7.73437500e-03
-1.59650000e-07,1.05000000e-02,1.66406250e-02
-1.58850000e-07,3.75000000e-03,5.00000000e-03
-1.58050000e-07,1.15312500e-02,1.41406250e-02
-1.57250000e-07,6.25000000e-03,1.35937500e-02
-1.56450000e-07,8.78125000e-03,6.64062500e-03
-1.55650000e-07,5.03125000e-03,1.78906250e-02
-1.54850000e-07,7.56250000e-03,5.07812500e-03
-1.54050000e-07,1.00937500e-02,1.74218750e-02
-1.53250000e-07,1.25312500e-02,5.62500000e-03
-1.52450000e-07,3.56250000e-03,1.07812500e-02
-1.51650000e-07,8.53125000e-03,9.14062500e-03
-1.50850000e-07,1.00312500e-02,1.48437500e-03
-1.50050000e-07,6.00000000e-03,2.28125000e-02
-1.49250000e-07,7.06250000e-03,1.21875000e-02
-1.48450000e-07,4.75000000e-03,5.46875000e-03
-1.47650000e-07,1.27187500e-02,2.20312500e-02
-1.46850000e-07,8.78125000e-03,1.61718750e-02
-1.46050000e-07,7.84375000e-03,1.91406250e-02
-1.45250000e-07,9.71875000e-03,1.40625000e-02
-1.44450000e-07,5.31250000e-03,9.76562500e-03
-1.43650000e-07,9.15625000e-03,7.81250000e-03
-1.42850000e-07,7.68750000e-03,8.75000000e-03
-1.42050000e-07,7.87500000e-03,2.10937500e-02
-1.41250000e-07,4.96875000e-03,1.15625000e-02
-1.40450000e-07,1.19375000e-02,1.83593750e-02
-1.39650000e-07,2.00000000e-03,1.61718750e-02
-1.38850000e-07,1.13125000e-02,1.22656250e-02
-1.38050000e-07,7.56250000e-03,1.45312500e-02
-1.37250000e-07,1.31875000e-02,2.28906250e-02
-1.36450000e-07,5.50000000e-03,8.90625000e-03
-1.35650000e-07,1.01562500e-02,2.11718750e-02
-1.34850000e-07,9.68750000e-03,1.53906250e-02
-1.34050000e-07,1.14062500e-02,1.44531250e-02
-1.33250000e-07,4.81250000e-03,9.76562500e-03
-1.32450000e-07,1.00625000e-02,1.32812500e-02
-1.31650000e-07,6.46875000e-03,7.81250000e-03
-1.30850000e-07,1.18750000e-02,2.26562500e-03
-1.30050000e-07,2.93750000e-03,9.06250000e-03
-1.29250000e-07,3.65625000e-03,1.23437500e-02
-1.28450000e-07,9.78125000e-03,1.37500000e-02
-1.27650000e-07,1.35625000e-02,2.50000000e-02
-1.26850000e-07,3.93750000e-03,2.31250000e-02
-1.26050000e-07,1.00625000e-02,1.67187500e-02
-1.25250000e-07,1.22812500e-02,6.87500000e-03
-1.24450000e-07,1.08125000e-02,1.85156250e-02
-1.23650000e-07,2.78125000e-03,1.27343750e-02
-1.22850000e-07,4.18750000e-03,6.64062500e-03
-1.22050000e-07,1.23437500e-02,1.78906250e-02
-1.21250000e-07,8.09375000e-03,1.05468750e-02
-1.20450000e-07,1.03125000e-02,2.14062500e-02
-1.19650000e-07,1.08125000e-02,1.50781250e-02
-1.18850000e-07,2.34375000e-03,1.85937500e-02
-1.18050000e-07,9.81250000e-03,2.57812500e-03
-1.17250000e-07,5.09375000e-03,1.05468750e-02
-1.16450000e-07,4.96875000e-03,1.88281250e-02
-1.15650000e-07,7.71875000e-03,1.15625000e-02
-1.14850000e-07,1.07500000e-02,1.37500000e-02
-1.14050000e-07,3.03125000e-03,1.23437500e-02
-1.13250000e-07,1.21875000e-02,1.31250000e-02
-1.12450000e-07,6.31250000e-03,5.31250000e-03
-1.11650000e-07,1.42500000e-02,1.82031250e-02
-1.10850000e-07,6.40625000e-03,1.18750000e-02
-1.10050000e-07,1.45312500e-02,1.82812500e-02
-1.09250000e-07,6.53125000e-03,1.98437500e-02
-1.08450000e-07,1.09375000e-02,1.15625000e-02
-1.07650000e-07,5.00000000e-04,1.96875000e-02
-1.06850000e-07,1.19687500e-02,1.62500000e-02
-1.06050000e-07,5.18750000e-03,2.56250000e-02
-1.05250000e-07,1.21875000e-02,1.40625000e-02
-1.04450000e-07,3.96875000e-03,1.12500000e-02
-1.03650000e-07,6.84375000e-03,1.60156250e-02
-1.02850000e-07,1.30312500e-02,2.38281250e-02
-1.02050000e-07,1.12187500e-02,5.78125000e-03
-1.01250000e-07,5.25000000e-03,-2.03125000e-03
-1.00450000e-07,1.12812500e-02,1.75000000e-02
-9.96500000e-08,1.10312500e-02,2.35937500e-02
-9.88500000e-08,7.59375000e-03,1.24218750e-02
-9.80500000e-08,9.09375000e-03,1.46875000e-02
-9.72500000e-08,1.08750000e-02,1.73437500e-02
-9.64500000e-08,1.10000000e-02,2.60156250e-02
-9.56500000e-08,1.15937500e-02,1.44531250e-02
-9.48500000e-08,7.81250000e-03,1.95312500e-02
-9.40500000e-08,1.04375000e-02,1.85937500e-02
-9.32500000e-08,5.18750000e-03,1.15625000e-02
-9.24500000e-08,8.78125000e-03,7.89062500e-03
-9.16500000e-08,3.65625000e-03,2.20312500e-02
-9.08500000e-08,6.87500000e-03,1.56250000e-02
-9.00500000e-08,9.53125000e-03,1.47656250e-02
-8.92500000e-08,1.09375000e-02,2.17968750e-02
-8.84500000e-08,3.21875000e-03,1.38281250e-02
-8.76500000e-08,1.19375000e-02,2.07031250e-02
-8.68500000e-08,1.21250000e-02,2.03906250e-02
-8.60500000e-08,1.12500000e-02,1.50781250e-02
-8.52500000e-08,3.62500000e-03,1.47656250e-02
-8.44500000e-08,1.42812500e-02,2.45312500e-02
-8.36500000e-08,6.68750000e-03,1.31250000e-02
-8.28500000e-08,1.06875000e-02,2.34375000e-02
-8.20500000e-08,2.96875000e-03,1.10937500e-02
-8.12500000e-08,9.59375000e-03,1.83593750e-02
-8.04500000e-08,5.68750000e-03,2.24218750e-02
-7.96500000e-08,1.05625000e-02,1.07031250e-02
-7.88500000e-08,3.65625000e-03,2.21093750e-02
-7.80500000e-08,5.25000000e-03,1.58593750e-02
-7.72500000e-08,1.16562500e-02,2.52343750e-02
-7.64500000e-08,1.10937500e-02,1.76562500e-02
-7.56500000e-08,4.53125000e-03,2.70312500e-02
-7.48500000e-08,6.59375000e-03,1.47656250e-02
-7.40500000e-08,1.22187500e-02,1.71093750e-02
-7.32500000e-08,1.39687500e-02,1.50000000e-02
-7.24500000e-08,6.06250000e-03,2.76562500e-02
-7.16500000e-08,9.15625000e-03,8.59375000e-03
-7.08500000e-08,1.04062500e-02,2.18750000e-02
-7.00500000e-08,9.28125000e-03,2.63281250e-02
-6.92500000e-08,9.06250000e-03,2.04687500e-02
-6.84500000e-08,1.00625000e-02,1.82812500e-02
-6.76500000e-08,4.12500000e-03,9.68750000e-03
-6.68500000e-08,1.02812500e-02,1.45312500e-02
-6.60500000e-08,7.87500000e-03,2.68750000e-02
-6.52500000e-08,8.53125000e-03,1.28906250e-02
-6.44500000e-08,4.53125000e-03,1.38281250e-02
-6.36500000e-08,1.54375000e-02,1.84375000e-02
-6.28500000e-08,2.68750000e-03,4.68750000e-04
-6.20500000e-08,1.16250000e-02,1.15625000e-02
-6.12500000e-08,1.02187500e-02,2.39843750e-02
-6.04500000e-08,8.96875000e-03,-2.23750000e-01
-5.96500000e-08,5.78125000e-03,-7.85312500e-01
-5.88500000e-08,1.11250000e-02,-1.19531250e+00
-5.80500000e-08,4.65625000e-03,-1.28492187e+00
-5.72500000e-08,1.51875000e-02,-1.32210938e+00
-5.64500000e-08,1.81250000e-03,-1.39296875e+00
-5.56500000e-08,1.53125000e-02,-1.39078125e+00
-5.48500000e-08,8.46875000e-03,-1.38484375e+00
-5.40500000e-08,1.54687500e-02,-1.38296875e+00
-5.32500000e-08,4.65625000e-03,-1.39734375e+00
-5.24500000e-08,6.81250000e-03,-1.41328125e+00
-5.16500000e-08,1.15937500e-02,-1.40734375e+00
-5.08500000e-08,1.38437500e-02,-1.40250000e+00
-5.00500000e-08,3.03125000e-03,-1.41203125e+00
-4.92500000e-08,8.00000000e-03,-1.41031250e+00
-4.84500000e-08,1.27500000e-02,-1.41289063e+00
-4.76500000e-08,8.56250000e-03,-1.41734375e+00
-4.68500000e-08,7.18750000e-03,-1.41453125e+00
-4.60500000e-08,9.43750000e-03,-1.41867188e+00
-4.52500000e-08,7.75000000e-03,-1.42109375e+00
-4.44500000e-08,5.90625000e-03,-1.41265625e+00
-4.36500000e-08,1.01250000e-02,-1.41703125e+00
-4.28500000e-08,9.28125000e-03,-1.43171875e+00
-4.20500000e-08,9.28125000e-03,-1.42937500e+00
-4.12500000e-08,1.32187500e-02,-1.41929688e+00
-4.04500000e-08,8.03125000e-03,-1.42625000e+00
-3.96500000e-08,8.43750000e-03,-1.42375000e+00
-3.88500000e-08,9.84375000e-03,-1.41890625e+00
-3.80500000e-08,7.90625000e-03,-1.41750000e+00
-3.72500000e-08,-1.56250000e-03,-1.42843750e+00
-3.64500000e-08,1.15312500e-02,-1.42335937e+00
-3.56500000e-08,4.40625000e-03,-1.41859375e+00
-3.48500000e-08,1.28437500e-02,-1.42187500e+00
-3.40500000e-08,-5.62500000e-04,-1.42015625e+00
-3.32500000e-08,-4.81250000e-03,-1.41492188e+00
-3.24500000e-08,-3.38125000e-02,-1.42320313e+00
-3.16500000e-08,-7.30000000e-02,-1.41757813e+00
-3.08500000e-08,-1.44781250e-01,-1.42468750e+00
-3.00500000e-08,-2.30000000e-01,-1.41695313e+00
-2.92500000e-08,-3.30875000e-01,-1.42546875e+00
-2.84500000e-08,-4.34437500e-01,-1.41437500e+00
-2.76500000e-08,-5.38812500e-01,-1.42375000e+00
-2.68500000e-08,-6.20156250e-01,-1.41250000e+00
-2.60500000e-08,-6.88531250e-01,-1.41343750e+00
-2.52500000e-08,-7.49125000e-01,-1.40648438e+00
-2.44500000e-08,-7.93781250e-01,-1.41468750e+00
-2.36500000e-08,-8.20125000e-01,-1.41734375e+00
-2.28500000e-08,-8.41812500e-01,-1.40937500e+00
-2.20500000e-08,-8.56937500e-01,-1.40742188e+00
-2.12500000e-08,-8.57687500e-01,-1.41679688e+00
-2.04500000e-08,-8.47437500e-01,-1.42742188e+00
-1.96500000e-08,-8.33000000e-01,-1.40726562e+00
-1.88500000e-08,-8.21437500e-01,-1.41039063e+00
-1.80500000e-08,-7.93718750e-01,-1.41476563e+00
-1.72500000e-08,-7.62343750e-01,-1.41796875e+00
-1.64500000e-08,-7.31531250e-01,-1.41382813e+00
-1.56500000e-08,-6.98843750e-01,-1.41718750e+00
-1.48500000e-08,-6.65187500e-01,-1.42953125e+00
-1.40500000e-08,-6.25375000e-01,-1.42710938e+00
-1.32500000e-08,-5.86250000e-01,-1.41710938e+00
-1.24500000e-08,-5.57500000e-01,-1.42585938e+00
-1.16500000e-08,-5.26062500e-01,-1.42992188e+00
-1.08500000e-08,-4.88375000e-01,-1.41867188e+00
-1.00500000e-08,-4.56125000e-01,-1.42921875e+00
-9.25000000e-09,-4.29656250e-01,-1.41750000e+00
-8.45000000e-09,-4.02906250e-01,-1.41984375e+00
-7.65000000e-09,-3.68437500e-01,-1.42085938e+00
-6.85000000e-09,-3.47093750e-01,-1.43125000e+00
-6.05000000e-09,-3.19000000e-01,-1.41875000e+00
-5.25000000e-09,-3.04156250e-01,-1.42335937e+00
-4.45000000e-09,-2.83281250e-01,-1.42312500e+00
-3.65000000e-09,-2.68250000e-01,-1.39812500e+00
-2.85000000e-09,-2.47000000e-01,-1.34078125e+00
-2.05000000e-09,-2.34718750e-01,-1.22734375e+00
-1.25000000e-09,-2.19500000e-01,-8.59375000e-01
-4.50000000e-10,-2.03375000e-01,-4.23281250e-01
3.50000000e-10,-1.92843750e-01,-2.29609375e-01
1.15000000e-09,-1.85562500e-01,-1.24687500e-01
1.95000000e-09,-1.70500000e-01,-7.66406250e-02
2.75000000e-09,-1.59656250e-01,-6.03906250e-02
3.55000000e-09,-1.55156250e-01,-3.87500000e-02
4.35000000e-09,-1.46812500e-01,-4.59375000e-02
5.15000000e-09,-1.37906250e-01,-3.28906250e-02
5.95000000e-09,-1.29843750e-01,-2.89062500e-02
6.75000000e-09,-1.19781250e-01,-3.23437500e-02
7.55000000e-09,-1.17875000e-01,-2.70312500e-02
8.35000000e-09,-1.13625000e-01,-2.75781250e-02
9.15000000e-09,-1.07750000e-01,-2.25781250e-02
9.95000000e-09,-9.46250000e-02,-2.16406250e-02
1.07500000e-08,-1.01125000e-01,-1.64843750e-02
1.15500000e-08,-8.85000000e-02,-1.46875000e-02
1.23500000e-08,-8.21562500e-02,-1.28906250e-02
1.31500000e-08,-8.25625000e-02,-9.68750000e-03
1.39500000e-08,-8.36875000e-02,-1.43750000e-02
1.47500000e-08,-7.00000000e-02,-1.21875000e-02
1.55500000e-08,-6.60312500e-02,-1.28125000e-02
1.63500000e-08,-6.39062500e-02,-1.44531250e-02
1.71500000e-08,-6.50625000e-02,3.90625000e-04
1.79500000e-08,-5.78125000e-02,6.09375000e-03
1.87500000e-08,-5.44062500e-02,4.84375000e-03
1.95500000e-08,-5.32812500e-02,2.42187500e-03
2.03500000e-08,-5.22812500e-02,-2.50000000e-03
2.11500000e-08,-4.66562500e-02,4.60937500e-03
2.19500000e-08,-4.75000000e-02,1.18750000e-02
2.27500000e-08,-3.66562500e-02,-1.09375000e-02
2.35500000e-08,-4.26562500e-02,4.84375000e-03
2.43500000e-08,-3.85312500e-02,1.64062500e-02
2.51500000e-08,-3.21875000e-02,3.43750000e-03
2.59500000e-08,-2.80000000e-02,7.34375000e-03
2.67500000e-08,-3.80000000e-02,8.75000000e-03
2.75500000e-08,-2.44375000e-02,7.26562500e-03
2.83500000e-08,-1.78437500e-02,6.32812500e-03
2.91500000e-08,-2.51875000e-02,1.40625000e-02
2.99500000e-08,-2.15000000e-02,1.88281250e-02
3.07500000e-08,-2.33125000e-02,9.21875000e-03
3.15500000e-08,-2.08125000e-02,2.32812500e-02
3.23500000e-08,-2.25625000e-02,3.43750000e-02
3.31500000e-08,-1.95000000e-02,3.59375000e-02
3.39500000e-08,-1.80000000e-02,3.54687500e-02
3.47500000e-08,-1.69687500e-02,3.91406250e-02
3.55500000e-08,-9.12500000e-03,3.34375000e-02
3.63500000e-08,-1.72187500e-02,3.34375000e-02
3.71500000e-08,-1.41562500e-02,2.91406250e-02
3.79500000e-08,-1.25937500e-02,3.98437500e-02
3.87500000e-08,-1.32187500e-02,3.78125000e-02
3.95500000e-08,-2.20312500e-02,3.14062500e-02
4.03500000e-08,-1.07187500e-02,4.10937500e-02
4.11500000e-08,-1.08437500e-02,2.49218750e-02
4.19500000e-08,-8.65625000e-03,3.32031250e-02
4.27500000e-08,-1.12187500e-02,2.68750000e-02
4.35500000e-08,-6.15625000e-03,3.03125000e-02
4.43500000e-08,-9.25000000e-03,2.93750000e-02
4.51500000e-08,-2.71875000e-03,2.79687500e-02
4.59500000e-08,-1.51250000e-02,2.07031250e-02
4.67500000e-08,-7.15625000e-03,1.62500000e-02
4.75500000e-08,-8.90625000e-03,2.62500000e-02
4.83500000e-08,-4.93750000e-03,2.25781250e-02
4.91500000e-08,-1.50625000e-02,1.87500000e-02
4.99500000e-08,-8.53125000e-03,2.66406250e-02
5.07500000e-08,-6.34375000e-03,1.57812500e-02
5.15500000e-08,-5.68750000e-03,2.27343750e-02
5.23500000e-08,-1.06875000e-02,2.42968750e-02
5.31500000e-08,-2.75000000e-03,1.89843750e-02
5.39500000e-08,-4.81250000e-03,1.45312500e-02
5.47500000e-08,-1.46875000e-03,2.32031250e-02
5.55500000e-08,-7.28125000e-03,2.41406250e-02
5.63500000e-08,-9.18750000e-03,2.21875000e-02
