muon_CSV/TriggerAuto_ALL_20231205194447741.csv

Model,MSO64B
Channel,CH1,,Channel,CH2
Label,,,Label,
Waveform Type,ANALOG,,Waveform Type,ANALOG
Horizontal Units,s,,Horizontal Units,s
Sample Interval,8.00000000e-10,,Sample Interval,8.00000000e-10
Record Length,5000,,Record Length,5000
Zero Index,349.54687500,,Zero Index,349.54687500
Vertical Units,V,,Vertical Units,V
,,,,
ANALOG_Thumbnail,,,ANALOG_Thumbnail,
yOffset,0.000000,,yOffset,0.000000
yPosition,2.160000,,yPosition,2.180000

Labels,,
TIME,CH1,CH2
-2.79637500e-07,7.06250000e-03,1.61718750e-02
-2.78837500e-07,5.06250000e-03,1.69531250e-02
-2.78037500e-07,1.07187500e-02,5.70312500e-03
-2.77237500e-07,8.03125000e-03,2.46875000e-02
-2.76437500e-07,6.28125000e-03,1.98437500e-02
-2.75637500e-07,5.21875000e-03,1.89843750e-02
-2.74837500e-07,1.11562500e-02,1.20312500e-02
-2.74037500e-07,3.15625000e-03,6.01562500e-03
-2.73237500e-07,1.28750000e-02,2.50781250e-02
-2.72437500e-07,9.90625000e-03,1.21875000e-02
-2.71637500e-07,1.19062500e-02,2.24218750e-02
-2.70837500e-07,4.40625000e-03,1.07812500e-02
-2.70037500e-07,1.37500000e-02,1.98437500e-02
-2.69237500e-07,4.93750000e-03,2.02343750e-02
-2.68437500e-07,1.03125000e-02,2.49218750e-02
-2.67637500e-07,3.25000000e-03,2.26562500e-02
-2.66837500e-07,1.53437500e-02,2.67187500e-02
-2.66037500e-07,5.18750000e-03,2.31250000e-02
-2.65237500e-07,9.53125000e-03,2.06250000e-02
-2.64437500e-07,6.25000000e-03,2.05468750e-02
-2.63637500e-07,1.12187500e-02,3.43750000e-03
-2.62837500e-07,1.29375000e-02,1.99218750e-02
-2.62037500e-07,1.17500000e-02,2.92187500e-02
-2.61237500e-07,8.12500000e-03,1.06250000e-02
-2.60437500e-07,1.12812500e-02,1.77343750e-02
-2.59637500e-07,1.37500000e-02,1.92968750e-02
-2.58837500e-07,1.14375000e-02,1.48437500e-02
-2.58037500e-07,1.21250000e-02,1.35937500e-02
-2.57237500e-07,7.59375000e-03,1.36718750e-02
-2.56437500e-07,9.78125000e-03,2.09375000e-02
-2.55637500e-07,9.53125000e-03,1.54687500e-02
-2.54837500e-07,1.33125000e-02,1.36718750e-02
-2.54037500e-07,1.12812500e-02,1.82812500e-02
-2.53237500e-07,5.53125000e-03,1.88281250e-02
-2.52437500e-07,1.34062500e-02,1.49218750e-02
-2.51637500e-07,1.12187500e-02,2.22656250e-02
-2.50837500e-07,1.20000000e-02,2.13281250e-02
-2.50037500e-07,7.06250000e-03,1.81250000e-02
-2.49237500e-07,1.42500000e-02,2.26562500e-02
-2.48437500e-07,2.56250000e-03,7.34375000e-03
-2.47637500e-07,1.32812500e-02,1.71875000e-02
-2.46837500e-07,1.26562500e-02,2.26562500e-02
-2.46037500e-07,1.40312500e-02,1.66406250e-02
-2.45237500e-07,8.37500000e-03,8.20312500e-03
-2.44437500e-07,1.06250000e-02,1.25781250e-02
-2.43637500e-07,7.25000000e-03,2.49218750e-02
-2.42837500e-07,1.20312500e-02,2.32031250e-02
-2.42037500e-07,7.46875000e-03,3.43750000e-03
-2.41237500e-07,1.36250000e-02,1.73437500e-02
-2.40437500e-07,5.15625000e-03,2.39843750e-02
-2.39637500e-07,1.30937500e-02,1.28125000e-02
-2.38837500e-07,6.84375000e-03,1.82812500e-02
-2.38037500e-07,6.93750000e-03,1.48437500e-02
-2.37237500e-07,1.06875000e-02,1.36718750e-02
-2.36437500e-07,1.72812500e-02,2.50000000e-02
-2.35637500e-07,7.96875000e-03,1.98437500e-02
-2.34837500e-07,1.33125000e-02,1.82812500e-02
-2.34037500e-07,1.03437500e-02,2.05468750e-02
-2.33237500e-07,1.10625000e-02,1.07812500e-02
-2.32437500e-07,1.04375000e-02,1.55468750e-02
-2.31637500e-07,7.93750000e-03,4.37500000e-03
-2.30837500e-07,7.81250000e-03,2.65625000e-02
-2.30037500e-07,1.07812500e-02,1.52343750e-02
-2.29237500e-07,1.25000000e-02,2.16406250e-02
-2.28437500e-07,7.90625000e-03,1.07031250e-02
-2.27637500e-07,3.43750000e-03,1.71875000e-02
-2.26837500e-07,1.25625000e-02,1.95312500e-02
-2.26037500e-07,1.24375000e-02,2.28125000e-02
-2.25237500e-07,8.28125000e-03,1.65625000e-02
-2.24437500e-07,6.93750000e-03,1.22656250e-02
-2.23637500e-07,1.04687500e-02,1.35937500e-02
-2.22837500e-07,2.59375000e-03,1.57812500e-02
-2.22037500e-07,1.22812500e-02,2.08593750e-02
-2.21237500e-07,1.04687500e-02,1.87500000e-02
-2.20437500e-07,1.31250000e-02,1.34375000e-02
-2.19637500e-07,3.53125000e-03,8.43750000e-03
-2.18837500e-07,1.51250000e-02,1.77343750e-02
-2.18037500e-07,3.96875000e-03,1.62500000e-02
-2.17237500e-07,1.07812500e-02,1.56250000e-02
-2.16437500e-07,6.59375000e-03,1.10937500e-02
-2.15637500e-07,1.41562500e-02,2.64062500e-02
-2.14837500e-07,8.56250000e-03,2.32031250e-02
-2.14037500e-07,1.32500000e-02,1.67968750e-02
-2.13237500e-07,5.50000000e-03,2.07812500e-02
-2.12437500e-07,7.59375000e-03,1.14062500e-02
-2.11637500e-07,1.01875000e-02,2.03906250e-02
-2.10837500e-07,1.27500000e-02,2.39062500e-02
-2.10037500e-07,1.62500000e-03,8.04687500e-03
-2.09237500e-07,1.16875000e-02,2.03906250e-02
-2.08437500e-07,1.34375000e-02,1.19531250e-02
-2.07637500e-07,5.90625000e-03,1.12500000e-02
-2.06837500e-07,8.93750000e-03,1.89843750e-02
-2.06037500e-07,1.02812500e-02,1.56250000e-02
-2.05237500e-07,1.30937500e-02,2.22656250e-02
-2.04437500e-07,9.15625000e-03,1.61718750e-02
-2.03637500e-07,1.02812500e-02,2.68750000e-02
-2.02837500e-07,1.02187500e-02,1.71875000e-02
-2.02037500e-07,7.62500000e-03,1.74218750e-02
-2.01237500e-07,1.23125000e-02,4.14062500e-03
-2.00437500e-07,1.03750000e-02,1.06250000e-02
-1.99637500e-07,1.03125000e-02,1.69531250e-02
-1.98837500e-07,1.08750000e-02,1.89062500e-02
-1.98037500e-07,1.27187500e-02,1.08593750e-02
-1.97237500e-07,4.09375000e-03,1.19531250e-02
-1.96437500e-07,1.29687500e-02,2.75781250e-02
-1.95637500e-07,9.06250000e-03,1.78906250e-02
-1.94837500e-07,1.40312500e-02,1.21875000e-02
-1.94037500e-07,3.59375000e-03,1.16406250e-02
-1.93237500e-07,1.22812500e-02,1.69531250e-02
-1.92437500e-07,6.21875000e-03,1.29687500e-02
-1.91637500e-07,9.18750000e-03,1.57031250e-02
-1.90837500e-07,2.96875000e-03,1.42187500e-02
-1.90037500e-07,1.24062500e-02,1.57031250e-02
-1.89237500e-07,6.50000000e-03,1.62500000e-02
-1.88437500e-07,1.20625000e-02,1.43750000e-02
-1.87637500e-07,5.31250000e-03,2.42187500e-02
-1.86837500e-07,8.78125000e-03,1.26562500e-02
-1.86037500e-07,1.25937500e-02,1.38281250e-02
-1.85237500e-07,1.54375000e-02,2.35156250e-02
-1.84437500e-07,5.71875000e-03,1.92968750e-02
-1.83637500e-07,9.28125000e-03,8.82812500e-03
-1.82837500e-07,1.34687500e-02,1.31250000e-02
-1.82037500e-07,1.03750000e-02,1.42968750e-02
-1.81237500e-07,1.01562500e-02,1.43750000e-02
-1.80437500e-07,1.44687500e-02,1.56250000e-02
-1.79637500e-07,9.50000000e-03,1.76562500e-02
-1.78837500e-07,8.53125000e-03,1.55468750e-02
-1.78037500e-07,1.51875000e-02,1.63281250e-02
-1.77237500e-07,1.05937500e-02,1.28125000e-02
-1.76437500e-07,6.62500000e-03,8.43750000e-03
-1.75637500e-07,8.71875000e-03,1.05468750e-02
-1.74837500e-07,1.31562500e-02,1.98437500e-02
-1.74037500e-07,1.01875000e-02,1.41406250e-02
-1.73237500e-07,1.16250000e-02,1.45312500e-02
-1.72437500e-07,1.05000000e-02,1.75781250e-02
-1.71637500e-07,1.37500000e-03,1.24218750e-02
-1.70837500e-07,8.62500000e-03,2.29687500e-02
-1.70037500e-07,1.05312500e-02,1.46875000e-02
-1.69237500e-07,1.10937500e-02,8.90625000e-03
-1.68437500e-07,6.78125000e-03,5.31250000e-03
-1.67637500e-07,1.26250000e-02,2.45312500e-02
-1.66837500e-07,1.00937500e-02,1.08593750e-02
-1.66037500e-07,8.90625000e-03,2.25000000e-02
-1.65237500e-07,4.78125000e-03,1.40625000e-02
-1.64437500e-07,1.50937500e-02,2.43750000e-02
-1.63637500e-07,7.28125000e-03,1.19531250e-02
-1.62837500e-07,1.35625000e-02,1.71875000e-02
-1.62037500e-07,7.96875000e-03,2.19531250e-02
-1.61237500e-07,1.06875000e-02,1.07812500e-02
-1.60437500e-07,1.19687500e-02,1.10156250e-02
-1.59637500e-07,1.37500000e-02,9.76562500e-03
-1.58837500e-07,5.53125000e-03,9.14062500e-03
-1.58037500e-07,7.62500000e-03,1.66406250e-02
-1.57237500e-07,1.30625000e-02,1.68750000e-02
-1.56437500e-07,9.25000000e-03,1.04687500e-02
-1.55637500e-07,1.09687500e-02,1.84375000e-02
-1.54837500e-07,6.46875000e-03,1.63281250e-02
-1.54037500e-07,1.02500000e-02,2.03125000e-02
-1.53237500e-07,1.09375000e-02,1.49218750e-02
-1.52437500e-07,6.53125000e-03,2.29687500e-02
-1.51637500e-07,9.84375000e-03,1.73437500e-02
-1.50837500e-07,7.65625000e-03,2.02343750e-02
-1.50037500e-07,1.20312500e-02,1.34375000e-02
-1.49237500e-07,1.05000000e-02,1.83593750e-02
-1.48437500e-07,1.17812500e-02,2.14062500e-02
-1.47637500e-07,8.12500000e-03,2.21093750e-02
-1.46837500e-07,1.03750000e-02,1.92968750e-02
-1.46037500e-07,1.56250000e-03,1.55468750e-02
-1.45237500e-07,1.36250000e-02,2.60937500e-02
-1.44437500e-07,7.93750000e-03,1.52343750e-02
-1.43637500e-07,1.20000000e-02,1.28906250e-02
-1.42837500e-07,4.28125000e-03,1.57031250e-02
-1.42037500e-07,1.49375000e-02,2.53906250e-02
-1.41237500e-07,6.06250000e-03,1.52343750e-02
-1.40437500e-07,9.12500000e-03,2.07812500e-02
-1.39637500e-07,9.31250000e-03,1.06250000e-02
-1.38837500e-07,9.53125000e-03,2.17187500e-02
-1.38037500e-07,4.43750000e-03,2.25000000e-02
-1.37237500e-07,1.57500000e-02,1.86718750e-02
-1.36437500e-07,5.09375000e-03,1.60156250e-02
-1.35637500e-07,5.00000000e-03,1.88281250e-02
-1.34837500e-07,1.03437500e-02,1.21875000e-02
-1.34037500e-07,1.22187500e-02,2.11718750e-02
-1.33237500e-07,4.37500000e-03,2.32812500e-02
-1.32437500e-07,7.03125000e-03,1.68750000e-02
-1.31637500e-07,1.10937500e-02,1.75781250e-02
-1.30837500e-07,1.14062500e-02,1.70312500e-02
-1.30037500e-07,6.43750000e-03,1.83593750e-02
-1.29237500e-07,1.25312500e-02,1.05468750e-02
-1.28437500e-07,1.18437500e-02,2.27343750e-02
-1.27637500e-07,9.31250000e-03,2.10937500e-02
-1.26837500e-07,1.18750000e-02,2.25000000e-02
-1.26037500e-07,9.78125000e-03,2.10937500e-02
-1.25237500e-07,6.18750000e-03,1.51562500e-02
-1.24437500e-07,1.49062500e-02,1.15625000e-02
-1.23637500e-07,6.25000000e-03,2.28906250e-02
-1.22837500e-07,1.16562500e-02,1.13281250e-02
-1.22037500e-07,9.56250000e-03,1.51562500e-02
-1.21237500e-07,1.24062500e-02,1.49218750e-02
-1.20437500e-07,2.28125000e-03,8.67187500e-03
-1.19637500e-07,8.93750000e-03,2.59375000e-02
-1.18837500e-07,1.13125000e-02,1.16406250e-02
-1.18037500e-07,1.20625000e-02,1.75000000e-02
-1.17237500e-07,3.50000000e-03,1.33593750e-02
-1.16437500e-07,1.30937500e-02,2.75000000e-02
-1.15637500e-07,8.65625000e-03,2.23437500e-02
-1.14837500e-07,1.15625000e-02,1.66406250e-02
-1.14037500e-07,7.43750000e-03,1.08593750e-02
-1.13237500e-07,1.34062500e-02,2.71093750e-02
-1.12437500e-07,6.81250000e-03,2.38281250e-02
-1.11637500e-07,1.42812500e-02,1.89062500e-02
-1.10837500e-07,4.93750000e-03,2.28125000e-02
-1.10037500e-07,8.09375000e-03,1.23437500e-02
-1.09237500e-07,8.59375000e-03,1.80468750e-02
-1.08437500e-07,1.44687500e-02,2.64843750e-02
-1.07637500e-07,2.28125000e-03,1.50000000e-02
-1.06837500e-07,9.50000000e-03,2.02343750e-02
-1.06037500e-07,1.12500000e-02,1.72656250e-02
-1.05237500e-07,9.25000000e-03,2.17187500e-02
-1.04437500e-07,7.12500000e-03,1.54687500e-02
-1.03637500e-07,1.03437500e-02,2.14062500e-02
-1.02837500e-07,1.32500000e-02,3.34375000e-02
-1.02037500e-07,6.46875000e-03,1.28906250e-02
-1.01237500e-07,8.59375000e-03,1.80468750e-02
-1.00437500e-07,8.81250000e-03,1.54687500e-02
-9.96375000e-08,9.40625000e-03,2.94531250e-02
-9.88375000e-08,5.34375000e-03,1.26562500e-02
-9.80375000e-08,7.93750000e-03,2.57812500e-02
-9.72375000e-08,6.46875000e-03,1.73437500e-02
-9.64375000e-08,8.87500000e-03,1.58593750e-02
-9.56375000e-08,1.38437500e-02,1.85156250e-02
-9.48375000e-08,2.18750000e-04,9.37500000e-03
-9.40375000e-08,1.36562500e-02,2.03906250e-02
-9.32375000e-08,7.53125000e-03,1.87500000e-02
-9.24375000e-08,1.37812500e-02,2.43750000e-02
-9.16375000e-08,6.68750000e-03,2.86718750e-02
-9.08375000e-08,1.19687500e-02,1.67968750e-02
-9.00375000e-08,7.50000000e-03,2.10937500e-02
-8.92375000e-08,8.68750000e-03,2.03125000e-02
-8.84375000e-08,8.06250000e-03,2.10156250e-02
-8.76375000e-08,1.33437500e-02,2.62500000e-02
-8.68375000e-08,8.06250000e-03,2.00781250e-02
-8.60375000e-08,1.46875000e-02,1.57812500e-02
-8.52375000e-08,4.93750000e-03,2.57031250e-02
-8.44375000e-08,8.59375000e-03,2.21875000e-02
-8.36375000e-08,1.49375000e-02,2.03906250e-02
-8.28375000e-08,1.41250000e-02,2.90625000e-02
-8.20375000e-08,3.62500000e-03,1.81250000e-02
-8.12375000e-08,9.84375000e-03,2.13281250e-02
-8.04375000e-08,1.40625000e-02,2.22656250e-02
-7.96375000e-08,5.93750000e-03,2.25000000e-02
-7.88375000e-08,9.28125000e-03,2.55468750e-02
-7.80375000e-08,1.27500000e-02,1.83593750e-02
-7.72375000e-08,1.10937500e-02,2.75781250e-02
-7.64375000e-08,9.59375000e-03,1.88281250e-02
-7.56375000e-08,1.05937500e-02,1.82812500e-02
-7.48375000e-08,1.09062500e-02,1.77343750e-02
-7.40375000e-08,6.68750000e-03,3.07031250e-02
-7.32375000e-08,1.07812500e-02,1.85156250e-02
-7.24375000e-08,7.59375000e-03,1.54687500e-02
-7.16375000e-08,9.62500000e-03,1.35937500e-02
-7.08375000e-08,9.03125000e-03,2.86718750e-02
-7.00375000e-08,1.36875000e-02,1.70312500e-02
-6.92375000e-08,6.03125000e-03,1.99218750e-02
-6.84375000e-08,1.61562500e-02,1.83593750e-02
-6.76375000e-08,1.46250000e-02,1.83593750e-02
-6.68375000e-08,9.87500000e-03,2.22656250e-02
-6.60375000e-08,1.04687500e-02,2.18750000e-02
-6.52375000e-08,1.47812500e-02,2.31250000e-02
-6.44375000e-08,9.15625000e-03,2.18750000e-02
-6.36375000e-08,9.34375000e-03,1.64843750e-02
-6.28375000e-08,6.90625000e-03,6.25000000e-03
-6.20375000e-08,1.56875000e-02,2.15625000e-02
-6.12375000e-08,7.06250000e-03,4.08593750e-02
-6.04375000e-08,1.36875000e-02,-1.97656250e-01
-5.96375000e-08,5.84375000e-03,-7.26562500e-01
-5.88375000e-08,7.50000000e-03,-1.21492188e+00
-5.80375000e-08,1.19375000e-02,-1.31898438e+00
-5.72375000e-08,1.47187500e-02,-1.37859375e+00
-5.64375000e-08,7.78125000e-03,-1.39976563e+00
-5.56375000e-08,1.37187500e-02,-1.37226563e+00
-5.48375000e-08,1.44375000e-02,-1.33484375e+00
-5.40375000e-08,8.09375000e-03,-1.38304688e+00
-5.32375000e-08,1.01875000e-02,-1.39593750e+00
-5.24375000e-08,7.43750000e-03,-1.41898437e+00
-5.16375000e-08,1.11250000e-02,-1.40000000e+00
-5.08375000e-08,1.29062500e-02,-1.41101563e+00
-5.00375000e-08,1.42187500e-02,-1.40726562e+00
-4.92375000e-08,1.13437500e-02,-1.41273438e+00
-4.84375000e-08,6.40625000e-03,-1.41195313e+00
-4.76375000e-08,1.10937500e-02,-1.40953125e+00
-4.68375000e-08,6.96875000e-03,-1.41273438e+00
-4.60375000e-08,8.37500000e-03,-1.41750000e+00
-4.52375000e-08,8.46875000e-03,-1.41132813e+00
-4.44375000e-08,1.34687500e-02,-1.41789063e+00
-4.36375000e-08,5.90625000e-03,-1.43140625e+00
-4.28375000e-08,1.07500000e-02,-1.43398438e+00
-4.20375000e-08,1.18125000e-02,-1.41609375e+00
-4.12375000e-08,1.29062500e-02,-1.42429688e+00
-4.04375000e-08,7.12500000e-03,-1.42195313e+00
-3.96375000e-08,1.16562500e-02,-1.41476563e+00
-3.88375000e-08,6.71875000e-03,-1.41312500e+00
-3.80375000e-08,9.40625000e-03,-1.41585938e+00
-3.72375000e-08,2.78125000e-03,-1.42460938e+00
-3.64375000e-08,1.33437500e-02,-1.42242188e+00
-3.56375000e-08,3.00000000e-03,-1.42140625e+00
-3.48375000e-08,6.28125000e-03,-1.42671875e+00
-3.40375000e-08,-2.84375000e-03,-1.42937500e+00
-3.32375000e-08,-1.02187500e-02,-1.42062500e+00
-3.24375000e-08,-3.01250000e-02,-1.42507813e+00
-3.16375000e-08,-6.62500000e-02,-1.42148438e+00
-3.08375000e-08,-1.43843750e-01,-1.42390625e+00
-3.00375000e-08,-2.32062500e-01,-1.42289062e+00
-2.92375000e-08,-3.41781250e-01,-1.42195313e+00
-2.84375000e-08,-4.63968750e-01,-1.41976563e+00
-2.76375000e-08,-5.71687500e-01,-1.41750000e+00
-2.68375000e-08,-6.77312500e-01,-1.41804688e+00
-2.60375000e-08,-7.64093750e-01,-1.41117187e+00
-2.52375000e-08,-8.36187500e-01,-1.41593750e+00
-2.44375000e-08,-8.92156250e-01,-1.41281250e+00
-2.36375000e-08,-9.31562500e-01,-1.41101563e+00
-2.28375000e-08,-9.54093750e-01,-1.41609375e+00
-2.20375000e-08,-9.68187500e-01,-1.41601562e+00
-2.12375000e-08,-9.71125000e-01,-1.41843750e+00
-2.04375000e-08,-9.65937500e-01,-1.42164063e+00
-1.96375000e-08,-9.46406250e-01,-1.42445313e+00
-1.88375000e-08,-9.37187500e-01,-1.40460938e+00
-1.80375000e-08,-9.09718750e-01,-1.42492188e+00
-1.72375000e-08,-8.77843750e-01,-1.42468750e+00
-1.64375000e-08,-8.40343750e-01,-1.41289063e+00
-1.56375000e-08,-8.14593750e-01,-1.41171875e+00
-1.48375000e-08,-7.72812500e-01,-1.41953125e+00
-1.40375000e-08,-7.25375000e-01,-1.41734375e+00
-1.32375000e-08,-6.92406250e-01,-1.41937500e+00
-1.24375000e-08,-6.52218750e-01,-1.42117188e+00
-1.16375000e-08,-6.15125000e-01,-1.42898438e+00
-1.08375000e-08,-5.72593750e-01,-1.42585938e+00
-1.00375000e-08,-5.39593750e-01,-1.41734375e+00
-9.23750000e-09,-5.01968750e-01,-1.41992188e+00
-8.43750000e-09,-4.75968750e-01,-1.42578125e+00
-7.63750000e-09,-4.37781250e-01,-1.43195313e+00
-6.83750000e-09,-4.07812500e-01,-1.42101563e+00
-6.03750000e-09,-3.83000000e-01,-1.42359375e+00
-5.23750000e-09,-3.58156250e-01,-1.42039063e+00
-4.43750000e-09,-3.32968750e-01,-1.41328125e+00
-3.63750000e-09,-3.10281250e-01,-1.38718750e+00
-2.83750000e-09,-2.95937500e-01,-1.34781250e+00
-2.03750000e-09,-2.77250000e-01,-1.22781250e+00
-1.23750000e-09,-2.60625000e-01,-8.62187500e-01
-4.37500000e-10,-2.41000000e-01,-4.21796875e-01
3.62500000e-10,-2.29218750e-01,-2.25781250e-01
1.16250000e-09,-2.23375000e-01,-1.17578125e-01
1.96250000e-09,-2.09531250e-01,-7.95312500e-02
2.76250000e-09,-1.95562500e-01,-5.80468750e-02
3.56250000e-09,-1.84656250e-01,-5.48437500e-02
4.36250000e-09,-1.79562500e-01,-3.76562500e-02
5.16250000e-09,-1.69000000e-01,-3.67187500e-02
5.96250000e-09,-1.57968750e-01,-2.97656250e-02
6.76250000e-09,-1.44750000e-01,-2.65625000e-02
7.56250000e-09,-1.44937500e-01,-3.02343750e-02
8.36250000e-09,-1.33875000e-01,-2.35937500e-02
9.16250000e-09,-1.24593750e-01,-1.91406250e-02
9.96250000e-09,-1.19031250e-01,-7.89062500e-03
1.07625000e-08,-1.16406250e-01,-1.34375000e-02
1.15625000e-08,-1.03875000e-01,-5.70312500e-03
1.23625000e-08,-1.07062500e-01,-8.51562500e-03
1.31625000e-08,-9.66250000e-02,-5.39062500e-03
1.39625000e-08,-9.59062500e-02,-1.84375000e-02
1.47625000e-08,-8.47500000e-02,-2.81250000e-03
1.55625000e-08,-8.73125000e-02,-4.68750000e-04
1.63625000e-08,-7.56562500e-02,6.25000000e-03
1.71625000e-08,-8.03437500e-02,-8.28125000e-03
1.79625000e-08,-7.11875000e-02,1.49218750e-02
1.87625000e-08,-6.53125000e-02,7.65625000e-03
1.95625000e-08,-6.01875000e-02,1.50000000e-02
2.03625000e-08,-6.40312500e-02,2.03125000e-03
2.11625000e-08,-5.85000000e-02,3.12500000e-03
2.19625000e-08,-5.47500000e-02,8.43750000e-03
2.27625000e-08,-5.34062500e-02,-1.56250000e-04
2.35625000e-08,-4.58750000e-02,1.47656250e-02
2.43625000e-08,-4.89687500e-02,5.62500000e-03
2.51625000e-08,-4.13125000e-02,1.94531250e-02
2.59625000e-08,-4.15625000e-02,8.82812500e-03
2.67625000e-08,-3.69375000e-02,2.33593750e-02
2.75625000e-08,-3.67812500e-02,1.25781250e-02
2.83625000e-08,-3.83125000e-02,1.39843750e-02
2.91625000e-08,-2.82500000e-02,1.21875000e-02
2.99625000e-08,-3.74062500e-02,1.47656250e-02
3.07625000e-08,-3.72500000e-02,1.71093750e-02
3.15625000e-08,-2.74062500e-02,2.61718750e-02
3.23625000e-08,-2.34375000e-02,2.68750000e-02
3.31625000e-08,-3.13125000e-02,3.01562500e-02
3.39625000e-08,-2.18437500e-02,4.35937500e-02
3.47625000e-08,-2.20937500e-02,4.89062500e-02
3.55625000e-08,-2.12187500e-02,4.50781250e-02
3.63625000e-08,-2.18750000e-02,4.09375000e-02
3.71625000e-08,-1.18437500e-02,4.07031250e-02
3.79625000e-08,-1.85312500e-02,3.78906250e-02
3.87625000e-08,-9.59375000e-03,3.25000000e-02
3.95625000e-08,-1.45625000e-02,3.52343750e-02
4.03625000e-08,-3.50000000e-03,4.35937500e-02
4.11625000e-08,-1.52500000e-02,3.32812500e-02
4.19625000e-08,-7.87500000e-03,2.63281250e-02
4.27625000e-08,-1.86562500e-02,3.82031250e-02
4.35625000e-08,-9.65625000e-03,2.78906250e-02
4.43625000e-08,-6.46875000e-03,2.96093750e-02
4.51625000e-08,-1.09062500e-02,3.45312500e-02
4.59625000e-08,-1.49687500e-02,3.30468750e-02
4.67625000e-08,-1.25000000e-02,2.77343750e-02
4.75625000e-08,-1.13125000e-02,2.71093750e-02
4.83625000e-08,-1.52187500e-02,2.50781250e-02
4.91625000e-08,-1.29687500e-02,3.10937500e-02
4.99625000e-08,-1.09062500e-02,2.28125000e-02
5.07625000e-08,-6.46875000e-03,2.38281250e-02
5.15625000e-08,-1.00937500e-02,3.42187500e-02
5.23625000e-08,-9.15625000e-03,3.17968750e-02
5.31625000e-08,-8.81250000e-03,1.00000000e-02
5.39625000e-08,-1.03437500e-02,2.32031250e-02
5.47625000e-08,-9.06250000e-03,1.67187500e-02
5.55625000e-08,-7.90625000e-03,3.30468750e-02
5.63625000e-08,-5.50000000e-03,2.02343750e-02
