muon_CSV/TriggerAuto_ALL_20231205193621338.csv

Model,MSO64B
Channel,CH1,,Channel,CH2
Label,,,Label,
Waveform Type,ANALOG,,Waveform Type,ANALOG
Horizontal Units,s,,Horizontal Units,s
Sample Interval,8.00000000e-10,,Sample Interval,8.00000000e-10
Record Length,5000,,Record Length,5000
Zero Index,349.49218750,,Zero Index,349.49218750
Vertical Units,V,,Vertical Units,V
,,,,
ANALOG_Thumbnail,,,ANALOG_Thumbnail,
yOffset,0.000000,,yOffset,0.000000
yPosition,2.160000,,yPosition,2.180000

Labels,,
TIME,CH1,CH2
-2.79593750e-07,-3.78125000e-03,6.87500000e-03
-2.78793750e-07,2.90625000e-03,6.95312500e-03
-2.77993750e-07,1.25000000e-03,4.29687500e-03
-2.77193750e-07,9.46875000e-03,6.95312500e-03
-2.76393750e-07,2.12500000e-03,8.98437500e-03
-2.75593750e-07,3.34375000e-03,4.84375000e-03
-2.74793750e-07,5.15625000e-03,3.75000000e-03
-2.73993750e-07,4.40625000e-03,5.00000000e-03
-2.73193750e-07,3.68750000e-03,9.76562500e-03
-2.72393750e-07,6.81250000e-03,1.47656250e-02
-2.71593750e-07,5.25000000e-03,5.39062500e-03
-2.70793750e-07,1.01875000e-02,2.89062500e-03
-2.69993750e-07,1.68750000e-03,1.09375000e-03
-2.69193750e-07,6.15625000e-03,1.37500000e-02
-2.68393750e-07,2.96875000e-03,5.39062500e-03
-2.67593750e-07,1.13125000e-02,9.68750000e-03
-2.66793750e-07,7.43750000e-03,1.26562500e-02
-2.65993750e-07,9.53125000e-03,2.10937500e-03
-2.65193750e-07,8.25000000e-03,3.12500000e-03
-2.64393750e-07,8.00000000e-03,8.98437500e-03
-2.63593750e-07,4.25000000e-03,8.20312500e-03
-2.62793750e-07,4.53125000e-03,3.04687500e-03
-2.61993750e-07,8.96875000e-03,1.96875000e-02
-2.61193750e-07,3.43750000e-03,1.37500000e-02
-2.60393750e-07,1.11875000e-02,8.12500000e-03
-2.59593750e-07,5.84375000e-03,1.27343750e-02
-2.58793750e-07,2.68750000e-03,1.46093750e-02
-2.57993750e-07,7.90625000e-03,4.60937500e-03
-2.57193750e-07,3.25000000e-03,1.22656250e-02
-2.56393750e-07,5.81250000e-03,6.48437500e-03
-2.55593750e-07,9.06250000e-04,8.35937500e-03
-2.54793750e-07,6.21875000e-03,1.59375000e-02
-2.53993750e-07,6.25000000e-04,6.64062500e-03
-2.53193750e-07,6.09375000e-03,1.34375000e-02
-2.52393750e-07,5.00000000e-03,6.64062500e-03
-2.51593750e-07,9.50000000e-03,1.07031250e-02
-2.50793750e-07,5.31250000e-04,3.43750000e-03
-2.49993750e-07,9.00000000e-03,1.21093750e-02
-2.49193750e-07,9.06250000e-04,6.25000000e-04
-2.48393750e-07,6.40625000e-03,6.32812500e-03
-2.47593750e-07,-6.25000000e-05,2.10937500e-03
-2.46793750e-07,8.78125000e-03,3.04687500e-03
-2.45993750e-07,7.00000000e-03,2.96875000e-03
-2.45193750e-07,7.46875000e-03,9.06250000e-03
-2.44393750e-07,-1.53125000e-03,6.79687500e-03
-2.43593750e-07,5.68750000e-03,8.90625000e-03
-2.42793750e-07,9.62500000e-03,2.81250000e-03
-2.41993750e-07,1.16875000e-02,4.45312500e-03
-2.41193750e-07,8.43750000e-04,1.15625000e-02
-2.40393750e-07,4.34375000e-03,1.07812500e-02
-2.39593750e-07,1.18125000e-02,7.96875000e-03
-2.38793750e-07,2.71875000e-03,9.37500000e-04
-2.37993750e-07,4.15625000e-03,1.56250000e-02
-2.37193750e-07,3.46875000e-03,3.28125000e-03
-2.36393750e-07,6.90625000e-03,1.63281250e-02
-2.35593750e-07,6.00000000e-03,1.10156250e-02
-2.34793750e-07,7.43750000e-03,2.81250000e-03
-2.33993750e-07,7.34375000e-03,9.53125000e-03
-2.33193750e-07,-6.87500000e-04,7.96875000e-03
-2.32393750e-07,7.12500000e-03,7.81250000e-04
-2.31593750e-07,3.43750000e-03,5.07812500e-03
-2.30793750e-07,4.00000000e-03,2.73437500e-03
-2.29993750e-07,1.93750000e-03,2.50000000e-03
-2.29193750e-07,1.17812500e-02,7.57812500e-03
-2.28393750e-07,-2.50000000e-04,2.34375000e-03
-2.27593750e-07,6.03125000e-03,1.42187500e-02
-2.26793750e-07,6.06250000e-03,7.81250000e-05
-2.25993750e-07,5.25000000e-03,9.76562500e-03
-2.25193750e-07,-9.37500000e-04,8.82812500e-03
-2.24393750e-07,7.53125000e-03,1.21093750e-02
-2.23593750e-07,3.65625000e-03,6.01562500e-03
-2.22793750e-07,6.84375000e-03,9.45312500e-03
-2.21993750e-07,1.84375000e-03,7.81250000e-05
-2.21193750e-07,9.71875000e-03,7.03125000e-03
-2.20393750e-07,6.96875000e-03,2.81250000e-03
-2.19593750e-07,7.21875000e-03,2.96875000e-03
-2.18793750e-07,3.43750000e-04,2.26562500e-03
-2.17993750e-07,5.28125000e-03,3.04687500e-03
-2.17193750e-07,9.96875000e-03,-5.46875000e-03
-2.16393750e-07,1.24062500e-02,1.27343750e-02
-2.15593750e-07,1.96875000e-03,1.00781250e-02
-2.14793750e-07,6.59375000e-03,1.15625000e-02
-2.13993750e-07,1.07187500e-02,2.10937500e-03
-2.13193750e-07,5.96875000e-03,1.10937500e-02
-2.12393750e-07,3.90625000e-03,9.92187500e-03
-2.11593750e-07,5.46875000e-03,2.89062500e-03
-2.10793750e-07,7.09375000e-03,6.95312500e-03
-2.09993750e-07,1.75000000e-03,1.15625000e-02
-2.09193750e-07,4.00000000e-03,1.40625000e-02
-2.08393750e-07,5.56250000e-03,1.33593750e-02
-2.07593750e-07,4.75000000e-03,1.18750000e-02
-2.06793750e-07,7.15625000e-03,2.65625000e-03
-2.05993750e-07,3.87500000e-03,9.60937500e-03
-2.05193750e-07,1.13125000e-02,9.21875000e-03
-2.04393750e-07,5.59375000e-03,-5.07812500e-03
-2.03593750e-07,5.62500000e-03,1.37500000e-02
-2.02793750e-07,3.18750000e-03,1.95312500e-03
-2.01993750e-07,6.84375000e-03,1.04687500e-02
-2.01193750e-07,7.43750000e-03,-1.87500000e-03
-2.00393750e-07,4.56250000e-03,1.32812500e-02
-1.99593750e-07,1.06250000e-03,1.12500000e-02
-1.98793750e-07,1.09062500e-02,1.21875000e-02
-1.97993750e-07,6.40625000e-03,4.68750000e-03
-1.97193750e-07,5.59375000e-03,2.03125000e-02
-1.96393750e-07,2.43750000e-03,8.20312500e-03
-1.95593750e-07,8.81250000e-03,8.43750000e-03
-1.94793750e-07,8.37500000e-03,1.77343750e-02
-1.93993750e-07,4.62500000e-03,5.93750000e-03
-1.93193750e-07,2.81250000e-03,1.19531250e-02
-1.92393750e-07,7.56250000e-03,-6.25000000e-04
-1.91593750e-07,5.06250000e-03,7.65625000e-03
-1.90793750e-07,7.46875000e-03,1.09375000e-02
-1.89993750e-07,2.06250000e-03,1.92187500e-02
-1.89193750e-07,8.09375000e-03,1.11718750e-02
-1.88393750e-07,9.46875000e-03,7.89062500e-03
-1.87593750e-07,7.34375000e-03,8.12500000e-03
-1.86793750e-07,3.81250000e-03,1.06250000e-02
-1.85993750e-07,2.53125000e-03,3.51562500e-03
-1.85193750e-07,8.53125000e-03,1.81250000e-02
-1.84393750e-07,8.34375000e-03,7.10937500e-03
-1.83593750e-07,8.34375000e-03,5.54687500e-03
-1.82793750e-07,6.87500000e-03,1.14843750e-02
-1.81993750e-07,3.59375000e-03,1.06250000e-02
-1.81193750e-07,6.59375000e-03,4.21875000e-03
-1.80393750e-07,4.37500000e-03,1.87500000e-02
-1.79593750e-07,5.71875000e-03,1.23437500e-02
-1.78793750e-07,4.31250000e-03,7.96875000e-03
-1.77993750e-07,1.01875000e-02,2.03125000e-03
-1.77193750e-07,-3.12500000e-05,5.70312500e-03
-1.76393750e-07,9.06250000e-03,1.75000000e-02
-1.75593750e-07,6.06250000e-03,1.37500000e-02
-1.74793750e-07,8.71875000e-03,4.60937500e-03
-1.73993750e-07,7.50000000e-04,8.82812500e-03
-1.73193750e-07,9.90625000e-03,1.07031250e-02
-1.72393750e-07,6.09375000e-03,6.71875000e-03
-1.71593750e-07,3.65625000e-03,1.01562500e-02
-1.70793750e-07,6.87500000e-04,1.32812500e-02
-1.69993750e-07,7.96875000e-03,1.13281250e-02
-1.69193750e-07,4.50000000e-03,9.29687500e-03
-1.68393750e-07,8.96875000e-03,1.60156250e-02
-1.67593750e-07,6.18750000e-03,1.10156250e-02
-1.66793750e-07,4.53125000e-03,7.81250000e-04
-1.65993750e-07,5.81250000e-03,8.20312500e-03
-1.65193750e-07,1.02812500e-02,1.21093750e-02
-1.64393750e-07,2.00000000e-03,1.11718750e-02
-1.63593750e-07,8.53125000e-03,3.43750000e-03
-1.62793750e-07,6.12500000e-03,1.20312500e-02
-1.61993750e-07,3.71875000e-03,2.10937500e-03
-1.61193750e-07,2.75000000e-03,1.49218750e-02
-1.60393750e-07,4.87500000e-03,1.32812500e-03
-1.59593750e-07,5.50000000e-03,1.96093750e-02
-1.58793750e-07,5.18750000e-03,8.90625000e-03
-1.57993750e-07,2.31250000e-03,2.81250000e-03
-1.57193750e-07,5.00000000e-03,6.17187500e-03
-1.56393750e-07,5.62500000e-04,6.79687500e-03
-1.55593750e-07,9.78125000e-03,-3.04687500e-03
-1.54793750e-07,2.81250000e-03,1.31250000e-02
-1.53993750e-07,6.81250000e-03,9.84375000e-03
-1.53193750e-07,2.37500000e-03,2.34375000e-03
-1.52393750e-07,4.62500000e-03,1.02343750e-02
-1.51593750e-07,9.68750000e-04,1.07812500e-02
-1.50793750e-07,7.93750000e-03,8.75000000e-03
-1.49993750e-07,3.15625000e-03,4.21875000e-03
-1.49193750e-07,5.15625000e-03,1.49218750e-02
-1.48393750e-07,2.12500000e-03,1.39062500e-02
-1.47593750e-07,1.21562500e-02,1.53125000e-02
-1.46793750e-07,2.34375000e-03,1.50781250e-02
-1.45993750e-07,5.25000000e-03,7.10937500e-03
-1.45193750e-07,-3.43750000e-04,6.01562500e-03
-1.44393750e-07,4.87500000e-03,4.14062500e-03
-1.43593750e-07,1.90625000e-03,4.84375000e-03
-1.42793750e-07,6.62500000e-03,6.95312500e-03
-1.41993750e-07,5.00000000e-04,1.66406250e-02
-1.41193750e-07,7.40625000e-03,5.78125000e-03
-1.40393750e-07,6.34375000e-03,1.14062500e-02
-1.39593750e-07,9.75000000e-03,9.14062500e-03
-1.38793750e-07,3.12500000e-03,6.01562500e-03
-1.37993750e-07,4.00000000e-03,4.14062500e-03
-1.37193750e-07,3.93750000e-03,6.17187500e-03
-1.36393750e-07,4.46875000e-03,5.54687500e-03
-1.35593750e-07,3.53125000e-03,8.82812500e-03
-1.34793750e-07,8.06250000e-03,2.34375000e-04
-1.33993750e-07,8.06250000e-03,1.05468750e-02
-1.33193750e-07,2.65625000e-03,1.34375000e-02
-1.32393750e-07,7.18750000e-03,1.14062500e-02
-1.31593750e-07,5.65625000e-03,-3.04687500e-03
-1.30793750e-07,3.96875000e-03,1.40625000e-02
-1.29993750e-07,6.28125000e-03,1.21093750e-02
-1.29193750e-07,1.75000000e-03,5.78125000e-03
-1.28393750e-07,7.84375000e-03,1.17968750e-02
-1.27593750e-07,2.96875000e-03,6.32812500e-03
-1.26793750e-07,7.84375000e-03,7.03125000e-04
-1.25993750e-07,2.93750000e-03,1.14843750e-02
-1.25193750e-07,8.46875000e-03,4.53125000e-03
-1.24393750e-07,7.18750000e-03,6.32812500e-03
-1.23593750e-07,7.75000000e-03,1.08593750e-02
-1.22793750e-07,-1.31250000e-03,1.61718750e-02
-1.21993750e-07,8.78125000e-03,8.67187500e-03
-1.21193750e-07,3.12500000e-05,7.65625000e-03
-1.20393750e-07,4.59375000e-03,1.60937500e-02
-1.19593750e-07,-2.81250000e-04,7.03125000e-04
-1.18793750e-07,7.37500000e-03,-3.90625000e-03
-1.17993750e-07,2.21875000e-03,9.45312500e-03
-1.17193750e-07,5.40625000e-03,3.28125000e-03
-1.16393750e-07,1.21875000e-03,1.09375000e-02
-1.15593750e-07,5.28125000e-03,1.32031250e-02
-1.14793750e-07,5.56250000e-03,9.21875000e-03
-1.13993750e-07,7.71875000e-03,8.59375000e-04
-1.13193750e-07,4.31250000e-03,1.17187500e-02
-1.12393750e-07,5.12500000e-03,5.46875000e-03
-1.11593750e-07,5.40625000e-03,1.45312500e-02
-1.10793750e-07,1.53125000e-03,1.47656250e-02
-1.09993750e-07,6.87500000e-03,1.96093750e-02
-1.09193750e-07,5.00000000e-03,7.42187500e-03
-1.08393750e-07,4.46875000e-03,1.60156250e-02
-1.07593750e-07,8.65625000e-03,2.01562500e-02
-1.06793750e-07,6.78125000e-03,9.76562500e-03
-1.05993750e-07,3.15625000e-03,1.05468750e-02
-1.05193750e-07,3.71875000e-03,1.26562500e-02
-1.04393750e-07,7.09375000e-03,3.98437500e-03
-1.03593750e-07,6.81250000e-03,6.01562500e-03
-1.02793750e-07,6.93750000e-03,1.82812500e-02
-1.01993750e-07,4.43750000e-03,9.60937500e-03
-1.01193750e-07,6.00000000e-03,6.48437500e-03
-1.00393750e-07,4.12500000e-03,2.81250000e-03
-9.95937500e-08,1.07812500e-02,9.53125000e-03
-9.87937500e-08,1.01250000e-02,6.95312500e-03
-9.79937500e-08,1.12500000e-02,1.03125000e-02
-9.71937500e-08,2.03125000e-03,8.35937500e-03
-9.63937500e-08,6.96875000e-03,1.24218750e-02
-9.55937500e-08,3.28125000e-03,1.10937500e-02
-9.47937500e-08,4.90625000e-03,7.81250000e-03
-9.39937500e-08,3.59375000e-03,6.09375000e-03
-9.31937500e-08,9.84375000e-03,1.01562500e-02
-9.23937500e-08,6.31250000e-03,9.45312500e-03
-9.15937500e-08,7.50000000e-03,6.25000000e-03
-9.07937500e-08,-6.56250000e-04,8.43750000e-03
-8.99937500e-08,3.53125000e-03,8.28125000e-03
-8.91937500e-08,8.15625000e-03,7.10937500e-03
-8.83937500e-08,7.46875000e-03,4.37500000e-03
-8.75937500e-08,3.18750000e-03,2.65625000e-03
-8.67937500e-08,6.37500000e-03,1.39062500e-02
-8.59937500e-08,6.28125000e-03,7.03125000e-03
-8.51937500e-08,4.81250000e-03,9.92187500e-03
-8.43937500e-08,4.15625000e-03,1.24218750e-02
-8.35937500e-08,2.46875000e-03,1.69531250e-02
-8.27937500e-08,9.50000000e-03,8.28125000e-03
-8.19937500e-08,5.62500000e-03,7.81250000e-03
-8.11937500e-08,3.56250000e-03,8.43750000e-03
-8.03937500e-08,4.96875000e-03,2.57812500e-03
-7.95937500e-08,7.18750000e-04,1.07031250e-02
-7.87937500e-08,8.96875000e-03,5.07812500e-03
-7.79937500e-08,-9.68750000e-04,1.06250000e-02
-7.71937500e-08,8.06250000e-03,1.28906250e-02
-7.63937500e-08,4.90625000e-03,1.71875000e-03
-7.55937500e-08,6.21875000e-03,6.01562500e-03
-7.47937500e-08,1.31250000e-03,1.37500000e-02
-7.39937500e-08,2.53125000e-03,1.08593750e-02
-7.31937500e-08,7.71875000e-03,1.49218750e-02
-7.23937500e-08,7.15625000e-03,1.05468750e-02
-7.15937500e-08,-5.31250000e-04,6.17187500e-03
-7.07937500e-08,9.62500000e-03,1.07031250e-02
-6.99937500e-08,3.12500000e-05,1.19531250e-02
-6.91937500e-08,6.78125000e-03,1.24218750e-02
-6.83937500e-08,1.84375000e-03,9.76562500e-03
-6.75937500e-08,8.46875000e-03,1.81250000e-02
-6.67937500e-08,3.18750000e-03,1.18750000e-02
-6.59937500e-08,7.71875000e-03,5.23437500e-03
-6.51937500e-08,1.03125000e-03,9.29687500e-03
-6.43937500e-08,2.68750000e-03,1.85156250e-02
-6.35937500e-08,7.09375000e-03,8.28125000e-03
-6.27937500e-08,8.78125000e-03,2.10937500e-03
-6.19937500e-08,6.03125000e-03,2.06250000e-02
-6.11937500e-08,4.59375000e-03,1.42187500e-02
-6.03937500e-08,8.43750000e-03,-3.13281250e-01
-5.95937500e-08,6.71875000e-03,-8.80078125e-01
-5.87937500e-08,5.68750000e-03,-1.21523438e+00
-5.79937500e-08,6.00000000e-03,-1.29054687e+00
-5.71937500e-08,6.75000000e-03,-1.37687500e+00
-5.63937500e-08,5.90625000e-03,-1.39117188e+00
-5.55937500e-08,7.81250000e-03,-1.40515625e+00
-5.47937500e-08,5.65625000e-03,-1.37656250e+00
-5.39937500e-08,7.34375000e-03,-1.39726563e+00
-5.31937500e-08,8.96875000e-03,-1.40156250e+00
-5.23937500e-08,5.71875000e-03,-1.41820313e+00
-5.15937500e-08,7.84375000e-03,-1.42125000e+00
-5.07937500e-08,4.59375000e-03,-1.40828125e+00
-4.99937500e-08,9.06250000e-03,-1.40671875e+00
-4.91937500e-08,-7.81250000e-04,-1.40609375e+00
-4.83937500e-08,5.75000000e-03,-1.41046875e+00
-4.75937500e-08,7.84375000e-03,-1.40992188e+00
-4.67937500e-08,7.09375000e-03,-1.41437500e+00
-4.59937500e-08,-2.09375000e-03,-1.40523438e+00
-4.51937500e-08,9.00000000e-03,-1.42281250e+00
-4.43937500e-08,4.84375000e-03,-1.42507813e+00
-4.35937500e-08,9.68750000e-03,-1.41992188e+00
-4.27937500e-08,6.56250000e-04,-1.42812500e+00
-4.19937500e-08,9.03125000e-03,-1.42328125e+00
-4.11937500e-08,1.31250000e-03,-1.41726563e+00
-4.03937500e-08,1.01562500e-02,-1.41960938e+00
-3.95937500e-08,-5.31250000e-04,-1.42054688e+00
-3.87937500e-08,-3.12500000e-04,-1.42359375e+00
-3.79937500e-08,7.62500000e-03,-1.42320313e+00
-3.71937500e-08,6.12500000e-03,-1.42226563e+00
-3.63937500e-08,9.06250000e-04,-1.41882813e+00
-3.55937500e-08,3.96875000e-03,-1.42531250e+00
-3.47937500e-08,1.34375000e-03,-1.41562500e+00
-3.39937500e-08,-6.62500000e-03,-1.41843750e+00
-3.31937500e-08,-1.38437500e-02,-1.42328125e+00
-3.23937500e-08,-4.00000000e-02,-1.42046875e+00
-3.15937500e-08,-8.00000000e-02,-1.42679687e+00
-3.07937500e-08,-1.45781250e-01,-1.41781250e+00
-2.99937500e-08,-2.26250000e-01,-1.42906250e+00
-2.91937500e-08,-3.13500000e-01,-1.42179688e+00
-2.83937500e-08,-4.04562500e-01,-1.42718750e+00
-2.75937500e-08,-4.88375000e-01,-1.43781250e+00
-2.67937500e-08,-5.64781250e-01,-1.42789063e+00
-2.59937500e-08,-6.31375000e-01,-1.41539063e+00
-2.51937500e-08,-6.88562500e-01,-1.41546875e+00
-2.43937500e-08,-7.36625000e-01,-1.40804688e+00
-2.35937500e-08,-7.69593750e-01,-1.41960938e+00
-2.27937500e-08,-7.83218750e-01,-1.42031250e+00
-2.19937500e-08,-8.04593750e-01,-1.41898437e+00
-2.11937500e-08,-8.14500000e-01,-1.41882813e+00
-2.03937500e-08,-8.14312500e-01,-1.41750000e+00
-1.95937500e-08,-7.90093750e-01,-1.42460938e+00
-1.87937500e-08,-7.81843750e-01,-1.42234375e+00
-1.79937500e-08,-7.58500000e-01,-1.41898437e+00
-1.71937500e-08,-7.29375000e-01,-1.42554688e+00
-1.63937500e-08,-6.97593750e-01,-1.42453125e+00
-1.55937500e-08,-6.67843750e-01,-1.41851563e+00
-1.47937500e-08,-6.32281250e-01,-1.41195313e+00
-1.39937500e-08,-6.01687500e-01,-1.42281250e+00
-1.31937500e-08,-5.66156250e-01,-1.43023438e+00
-1.23937500e-08,-5.40562500e-01,-1.42671875e+00
-1.15937500e-08,-5.10343750e-01,-1.42984375e+00
-1.07937500e-08,-4.82031250e-01,-1.42234375e+00
-9.99375000e-09,-4.51718750e-01,-1.41914063e+00
-9.19375000e-09,-4.20156250e-01,-1.42179688e+00
-8.39375000e-09,-3.99156250e-01,-1.42484375e+00
-7.59375000e-09,-3.70937500e-01,-1.42265625e+00
-6.79375000e-09,-3.46406250e-01,-1.42843750e+00
-5.99375000e-09,-3.23218750e-01,-1.42390625e+00
-5.19375000e-09,-3.07625000e-01,-1.41898437e+00
-4.39375000e-09,-2.83218750e-01,-1.41000000e+00
-3.59375000e-09,-2.65718750e-01,-1.39843750e+00
-2.79375000e-09,-2.56593750e-01,-1.34781250e+00
-1.99375000e-09,-2.37812500e-01,-1.21031250e+00
-1.19375000e-09,-2.36468750e-01,-8.31953125e-01
-3.93750000e-10,-2.16031250e-01,-4.06171875e-01
4.06250000e-10,-2.07562500e-01,-2.21015625e-01
1.20625000e-09,-2.03812500e-01,-1.21250000e-01
2.00625000e-09,-1.94406250e-01,-7.69531250e-02
2.80625000e-09,-1.80968750e-01,-6.17187500e-02
3.60625000e-09,-1.67625000e-01,-4.75781250e-02
4.40625000e-09,-1.61562500e-01,-4.28125000e-02
5.20625000e-09,-1.52718750e-01,-3.45312500e-02
6.00625000e-09,-1.40343750e-01,-3.48437500e-02
6.80625000e-09,-1.38062500e-01,-3.95312500e-02
7.60625000e-09,-1.27906250e-01,-2.74218750e-02
8.40625000e-09,-1.24343750e-01,-2.76562500e-02
9.20625000e-09,-1.12687500e-01,-2.91406250e-02
1.00062500e-08,-1.13031250e-01,-2.14843750e-02
1.08062500e-08,-9.88437500e-02,-2.32031250e-02
1.16062500e-08,-9.70937500e-02,-2.84375000e-02
1.24062500e-08,-9.31875000e-02,-2.24218750e-02
1.32062500e-08,-8.41875000e-02,-2.44531250e-02
1.40062500e-08,-8.10937500e-02,-1.03906250e-02
1.48062500e-08,-8.18437500e-02,-8.20312500e-03
1.56062500e-08,-7.19062500e-02,-1.53906250e-02
1.64062500e-08,-6.82812500e-02,-1.76562500e-02
1.72062500e-08,-6.22187500e-02,-6.79687500e-03
1.80062500e-08,-6.08437500e-02,-2.18750000e-03
1.88062500e-08,-5.96250000e-02,1.17187500e-03
1.96062500e-08,-5.11562500e-02,-1.13281250e-02
2.04062500e-08,-5.22187500e-02,0.00000000e+00
2.12062500e-08,-4.85625000e-02,-4.76562500e-03
2.20062500e-08,-4.56250000e-02,-3.20312500e-03
2.28062500e-08,-4.54062500e-02,6.79687500e-03
2.36062500e-08,-3.71250000e-02,4.29687500e-03
2.44062500e-08,-3.92812500e-02,1.32812500e-03
2.52062500e-08,-3.59375000e-02,-4.14062500e-03
2.60062500e-08,-3.05625000e-02,-1.56250000e-03
2.68062500e-08,-2.74687500e-02,1.92968750e-02
2.76062500e-08,-3.56562500e-02,7.50000000e-03
2.84062500e-08,-2.41875000e-02,-2.81250000e-03
2.92062500e-08,-2.76875000e-02,2.34375000e-03
3.00062500e-08,-2.51562500e-02,4.84375000e-03
3.08062500e-08,-2.53125000e-02,1.50781250e-02
3.16062500e-08,-2.30937500e-02,2.45312500e-02
3.24062500e-08,-2.35625000e-02,2.25000000e-02
3.32062500e-08,-2.05937500e-02,2.64843750e-02
3.40062500e-08,-2.43125000e-02,3.38281250e-02
3.48062500e-08,-1.81875000e-02,2.82031250e-02
3.56062500e-08,-2.11562500e-02,3.72656250e-02
3.64062500e-08,-1.22500000e-02,3.14062500e-02
3.72062500e-08,-2.18437500e-02,3.13281250e-02
3.80062500e-08,-1.83437500e-02,2.71875000e-02
3.88062500e-08,-1.65312500e-02,2.38281250e-02
3.96062500e-08,-1.43437500e-02,2.71875000e-02
4.04062500e-08,-2.08125000e-02,2.88281250e-02
4.12062500e-08,-1.24062500e-02,2.08593750e-02
4.20062500e-08,-1.06875000e-02,2.88281250e-02
4.28062500e-08,-1.17500000e-02,1.99218750e-02
4.36062500e-08,-1.43437500e-02,2.54687500e-02
4.44062500e-08,-1.55000000e-02,1.98437500e-02
4.52062500e-08,-1.03125000e-02,2.53125000e-02
4.60062500e-08,-8.62500000e-03,2.96093750e-02
4.68062500e-08,-7.96875000e-03,2.41406250e-02
4.76062500e-08,-7.37500000e-03,2.42187500e-02
4.84062500e-08,-1.05312500e-02,2.32812500e-02
4.92062500e-08,-5.12500000e-03,1.07812500e-02
5.00062500e-08,-8.75000000e-03,1.83593750e-02
5.08062500e-08,-8.53125000e-03,1.33593750e-02
5.16062500e-08,-9.75000000e-03,1.96093750e-02
5.24062500e-08,-1.05937500e-02,1.46093750e-02
5.32062500e-08,-1.30000000e-02,1.88281250e-02
5.40062500e-08,-7.03125000e-03,2.38281250e-02
5.48062500e-08,-1.38437500e-02,1.64062500e-02
5.56062500e-08,-1.04375000e-02,1.32031250e-02
5.64062500e-08,-1.30937500e-02,1.72656250e-02
