muon_CSV/TriggerAuto_ALL_20231205193819891.csv

Model,MSO64B
Channel,CH1,,Channel,CH2
Label,,,Label,
Waveform Type,ANALOG,,Waveform Type,ANALOG
Horizontal Units,s,,Horizontal Units,s
Sample Interval,8.00000000e-10,,Sample Interval,8.00000000e-10
Record Length,5000,,Record Length,5000
Zero Index,349.63281250,,Zero Index,349.63281250
Vertical Units,V,,Vertical Units,V
,,,,
ANALOG_Thumbnail,,,ANALOG_Thumbnail,
yOffset,0.000000,,yOffset,0.000000
yPosition,2.160000,,yPosition,2.180000

Labels,,
TIME,CH1,CH2
-2.79706250e-07,4.40625000e-03,1.14062500e-02
-2.78906250e-07,5.03125000e-03,8.12500000e-03
-2.78106250e-07,7.78125000e-03,8.28125000e-03
-2.77306250e-07,9.96875000e-03,1.28906250e-02
-2.76506250e-07,2.75000000e-03,1.74218750e-02
-2.75706250e-07,8.28125000e-03,1.97656250e-02
-2.74906250e-07,8.65625000e-03,4.53125000e-03
-2.74106250e-07,1.01250000e-02,1.68750000e-02
-2.73306250e-07,7.71875000e-03,1.10937500e-02
-2.72506250e-07,6.62500000e-03,1.40625000e-02
-2.71706250e-07,9.09375000e-03,1.57812500e-02
-2.70906250e-07,9.40625000e-03,1.18750000e-02
-2.70106250e-07,9.00000000e-03,1.45312500e-02
-2.69306250e-07,6.28125000e-03,1.05468750e-02
-2.68506250e-07,5.90625000e-03,1.39062500e-02
-2.67706250e-07,1.51875000e-02,9.76562500e-03
-2.66906250e-07,1.40625000e-03,5.31250000e-03
-2.66106250e-07,6.62500000e-03,6.17187500e-03
-2.65306250e-07,7.34375000e-03,6.79687500e-03
-2.64506250e-07,7.50000000e-03,1.34375000e-02
-2.63706250e-07,1.56250000e-03,1.05468750e-02
-2.62906250e-07,7.34375000e-03,7.03125000e-04
-2.62106250e-07,6.12500000e-03,3.90625000e-04
-2.61306250e-07,7.93750000e-03,1.03125000e-02
-2.60506250e-07,5.93750000e-03,9.45312500e-03
-2.59706250e-07,1.07500000e-02,1.14062500e-02
-2.58906250e-07,2.46875000e-03,4.68750000e-03
-2.58106250e-07,5.62500000e-03,1.28906250e-02
-2.57306250e-07,1.68750000e-03,5.23437500e-03
-2.56506250e-07,9.78125000e-03,5.00000000e-03
-2.55706250e-07,5.18750000e-03,1.00781250e-02
-2.54906250e-07,8.46875000e-03,5.39062500e-03
-2.54106250e-07,6.56250000e-04,3.51562500e-03
-2.53306250e-07,5.84375000e-03,2.96875000e-03
-2.52506250e-07,5.75000000e-03,3.90625000e-04
-2.51706250e-07,1.32500000e-02,1.44531250e-02
-2.50906250e-07,-4.06250000e-04,1.32812500e-02
-2.50106250e-07,8.53125000e-03,8.20312500e-03
-2.49306250e-07,7.34375000e-03,1.07812500e-02
-2.48506250e-07,4.00000000e-03,1.73437500e-02
-2.47706250e-07,1.87500000e-03,3.04687500e-03
-2.46906250e-07,5.81250000e-03,2.42187500e-03
-2.46106250e-07,6.68750000e-03,1.14062500e-02
-2.45306250e-07,7.43750000e-03,4.92187500e-03
-2.44506250e-07,6.43750000e-03,2.34375000e-02
-2.43706250e-07,8.90625000e-03,3.67187500e-03
-2.42906250e-07,1.46875000e-03,1.42968750e-02
-2.42106250e-07,6.06250000e-03,1.30468750e-02
-2.41306250e-07,4.50000000e-03,9.92187500e-03
-2.40506250e-07,5.59375000e-03,7.18750000e-03
-2.39706250e-07,4.18750000e-03,4.68750000e-03
-2.38906250e-07,1.00312500e-02,1.56250000e-04
-2.38106250e-07,-3.43750000e-04,5.07812500e-03
-2.37306250e-07,1.22500000e-02,8.75000000e-03
-2.36506250e-07,1.00312500e-02,-3.90625000e-04
-2.35706250e-07,9.71875000e-03,5.07812500e-03
-2.34906250e-07,1.31250000e-03,8.98437500e-03
-2.34106250e-07,7.46875000e-03,1.80468750e-02
-2.33306250e-07,4.84375000e-03,1.25000000e-03
-2.32506250e-07,6.56250000e-03,1.36718750e-02
-2.31706250e-07,5.81250000e-03,-2.73437500e-03
-2.30906250e-07,9.65625000e-03,9.37500000e-03
-2.30106250e-07,5.93750000e-03,1.78906250e-02
-2.29306250e-07,8.53125000e-03,1.12500000e-02
-2.28506250e-07,7.50000000e-04,1.05468750e-02
-2.27706250e-07,3.81250000e-03,-5.46875000e-04
-2.26906250e-07,4.53125000e-03,9.60937500e-03
-2.26106250e-07,8.46875000e-03,8.75000000e-03
-2.25306250e-07,4.56250000e-03,4.06250000e-03
-2.24506250e-07,6.71875000e-03,6.40625000e-03
-2.23706250e-07,9.75000000e-03,1.72656250e-02
-2.22906250e-07,8.46875000e-03,-2.65625000e-03
-2.22106250e-07,7.84375000e-03,9.76562500e-03
-2.21306250e-07,7.71875000e-03,3.98437500e-03
-2.20506250e-07,9.50000000e-03,8.35937500e-03
-2.19706250e-07,6.46875000e-03,8.75000000e-03
-2.18906250e-07,9.15625000e-03,3.51562500e-03
-2.18106250e-07,8.96875000e-03,1.03125000e-02
-2.17306250e-07,5.96875000e-03,1.07031250e-02
-2.16506250e-07,1.26250000e-02,3.35937500e-03
-2.15706250e-07,3.59375000e-03,5.54687500e-03
-2.14906250e-07,3.50000000e-03,-4.68750000e-04
-2.14106250e-07,5.25000000e-03,-7.81250000e-04
-2.13306250e-07,8.90625000e-03,9.14062500e-03
-2.12506250e-07,1.56250000e-03,1.54687500e-02
-2.11706250e-07,7.31250000e-03,9.29687500e-03
-2.10906250e-07,4.81250000e-03,4.84375000e-03
-2.10106250e-07,9.84375000e-03,7.57812500e-03
-2.09306250e-07,1.43750000e-03,1.42187500e-02
-2.08506250e-07,9.06250000e-03,1.25781250e-02
-2.07706250e-07,4.21875000e-03,4.76562500e-03
-2.06906250e-07,4.06250000e-03,1.48437500e-02
-2.06106250e-07,9.37500000e-04,8.51562500e-03
-2.05306250e-07,1.09375000e-02,1.01562500e-02
-2.04506250e-07,3.12500000e-03,9.29687500e-03
-2.03706250e-07,8.59375000e-03,5.54687500e-03
-2.02906250e-07,2.75000000e-03,1.55468750e-02
-2.02106250e-07,3.71875000e-03,1.98437500e-02
-2.01306250e-07,1.01562500e-02,1.23437500e-02
-2.00506250e-07,1.00625000e-02,1.25781250e-02
-1.99706250e-07,5.28125000e-03,5.70312500e-03
-1.98906250e-07,5.87500000e-03,-3.90625000e-04
-1.98106250e-07,1.26875000e-02,6.79687500e-03
-1.97306250e-07,6.09375000e-03,2.34375000e-04
-1.96506250e-07,7.84375000e-03,1.42187500e-02
-1.95706250e-07,9.34375000e-03,-1.87500000e-03
-1.94906250e-07,4.93750000e-03,1.58593750e-02
-1.94106250e-07,7.46875000e-03,1.39062500e-02
-1.93306250e-07,4.28125000e-03,1.73437500e-02
-1.92506250e-07,2.75000000e-03,7.10937500e-03
-1.91706250e-07,7.93750000e-03,8.12500000e-03
-1.90906250e-07,6.40625000e-03,4.68750000e-03
-1.90106250e-07,4.96875000e-03,1.15625000e-02
-1.89306250e-07,7.68750000e-03,8.51562500e-03
-1.88506250e-07,1.01250000e-02,1.48437500e-03
-1.87706250e-07,1.41875000e-02,2.96875000e-03
-1.86906250e-07,1.87500000e-04,7.73437500e-03
-1.86106250e-07,8.09375000e-03,1.67968750e-02
-1.85306250e-07,1.24687500e-02,7.89062500e-03
-1.84506250e-07,9.59375000e-03,6.87500000e-03
-1.83706250e-07,5.31250000e-04,1.47656250e-02
-1.82906250e-07,1.13125000e-02,2.65625000e-03
-1.82106250e-07,5.03125000e-03,1.57031250e-02
-1.81306250e-07,7.28125000e-03,1.96093750e-02
-1.80506250e-07,5.28125000e-03,7.73437500e-03
-1.79706250e-07,1.06562500e-02,3.43750000e-03
-1.78906250e-07,5.71875000e-03,7.50000000e-03
-1.78106250e-07,1.19687500e-02,1.00000000e-02
-1.77306250e-07,1.68750000e-03,1.00000000e-02
-1.76506250e-07,7.34375000e-03,-1.32812500e-03
-1.75706250e-07,9.46875000e-03,6.48437500e-03
-1.74906250e-07,1.30312500e-02,1.40625000e-02
-1.74106250e-07,5.59375000e-03,8.12500000e-03
-1.73306250e-07,7.71875000e-03,1.53906250e-02
-1.72506250e-07,1.00625000e-02,7.81250000e-03
-1.71706250e-07,6.06250000e-03,6.79687500e-03
-1.70906250e-07,9.53125000e-03,1.00781250e-02
-1.70106250e-07,8.00000000e-03,6.64062500e-03
-1.69306250e-07,7.37500000e-03,6.79687500e-03
-1.68506250e-07,8.12500000e-03,4.84375000e-03
-1.67706250e-07,7.34375000e-03,1.15625000e-02
-1.66906250e-07,6.43750000e-03,1.13281250e-02
-1.66106250e-07,3.68750000e-03,1.19531250e-02
-1.65306250e-07,5.56250000e-03,6.25000000e-04
-1.64506250e-07,4.06250000e-03,3.12500000e-03
-1.63706250e-07,7.71875000e-03,8.20312500e-03
-1.62906250e-07,5.03125000e-03,1.15625000e-02
-1.62106250e-07,6.56250000e-03,1.26562500e-02
-1.61306250e-07,1.59375000e-03,1.20312500e-02
-1.60506250e-07,7.96875000e-03,2.65625000e-03
-1.59706250e-07,7.68750000e-03,1.24218750e-02
-1.58906250e-07,8.96875000e-03,1.64062500e-02
-1.58106250e-07,4.40625000e-03,6.71875000e-03
-1.57306250e-07,6.65625000e-03,1.46093750e-02
-1.56506250e-07,3.71875000e-03,7.89062500e-03
-1.55706250e-07,8.37500000e-03,9.29687500e-03
-1.54906250e-07,5.78125000e-03,-1.17187500e-03
-1.54106250e-07,9.62500000e-03,1.36718750e-02
-1.53306250e-07,5.40625000e-03,1.06250000e-02
-1.52506250e-07,8.25000000e-03,1.53125000e-02
-1.51706250e-07,1.34375000e-03,7.81250000e-03
-1.50906250e-07,5.93750000e-03,8.75000000e-03
-1.50106250e-07,7.09375000e-03,4.76562500e-03
-1.49306250e-07,6.90625000e-03,2.07812500e-02
-1.48506250e-07,2.87500000e-03,4.21875000e-03
-1.47706250e-07,1.07812500e-02,5.62500000e-03
-1.46906250e-07,1.01875000e-02,7.96875000e-03
-1.46106250e-07,3.15625000e-03,9.37500000e-04
-1.45306250e-07,8.03125000e-03,2.01562500e-02
-1.44506250e-07,5.50000000e-03,5.00000000e-03
-1.43706250e-07,1.11250000e-02,2.96875000e-03
-1.42906250e-07,9.71875000e-03,1.07812500e-02
-1.42106250e-07,7.12500000e-03,5.23437500e-03
-1.41306250e-07,6.37500000e-03,2.81250000e-03
-1.40506250e-07,4.87500000e-03,5.39062500e-03
-1.39706250e-07,6.71875000e-03,8.59375000e-04
-1.38906250e-07,2.40625000e-03,8.35937500e-03
-1.38106250e-07,3.71875000e-03,8.04687500e-03
-1.37306250e-07,4.87500000e-03,8.90625000e-03
-1.36506250e-07,1.01562500e-02,1.46875000e-02
-1.35706250e-07,-2.21875000e-03,6.64062500e-03
-1.34906250e-07,8.43750000e-03,5.54687500e-03
-1.34106250e-07,5.40625000e-03,-1.01562500e-03
-1.33306250e-07,7.09375000e-03,7.89062500e-03
-1.32506250e-07,4.93750000e-03,1.22656250e-02
-1.31706250e-07,4.87500000e-03,1.22656250e-02
-1.30906250e-07,6.59375000e-03,1.15625000e-02
-1.30106250e-07,8.96875000e-03,1.35937500e-02
-1.29306250e-07,7.00000000e-03,8.90625000e-03
-1.28506250e-07,1.10000000e-02,1.37500000e-02
-1.27706250e-07,3.06250000e-03,1.21875000e-02
-1.26906250e-07,1.21562500e-02,3.75000000e-03
-1.26106250e-07,3.18750000e-03,1.06250000e-02
-1.25306250e-07,4.87500000e-03,1.17187500e-03
-1.24506250e-07,9.34375000e-03,-9.37500000e-04
-1.23706250e-07,1.19687500e-02,1.82812500e-02
-1.22906250e-07,7.90625000e-03,7.10937500e-03
-1.22106250e-07,7.75000000e-03,7.10937500e-03
-1.21306250e-07,9.09375000e-03,8.20312500e-03
-1.20506250e-07,7.40625000e-03,4.53125000e-03
-1.19706250e-07,9.12500000e-03,1.64843750e-02
-1.18906250e-07,3.56250000e-03,1.15625000e-02
-1.18106250e-07,1.05937500e-02,1.50000000e-02
-1.17306250e-07,6.50000000e-03,9.60937500e-03
-1.16506250e-07,9.34375000e-03,1.24218750e-02
-1.15706250e-07,9.00000000e-03,6.48437500e-03
-1.14906250e-07,2.46875000e-03,1.33593750e-02
-1.14106250e-07,7.90625000e-03,1.05468750e-02
-1.13306250e-07,4.84375000e-03,1.93750000e-02
-1.12506250e-07,8.06250000e-03,1.17187500e-02
-1.11706250e-07,3.21875000e-03,1.14843750e-02
-1.10906250e-07,6.78125000e-03,1.27343750e-02
-1.10106250e-07,1.78125000e-03,8.28125000e-03
-1.09306250e-07,1.18437500e-02,1.24218750e-02
-1.08506250e-07,6.78125000e-03,2.02343750e-02
-1.07706250e-07,1.00000000e-02,6.87500000e-03
-1.06906250e-07,2.53125000e-03,1.47656250e-02
-1.06106250e-07,9.71875000e-03,1.30468750e-02
-1.05306250e-07,4.03125000e-03,1.80468750e-02
-1.04506250e-07,6.18750000e-03,1.43750000e-02
-1.03706250e-07,2.43750000e-03,2.34375000e-04
-1.02906250e-07,7.40625000e-03,1.39062500e-02
-1.02106250e-07,5.21875000e-03,1.55468750e-02
-1.01306250e-07,1.07500000e-02,1.24218750e-02
-1.00506250e-07,-4.06250000e-04,1.51562500e-02
-9.97062500e-08,6.06250000e-03,9.76562500e-03
-9.89062500e-08,9.28125000e-03,6.17187500e-03
-9.81062500e-08,1.05625000e-02,1.35937500e-02
-9.73062500e-08,1.96875000e-03,1.39843750e-02
-9.65062500e-08,1.04375000e-02,-2.96875000e-03
-9.57062500e-08,1.14687500e-02,1.28906250e-02
-9.49062500e-08,7.78125000e-03,1.23437500e-02
-9.41062500e-08,5.68750000e-03,1.39843750e-02
-9.33062500e-08,-5.93750000e-04,7.89062500e-03
-9.25062500e-08,8.71875000e-03,1.29687500e-02
-9.17062500e-08,1.12187500e-02,2.26562500e-02
-9.09062500e-08,9.50000000e-03,1.78906250e-02
-9.01062500e-08,8.15625000e-03,1.32812500e-02
-8.93062500e-08,6.46875000e-03,1.34375000e-02
-8.85062500e-08,1.36875000e-02,9.29687500e-03
-8.77062500e-08,9.15625000e-03,1.36718750e-02
-8.69062500e-08,5.37500000e-03,9.92187500e-03
-8.61062500e-08,4.34375000e-03,3.12500000e-03
-8.53062500e-08,1.02187500e-02,1.36718750e-02
-8.45062500e-08,8.12500000e-04,4.37500000e-03
-8.37062500e-08,1.09062500e-02,2.17968750e-02
-8.29062500e-08,5.81250000e-03,5.46875000e-03
-8.21062500e-08,3.68750000e-03,1.59375000e-02
-8.13062500e-08,4.62500000e-03,8.20312500e-03
-8.05062500e-08,1.32500000e-02,1.25781250e-02
-7.97062500e-08,5.18750000e-03,1.75781250e-02
-7.89062500e-08,9.78125000e-03,1.60156250e-02
-7.81062500e-08,-6.87500000e-04,2.81250000e-03
-7.73062500e-08,8.93750000e-03,9.14062500e-03
-7.65062500e-08,2.81250000e-03,6.95312500e-03
-7.57062500e-08,8.68750000e-03,9.21875000e-03
-7.49062500e-08,2.65625000e-03,1.82031250e-02
-7.41062500e-08,9.53125000e-03,1.52343750e-02
-7.33062500e-08,1.13125000e-02,1.26562500e-02
-7.25062500e-08,1.19687500e-02,9.29687500e-03
-7.17062500e-08,3.15625000e-03,9.29687500e-03
-7.09062500e-08,5.65625000e-03,9.21875000e-03
-7.01062500e-08,1.10937500e-02,7.81250000e-03
-6.93062500e-08,8.09375000e-03,7.81250000e-03
-6.85062500e-08,4.81250000e-03,5.15625000e-03
-6.77062500e-08,9.09375000e-03,9.14062500e-03
-6.69062500e-08,9.00000000e-03,1.94531250e-02
-6.61062500e-08,5.75000000e-03,1.50781250e-02
-6.53062500e-08,9.62500000e-03,1.36718750e-02
-6.45062500e-08,7.31250000e-03,1.37500000e-02
-6.37062500e-08,8.43750000e-04,3.67187500e-03
-6.29062500e-08,8.03125000e-03,-2.89062500e-03
-6.21062500e-08,8.46875000e-03,2.05468750e-02
-6.13062500e-08,6.90625000e-03,2.96875000e-02
-6.05062500e-08,9.53125000e-03,-2.32265625e-01
-5.97062500e-08,8.09375000e-03,-7.91093750e-01
-5.89062500e-08,1.28125000e-03,-1.20554688e+00
-5.81062500e-08,1.20937500e-02,-1.28859375e+00
-5.73062500e-08,4.03125000e-03,-1.33898438e+00
-5.65062500e-08,8.87500000e-03,-1.39101563e+00
-5.57062500e-08,3.81250000e-03,-1.39796875e+00
-5.49062500e-08,1.12500000e-02,-1.38382812e+00
-5.41062500e-08,6.00000000e-03,-1.39742188e+00
-5.33062500e-08,1.03125000e-02,-1.40539063e+00
-5.25062500e-08,4.28125000e-03,-1.42492188e+00
-5.17062500e-08,9.34375000e-03,-1.41210938e+00
-5.09062500e-08,9.84375000e-03,-1.41601562e+00
-5.01062500e-08,9.90625000e-03,-1.40460938e+00
-4.93062500e-08,2.43750000e-03,-1.40523438e+00
-4.85062500e-08,5.78125000e-03,-1.42914063e+00
-4.77062500e-08,1.07187500e-02,-1.40742188e+00
-4.69062500e-08,1.29062500e-02,-1.41664063e+00
-4.61062500e-08,3.21875000e-03,-1.41039063e+00
-4.53062500e-08,7.31250000e-03,-1.42343750e+00
-4.45062500e-08,1.20625000e-02,-1.42570313e+00
-4.37062500e-08,3.15625000e-03,-1.41859375e+00
-4.29062500e-08,7.40625000e-03,-1.42687500e+00
-4.21062500e-08,5.59375000e-03,-1.43140625e+00
-4.13062500e-08,1.42187500e-02,-1.42757813e+00
-4.05062500e-08,1.10937500e-02,-1.41929688e+00
-3.97062500e-08,6.43750000e-03,-1.41523438e+00
-3.89062500e-08,1.11562500e-02,-1.42304688e+00
-3.81062500e-08,6.46875000e-03,-1.42390625e+00
-3.73062500e-08,8.93750000e-03,-1.42242188e+00
-3.65062500e-08,4.37500000e-04,-1.42414063e+00
-3.57062500e-08,4.62500000e-03,-1.42789063e+00
-3.49062500e-08,7.18750000e-04,-1.42617188e+00
-3.41062500e-08,-4.06250000e-04,-1.42078125e+00
-3.33062500e-08,-1.96250000e-02,-1.42593750e+00
-3.25062500e-08,-3.65937500e-02,-1.41960938e+00
-3.17062500e-08,-7.85937500e-02,-1.43289063e+00
-3.09062500e-08,-1.28750000e-01,-1.42929688e+00
-3.01062500e-08,-2.02656250e-01,-1.40945313e+00
-2.93062500e-08,-2.76156250e-01,-1.43156250e+00
-2.85062500e-08,-3.65906250e-01,-1.42054688e+00
-2.77062500e-08,-4.28718750e-01,-1.41765625e+00
-2.69062500e-08,-4.91406250e-01,-1.42390625e+00
-2.61062500e-08,-5.36812500e-01,-1.42554688e+00
-2.53062500e-08,-5.76875000e-01,-1.42000000e+00
-2.45062500e-08,-6.08031250e-01,-1.41476563e+00
-2.37062500e-08,-6.26250000e-01,-1.41992188e+00
-2.29062500e-08,-6.41156250e-01,-1.41710938e+00
-2.21062500e-08,-6.40562500e-01,-1.42156250e+00
-2.13062500e-08,-6.40812500e-01,-1.41546875e+00
-2.05062500e-08,-6.34937500e-01,-1.42664063e+00
-1.97062500e-08,-6.13500000e-01,-1.41234375e+00
-1.89062500e-08,-5.96750000e-01,-1.41406250e+00
-1.81062500e-08,-5.76562500e-01,-1.41382813e+00
-1.73062500e-08,-5.57343750e-01,-1.42250000e+00
-1.65062500e-08,-5.29375000e-01,-1.42335937e+00
-1.57062500e-08,-4.99531250e-01,-1.41406250e+00
-1.49062500e-08,-4.75031250e-01,-1.42281250e+00
-1.41062500e-08,-4.55250000e-01,-1.41914063e+00
-1.33062500e-08,-4.29656250e-01,-1.42054688e+00
-1.25062500e-08,-4.09843750e-01,-1.42226563e+00
-1.17062500e-08,-3.83656250e-01,-1.42421875e+00
-1.09062500e-08,-3.64687500e-01,-1.42468750e+00
-1.01062500e-08,-3.41625000e-01,-1.43390625e+00
-9.30625000e-09,-3.21875000e-01,-1.43179688e+00
-8.50625000e-09,-3.02093750e-01,-1.41148438e+00
-7.70625000e-09,-2.79562500e-01,-1.43421875e+00
-6.90625000e-09,-2.60562500e-01,-1.41937500e+00
-6.10625000e-09,-2.36656250e-01,-1.42492188e+00
-5.30625000e-09,-2.27562500e-01,-1.41351563e+00
-4.50625000e-09,-2.13718750e-01,-1.41343750e+00
-3.70625000e-09,-1.99562500e-01,-1.38835938e+00
-2.90625000e-09,-1.90343750e-01,-1.35031250e+00
-2.10625000e-09,-1.74937500e-01,-1.21031250e+00
-1.30625000e-09,-1.66687500e-01,-8.37734375e-01
-5.06250000e-10,-1.52687500e-01,-4.36484375e-01
2.93750000e-10,-1.46812500e-01,-2.32734375e-01
1.09375000e-09,-1.35125000e-01,-1.18906250e-01
1.89375000e-09,-1.35406250e-01,-8.34375000e-02
2.69375000e-09,-1.26281250e-01,-6.06250000e-02
3.49375000e-09,-1.17125000e-01,-5.08593750e-02
4.29375000e-09,-1.07625000e-01,-4.70312500e-02
5.09375000e-09,-1.10250000e-01,-3.89062500e-02
5.89375000e-09,-9.98750000e-02,-3.11718750e-02
6.69375000e-09,-9.25625000e-02,-3.42968750e-02
7.49375000e-09,-9.13750000e-02,-3.40625000e-02
8.29375000e-09,-8.05312500e-02,-2.86718750e-02
9.09375000e-09,-8.16875000e-02,-1.84375000e-02
9.89375000e-09,-7.62812500e-02,-2.76562500e-02
1.06937500e-08,-7.04687500e-02,-1.87500000e-02
1.14937500e-08,-6.56562500e-02,-1.07812500e-02
1.22937500e-08,-6.29062500e-02,-1.35156250e-02
1.30937500e-08,-6.37812500e-02,-1.50000000e-02
1.38937500e-08,-5.29375000e-02,-1.75000000e-02
1.46937500e-08,-5.50312500e-02,-2.07031250e-02
1.54937500e-08,-4.96875000e-02,-1.63281250e-02
1.62937500e-08,-4.62500000e-02,-1.10937500e-02
1.70937500e-08,-4.38125000e-02,-4.92187500e-03
1.78937500e-08,-4.65000000e-02,-3.75000000e-03
1.86937500e-08,-3.33437500e-02,-8.59375000e-03
1.94937500e-08,-3.60312500e-02,-5.00000000e-03
2.02937500e-08,-2.97500000e-02,7.89062500e-03
2.10937500e-08,-3.11875000e-02,6.95312500e-03
2.18937500e-08,-2.68750000e-02,-4.37500000e-03
2.26937500e-08,-2.86562500e-02,7.81250000e-05
2.34937500e-08,-2.55312500e-02,-1.48437500e-03
2.42937500e-08,-3.23750000e-02,1.48437500e-03
2.50937500e-08,-2.18437500e-02,-7.81250000e-04
2.58937500e-08,-2.50312500e-02,7.50000000e-03
2.66937500e-08,-1.91875000e-02,7.10937500e-03
2.74937500e-08,-2.59062500e-02,1.27343750e-02
2.82937500e-08,-1.98437500e-02,1.15625000e-02
2.90937500e-08,-1.47500000e-02,1.11718750e-02
2.98937500e-08,-1.29687500e-02,1.09375000e-03
3.06937500e-08,-2.16562500e-02,1.10937500e-02
3.14937500e-08,-1.51875000e-02,1.65625000e-02
3.22937500e-08,-1.26250000e-02,2.67968750e-02
3.30937500e-08,-1.25000000e-02,2.95312500e-02
3.38937500e-08,-1.20000000e-02,2.91406250e-02
3.46937500e-08,-1.21250000e-02,2.63281250e-02
3.54937500e-08,-6.12500000e-03,3.72656250e-02
3.62937500e-08,-1.11562500e-02,2.67968750e-02
3.70937500e-08,-1.06250000e-02,3.21875000e-02
3.78937500e-08,-7.03125000e-03,2.17968750e-02
3.86937500e-08,-5.31250000e-03,3.21093750e-02
3.94937500e-08,-6.78125000e-03,2.47656250e-02
4.02937500e-08,-1.40625000e-02,2.57812500e-02
4.10937500e-08,-8.56250000e-03,3.19531250e-02
4.18937500e-08,-1.36562500e-02,1.59375000e-02
4.26937500e-08,-1.20937500e-02,2.15625000e-02
4.34937500e-08,-1.75625000e-02,1.60937500e-02
4.42937500e-08,-1.12812500e-02,2.60937500e-02
4.50937500e-08,-9.21875000e-03,1.97656250e-02
4.58937500e-08,-6.28125000e-03,2.25000000e-02
4.66937500e-08,-1.54062500e-02,1.36718750e-02
4.74937500e-08,-6.15625000e-03,1.21093750e-02
4.82937500e-08,-1.03125000e-02,2.78906250e-02
4.90937500e-08,-7.78125000e-03,2.85937500e-02
4.98937500e-08,-1.20937500e-02,1.79687500e-02
5.06937500e-08,-5.62500000e-03,2.40625000e-02
5.14937500e-08,-1.11562500e-02,1.04687500e-02
5.22937500e-08,-3.21875000e-03,1.57031250e-02
5.30937500e-08,-1.29375000e-02,2.05468750e-02
5.38937500e-08,-1.15000000e-02,2.12500000e-02
5.46937500e-08,-4.03125000e-03,1.57031250e-02
5.54937500e-08,-2.93750000e-03,1.59375000e-02
5.62937500e-08,-1.21562500e-02,1.57031250e-02
