muon_CSV/TriggerAuto_ALL_20231205193755655.csv

Model,MSO64B
Channel,CH1,,Channel,CH2
Label,,,Label,
Waveform Type,ANALOG,,Waveform Type,ANALOG
Horizontal Units,s,,Horizontal Units,s
Sample Interval,8.00000000e-10,,Sample Interval,8.00000000e-10
Record Length,5000,,Record Length,5000
Zero Index,349.50781250,,Zero Index,349.50781250
Vertical Units,V,,Vertical Units,V
,,,,
ANALOG_Thumbnail,,,ANALOG_Thumbnail,
yOffset,0.000000,,yOffset,0.000000
yPosition,2.160000,,yPosition,2.180000

Labels,,
TIME,CH1,CH2
-2.79606250e-07,5.28125000e-03,1.03125000e-02
-2.78806250e-07,6.31250000e-03,4.76562500e-03
-2.78006250e-07,4.78125000e-03,4.68750000e-04
-2.77206250e-07,1.24375000e-02,1.04687500e-02
-2.76406250e-07,3.90625000e-03,1.21875000e-02
-2.75606250e-07,1.15937500e-02,1.28125000e-02
-2.74806250e-07,8.37500000e-03,1.33593750e-02
-2.74006250e-07,1.23437500e-02,7.34375000e-03
-2.73206250e-07,4.00000000e-03,7.50000000e-03
-2.72406250e-07,9.84375000e-03,5.54687500e-03
-2.71606250e-07,1.34375000e-03,1.15625000e-02
-2.70806250e-07,9.40625000e-03,1.07031250e-02
-2.70006250e-07,6.40625000e-03,8.12500000e-03
-2.69206250e-07,9.40625000e-03,1.01562500e-02
-2.68406250e-07,5.68750000e-03,6.71875000e-03
-2.67606250e-07,1.18125000e-02,6.25000000e-03
-2.66806250e-07,2.37500000e-03,1.07812500e-02
-2.66006250e-07,5.25000000e-03,1.40625000e-03
-2.65206250e-07,9.68750000e-03,2.42187500e-03
-2.64406250e-07,7.90625000e-03,6.95312500e-03
-2.63606250e-07,3.65625000e-03,6.32812500e-03
-2.62806250e-07,1.59375000e-03,1.22656250e-02
-2.62006250e-07,1.00000000e-02,5.39062500e-03
-2.61206250e-07,4.53125000e-03,7.03125000e-03
-2.60406250e-07,6.43750000e-03,9.45312500e-03
-2.59606250e-07,1.16875000e-02,1.64062500e-03
-2.58806250e-07,1.02500000e-02,1.43750000e-02
-2.58006250e-07,8.56250000e-03,1.72656250e-02
-2.57206250e-07,1.07187500e-02,1.31250000e-02
-2.56406250e-07,1.09062500e-02,-1.32812500e-03
-2.55606250e-07,1.75000000e-03,1.03125000e-02
-2.54806250e-07,8.84375000e-03,-7.03125000e-04
-2.54006250e-07,5.37500000e-03,5.46875000e-04
-2.53206250e-07,4.75000000e-03,3.67187500e-03
-2.52406250e-07,6.34375000e-03,1.24218750e-02
-2.51606250e-07,9.62500000e-03,4.76562500e-03
-2.50806250e-07,4.84375000e-03,9.14062500e-03
-2.50006250e-07,1.00625000e-02,1.79687500e-02
-2.49206250e-07,8.03125000e-03,3.98437500e-03
-2.48406250e-07,1.26875000e-02,8.28125000e-03
-2.47606250e-07,8.75000000e-04,2.18750000e-03
-2.46806250e-07,1.15937500e-02,1.82812500e-02
-2.46006250e-07,3.90625000e-03,1.37500000e-02
-2.45206250e-07,8.56250000e-03,8.67187500e-03
-2.44406250e-07,9.06250000e-04,7.42187500e-03
-2.43606250e-07,1.15000000e-02,1.47656250e-02
-2.42806250e-07,4.90625000e-03,1.31250000e-02
-2.42006250e-07,8.15625000e-03,1.32812500e-03
-2.41206250e-07,1.78125000e-03,7.57812500e-03
-2.40406250e-07,6.00000000e-03,6.09375000e-03
-2.39606250e-07,7.59375000e-03,8.90625000e-03
-2.38806250e-07,8.21875000e-03,1.07031250e-02
-2.38006250e-07,2.65625000e-03,2.73437500e-03
-2.37206250e-07,5.03125000e-03,1.03906250e-02
-2.36406250e-07,3.90625000e-03,7.34375000e-03
-2.35606250e-07,7.15625000e-03,8.28125000e-03
-2.34806250e-07,4.03125000e-03,1.32812500e-02
-2.34006250e-07,5.37500000e-03,-1.17187500e-03
-2.33206250e-07,7.62500000e-03,2.42968750e-02
-2.32406250e-07,5.93750000e-03,6.25000000e-03
-2.31606250e-07,7.34375000e-03,1.49218750e-02
-2.30806250e-07,9.06250000e-04,1.17187500e-03
-2.30006250e-07,3.84375000e-03,1.57812500e-02
-2.29206250e-07,9.09375000e-03,1.23437500e-02
-2.28406250e-07,7.15625000e-03,1.27343750e-02
-2.27606250e-07,6.81250000e-03,1.10156250e-02
-2.26806250e-07,5.68750000e-03,2.81250000e-03
-2.26006250e-07,9.18750000e-03,1.14062500e-02
-2.25206250e-07,2.03125000e-03,8.12500000e-03
-2.24406250e-07,8.53125000e-03,1.53125000e-02
-2.23606250e-07,8.65625000e-03,6.64062500e-03
-2.22806250e-07,6.75000000e-03,1.07031250e-02
-2.22006250e-07,3.28125000e-03,6.09375000e-03
-2.21206250e-07,1.05312500e-02,1.27343750e-02
-2.20406250e-07,8.37500000e-03,1.19531250e-02
-2.19606250e-07,9.75000000e-03,1.05468750e-02
-2.18806250e-07,6.28125000e-03,3.35937500e-03
-2.18006250e-07,1.00625000e-02,8.12500000e-03
-2.17206250e-07,5.15625000e-03,7.34375000e-03
-2.16406250e-07,1.04062500e-02,4.68750000e-03
-2.15606250e-07,2.87500000e-03,-5.00000000e-03
-2.14806250e-07,8.87500000e-03,1.05468750e-02
-2.14006250e-07,9.34375000e-03,8.67187500e-03
-2.13206250e-07,1.00625000e-02,8.20312500e-03
-2.12406250e-07,4.96875000e-03,6.09375000e-03
-2.11606250e-07,5.50000000e-03,9.37500000e-04
-2.10806250e-07,9.28125000e-03,7.73437500e-03
-2.10006250e-07,9.46875000e-03,8.12500000e-03
-2.09206250e-07,7.21875000e-03,2.26562500e-03
-2.08406250e-07,6.59375000e-03,1.10937500e-02
-2.07606250e-07,6.53125000e-03,1.53906250e-02
-2.06806250e-07,6.15625000e-03,1.13281250e-02
-2.06006250e-07,1.04375000e-02,1.39843750e-02
-2.05206250e-07,7.62500000e-03,1.25000000e-02
-2.04406250e-07,5.90625000e-03,6.56250000e-03
-2.03606250e-07,8.37500000e-03,7.81250000e-05
-2.02806250e-07,6.62500000e-03,2.96875000e-03
-2.02006250e-07,7.18750000e-03,6.87500000e-03
-2.01206250e-07,2.43750000e-03,4.92187500e-03
-2.00406250e-07,9.03125000e-03,1.09375000e-02
-1.99606250e-07,9.06250000e-04,4.76562500e-03
-1.98806250e-07,8.90625000e-03,1.28906250e-02
-1.98006250e-07,9.40625000e-03,5.93750000e-03
-1.97206250e-07,8.12500000e-03,-3.12500000e-04
-1.96406250e-07,5.56250000e-03,1.10156250e-02
-1.95606250e-07,1.06250000e-02,1.07031250e-02
-1.94806250e-07,6.40625000e-03,4.84375000e-03
-1.94006250e-07,7.65625000e-03,1.08593750e-02
-1.93206250e-07,3.00000000e-03,7.96875000e-03
-1.92406250e-07,5.71875000e-03,4.92187500e-03
-1.91606250e-07,4.81250000e-03,8.82812500e-03
-1.90806250e-07,1.16250000e-02,8.75000000e-03
-1.90006250e-07,7.00000000e-03,6.09375000e-03
-1.89206250e-07,3.53125000e-03,8.20312500e-03
-1.88406250e-07,9.28125000e-03,8.67187500e-03
-1.87606250e-07,1.44687500e-02,5.46875000e-03
-1.86806250e-07,3.96875000e-03,6.09375000e-03
-1.86006250e-07,4.50000000e-03,-5.00000000e-03
-1.85206250e-07,8.15625000e-03,1.12500000e-02
-1.84406250e-07,8.00000000e-03,1.07031250e-02
-1.83606250e-07,7.78125000e-03,8.82812500e-03
-1.82806250e-07,5.03125000e-03,-1.71875000e-03
-1.82006250e-07,9.59375000e-03,1.58593750e-02
-1.81206250e-07,5.37500000e-03,1.45312500e-02
-1.80406250e-07,7.81250000e-03,1.13281250e-02
-1.79606250e-07,5.31250000e-03,1.95312500e-03
-1.78806250e-07,5.71875000e-03,7.65625000e-03
-1.78006250e-07,5.46875000e-03,8.67187500e-03
-1.77206250e-07,7.87500000e-03,6.87500000e-03
-1.76406250e-07,4.40625000e-03,7.42187500e-03
-1.75606250e-07,6.06250000e-03,1.07812500e-02
-1.74806250e-07,1.13437500e-02,4.60937500e-03
-1.74006250e-07,2.68750000e-03,3.90625000e-04
-1.73206250e-07,8.43750000e-03,7.57812500e-03
-1.72406250e-07,2.96875000e-03,5.54687500e-03
-1.71606250e-07,1.11875000e-02,6.87500000e-03
-1.70806250e-07,1.96875000e-03,6.25000000e-03
-1.70006250e-07,1.11875000e-02,1.14843750e-02
-1.69206250e-07,6.56250000e-03,3.43750000e-03
-1.68406250e-07,8.06250000e-03,5.00000000e-03
-1.67606250e-07,6.25000000e-03,7.50000000e-03
-1.66806250e-07,8.84375000e-03,2.34375000e-04
-1.66006250e-07,7.59375000e-03,1.87500000e-03
-1.65206250e-07,1.17500000e-02,1.16406250e-02
-1.64406250e-07,8.34375000e-03,1.33593750e-02
-1.63606250e-07,4.81250000e-03,1.40625000e-03
-1.62806250e-07,1.26250000e-02,5.78125000e-03
-1.62006250e-07,1.01562500e-02,1.28125000e-02
-1.61206250e-07,4.62500000e-03,5.46875000e-03
-1.60406250e-07,6.09375000e-03,6.32812500e-03
-1.59606250e-07,8.28125000e-03,1.15625000e-02
-1.58806250e-07,7.21875000e-03,1.80468750e-02
-1.58006250e-07,6.18750000e-03,1.25000000e-02
-1.57206250e-07,7.06250000e-03,5.31250000e-03
-1.56406250e-07,1.11875000e-02,5.46875000e-03
-1.55606250e-07,1.25000000e-02,8.20312500e-03
-1.54806250e-07,5.25000000e-03,1.53906250e-02
-1.54006250e-07,9.59375000e-03,2.65625000e-03
-1.53206250e-07,3.71875000e-03,1.96093750e-02
-1.52406250e-07,1.22500000e-02,6.95312500e-03
-1.51606250e-07,6.06250000e-03,1.23437500e-02
-1.50806250e-07,6.56250000e-03,1.10156250e-02
-1.50006250e-07,7.84375000e-03,5.46875000e-03
-1.49206250e-07,1.08125000e-02,9.92187500e-03
-1.48406250e-07,2.56250000e-03,1.48437500e-03
-1.47606250e-07,8.75000000e-03,8.12500000e-03
-1.46806250e-07,3.34375000e-03,-5.00000000e-03
-1.46006250e-07,7.96875000e-03,1.38281250e-02
-1.45206250e-07,1.78125000e-03,4.06250000e-03
-1.44406250e-07,7.25000000e-03,1.96093750e-02
-1.43606250e-07,2.43750000e-03,1.10156250e-02
-1.42806250e-07,1.16562500e-02,3.51562500e-03
-1.42006250e-07,5.40625000e-03,7.50000000e-03
-1.41206250e-07,1.40625000e-02,1.00781250e-02
-1.40406250e-07,7.15625000e-03,1.51562500e-02
-1.39606250e-07,6.68750000e-03,5.07812500e-03
-1.38806250e-07,5.15625000e-03,6.09375000e-03
-1.38006250e-07,7.25000000e-03,-4.68750000e-04
-1.37206250e-07,7.15625000e-03,1.37500000e-02
-1.36406250e-07,1.27187500e-02,1.17968750e-02
-1.35606250e-07,2.37500000e-03,6.71875000e-03
-1.34806250e-07,5.53125000e-03,7.81250000e-04
-1.34006250e-07,1.18437500e-02,-1.48437500e-03
-1.33206250e-07,8.90625000e-03,6.48437500e-03
-1.32406250e-07,8.06250000e-03,6.40625000e-03
-1.31606250e-07,7.50000000e-03,2.42187500e-03
-1.30806250e-07,1.60625000e-02,2.65625000e-03
-1.30006250e-07,1.32500000e-02,7.26562500e-03
-1.29206250e-07,8.46875000e-03,3.98437500e-03
-1.28406250e-07,5.46875000e-03,1.40625000e-03
-1.27606250e-07,5.96875000e-03,1.67968750e-02
-1.26806250e-07,9.43750000e-03,4.92187500e-03
-1.26006250e-07,1.03750000e-02,1.01562500e-03
-1.25206250e-07,7.68750000e-03,4.14062500e-03
-1.24406250e-07,5.06250000e-03,5.07812500e-03
-1.23606250e-07,1.45937500e-02,1.02343750e-02
-1.22806250e-07,1.81250000e-03,5.00000000e-03
-1.22006250e-07,1.10937500e-02,1.48437500e-02
-1.21206250e-07,7.62500000e-03,1.56250000e-03
-1.20406250e-07,7.25000000e-03,7.26562500e-03
-1.19606250e-07,2.59375000e-03,1.95312500e-03
-1.18806250e-07,6.84375000e-03,1.86718750e-02
-1.18006250e-07,2.18750000e-03,1.54687500e-02
-1.17206250e-07,1.10625000e-02,7.65625000e-03
-1.16406250e-07,4.03125000e-03,3.28125000e-03
-1.15606250e-07,1.16250000e-02,8.12500000e-03
-1.14806250e-07,3.81250000e-03,1.27343750e-02
-1.14006250e-07,9.12500000e-03,1.06250000e-02
-1.13206250e-07,6.71875000e-03,1.14062500e-02
-1.12406250e-07,4.15625000e-03,1.13281250e-02
-1.11606250e-07,1.04062500e-02,-3.90625000e-04
-1.10806250e-07,8.18750000e-03,5.31250000e-03
-1.10006250e-07,2.25000000e-03,8.51562500e-03
-1.09206250e-07,7.21875000e-03,1.64843750e-02
-1.08406250e-07,1.04687500e-02,1.10156250e-02
-1.07606250e-07,5.12500000e-03,6.64062500e-03
-1.06806250e-07,6.18750000e-03,8.12500000e-03
-1.06006250e-07,6.03125000e-03,1.01562500e-02
-1.05206250e-07,8.93750000e-03,1.54687500e-02
-1.04406250e-07,8.00000000e-03,9.37500000e-03
-1.03606250e-07,7.87500000e-03,8.43750000e-03
-1.02806250e-07,8.56250000e-03,1.24218750e-02
-1.02006250e-07,7.71875000e-03,1.50781250e-02
-1.01206250e-07,1.15000000e-02,5.00000000e-03
-1.00406250e-07,2.59375000e-03,6.87500000e-03
-9.96062500e-08,4.25000000e-03,1.13281250e-02
-9.88062500e-08,9.37500000e-03,5.62500000e-03
-9.80062500e-08,1.25625000e-02,9.60937500e-03
-9.72062500e-08,7.18750000e-04,6.40625000e-03
-9.64062500e-08,8.46875000e-03,1.24218750e-02
-9.56062500e-08,7.34375000e-03,6.56250000e-03
-9.48062500e-08,1.09062500e-02,1.06250000e-02
-9.40062500e-08,5.21875000e-03,6.09375000e-03
-9.32062500e-08,1.12812500e-02,1.74218750e-02
-9.24062500e-08,6.00000000e-03,5.31250000e-03
-9.16062500e-08,1.23437500e-02,8.98437500e-03
-9.08062500e-08,3.21875000e-03,-1.56250000e-03
-9.00062500e-08,1.31562500e-02,1.47656250e-02
-8.92062500e-08,6.56250000e-03,1.21093750e-02
-8.84062500e-08,1.46875000e-02,5.70312500e-03
-8.76062500e-08,5.62500000e-03,1.50000000e-02
-8.68062500e-08,6.46875000e-03,2.10937500e-03
-8.60062500e-08,1.01562500e-02,-5.85937500e-03
-8.52062500e-08,1.18750000e-02,1.07812500e-02
-8.44062500e-08,5.34375000e-03,7.03125000e-03
-8.36062500e-08,9.21875000e-03,6.71875000e-03
-8.28062500e-08,9.03125000e-03,7.96875000e-03
-8.20062500e-08,6.25000000e-03,1.33593750e-02
-8.12062500e-08,4.71875000e-03,1.45312500e-02
-8.04062500e-08,7.21875000e-03,1.10937500e-02
-7.96062500e-08,7.15625000e-03,1.71875000e-02
-7.88062500e-08,8.00000000e-03,1.81250000e-02
-7.80062500e-08,9.56250000e-03,1.01562500e-02
-7.72062500e-08,6.18750000e-03,1.08593750e-02
-7.64062500e-08,8.34375000e-03,3.59375000e-03
-7.56062500e-08,1.12187500e-02,1.87500000e-03
-7.48062500e-08,6.03125000e-03,1.64843750e-02
-7.40062500e-08,9.31250000e-03,1.32031250e-02
-7.32062500e-08,5.50000000e-03,6.32812500e-03
-7.24062500e-08,1.59062500e-02,1.67968750e-02
-7.16062500e-08,2.90625000e-03,7.26562500e-03
-7.08062500e-08,1.02187500e-02,1.53906250e-02
-7.00062500e-08,5.28125000e-03,1.42968750e-02
-6.92062500e-08,8.90625000e-03,6.95312500e-03
-6.84062500e-08,6.09375000e-03,7.89062500e-03
-6.76062500e-08,1.19062500e-02,1.60937500e-02
-6.68062500e-08,7.81250000e-03,1.26562500e-02
-6.60062500e-08,6.75000000e-03,9.84375000e-03
-6.52062500e-08,6.18750000e-03,6.48437500e-03
-6.44062500e-08,1.24062500e-02,1.32812500e-02
-6.36062500e-08,4.90625000e-03,-2.34375000e-04
-6.28062500e-08,1.53125000e-02,3.75000000e-03
-6.20062500e-08,2.71875000e-03,1.14843750e-02
-6.12062500e-08,3.15625000e-03,1.90625000e-02
-6.04062500e-08,1.02187500e-02,-2.72656250e-01
-5.96062500e-08,9.96875000e-03,-8.34765625e-01
-5.88062500e-08,3.03125000e-03,-1.20015625e+00
-5.80062500e-08,8.06250000e-03,-1.29203125e+00
-5.72062500e-08,1.18750000e-02,-1.37875000e+00
-5.64062500e-08,1.07500000e-02,-1.39617188e+00
-5.56062500e-08,8.81250000e-03,-1.40687500e+00
-5.48062500e-08,1.00000000e-02,-1.39734375e+00
-5.40062500e-08,1.30312500e-02,-1.39867188e+00
-5.32062500e-08,8.75000000e-03,-1.39632813e+00
-5.24062500e-08,1.12812500e-02,-1.41289063e+00
-5.16062500e-08,9.18750000e-03,-1.41750000e+00
-5.08062500e-08,1.09375000e-03,-1.41640625e+00
-5.00062500e-08,1.14687500e-02,-1.41523438e+00
-4.92062500e-08,8.18750000e-03,-1.41390625e+00
-4.84062500e-08,9.56250000e-03,-1.41765625e+00
-4.76062500e-08,1.05000000e-02,-1.41953125e+00
-4.68062500e-08,1.25312500e-02,-1.41148438e+00
-4.60062500e-08,3.06250000e-03,-1.42046875e+00
-4.52062500e-08,1.24687500e-02,-1.42414063e+00
-4.44062500e-08,7.96875000e-03,-1.41976563e+00
-4.36062500e-08,1.46250000e-02,-1.42984375e+00
-4.28062500e-08,6.96875000e-03,-1.42375000e+00
-4.20062500e-08,1.40625000e-02,-1.43343750e+00
-4.12062500e-08,6.84375000e-03,-1.42265625e+00
-4.04062500e-08,1.26562500e-02,-1.41687500e+00
-3.96062500e-08,4.40625000e-03,-1.42710938e+00
-3.88062500e-08,1.40937500e-02,-1.41460938e+00
-3.80062500e-08,2.43750000e-03,-1.42085938e+00
-3.72062500e-08,1.06562500e-02,-1.41828125e+00
-3.64062500e-08,6.84375000e-03,-1.42109375e+00
-3.56062500e-08,1.12500000e-03,-1.43195313e+00
-3.48062500e-08,3.75000000e-03,-1.42609375e+00
-3.40062500e-08,3.78125000e-03,-1.43203125e+00
-3.32062500e-08,-1.66875000e-02,-1.42414063e+00
-3.24062500e-08,-3.19375000e-02,-1.42156250e+00
-3.16062500e-08,-7.25000000e-02,-1.41734375e+00
-3.08062500e-08,-1.23968750e-01,-1.42203125e+00
-3.00062500e-08,-1.97343750e-01,-1.43015625e+00
-2.92062500e-08,-2.74843750e-01,-1.43304688e+00
-2.84062500e-08,-3.45406250e-01,-1.43312500e+00
-2.76062500e-08,-4.19281250e-01,-1.42101563e+00
-2.68062500e-08,-4.78343750e-01,-1.42039063e+00
-2.60062500e-08,-5.31687500e-01,-1.42421875e+00
-2.52062500e-08,-5.70500000e-01,-1.42312500e+00
-2.44062500e-08,-5.96375000e-01,-1.41851563e+00
-2.36062500e-08,-6.19343750e-01,-1.41570313e+00
-2.28062500e-08,-6.35125000e-01,-1.41914063e+00
-2.20062500e-08,-6.41156250e-01,-1.41734375e+00
-2.12062500e-08,-6.42843750e-01,-1.40781250e+00
-2.04062500e-08,-6.44500000e-01,-1.43148438e+00
-1.96062500e-08,-6.24375000e-01,-1.41695313e+00
-1.88062500e-08,-6.12000000e-01,-1.42710938e+00
-1.80062500e-08,-5.94218750e-01,-1.40750000e+00
-1.72062500e-08,-5.70093750e-01,-1.42664063e+00
-1.64062500e-08,-5.43656250e-01,-1.41851563e+00
-1.56062500e-08,-5.15531250e-01,-1.42023438e+00
-1.48062500e-08,-4.92187500e-01,-1.42054688e+00
-1.40062500e-08,-4.68468750e-01,-1.42921875e+00
-1.32062500e-08,-4.38500000e-01,-1.42867188e+00
-1.24062500e-08,-4.17656250e-01,-1.41937500e+00
-1.16062500e-08,-3.97093750e-01,-1.42078125e+00
-1.08062500e-08,-3.75812500e-01,-1.42273438e+00
-1.00062500e-08,-3.46656250e-01,-1.42984375e+00
-9.20625000e-09,-3.18281250e-01,-1.43070312e+00
-8.40625000e-09,-2.99750000e-01,-1.42187500e+00
-7.60625000e-09,-2.82531250e-01,-1.42140625e+00
-6.80625000e-09,-2.59468750e-01,-1.42835938e+00
-6.00625000e-09,-2.37156250e-01,-1.41929688e+00
-5.20625000e-09,-2.26375000e-01,-1.42515625e+00
-4.40625000e-09,-2.05218750e-01,-1.41828125e+00
-3.60625000e-09,-1.89218750e-01,-1.40281250e+00
-2.80625000e-09,-1.78281250e-01,-1.34617188e+00
-2.00625000e-09,-1.64250000e-01,-1.20171875e+00
-1.20625000e-09,-1.47968750e-01,-8.28750000e-01
-4.06250000e-10,-1.40250000e-01,-3.95781250e-01
3.93750000e-10,-1.32312500e-01,-2.35234375e-01
1.19375000e-09,-1.15562500e-01,-1.21562500e-01
1.99375000e-09,-1.13062500e-01,-8.36718750e-02
2.79375000e-09,-1.06312500e-01,-6.40625000e-02
3.59375000e-09,-1.05468750e-01,-5.14062500e-02
4.39375000e-09,-9.52500000e-02,-3.34375000e-02
5.19375000e-09,-9.93125000e-02,-5.20312500e-02
5.99375000e-09,-8.52187500e-02,-3.92968750e-02
6.79375000e-09,-9.04375000e-02,-3.21875000e-02
7.59375000e-09,-8.39062500e-02,-2.80468750e-02
8.39375000e-09,-8.10625000e-02,-2.94531250e-02
9.19375000e-09,-7.32187500e-02,-1.96875000e-02
9.99375000e-09,-7.58750000e-02,-2.42968750e-02
1.07937500e-08,-6.54687500e-02,-1.48437500e-02
1.15937500e-08,-7.20312500e-02,-1.75000000e-02
1.23937500e-08,-6.19687500e-02,-1.33593750e-02
1.31937500e-08,-6.73125000e-02,-1.96875000e-02
1.39937500e-08,-5.60937500e-02,-1.78906250e-02
1.47937500e-08,-6.18750000e-02,-1.87500000e-02
1.55937500e-08,-5.95312500e-02,-1.36718750e-02
1.63937500e-08,-4.90000000e-02,-3.28125000e-03
1.71937500e-08,-4.49687500e-02,-1.25000000e-02
1.79937500e-08,-4.65312500e-02,-1.00781250e-02
1.87937500e-08,-4.12812500e-02,-4.53125000e-03
1.95937500e-08,-3.37812500e-02,-4.53125000e-03
2.03937500e-08,-3.91562500e-02,-4.60937500e-03
2.11937500e-08,-3.14062500e-02,1.06250000e-02
2.19937500e-08,-2.77187500e-02,-5.23437500e-03
2.27937500e-08,-2.57187500e-02,3.90625000e-04
2.35937500e-08,-2.32812500e-02,2.34375000e-03
2.43937500e-08,-2.32187500e-02,4.06250000e-03
2.51937500e-08,-1.85937500e-02,-6.95312500e-03
2.59937500e-08,-2.38437500e-02,1.17187500e-03
2.67937500e-08,-9.87500000e-03,4.37500000e-03
2.75937500e-08,-1.28750000e-02,-1.71875000e-03
2.83937500e-08,-1.81562500e-02,2.03125000e-03
2.91937500e-08,-1.60625000e-02,3.75000000e-03
2.99937500e-08,-1.06250000e-02,8.04687500e-03
3.07937500e-08,-1.80625000e-02,1.04687500e-02
3.15937500e-08,-5.56250000e-03,2.13281250e-02
3.23937500e-08,-1.36875000e-02,2.82031250e-02
3.31937500e-08,-1.29687500e-02,3.87500000e-02
3.39937500e-08,-1.15625000e-02,2.83593750e-02
3.47937500e-08,-2.84375000e-03,4.00781250e-02
3.55937500e-08,-1.08437500e-02,2.55468750e-02
3.63937500e-08,-4.71875000e-03,3.37500000e-02
3.71937500e-08,-9.90625000e-03,2.00000000e-02
3.79937500e-08,-3.71875000e-03,3.75781250e-02
3.87937500e-08,-8.18750000e-03,3.20312500e-02
3.95937500e-08,-4.15625000e-03,2.09375000e-02
4.03937500e-08,-9.09375000e-03,2.10937500e-02
4.11937500e-08,-4.37500000e-03,3.02343750e-02
4.19937500e-08,-4.84375000e-03,1.33593750e-02
4.27937500e-08,-2.06250000e-03,2.84375000e-02
4.35937500e-08,-7.50000000e-03,2.22656250e-02
4.43937500e-08,-4.62500000e-03,2.07812500e-02
4.51937500e-08,-4.62500000e-03,1.64062500e-02
4.59937500e-08,-7.09375000e-03,1.80468750e-02
4.67937500e-08,-7.62500000e-03,1.70312500e-02
4.75937500e-08,-4.93750000e-03,1.06250000e-02
4.83937500e-08,-7.84375000e-03,1.52343750e-02
4.91937500e-08,-6.81250000e-03,2.18750000e-02
4.99937500e-08,-8.46875000e-03,2.34375000e-02
5.07937500e-08,-1.00312500e-02,1.67968750e-02
5.15937500e-08,-7.96875000e-03,2.00781250e-02
5.23937500e-08,-9.03125000e-03,1.14062500e-02
5.31937500e-08,-3.34375000e-03,1.81250000e-02
5.39937500e-08,-9.03125000e-03,1.32031250e-02
5.47937500e-08,-9.00000000e-03,9.45312500e-03
5.55937500e-08,-2.21875000e-03,1.74218750e-02
5.63937500e-08,-1.35625000e-02,1.64843750e-02
