muon_CSV/TriggerAuto_ALL_20231205194215804.csv

Model,MSO64B
Channel,CH1,,Channel,CH2
Label,,,Label,
Waveform Type,ANALOG,,Waveform Type,ANALOG
Horizontal Units,s,,Horizontal Units,s
Sample Interval,8.00000000e-10,,Sample Interval,8.00000000e-10
Record Length,5000,,Record Length,5000
Zero Index,349.68750000,,Zero Index,349.68750000
Vertical Units,V,,Vertical Units,V
,,,,
ANALOG_Thumbnail,,,ANALOG_Thumbnail,
yOffset,0.000000,,yOffset,0.000000
yPosition,2.160000,,yPosition,2.180000

Labels,,
TIME,CH1,CH2
-2.79750000e-07,1.06875000e-02,1.42968750e-02
-2.78950000e-07,4.53125000e-03,7.89062500e-03
-2.78150000e-07,1.12500000e-02,1.98437500e-02
-2.77350000e-07,7.90625000e-03,1.62500000e-02
-2.76550000e-07,7.62500000e-03,2.09375000e-02
-2.75750000e-07,6.96875000e-03,6.25000000e-03
-2.74950000e-07,1.50625000e-02,2.44531250e-02
-2.74150000e-07,7.09375000e-03,1.95312500e-03
-2.73350000e-07,1.59687500e-02,2.96875000e-03
-2.72550000e-07,4.28125000e-03,7.96875000e-03
-2.71750000e-07,7.28125000e-03,1.53906250e-02
-2.70950000e-07,1.34375000e-02,1.23437500e-02
-2.70150000e-07,1.34687500e-02,7.96875000e-03
-2.69350000e-07,7.68750000e-03,7.26562500e-03
-2.68550000e-07,1.40937500e-02,5.62500000e-03
-2.67750000e-07,1.13125000e-02,2.07031250e-02
-2.66950000e-07,1.52812500e-02,2.16406250e-02
-2.66150000e-07,8.62500000e-03,1.28906250e-02
-2.65350000e-07,7.93750000e-03,1.19531250e-02
-2.64550000e-07,1.24062500e-02,2.30468750e-02
-2.63750000e-07,1.36875000e-02,1.62500000e-02
-2.62950000e-07,8.37500000e-03,2.23437500e-02
-2.62150000e-07,8.43750000e-03,1.87500000e-02
-2.61350000e-07,5.50000000e-03,2.14843750e-02
-2.60550000e-07,1.26562500e-02,1.20312500e-02
-2.59750000e-07,6.00000000e-03,9.76562500e-03
-2.58950000e-07,9.78125000e-03,9.84375000e-03
-2.58150000e-07,7.87500000e-03,2.51562500e-02
-2.57350000e-07,1.49687500e-02,1.32812500e-02
-2.56550000e-07,4.34375000e-03,6.64062500e-03
-2.55750000e-07,1.31875000e-02,2.37500000e-02
-2.54950000e-07,8.06250000e-03,1.41406250e-02
-2.54150000e-07,1.46562500e-02,1.90625000e-02
-2.53350000e-07,6.78125000e-03,1.35156250e-02
-2.52550000e-07,1.13125000e-02,1.37500000e-02
-2.51750000e-07,9.31250000e-03,2.03906250e-02
-2.50950000e-07,9.59375000e-03,1.60937500e-02
-2.50150000e-07,1.11250000e-02,1.03906250e-02
-2.49350000e-07,1.05937500e-02,1.70312500e-02
-2.48550000e-07,5.78125000e-03,1.62500000e-02
-2.47750000e-07,1.09375000e-02,1.89062500e-02
-2.46950000e-07,6.71875000e-03,6.17187500e-03
-2.46150000e-07,7.81250000e-03,8.67187500e-03
-2.45350000e-07,1.08125000e-02,1.58593750e-02
-2.44550000e-07,1.54375000e-02,1.76562500e-02
-2.43750000e-07,3.62500000e-03,1.64062500e-02
-2.42950000e-07,1.16250000e-02,2.02343750e-02
-2.42150000e-07,1.34062500e-02,1.55468750e-02
-2.41350000e-07,7.37500000e-03,2.09375000e-02
-2.40550000e-07,1.27500000e-02,1.53906250e-02
-2.39750000e-07,7.65625000e-03,1.49218750e-02
-2.38950000e-07,1.29687500e-02,1.29687500e-02
-2.38150000e-07,8.78125000e-03,1.70312500e-02
-2.37350000e-07,9.46875000e-03,1.49218750e-02
-2.36550000e-07,6.12500000e-03,1.57031250e-02
-2.35750000e-07,4.96875000e-03,2.35156250e-02
-2.34950000e-07,1.31875000e-02,1.33593750e-02
-2.34150000e-07,7.90625000e-03,1.64843750e-02
-2.33350000e-07,8.06250000e-03,1.81250000e-02
-2.32550000e-07,9.93750000e-03,1.96093750e-02
-2.31750000e-07,1.39062500e-02,1.92968750e-02
-2.30950000e-07,4.53125000e-03,3.67187500e-03
-2.30150000e-07,1.16562500e-02,2.39062500e-02
-2.29350000e-07,8.84375000e-03,1.60156250e-02
-2.28550000e-07,1.43750000e-02,1.82812500e-02
-2.27750000e-07,4.65625000e-03,8.90625000e-03
-2.26950000e-07,1.53125000e-02,2.37500000e-02
-2.26150000e-07,9.15625000e-03,1.12500000e-02
-2.25350000e-07,9.81250000e-03,9.84375000e-03
-2.24550000e-07,7.84375000e-03,7.10937500e-03
-2.23750000e-07,9.75000000e-03,2.19531250e-02
-2.22950000e-07,8.25000000e-03,2.06250000e-02
-2.22150000e-07,1.18750000e-02,6.95312500e-03
-2.21350000e-07,5.31250000e-03,1.38281250e-02
-2.20550000e-07,6.62500000e-03,1.76562500e-02
-2.19750000e-07,1.37187500e-02,1.36718750e-02
-2.18950000e-07,1.15312500e-02,1.90625000e-02
-2.18150000e-07,4.15625000e-03,1.41406250e-02
-2.17350000e-07,9.00000000e-03,1.96875000e-02
-2.16550000e-07,1.40937500e-02,9.37500000e-03
-2.15750000e-07,8.96875000e-03,1.12500000e-02
-2.14950000e-07,1.18437500e-02,1.49218750e-02
-2.14150000e-07,7.75000000e-03,9.76562500e-03
-2.13350000e-07,9.37500000e-03,1.38281250e-02
-2.12550000e-07,9.65625000e-03,1.57812500e-02
-2.11750000e-07,8.28125000e-03,1.75781250e-02
-2.10950000e-07,1.20937500e-02,1.04687500e-02
-2.10150000e-07,5.62500000e-03,2.31250000e-02
-2.09350000e-07,9.09375000e-03,1.75000000e-02
-2.08550000e-07,4.40625000e-03,2.22656250e-02
-2.07750000e-07,9.84375000e-03,1.80468750e-02
-2.06950000e-07,1.09375000e-02,1.75000000e-02
-2.06150000e-07,1.41562500e-02,1.35156250e-02
-2.05350000e-07,3.71875000e-03,1.76562500e-02
-2.04550000e-07,1.08750000e-02,1.60937500e-02
-2.03750000e-07,8.90625000e-03,1.29687500e-02
-2.02950000e-07,1.34687500e-02,1.43750000e-02
-2.02150000e-07,1.25000000e-03,2.03125000e-02
-2.01350000e-07,1.26875000e-02,1.67968750e-02
-2.00550000e-07,7.25000000e-03,1.89062500e-02
-1.99750000e-07,9.75000000e-03,1.60156250e-02
-1.98950000e-07,3.25000000e-03,-9.37500000e-04
-1.98150000e-07,1.45937500e-02,1.61718750e-02
-1.97350000e-07,7.12500000e-03,1.94531250e-02
-1.96550000e-07,1.18437500e-02,7.03125000e-03
-1.95750000e-07,5.46875000e-03,1.13281250e-02
-1.94950000e-07,7.75000000e-03,1.77343750e-02
-1.94150000e-07,1.14062500e-02,1.83593750e-02
-1.93350000e-07,9.65625000e-03,1.76562500e-02
-1.92550000e-07,6.84375000e-03,1.82812500e-02
-1.91750000e-07,9.43750000e-03,2.28125000e-02
-1.90950000e-07,1.15937500e-02,1.78906250e-02
-1.90150000e-07,5.56250000e-03,-3.90625000e-04
-1.89350000e-07,7.37500000e-03,8.82812500e-03
-1.88550000e-07,5.87500000e-03,1.45312500e-02
-1.87750000e-07,6.43750000e-03,2.45312500e-02
-1.86950000e-07,8.09375000e-03,2.32812500e-02
-1.86150000e-07,8.00000000e-03,1.21875000e-02
-1.85350000e-07,9.84375000e-03,1.57031250e-02
-1.84550000e-07,3.90625000e-03,1.23437500e-02
-1.83750000e-07,1.24687500e-02,1.97656250e-02
-1.82950000e-07,1.29687500e-02,2.07812500e-02
-1.82150000e-07,8.65625000e-03,1.74218750e-02
-1.81350000e-07,8.81250000e-03,1.55468750e-02
-1.80550000e-07,1.21250000e-02,1.60937500e-02
-1.79750000e-07,5.65625000e-03,5.00000000e-03
-1.78950000e-07,1.10937500e-02,1.72656250e-02
-1.78150000e-07,8.59375000e-03,1.75781250e-02
-1.77350000e-07,1.16875000e-02,1.96875000e-02
-1.76550000e-07,5.15625000e-03,2.21875000e-02
-1.75750000e-07,1.49062500e-02,1.60156250e-02
-1.74950000e-07,8.31250000e-03,1.63281250e-02
-1.74150000e-07,1.30000000e-02,1.80468750e-02
-1.73350000e-07,7.43750000e-03,3.59375000e-03
-1.72550000e-07,9.00000000e-03,1.92187500e-02
-1.71750000e-07,7.43750000e-03,1.28125000e-02
-1.70950000e-07,1.05312500e-02,1.32031250e-02
-1.70150000e-07,4.06250000e-03,1.97656250e-02
-1.69350000e-07,5.56250000e-03,2.47656250e-02
-1.68550000e-07,1.33125000e-02,1.28125000e-02
-1.67750000e-07,1.09375000e-02,2.30468750e-02
-1.66950000e-07,3.25000000e-03,1.72656250e-02
-1.66150000e-07,9.96875000e-03,1.62500000e-02
-1.65350000e-07,9.03125000e-03,1.47656250e-02
-1.64550000e-07,1.00312500e-02,1.29687500e-02
-1.63750000e-07,8.75000000e-03,1.03906250e-02
-1.62950000e-07,8.68750000e-03,1.71875000e-02
-1.62150000e-07,1.21875000e-02,2.67968750e-02
-1.61350000e-07,1.15625000e-02,1.60156250e-02
-1.60550000e-07,9.15625000e-03,1.23437500e-02
-1.59750000e-07,1.24375000e-02,1.76562500e-02
-1.58950000e-07,5.96875000e-03,2.40625000e-02
-1.58150000e-07,6.28125000e-03,1.13281250e-02
-1.57350000e-07,7.03125000e-03,1.24218750e-02
-1.56550000e-07,4.31250000e-03,1.61718750e-02
-1.55750000e-07,9.68750000e-03,8.35937500e-03
-1.54950000e-07,1.26875000e-02,1.71093750e-02
-1.54150000e-07,9.68750000e-04,6.95312500e-03
-1.53350000e-07,1.10312500e-02,1.71875000e-02
-1.52550000e-07,7.78125000e-03,8.28125000e-03
-1.51750000e-07,1.06875000e-02,1.07031250e-02
-1.50950000e-07,4.40625000e-03,1.58593750e-02
-1.50150000e-07,1.18437500e-02,2.36718750e-02
-1.49350000e-07,3.46875000e-03,1.93750000e-02
-1.48550000e-07,1.03750000e-02,1.35156250e-02
-1.47750000e-07,2.15625000e-03,6.40625000e-03
-1.46950000e-07,1.30312500e-02,2.25781250e-02
-1.46150000e-07,5.34375000e-03,1.39843750e-02
-1.45350000e-07,1.19687500e-02,2.10937500e-02
-1.44550000e-07,6.03125000e-03,1.19531250e-02
-1.43750000e-07,8.31250000e-03,7.26562500e-03
-1.42950000e-07,1.25000000e-02,1.91406250e-02
-1.42150000e-07,1.07500000e-02,1.88281250e-02
-1.41350000e-07,9.25000000e-03,1.66406250e-02
-1.40550000e-07,9.53125000e-03,6.87500000e-03
-1.39750000e-07,1.17187500e-02,1.64062500e-02
-1.38950000e-07,1.00625000e-02,1.82031250e-02
-1.38150000e-07,6.03125000e-03,1.15625000e-02
-1.37350000e-07,6.96875000e-03,1.91406250e-02
-1.36550000e-07,1.18437500e-02,1.80468750e-02
-1.35750000e-07,7.37500000e-03,1.17187500e-02
-1.34950000e-07,1.04062500e-02,1.63281250e-02
-1.34150000e-07,6.84375000e-03,7.65625000e-03
-1.33350000e-07,2.28125000e-03,1.53125000e-02
-1.32550000e-07,1.25312500e-02,7.10937500e-03
-1.31750000e-07,7.62500000e-03,1.55468750e-02
-1.30950000e-07,5.71875000e-03,1.57812500e-02
-1.30150000e-07,8.12500000e-03,1.00781250e-02
-1.29350000e-07,1.07812500e-02,1.48437500e-02
-1.28550000e-07,2.87500000e-03,1.28906250e-02
-1.27750000e-07,1.12500000e-02,3.21093750e-02
-1.26950000e-07,9.43750000e-03,1.69531250e-02
-1.26150000e-07,1.14062500e-02,1.82031250e-02
-1.25350000e-07,4.90625000e-03,1.66406250e-02
-1.24550000e-07,1.26562500e-02,1.81250000e-02
-1.23750000e-07,4.71875000e-03,5.46875000e-03
-1.22950000e-07,1.06250000e-02,1.20312500e-02
-1.22150000e-07,4.00000000e-03,1.30468750e-02
-1.21350000e-07,1.37500000e-02,1.20312500e-02
-1.20550000e-07,7.50000000e-03,1.85156250e-02
-1.19750000e-07,1.23125000e-02,9.92187500e-03
-1.18950000e-07,6.12500000e-03,1.21093750e-02
-1.18150000e-07,1.06562500e-02,8.90625000e-03
-1.17350000e-07,1.20937500e-02,1.56250000e-02
-1.16550000e-07,1.12812500e-02,1.49218750e-02
-1.15750000e-07,8.03125000e-03,1.42968750e-02
-1.14950000e-07,8.87500000e-03,1.70312500e-02
-1.14150000e-07,1.31875000e-02,1.75781250e-02
-1.13350000e-07,6.59375000e-03,1.83593750e-02
-1.12550000e-07,1.08750000e-02,1.69531250e-02
-1.11750000e-07,9.50000000e-03,1.32031250e-02
-1.10950000e-07,1.15937500e-02,2.38281250e-02
-1.10150000e-07,8.56250000e-03,1.10937500e-02
-1.09350000e-07,9.90625000e-03,1.88281250e-02
-1.08550000e-07,1.14375000e-02,1.72656250e-02
-1.07750000e-07,5.50000000e-03,1.75000000e-02
-1.06950000e-07,1.20937500e-02,1.68750000e-02
-1.06150000e-07,7.40625000e-03,1.89843750e-02
-1.05350000e-07,8.03125000e-03,1.69531250e-02
-1.04550000e-07,7.25000000e-03,1.66406250e-02
-1.03750000e-07,1.16875000e-02,2.84375000e-02
-1.02950000e-07,2.56250000e-03,1.70312500e-02
-1.02150000e-07,1.16562500e-02,2.92968750e-02
-1.01350000e-07,7.28125000e-03,1.69531250e-02
-1.00550000e-07,9.62500000e-03,1.89062500e-02
-9.97500000e-08,2.71875000e-03,2.06250000e-02
-9.89500000e-08,1.22500000e-02,1.62500000e-02
-9.81500000e-08,1.03750000e-02,1.82812500e-02
-9.73500000e-08,1.25000000e-02,1.37500000e-02
-9.65500000e-08,7.75000000e-03,1.07031250e-02
-9.57500000e-08,1.05000000e-02,2.16406250e-02
-9.49500000e-08,7.34375000e-03,2.97656250e-02
-9.41500000e-08,1.00312500e-02,1.19531250e-02
-9.33500000e-08,5.71875000e-03,2.03125000e-02
-9.25500000e-08,5.96875000e-03,2.01562500e-02
-9.17500000e-08,1.12500000e-02,1.63281250e-02
-9.09500000e-08,1.27187500e-02,1.46093750e-02
-9.01500000e-08,3.34375000e-03,2.50781250e-02
-8.93500000e-08,8.31250000e-03,1.35937500e-02
-8.85500000e-08,1.44375000e-02,1.99218750e-02
-8.77500000e-08,9.93750000e-03,1.57031250e-02
-8.69500000e-08,9.09375000e-03,1.46875000e-02
-8.61500000e-08,8.93750000e-03,1.86718750e-02
-8.53500000e-08,1.10312500e-02,3.31250000e-02
-8.45500000e-08,9.96875000e-03,2.26562500e-02
-8.37500000e-08,4.25000000e-03,1.78906250e-02
-8.29500000e-08,9.28125000e-03,2.38281250e-02
-8.21500000e-08,6.62500000e-03,2.70312500e-02
-8.13500000e-08,1.08125000e-02,2.21875000e-02
-8.05500000e-08,5.90625000e-03,2.10156250e-02
-7.97500000e-08,4.68750000e-03,1.42968750e-02
-7.89500000e-08,7.06250000e-03,2.06250000e-02
-7.81500000e-08,1.38437500e-02,1.55468750e-02
-7.73500000e-08,1.53125000e-03,9.45312500e-03
-7.65500000e-08,1.18125000e-02,3.11718750e-02
-7.57500000e-08,7.43750000e-03,1.74218750e-02
-7.49500000e-08,1.35937500e-02,2.50781250e-02
-7.41500000e-08,7.75000000e-03,9.45312500e-03
-7.33500000e-08,1.55312500e-02,2.46093750e-02
-7.25500000e-08,7.56250000e-03,2.46093750e-02
-7.17500000e-08,9.81250000e-03,2.13281250e-02
-7.09500000e-08,6.62500000e-03,1.19531250e-02
-7.01500000e-08,1.07500000e-02,3.00781250e-02
-6.93500000e-08,6.75000000e-03,1.60937500e-02
-6.85500000e-08,1.23125000e-02,1.20312500e-02
-6.77500000e-08,8.00000000e-03,2.03125000e-02
-6.69500000e-08,9.90625000e-03,1.68750000e-02
-6.61500000e-08,1.85312500e-02,1.48437500e-02
-6.53500000e-08,1.48750000e-02,2.13281250e-02
-6.45500000e-08,4.65625000e-03,1.73437500e-02
-6.37500000e-08,9.96875000e-03,1.60937500e-02
-6.29500000e-08,1.38437500e-02,1.02343750e-02
-6.21500000e-08,7.31250000e-03,2.51562500e-02
-6.13500000e-08,1.05000000e-02,2.10937500e-02
-6.05500000e-08,8.96875000e-03,-2.38359375e-01
-5.97500000e-08,1.35937500e-02,-8.00156250e-01
-5.89500000e-08,1.53750000e-02,-1.22953125e+00
-5.81500000e-08,9.00000000e-03,-1.31484375e+00
-5.73500000e-08,5.62500000e-03,-1.37796875e+00
-5.65500000e-08,6.28125000e-03,-1.40421875e+00
-5.57500000e-08,8.90625000e-03,-1.39531250e+00
-5.49500000e-08,8.28125000e-03,-1.38804688e+00
-5.41500000e-08,9.34375000e-03,-1.39820313e+00
-5.33500000e-08,1.25937500e-02,-1.40367188e+00
-5.25500000e-08,1.11250000e-02,-1.40476563e+00
-5.17500000e-08,3.21875000e-03,-1.41070313e+00
-5.09500000e-08,1.75937500e-02,-1.41390625e+00
-5.01500000e-08,9.78125000e-03,-1.40304688e+00
-4.93500000e-08,1.59687500e-02,-1.41164062e+00
-4.85500000e-08,7.71875000e-03,-1.41125000e+00
-4.77500000e-08,1.35000000e-02,-1.41460938e+00
-4.69500000e-08,6.90625000e-03,-1.40789063e+00
-4.61500000e-08,9.90625000e-03,-1.41882813e+00
-4.53500000e-08,3.93750000e-03,-1.42968750e+00
-4.45500000e-08,1.69687500e-02,-1.41562500e+00
-4.37500000e-08,3.78125000e-03,-1.42156250e+00
-4.29500000e-08,9.84375000e-03,-1.42601563e+00
-4.21500000e-08,6.25000000e-05,-1.42101563e+00
-4.13500000e-08,5.65625000e-03,-1.43195313e+00
-4.05500000e-08,1.11562500e-02,-1.42976563e+00
-3.97500000e-08,1.19687500e-02,-1.41234375e+00
-3.89500000e-08,6.87500000e-04,-1.41789063e+00
-3.81500000e-08,1.05312500e-02,-1.42250000e+00
-3.73500000e-08,9.00000000e-03,-1.40796875e+00
-3.65500000e-08,8.12500000e-03,-1.42726562e+00
-3.57500000e-08,4.18750000e-03,-1.42117188e+00
-3.49500000e-08,5.40625000e-03,-1.43046875e+00
-3.41500000e-08,7.18750000e-04,-1.41921875e+00
-3.33500000e-08,-9.12500000e-03,-1.41343750e+00
-3.25500000e-08,-3.14062500e-02,-1.41281250e+00
-3.17500000e-08,-7.49375000e-02,-1.42781250e+00
-3.09500000e-08,-1.38375000e-01,-1.42640625e+00
-3.01500000e-08,-2.18718750e-01,-1.42218750e+00
-2.93500000e-08,-3.10625000e-01,-1.41398438e+00
-2.85500000e-08,-4.05312500e-01,-1.42398438e+00
-2.77500000e-08,-4.82687500e-01,-1.41796875e+00
-2.69500000e-08,-5.45406250e-01,-1.41281250e+00
-2.61500000e-08,-6.01093750e-01,-1.41257813e+00
-2.53500000e-08,-6.35781250e-01,-1.41718750e+00
-2.45500000e-08,-6.72468750e-01,-1.41554687e+00
-2.37500000e-08,-6.95250000e-01,-1.41421875e+00
-2.29500000e-08,-7.05875000e-01,-1.41460938e+00
-2.21500000e-08,-7.05093750e-01,-1.41593750e+00
-2.13500000e-08,-7.10406250e-01,-1.41507812e+00
-2.05500000e-08,-7.08000000e-01,-1.42031250e+00
-1.97500000e-08,-6.97312500e-01,-1.42195313e+00
-1.89500000e-08,-6.71750000e-01,-1.41781250e+00
-1.81500000e-08,-6.53531250e-01,-1.41320313e+00
-1.73500000e-08,-6.29593750e-01,-1.41859375e+00
-1.65500000e-08,-6.00718750e-01,-1.41960938e+00
-1.57500000e-08,-5.76062500e-01,-1.42281250e+00
-1.49500000e-08,-5.44781250e-01,-1.41453125e+00
-1.41500000e-08,-5.17968750e-01,-1.40953125e+00
-1.33500000e-08,-4.97968750e-01,-1.41750000e+00
-1.25500000e-08,-4.72468750e-01,-1.42312500e+00
-1.17500000e-08,-4.41375000e-01,-1.41695313e+00
-1.09500000e-08,-4.26500000e-01,-1.41578125e+00
-1.01500000e-08,-3.94375000e-01,-1.42687500e+00
-9.35000000e-09,-3.69250000e-01,-1.43164062e+00
-8.55000000e-09,-3.44562500e-01,-1.41734375e+00
-7.75000000e-09,-3.25156250e-01,-1.41570313e+00
-6.95000000e-09,-3.03562500e-01,-1.41875000e+00
-6.15000000e-09,-2.86250000e-01,-1.42445313e+00
-5.35000000e-09,-2.66406250e-01,-1.41976563e+00
-4.55000000e-09,-2.45218750e-01,-1.41218750e+00
-3.75000000e-09,-2.33562500e-01,-1.39664063e+00
-2.95000000e-09,-2.13062500e-01,-1.35125000e+00
-2.15000000e-09,-2.00406250e-01,-1.24609375e+00
-1.35000000e-09,-1.83937500e-01,-9.05000000e-01
-5.50000000e-10,-1.77468750e-01,-4.60234375e-01
2.50000000e-10,-1.58656250e-01,-2.43671875e-01
1.05000000e-09,-1.50656250e-01,-1.29609375e-01
1.85000000e-09,-1.42281250e-01,-7.52343750e-02
2.65000000e-09,-1.35375000e-01,-5.55468750e-02
3.45000000e-09,-1.18437500e-01,-2.99218750e-02
4.25000000e-09,-1.21437500e-01,-3.48437500e-02
5.05000000e-09,-1.08687500e-01,-3.32812500e-02
5.85000000e-09,-1.05468750e-01,-3.99218750e-02
6.65000000e-09,-9.75312500e-02,-2.08593750e-02
7.45000000e-09,-9.50000000e-02,-3.25781250e-02
8.25000000e-09,-8.46875000e-02,-2.32812500e-02
9.05000000e-09,-9.00000000e-02,-1.61718750e-02
9.85000000e-09,-7.54375000e-02,-2.43750000e-02
1.06500000e-08,-7.22812500e-02,-1.63281250e-02
1.14500000e-08,-6.93750000e-02,-8.82812500e-03
1.22500000e-08,-7.50312500e-02,-1.83593750e-02
1.30500000e-08,-6.40625000e-02,-1.46875000e-02
1.38500000e-08,-5.73437500e-02,-6.32812500e-03
1.46500000e-08,-5.98750000e-02,-1.28906250e-02
1.54500000e-08,-5.05000000e-02,-7.03125000e-04
1.62500000e-08,-4.78125000e-02,-4.92187500e-03
1.70500000e-08,-4.34062500e-02,8.67187500e-03
1.78500000e-08,-4.03750000e-02,-8.59375000e-04
1.86500000e-08,-3.92187500e-02,2.50000000e-03
1.94500000e-08,-3.78437500e-02,9.68750000e-03
2.02500000e-08,-3.61562500e-02,9.84375000e-03
2.10500000e-08,-3.03437500e-02,-2.57812500e-03
2.18500000e-08,-3.20625000e-02,2.34375000e-03
2.26500000e-08,-2.75312500e-02,8.28125000e-03
2.34500000e-08,-2.65625000e-02,1.56250000e-03
2.42500000e-08,-2.55937500e-02,4.53125000e-03
2.50500000e-08,-3.31875000e-02,2.34375000e-03
2.58500000e-08,-1.82500000e-02,1.19531250e-02
2.66500000e-08,-1.85312500e-02,1.08593750e-02
2.74500000e-08,-1.82812500e-02,1.31250000e-02
2.82500000e-08,-1.88750000e-02,1.21875000e-02
2.90500000e-08,-1.78437500e-02,1.96875000e-02
2.98500000e-08,-2.09687500e-02,1.00781250e-02
3.06500000e-08,-9.71875000e-03,2.12500000e-02
3.14500000e-08,-1.76875000e-02,1.01562500e-02
3.22500000e-08,-1.21875000e-02,3.49218750e-02
3.30500000e-08,-1.39375000e-02,3.70312500e-02
3.38500000e-08,-7.37500000e-03,3.56250000e-02
3.46500000e-08,-1.28125000e-02,3.90625000e-02
3.54500000e-08,-1.08437500e-02,3.48437500e-02
3.62500000e-08,-2.68750000e-03,3.79687500e-02
3.70500000e-08,-5.40625000e-03,3.50781250e-02
3.78500000e-08,-1.37500000e-02,3.95312500e-02
3.86500000e-08,-8.28125000e-03,3.66406250e-02
3.94500000e-08,-5.81250000e-03,3.90625000e-02
4.02500000e-08,-7.93750000e-03,2.30468750e-02
4.10500000e-08,-4.93750000e-03,2.87500000e-02
4.18500000e-08,-6.40625000e-03,2.90625000e-02
4.26500000e-08,-6.84375000e-03,3.64062500e-02
4.34500000e-08,-3.21875000e-03,3.72656250e-02
4.42500000e-08,-7.18750000e-03,2.65625000e-02
4.50500000e-08,-4.50000000e-03,2.28125000e-02
4.58500000e-08,-3.46875000e-03,2.81250000e-02
4.66500000e-08,-2.75000000e-03,1.99218750e-02
4.74500000e-08,-5.68750000e-03,2.75781250e-02
4.82500000e-08,-1.90625000e-03,2.49218750e-02
4.90500000e-08,-3.12500000e-03,1.86718750e-02
4.98500000e-08,-6.25000000e-04,2.17968750e-02
5.06500000e-08,-1.02812500e-02,6.71875000e-03
5.14500000e-08,-8.12500000e-04,2.42187500e-02
5.22500000e-08,-6.25000000e-05,2.03906250e-02
5.30500000e-08,-5.28125000e-03,2.51562500e-02
5.38500000e-08,-6.87500000e-03,2.09375000e-02
5.46500000e-08,-8.75000000e-04,2.42968750e-02
5.54500000e-08,-7.18750000e-03,2.15625000e-02
5.62500000e-08,-4.03125000e-03,2.81250000e-02
