muon_CSV/TriggerAuto_ALL_20231205194724329.csv

Model,MSO64B
Channel,CH1,,Channel,CH2
Label,,,Label,
Waveform Type,ANALOG,,Waveform Type,ANALOG
Horizontal Units,s,,Horizontal Units,s
Sample Interval,8.00000000e-10,,Sample Interval,8.00000000e-10
Record Length,5000,,Record Length,5000
Zero Index,349.76562500,,Zero Index,349.76562500
Vertical Units,V,,Vertical Units,V
,,,,
ANALOG_Thumbnail,,,ANALOG_Thumbnail,
yOffset,0.000000,,yOffset,0.000000
yPosition,2.160000,,yPosition,2.180000

Labels,,
TIME,CH1,CH2
-2.79812500e-07,6.50000000e-03,1.95312500e-02
-2.79012500e-07,1.22500000e-02,1.21093750e-02
-2.78212500e-07,1.53125000e-02,2.17187500e-02
-2.77412500e-07,4.46875000e-03,1.53125000e-02
-2.76612500e-07,8.50000000e-03,1.89843750e-02
-2.75812500e-07,1.38750000e-02,1.60156250e-02
-2.75012500e-07,1.13437500e-02,1.56250000e-02
-2.74212500e-07,8.25000000e-03,1.21875000e-02
-2.73412500e-07,1.10937500e-02,1.17968750e-02
-2.72612500e-07,1.19062500e-02,1.57031250e-02
-2.71812500e-07,7.65625000e-03,1.57812500e-02
-2.71012500e-07,1.28750000e-02,2.55468750e-02
-2.70212500e-07,1.26250000e-02,2.07031250e-02
-2.69412500e-07,4.56250000e-03,1.81250000e-02
-2.68612500e-07,1.05625000e-02,1.35937500e-02
-2.67812500e-07,7.65625000e-03,2.03125000e-02
-2.67012500e-07,5.12500000e-03,2.53906250e-02
-2.66212500e-07,9.28125000e-03,1.19531250e-02
-2.65412500e-07,1.00625000e-02,1.64062500e-02
-2.64612500e-07,1.68750000e-03,1.94531250e-02
-2.63812500e-07,1.37187500e-02,1.82031250e-02
-2.63012500e-07,1.25937500e-02,1.28906250e-02
-2.62212500e-07,1.47187500e-02,2.17187500e-02
-2.61412500e-07,5.56250000e-03,2.65625000e-02
-2.60612500e-07,1.43125000e-02,1.59375000e-02
-2.59812500e-07,9.40625000e-03,1.35937500e-02
-2.59012500e-07,9.78125000e-03,1.96093750e-02
-2.58212500e-07,4.18750000e-03,1.75000000e-02
-2.57412500e-07,1.63125000e-02,2.22656250e-02
-2.56612500e-07,1.11875000e-02,2.46093750e-02
-2.55812500e-07,1.27812500e-02,1.80468750e-02
-2.55012500e-07,7.31250000e-03,1.95312500e-02
-2.54212500e-07,1.13437500e-02,2.67187500e-02
-2.53412500e-07,1.07500000e-02,1.78125000e-02
-2.52612500e-07,1.55312500e-02,2.07812500e-02
-2.51812500e-07,1.53125000e-03,9.84375000e-03
-2.51012500e-07,1.18125000e-02,1.25000000e-02
-2.50212500e-07,1.11250000e-02,2.14062500e-02
-2.49412500e-07,8.90625000e-03,1.08593750e-02
-2.48612500e-07,8.43750000e-03,1.43750000e-02
-2.47812500e-07,6.43750000e-03,1.91406250e-02
-2.47012500e-07,8.31250000e-03,3.14062500e-02
-2.46212500e-07,1.25937500e-02,1.92187500e-02
-2.45412500e-07,1.03750000e-02,2.27343750e-02
-2.44612500e-07,1.00000000e-02,1.92968750e-02
-2.43812500e-07,6.28125000e-03,2.39843750e-02
-2.43012500e-07,1.40000000e-02,1.85937500e-02
-2.42212500e-07,7.43750000e-03,2.12500000e-02
-2.41412500e-07,6.78125000e-03,1.19531250e-02
-2.40612500e-07,9.03125000e-03,1.82031250e-02
-2.39812500e-07,9.68750000e-03,1.07812500e-02
-2.39012500e-07,3.40625000e-03,1.83593750e-02
-2.38212500e-07,1.11875000e-02,1.80468750e-02
-2.37412500e-07,8.34375000e-03,1.48437500e-02
-2.36612500e-07,1.31562500e-02,1.55468750e-02
-2.35812500e-07,6.56250000e-03,9.60937500e-03
-2.35012500e-07,1.14375000e-02,1.71093750e-02
-2.34212500e-07,1.12187500e-02,2.07812500e-02
-2.33412500e-07,9.87500000e-03,1.53906250e-02
-2.32612500e-07,2.90625000e-03,1.28906250e-02
-2.31812500e-07,1.54375000e-02,1.22656250e-02
-2.31012500e-07,6.18750000e-03,1.17187500e-02
-2.30212500e-07,1.46875000e-02,1.17968750e-02
-2.29412500e-07,4.87500000e-03,1.43750000e-02
-2.28612500e-07,8.21875000e-03,1.63281250e-02
-2.27812500e-07,1.10000000e-02,1.28906250e-02
-2.27012500e-07,1.49062500e-02,8.59375000e-03
-2.26212500e-07,2.78125000e-03,2.38281250e-02
-2.25412500e-07,8.68750000e-03,1.86718750e-02
-2.24612500e-07,1.37187500e-02,1.28906250e-02
-2.23812500e-07,1.15000000e-02,1.24218750e-02
-2.23012500e-07,9.34375000e-03,1.76562500e-02
-2.22212500e-07,5.78125000e-03,1.70312500e-02
-2.21412500e-07,1.35625000e-02,2.67187500e-02
-2.20612500e-07,1.10312500e-02,5.23437500e-03
-2.19812500e-07,1.26562500e-02,1.26562500e-02
-2.19012500e-07,1.00000000e-02,8.35937500e-03
-2.18212500e-07,6.03125000e-03,2.39062500e-02
-2.17412500e-07,1.00625000e-02,1.39062500e-02
-2.16612500e-07,2.93750000e-03,1.57812500e-02
-2.15812500e-07,6.40625000e-03,1.35156250e-02
-2.15012500e-07,1.00000000e-02,1.45312500e-02
-2.14212500e-07,1.39062500e-02,2.21875000e-02
-2.13412500e-07,2.15625000e-03,1.21875000e-02
-2.12612500e-07,1.37812500e-02,1.50000000e-02
-2.11812500e-07,1.02500000e-02,1.76562500e-02
-2.11012500e-07,1.34687500e-02,1.67968750e-02
-2.10212500e-07,8.62500000e-03,1.37500000e-02
-2.09412500e-07,1.32500000e-02,2.35156250e-02
-2.08612500e-07,1.18125000e-02,1.27343750e-02
-2.07812500e-07,9.71875000e-03,1.69531250e-02
-2.07012500e-07,7.03125000e-03,2.96875000e-03
-2.06212500e-07,1.31562500e-02,1.67187500e-02
-2.05412500e-07,9.25000000e-03,1.95312500e-02
-2.04612500e-07,1.35937500e-02,1.63281250e-02
-2.03812500e-07,3.65625000e-03,2.35937500e-02
-2.03012500e-07,8.75000000e-03,1.66406250e-02
-2.02212500e-07,1.17187500e-02,1.69531250e-02
-2.01412500e-07,1.27812500e-02,1.87500000e-02
-2.00612500e-07,5.87500000e-03,7.57812500e-03
-1.99812500e-07,7.84375000e-03,1.99218750e-02
-1.99012500e-07,1.28437500e-02,2.46875000e-02
-1.98212500e-07,1.00312500e-02,2.13281250e-02
-1.97412500e-07,8.53125000e-03,1.28125000e-02
-1.96612500e-07,7.50000000e-03,2.17187500e-02
-1.95812500e-07,1.05937500e-02,2.71875000e-02
-1.95012500e-07,8.59375000e-03,1.12500000e-02
-1.94212500e-07,7.78125000e-03,1.69531250e-02
-1.93412500e-07,1.32500000e-02,1.33593750e-02
-1.92612500e-07,6.59375000e-03,1.10156250e-02
-1.91812500e-07,9.46875000e-03,1.30468750e-02
-1.91012500e-07,9.68750000e-03,1.96093750e-02
-1.90212500e-07,7.75000000e-03,1.21093750e-02
-1.89412500e-07,2.46875000e-03,4.60937500e-03
-1.88612500e-07,1.07812500e-02,2.18750000e-02
-1.87812500e-07,1.93750000e-03,1.08593750e-02
-1.87012500e-07,1.19687500e-02,2.05468750e-02
-1.86212500e-07,9.25000000e-03,1.87500000e-02
-1.85412500e-07,1.19375000e-02,1.75781250e-02
-1.84612500e-07,1.09687500e-02,1.22656250e-02
-1.83812500e-07,1.40312500e-02,2.10937500e-02
-1.83012500e-07,4.53125000e-03,1.67187500e-02
-1.82212500e-07,8.03125000e-03,1.64062500e-02
-1.81412500e-07,8.00000000e-03,2.27343750e-02
-1.80612500e-07,7.25000000e-03,1.53906250e-02
-1.79812500e-07,6.15625000e-03,1.81250000e-02
-1.79012500e-07,1.50937500e-02,9.45312500e-03
-1.78212500e-07,6.65625000e-03,1.30468750e-02
-1.77412500e-07,9.15625000e-03,6.40625000e-03
-1.76612500e-07,1.23437500e-02,1.46093750e-02
-1.75812500e-07,1.39687500e-02,1.36718750e-02
-1.75012500e-07,4.28125000e-03,1.96875000e-02
-1.74212500e-07,9.46875000e-03,1.21875000e-02
-1.73412500e-07,1.02812500e-02,9.92187500e-03
-1.72612500e-07,1.00312500e-02,2.10937500e-02
-1.71812500e-07,1.19375000e-02,1.88281250e-02
-1.71012500e-07,6.78125000e-03,1.29687500e-02
-1.70212500e-07,9.62500000e-03,1.71093750e-02
-1.69412500e-07,9.18750000e-03,2.41406250e-02
-1.68612500e-07,1.01562500e-02,1.80468750e-02
-1.67812500e-07,9.50000000e-03,1.68750000e-02
-1.67012500e-07,2.96875000e-03,1.75000000e-02
-1.66212500e-07,1.20312500e-02,1.61718750e-02
-1.65412500e-07,1.84375000e-03,1.95312500e-02
-1.64612500e-07,9.75000000e-03,1.21093750e-02
-1.63812500e-07,7.31250000e-03,1.77343750e-02
-1.63012500e-07,1.36875000e-02,2.07031250e-02
-1.62212500e-07,2.96875000e-03,1.35156250e-02
-1.61412500e-07,7.12500000e-03,1.75781250e-02
-1.60612500e-07,9.81250000e-03,1.28125000e-02
-1.59812500e-07,1.27812500e-02,1.83593750e-02
-1.59012500e-07,3.62500000e-03,1.35156250e-02
-1.58212500e-07,8.90625000e-03,1.76562500e-02
-1.57412500e-07,8.03125000e-03,1.81250000e-02
-1.56612500e-07,9.75000000e-03,1.22656250e-02
-1.55812500e-07,5.90625000e-03,1.63281250e-02
-1.55012500e-07,9.81250000e-03,1.35937500e-02
-1.54212500e-07,6.21875000e-03,1.63281250e-02
-1.53412500e-07,1.27812500e-02,1.55468750e-02
-1.52612500e-07,5.87500000e-03,1.62500000e-02
-1.51812500e-07,7.62500000e-03,8.98437500e-03
-1.51012500e-07,1.10937500e-02,1.71875000e-02
-1.50212500e-07,1.44375000e-02,1.68750000e-02
-1.49412500e-07,8.25000000e-03,1.82812500e-02
-1.48612500e-07,7.37500000e-03,1.54687500e-02
-1.47812500e-07,1.05312500e-02,1.75781250e-02
-1.47012500e-07,1.14375000e-02,1.21093750e-02
-1.46212500e-07,7.96875000e-03,1.37500000e-02
-1.45412500e-07,9.46875000e-03,1.22656250e-02
-1.44612500e-07,1.10312500e-02,9.84375000e-03
-1.43812500e-07,1.16562500e-02,1.97656250e-02
-1.43012500e-07,1.00937500e-02,1.55468750e-02
-1.42212500e-07,6.09375000e-03,1.16406250e-02
-1.41412500e-07,2.25000000e-03,1.71093750e-02
-1.40612500e-07,1.25312500e-02,2.07812500e-02
-1.39812500e-07,6.78125000e-03,2.01562500e-02
-1.39012500e-07,3.78125000e-03,2.32812500e-02
-1.38212500e-07,6.75000000e-03,1.66406250e-02
-1.37412500e-07,1.53750000e-02,1.81250000e-02
-1.36612500e-07,3.46875000e-03,1.28906250e-02
-1.35812500e-07,1.30625000e-02,2.10156250e-02
-1.35012500e-07,4.96875000e-03,2.21093750e-02
-1.34212500e-07,1.36875000e-02,2.34375000e-02
-1.33412500e-07,5.90625000e-03,2.21093750e-02
-1.32612500e-07,1.26562500e-02,2.34375000e-02
-1.31812500e-07,7.93750000e-03,2.14843750e-02
-1.31012500e-07,7.71875000e-03,2.21093750e-02
-1.30212500e-07,7.59375000e-03,7.03125000e-03
-1.29412500e-07,1.32812500e-02,3.00781250e-02
-1.28612500e-07,1.00000000e-02,2.59375000e-02
-1.27812500e-07,1.20312500e-02,2.03906250e-02
-1.27012500e-07,4.28125000e-03,2.16406250e-02
-1.26212500e-07,9.84375000e-03,1.90625000e-02
-1.25412500e-07,1.10937500e-02,1.19531250e-02
-1.24612500e-07,1.17812500e-02,1.75781250e-02
-1.23812500e-07,5.31250000e-03,2.13281250e-02
-1.23012500e-07,7.40625000e-03,2.47656250e-02
-1.22212500e-07,1.22187500e-02,1.72656250e-02
-1.21412500e-07,7.75000000e-03,1.83593750e-02
-1.20612500e-07,9.71875000e-03,2.48437500e-02
-1.19812500e-07,8.53125000e-03,1.82031250e-02
-1.19012500e-07,1.03125000e-02,2.23437500e-02
-1.18212500e-07,1.17187500e-02,2.28906250e-02
-1.17412500e-07,1.03125000e-02,1.16406250e-02
-1.16612500e-07,7.56250000e-03,1.74218750e-02
-1.15812500e-07,4.65625000e-03,1.78125000e-02
-1.15012500e-07,7.18750000e-03,1.08593750e-02
-1.14212500e-07,1.20312500e-02,2.54687500e-02
-1.13412500e-07,1.11875000e-02,1.25781250e-02
-1.12612500e-07,7.09375000e-03,1.77343750e-02
-1.11812500e-07,9.15625000e-03,1.48437500e-02
-1.11012500e-07,1.46875000e-03,1.45312500e-02
-1.10212500e-07,8.84375000e-03,1.52343750e-02
-1.09412500e-07,5.71875000e-03,1.53125000e-02
-1.08612500e-07,1.06562500e-02,2.00000000e-02
-1.07812500e-07,7.87500000e-03,1.80468750e-02
-1.07012500e-07,1.40625000e-02,2.35156250e-02
-1.06212500e-07,1.05937500e-02,2.60156250e-02
-1.05412500e-07,1.16875000e-02,2.39062500e-02
-1.04612500e-07,5.87500000e-03,1.81250000e-02
-1.03812500e-07,1.05937500e-02,2.16406250e-02
-1.03012500e-07,5.46875000e-03,1.96875000e-02
-1.02212500e-07,1.58750000e-02,2.44531250e-02
-1.01412500e-07,5.18750000e-03,2.10156250e-02
-1.00612500e-07,4.18750000e-03,1.79687500e-02
-9.98125000e-08,1.26250000e-02,1.54687500e-02
-9.90125000e-08,1.86250000e-02,2.42968750e-02
-9.82125000e-08,4.34375000e-03,2.47656250e-02
-9.74125000e-08,9.34375000e-03,2.75781250e-02
-9.66125000e-08,1.40312500e-02,2.33593750e-02
-9.58125000e-08,6.68750000e-03,2.50000000e-02
-9.50125000e-08,9.56250000e-03,2.28906250e-02
-9.42125000e-08,2.84375000e-03,1.72656250e-02
-9.34125000e-08,1.36250000e-02,3.19531250e-02
-9.26125000e-08,6.78125000e-03,2.62500000e-02
-9.18125000e-08,1.31875000e-02,1.65625000e-02
-9.10125000e-08,8.62500000e-03,1.36718750e-02
-9.02125000e-08,6.09375000e-03,2.29687500e-02
-8.94125000e-08,1.58125000e-02,1.16406250e-02
-8.86125000e-08,1.05312500e-02,2.45312500e-02
-8.78125000e-08,1.09687500e-02,1.94531250e-02
-8.70125000e-08,5.43750000e-03,2.10937500e-02
-8.62125000e-08,1.56562500e-02,2.22656250e-02
-8.54125000e-08,2.56250000e-03,1.97656250e-02
-8.46125000e-08,1.31562500e-02,3.10937500e-02
-8.38125000e-08,1.13437500e-02,3.52343750e-02
-8.30125000e-08,1.46562500e-02,2.25781250e-02
-8.22125000e-08,3.40625000e-03,1.89843750e-02
-8.14125000e-08,8.25000000e-03,1.63281250e-02
-8.06125000e-08,2.65625000e-03,1.58593750e-02
-7.98125000e-08,1.27812500e-02,2.11718750e-02
-7.90125000e-08,6.71875000e-03,2.23437500e-02
-7.82125000e-08,1.21250000e-02,1.83593750e-02
-7.74125000e-08,5.21875000e-03,2.57031250e-02
-7.66125000e-08,1.69062500e-02,1.48437500e-02
-7.58125000e-08,3.65625000e-03,1.85937500e-02
-7.50125000e-08,7.81250000e-03,2.42187500e-02
-7.42125000e-08,1.39375000e-02,2.15625000e-02
-7.34125000e-08,1.25000000e-02,2.93750000e-02
-7.26125000e-08,5.62500000e-03,2.04687500e-02
-7.18125000e-08,8.68750000e-03,1.53906250e-02
-7.10125000e-08,1.63750000e-02,2.14062500e-02
-7.02125000e-08,9.37500000e-03,2.10937500e-02
-6.94125000e-08,6.96875000e-03,1.98437500e-02
-6.86125000e-08,7.31250000e-03,1.37500000e-02
-6.78125000e-08,1.18125000e-02,2.64843750e-02
-6.70125000e-08,8.81250000e-03,2.85156250e-02
-6.62125000e-08,1.47187500e-02,2.12500000e-02
-6.54125000e-08,1.19375000e-02,2.63281250e-02
-6.46125000e-08,8.31250000e-03,1.98437500e-02
-6.38125000e-08,1.25625000e-02,1.17968750e-02
-6.30125000e-08,5.71875000e-03,9.29687500e-03
-6.22125000e-08,9.21875000e-03,2.17187500e-02
-6.14125000e-08,1.16250000e-02,3.32031250e-02
-6.06125000e-08,1.24687500e-02,-8.02343750e-02
-5.98125000e-08,3.96875000e-03,-5.75781250e-01
-5.90125000e-08,9.53125000e-03,-1.11289063e+00
-5.82125000e-08,1.19062500e-02,-1.29132813e+00
-5.74125000e-08,1.37187500e-02,-1.35757813e+00
-5.66125000e-08,2.56250000e-03,-1.41031250e+00
-5.58125000e-08,1.40312500e-02,-1.40812500e+00
-5.50125000e-08,8.37500000e-03,-1.38445313e+00
-5.42125000e-08,9.96875000e-03,-1.35023438e+00
-5.34125000e-08,5.31250000e-03,-1.36070313e+00
-5.26125000e-08,1.31875000e-02,-1.38937500e+00
-5.18125000e-08,5.81250000e-03,-1.40007813e+00
-5.10125000e-08,1.38750000e-02,-1.40593750e+00
-5.02125000e-08,1.33125000e-02,-1.40664063e+00
-4.94125000e-08,1.11250000e-02,-1.41171875e+00
-4.86125000e-08,1.14062500e-02,-1.41523438e+00
-4.78125000e-08,1.64687500e-02,-1.40375000e+00
-4.70125000e-08,5.78125000e-03,-1.41398438e+00
-4.62125000e-08,1.18750000e-02,-1.42015625e+00
-4.54125000e-08,1.29375000e-02,-1.41554687e+00
-4.46125000e-08,9.93750000e-03,-1.41304688e+00
-4.38125000e-08,6.12500000e-03,-1.42062500e+00
-4.30125000e-08,9.43750000e-03,-1.43179688e+00
-4.22125000e-08,1.27812500e-02,-1.42304688e+00
-4.14125000e-08,1.05000000e-02,-1.42218750e+00
-4.06125000e-08,7.56250000e-03,-1.41914063e+00
-3.98125000e-08,6.62500000e-03,-1.42031250e+00
-3.90125000e-08,1.02500000e-02,-1.42320313e+00
-3.82125000e-08,1.07812500e-02,-1.42875000e+00
-3.74125000e-08,2.68750000e-03,-1.42562500e+00
-3.66125000e-08,6.34375000e-03,-1.41890625e+00
-3.58125000e-08,5.25000000e-03,-1.41750000e+00
-3.50125000e-08,1.14062500e-02,-1.41679688e+00
-3.42125000e-08,-1.43750000e-03,-1.42656250e+00
-3.34125000e-08,-4.81250000e-03,-1.42789063e+00
-3.26125000e-08,-2.17500000e-02,-1.41843750e+00
-3.18125000e-08,-5.99687500e-02,-1.42171875e+00
-3.10125000e-08,-1.25937500e-01,-1.41796875e+00
-3.02125000e-08,-2.01250000e-01,-1.41992188e+00
-2.94125000e-08,-3.08375000e-01,-1.41554687e+00
-2.86125000e-08,-4.19968750e-01,-1.41750000e+00
-2.78125000e-08,-5.22156250e-01,-1.43031250e+00
-2.70125000e-08,-6.17437500e-01,-1.41507812e+00
-2.62125000e-08,-6.95750000e-01,-1.41007813e+00
-2.54125000e-08,-7.60468750e-01,-1.40796875e+00
-2.46125000e-08,-8.15312500e-01,-1.41601562e+00
-2.38125000e-08,-8.40437500e-01,-1.42015625e+00
-2.30125000e-08,-8.59875000e-01,-1.41460938e+00
-2.22125000e-08,-8.75937500e-01,-1.41195313e+00
-2.14125000e-08,-8.77906250e-01,-1.41000000e+00
-2.06125000e-08,-8.63500000e-01,-1.42250000e+00
-1.98125000e-08,-8.46562500e-01,-1.41476563e+00
-1.90125000e-08,-8.29812500e-01,-1.41695313e+00
-1.82125000e-08,-8.05906250e-01,-1.42328125e+00
-1.74125000e-08,-7.67375000e-01,-1.42625000e+00
-1.66125000e-08,-7.38000000e-01,-1.40953125e+00
-1.58125000e-08,-7.08187500e-01,-1.41734375e+00
-1.50125000e-08,-6.72062500e-01,-1.42468750e+00
-1.42125000e-08,-6.42000000e-01,-1.42203125e+00
-1.34125000e-08,-6.07093750e-01,-1.42781250e+00
-1.26125000e-08,-5.74531250e-01,-1.42617188e+00
-1.18125000e-08,-5.44718750e-01,-1.42140625e+00
-1.10125000e-08,-5.13875000e-01,-1.42421875e+00
-1.02125000e-08,-4.84750000e-01,-1.43234375e+00
-9.41250000e-09,-4.60906250e-01,-1.41562500e+00
-8.61250000e-09,-4.38312500e-01,-1.42445313e+00
-7.81250000e-09,-3.97843750e-01,-1.42140625e+00
-7.01250000e-09,-3.74343750e-01,-1.42796875e+00
-6.21250000e-09,-3.51406250e-01,-1.41882813e+00
-5.41250000e-09,-3.33750000e-01,-1.42468750e+00
-4.61250000e-09,-3.17093750e-01,-1.41257813e+00
-3.81250000e-09,-3.01562500e-01,-1.39898438e+00
-3.01250000e-09,-2.87718750e-01,-1.36132812e+00
-2.21250000e-09,-2.72187500e-01,-1.26890625e+00
-1.41250000e-09,-2.52281250e-01,-9.68750000e-01
-6.12500000e-10,-2.44781250e-01,-5.07187500e-01
1.87500000e-10,-2.27093750e-01,-2.53203125e-01
9.87500000e-10,-2.17625000e-01,-1.40078125e-01
1.78750000e-09,-2.04843750e-01,-8.41406250e-02
2.58750000e-09,-1.88843750e-01,-5.89062500e-02
3.38750000e-09,-1.77218750e-01,-4.50781250e-02
4.18750000e-09,-1.80875000e-01,-4.21093750e-02
4.98750000e-09,-1.65062500e-01,-2.92968750e-02
5.78750000e-09,-1.51187500e-01,-2.59375000e-02
6.58750000e-09,-1.53625000e-01,-3.28906250e-02
7.38750000e-09,-1.42093750e-01,-2.93750000e-02
8.18750000e-09,-1.37156250e-01,-2.86718750e-02
8.98750000e-09,-1.32250000e-01,-1.50000000e-02
9.78750000e-09,-1.21718750e-01,-1.78125000e-02
1.05875000e-08,-1.18218750e-01,-1.83593750e-02
1.13875000e-08,-1.14750000e-01,-1.25781250e-02
1.21875000e-08,-1.09062500e-01,-7.42187500e-03
1.29875000e-08,-9.58437500e-02,-1.03906250e-02
1.37875000e-08,-1.00312500e-01,-6.79687500e-03
1.45875000e-08,-8.69375000e-02,-1.79687500e-03
1.53875000e-08,-8.13437500e-02,-6.25000000e-03
1.61875000e-08,-7.35625000e-02,1.09375000e-03
1.69875000e-08,-7.49687500e-02,-1.07031250e-02
1.77875000e-08,-6.36562500e-02,6.40625000e-03
1.85875000e-08,-6.01875000e-02,7.81250000e-05
1.93875000e-08,-5.67187500e-02,2.03125000e-03
2.01875000e-08,-5.59062500e-02,5.46875000e-03
2.09875000e-08,-5.09062500e-02,5.70312500e-03
2.17875000e-08,-5.50625000e-02,2.81250000e-03
2.25875000e-08,-4.85937500e-02,1.19531250e-02
2.33875000e-08,-5.26562500e-02,1.33593750e-02
2.41875000e-08,-4.47812500e-02,1.90625000e-02
2.49875000e-08,-4.36250000e-02,1.84375000e-02
2.57875000e-08,-3.65625000e-02,1.49218750e-02
2.65875000e-08,-4.13437500e-02,2.37500000e-02
2.73875000e-08,-3.69062500e-02,1.45312500e-02
2.81875000e-08,-2.85000000e-02,1.19531250e-02
2.89875000e-08,-2.72500000e-02,1.68750000e-02
2.97875000e-08,-3.22500000e-02,7.96875000e-03
3.05875000e-08,-2.27187500e-02,2.20312500e-02
3.13875000e-08,-2.18750000e-02,2.51562500e-02
3.21875000e-08,-2.30312500e-02,1.78906250e-02
3.29875000e-08,-1.67187500e-02,4.03125000e-02
3.37875000e-08,-2.20312500e-02,4.26562500e-02
3.45875000e-08,-1.85312500e-02,4.76562500e-02
3.53875000e-08,-1.65937500e-02,3.92187500e-02
3.61875000e-08,-1.70625000e-02,4.77343750e-02
3.69875000e-08,-1.47500000e-02,3.65625000e-02
3.77875000e-08,-2.27812500e-02,3.75000000e-02
3.85875000e-08,-1.62500000e-02,3.71093750e-02
3.93875000e-08,-1.48437500e-02,3.58593750e-02
4.01875000e-08,-1.51875000e-02,3.82031250e-02
4.09875000e-08,-1.20625000e-02,2.75781250e-02
4.17875000e-08,-9.62500000e-03,2.83593750e-02
4.25875000e-08,-1.98750000e-02,3.03906250e-02
4.33875000e-08,-5.62500000e-03,3.87500000e-02
4.41875000e-08,-1.21250000e-02,3.25000000e-02
4.49875000e-08,-1.96875000e-03,2.59375000e-02
4.57875000e-08,-1.40312500e-02,2.67968750e-02
4.65875000e-08,-5.84375000e-03,3.19531250e-02
4.73875000e-08,-7.09375000e-03,3.77343750e-02
4.81875000e-08,-6.18750000e-03,3.06250000e-02
4.89875000e-08,-1.36562500e-02,1.77343750e-02
4.97875000e-08,-1.20937500e-02,3.45312500e-02
5.05875000e-08,-1.09375000e-02,3.32812500e-02
5.13875000e-08,-7.46875000e-03,3.19531250e-02
5.21875000e-08,-1.07500000e-02,2.32031250e-02
5.29875000e-08,-1.34062500e-02,2.54687500e-02
5.37875000e-08,-7.18750000e-03,2.73437500e-02
5.45875000e-08,-9.68750000e-04,3.18750000e-02
5.53875000e-08,-1.09375000e-02,2.16406250e-02
5.61875000e-08,-6.56250000e-03,1.01562500e-02
