muon_CSV/TriggerAuto_ALL_20231205193440221.csv

Model,MSO64B
Channel,CH1,,Channel,CH2
Label,,,Label,
Waveform Type,ANALOG,,Waveform Type,ANALOG
Horizontal Units,s,,Horizontal Units,s
Sample Interval,8.00000000e-10,,Sample Interval,8.00000000e-10
Record Length,5000,,Record Length,5000
Zero Index,349.71875000,,Zero Index,349.71875000
Vertical Units,V,,Vertical Units,V
,,,,
ANALOG_Thumbnail,,,ANALOG_Thumbnail,
yOffset,0.000000,,yOffset,0.000000
yPosition,2.160000,,yPosition,2.180000

Labels,,
TIME,CH1,CH2
-2.79775000e-07,8.28125000e-03,6.79687500e-03
-2.78975000e-07,2.34375000e-03,3.67187500e-03
-2.78175000e-07,9.00000000e-03,3.12500000e-03
-2.77375000e-07,3.09375000e-03,1.04687500e-02
-2.76575000e-07,4.65625000e-03,1.14843750e-02
-2.75775000e-07,6.65625000e-03,6.17187500e-03
-2.74975000e-07,2.06250000e-03,1.09375000e-02
-2.74175000e-07,7.28125000e-03,1.00000000e-02
-2.73375000e-07,6.00000000e-03,2.18750000e-03
-2.72575000e-07,9.56250000e-03,3.67187500e-03
-2.71775000e-07,8.53125000e-03,-6.25000000e-03
-2.70975000e-07,6.81250000e-03,5.46875000e-03
-2.70175000e-07,2.68750000e-03,1.22656250e-02
-2.69375000e-07,1.30625000e-02,5.54687500e-03
-2.68575000e-07,6.46875000e-03,5.70312500e-03
-2.67775000e-07,7.96875000e-03,7.03125000e-03
-2.66975000e-07,-4.09375000e-03,1.49218750e-02
-2.66175000e-07,7.62500000e-03,1.00000000e-02
-2.65375000e-07,1.62500000e-03,6.87500000e-03
-2.64575000e-07,4.56250000e-03,1.28906250e-02
-2.63775000e-07,2.75000000e-03,1.13281250e-02
-2.62975000e-07,1.07187500e-02,6.09375000e-03
-2.62175000e-07,5.25000000e-03,3.59375000e-03
-2.61375000e-07,5.31250000e-03,9.60937500e-03
-2.60575000e-07,5.43750000e-03,1.07812500e-02
-2.59775000e-07,2.81250000e-03,1.07812500e-02
-2.58975000e-07,9.37500000e-03,3.43750000e-03
-2.58175000e-07,1.09375000e-02,1.29687500e-02
-2.57375000e-07,4.09375000e-03,6.64062500e-03
-2.56575000e-07,7.62500000e-03,9.60937500e-03
-2.55775000e-07,7.06250000e-03,5.93750000e-03
-2.54975000e-07,6.37500000e-03,3.59375000e-03
-2.54175000e-07,5.56250000e-03,4.21875000e-03
-2.53375000e-07,6.71875000e-03,-4.21875000e-03
-2.52575000e-07,8.56250000e-03,8.59375000e-03
-2.51775000e-07,6.78125000e-03,1.15625000e-02
-2.50975000e-07,8.09375000e-03,1.07812500e-02
-2.50175000e-07,7.46875000e-03,8.28125000e-03
-2.49375000e-07,6.81250000e-03,1.81250000e-02
-2.48575000e-07,8.78125000e-03,9.92187500e-03
-2.47775000e-07,3.15625000e-03,1.73437500e-02
-2.46975000e-07,5.00000000e-03,2.34375000e-03
-2.46175000e-07,5.09375000e-03,-4.29687500e-03
-2.45375000e-07,1.10000000e-02,6.40625000e-03
-2.44575000e-07,2.06250000e-03,8.82812500e-03
-2.43775000e-07,8.90625000e-03,-3.90625000e-04
-2.42975000e-07,6.15625000e-03,9.21875000e-03
-2.42175000e-07,1.35937500e-02,1.46875000e-02
-2.41375000e-07,6.34375000e-03,1.33593750e-02
-2.40575000e-07,9.53125000e-03,2.57812500e-03
-2.39775000e-07,3.43750000e-03,2.42187500e-03
-2.38975000e-07,5.93750000e-03,1.47656250e-02
-2.38175000e-07,3.15625000e-03,2.57812500e-03
-2.37375000e-07,7.31250000e-03,1.64062500e-03
-2.36575000e-07,3.90625000e-03,-3.67187500e-03
-2.35775000e-07,8.46875000e-03,6.56250000e-03
-2.34975000e-07,6.21875000e-03,1.02343750e-02
-2.34175000e-07,6.00000000e-03,4.14062500e-03
-2.33375000e-07,1.18750000e-02,-1.01562500e-03
-2.32575000e-07,1.09687500e-02,2.50000000e-03
-2.31775000e-07,1.46875000e-03,3.04687500e-03
-2.30975000e-07,1.00937500e-02,3.82812500e-03
-2.30175000e-07,8.21875000e-03,4.45312500e-03
-2.29375000e-07,7.68750000e-03,1.96875000e-02
-2.28575000e-07,7.56250000e-03,9.68750000e-03
-2.27775000e-07,4.84375000e-03,-5.00000000e-03
-2.26975000e-07,5.75000000e-03,9.76562500e-03
-2.26175000e-07,7.87500000e-03,5.39062500e-03
-2.25375000e-07,8.09375000e-03,5.62500000e-03
-2.24575000e-07,8.40625000e-03,-4.37500000e-03
-2.23775000e-07,2.71875000e-03,3.90625000e-03
-2.22975000e-07,9.28125000e-03,2.26562500e-03
-2.22175000e-07,4.50000000e-03,4.68750000e-04
-2.21375000e-07,9.34375000e-03,-7.81250000e-04
-2.20575000e-07,7.75000000e-03,7.96875000e-03
-2.19775000e-07,1.03750000e-02,1.15625000e-02
-2.18975000e-07,3.18750000e-03,6.79687500e-03
-2.18175000e-07,1.25937500e-02,-3.75000000e-03
-2.17375000e-07,7.78125000e-03,2.65625000e-03
-2.16575000e-07,1.12500000e-02,2.26562500e-03
-2.15775000e-07,3.00000000e-03,-2.03125000e-03
-2.14975000e-07,1.20625000e-02,4.53125000e-03
-2.14175000e-07,3.78125000e-03,3.82812500e-03
-2.13375000e-07,4.59375000e-03,7.73437500e-03
-2.12575000e-07,2.71875000e-03,5.78125000e-03
-2.11775000e-07,9.96875000e-03,1.09375000e-02
-2.10975000e-07,4.09375000e-03,5.54687500e-03
-2.10175000e-07,1.02500000e-02,1.08593750e-02
-2.09375000e-07,3.71875000e-03,-2.42187500e-03
-2.08575000e-07,8.78125000e-03,1.31250000e-02
-2.07775000e-07,6.71875000e-03,7.03125000e-04
-2.06975000e-07,9.84375000e-03,9.76562500e-03
-2.06175000e-07,1.78125000e-03,-1.95312500e-03
-2.05375000e-07,7.03125000e-03,7.26562500e-03
-2.04575000e-07,6.12500000e-03,7.81250000e-04
-2.03775000e-07,7.43750000e-03,-7.81250000e-05
-2.02975000e-07,9.40625000e-03,1.71875000e-03
-2.02175000e-07,6.59375000e-03,4.60937500e-03
-2.01375000e-07,9.34375000e-03,6.32812500e-03
-2.00575000e-07,8.50000000e-03,5.46875000e-04
-1.99775000e-07,3.93750000e-03,1.64062500e-02
-1.98975000e-07,9.09375000e-03,1.07031250e-02
-1.98175000e-07,4.84375000e-03,5.39062500e-03
-1.97375000e-07,9.28125000e-03,-2.96875000e-03
-1.96575000e-07,9.59375000e-03,1.17968750e-02
-1.95775000e-07,6.25000000e-03,4.14062500e-03
-1.94975000e-07,9.40625000e-03,1.30468750e-02
-1.94175000e-07,7.84375000e-03,9.92187500e-03
-1.93375000e-07,2.96875000e-03,5.54687500e-03
-1.92575000e-07,9.09375000e-03,3.59375000e-03
-1.91775000e-07,6.78125000e-03,9.06250000e-03
-1.90975000e-07,7.31250000e-03,1.21093750e-02
-1.90175000e-07,5.09375000e-03,1.33593750e-02
-1.89375000e-07,9.18750000e-03,7.18750000e-03
-1.88575000e-07,3.09375000e-03,-3.04687500e-03
-1.87775000e-07,8.62500000e-03,7.10937500e-03
-1.86975000e-07,5.18750000e-03,4.84375000e-03
-1.86175000e-07,7.46875000e-03,6.32812500e-03
-1.85375000e-07,5.62500000e-03,7.57812500e-03
-1.84575000e-07,1.16562500e-02,1.01562500e-02
-1.83775000e-07,1.50000000e-03,1.20312500e-02
-1.82975000e-07,5.62500000e-03,-2.03125000e-03
-1.82175000e-07,6.37500000e-03,-8.67187500e-03
-1.81375000e-07,1.12812500e-02,1.12500000e-02
-1.80575000e-07,5.21875000e-03,2.81250000e-03
-1.79775000e-07,7.75000000e-03,2.57812500e-03
-1.78975000e-07,1.09062500e-02,9.60937500e-03
-1.78175000e-07,4.00000000e-03,6.87500000e-03
-1.77375000e-07,4.93750000e-03,5.00000000e-03
-1.76575000e-07,8.56250000e-03,6.32812500e-03
-1.75775000e-07,1.00312500e-02,2.96875000e-03
-1.74975000e-07,5.03125000e-03,1.30468750e-02
-1.74175000e-07,6.87500000e-03,7.26562500e-03
-1.73375000e-07,7.40625000e-03,1.71875000e-03
-1.72575000e-07,5.84375000e-03,1.16406250e-02
-1.71775000e-07,1.22812500e-02,6.09375000e-03
-1.70975000e-07,4.34375000e-03,8.28125000e-03
-1.70175000e-07,7.03125000e-03,5.46875000e-03
-1.69375000e-07,1.93750000e-03,3.67187500e-03
-1.68575000e-07,1.12500000e-02,8.28125000e-03
-1.67775000e-07,2.65625000e-03,1.07812500e-02
-1.66975000e-07,7.43750000e-03,2.10937500e-03
-1.66175000e-07,1.10312500e-02,-2.18750000e-03
-1.65375000e-07,1.31875000e-02,1.71093750e-02
-1.64575000e-07,2.96875000e-03,8.51562500e-03
-1.63775000e-07,9.90625000e-03,-3.67187500e-03
-1.62975000e-07,6.81250000e-03,7.81250000e-03
-1.62175000e-07,1.18437500e-02,8.82812500e-03
-1.61375000e-07,2.62500000e-03,4.21875000e-03
-1.60575000e-07,8.03125000e-03,-2.34375000e-04
-1.59775000e-07,2.31250000e-03,1.37500000e-02
-1.58975000e-07,1.32500000e-02,8.04687500e-03
-1.58175000e-07,1.81250000e-03,7.65625000e-03
-1.57375000e-07,5.71875000e-03,1.20312500e-02
-1.56575000e-07,6.03125000e-03,-1.79687500e-03
-1.55775000e-07,1.32187500e-02,1.58593750e-02
-1.54975000e-07,3.37500000e-03,1.24218750e-02
-1.54175000e-07,6.68750000e-03,1.56250000e-04
-1.53375000e-07,1.38750000e-02,7.65625000e-03
-1.52575000e-07,9.62500000e-03,6.79687500e-03
-1.51775000e-07,6.03125000e-03,6.95312500e-03
-1.50975000e-07,4.87500000e-03,7.50000000e-03
-1.50175000e-07,1.09375000e-02,5.54687500e-03
-1.49375000e-07,1.02187500e-02,9.60937500e-03
-1.48575000e-07,1.04375000e-02,9.37500000e-03
-1.47775000e-07,6.25000000e-03,4.84375000e-03
-1.46975000e-07,5.09375000e-03,1.42187500e-02
-1.46175000e-07,7.84375000e-03,2.57812500e-03
-1.45375000e-07,4.71875000e-03,8.35937500e-03
-1.44575000e-07,6.84375000e-03,5.31250000e-03
-1.43775000e-07,4.21875000e-03,-9.37500000e-04
-1.42975000e-07,6.65625000e-03,9.68750000e-03
-1.42175000e-07,4.56250000e-03,3.43750000e-03
-1.41375000e-07,8.03125000e-03,2.34375000e-03
-1.40575000e-07,8.62500000e-03,6.32812500e-03
-1.39775000e-07,1.28125000e-02,1.07812500e-02
-1.38975000e-07,4.59375000e-03,1.00000000e-02
-1.38175000e-07,1.15000000e-02,-1.25000000e-03
-1.37375000e-07,6.59375000e-03,3.20312500e-03
-1.36575000e-07,9.25000000e-03,1.14843750e-02
-1.35775000e-07,4.34375000e-03,-3.90625000e-04
-1.34975000e-07,1.26562500e-02,6.56250000e-03
-1.34175000e-07,7.46875000e-03,1.42187500e-02
-1.33375000e-07,6.34375000e-03,1.07031250e-02
-1.32575000e-07,2.12500000e-03,1.01562500e-03
-1.31775000e-07,4.00000000e-03,5.15625000e-03
-1.30975000e-07,9.75000000e-03,2.50000000e-03
-1.30175000e-07,1.20625000e-02,3.98437500e-03
-1.29375000e-07,5.59375000e-03,3.35937500e-03
-1.28575000e-07,9.96875000e-03,1.00000000e-02
-1.27775000e-07,7.37500000e-03,7.26562500e-03
-1.26975000e-07,6.68750000e-03,1.00781250e-02
-1.26175000e-07,7.65625000e-03,7.96875000e-03
-1.25375000e-07,1.05937500e-02,1.39843750e-02
-1.24575000e-07,6.78125000e-03,1.25000000e-03
-1.23775000e-07,4.00000000e-03,5.07812500e-03
-1.22975000e-07,8.53125000e-03,6.25000000e-03
-1.22175000e-07,5.03125000e-03,7.10937500e-03
-1.21375000e-07,4.96875000e-03,1.16406250e-02
-1.20575000e-07,9.00000000e-03,1.28125000e-02
-1.19775000e-07,7.37500000e-03,2.34375000e-04
-1.18975000e-07,6.56250000e-03,2.10937500e-03
-1.18175000e-07,1.06250000e-02,7.34375000e-03
-1.17375000e-07,1.30625000e-02,1.32812500e-02
-1.16575000e-07,8.43750000e-04,6.40625000e-03
-1.15775000e-07,9.00000000e-03,9.37500000e-03
-1.14975000e-07,8.40625000e-03,1.25000000e-03
-1.14175000e-07,1.10312500e-02,3.12500000e-03
-1.13375000e-07,5.62500000e-03,7.50000000e-03
-1.12575000e-07,8.68750000e-03,1.01562500e-03
-1.11775000e-07,3.21875000e-03,7.10937500e-03
-1.10975000e-07,4.62500000e-03,1.17187500e-03
-1.10175000e-07,7.15625000e-03,5.39062500e-03
-1.09375000e-07,1.59062500e-02,6.09375000e-03
-1.08575000e-07,7.28125000e-03,1.33593750e-02
-1.07775000e-07,1.03750000e-02,5.93750000e-03
-1.06975000e-07,6.03125000e-03,9.53125000e-03
-1.06175000e-07,7.53125000e-03,3.43750000e-03
-1.05375000e-07,8.21875000e-03,7.10937500e-03
-1.04575000e-07,1.24062500e-02,7.03125000e-03
-1.03775000e-07,3.03125000e-03,6.48437500e-03
-1.02975000e-07,8.21875000e-03,8.43750000e-03
-1.02175000e-07,1.28437500e-02,-6.64062500e-03
-1.01375000e-07,8.18750000e-03,6.56250000e-03
-1.00575000e-07,7.96875000e-03,1.14062500e-02
-9.97750000e-08,7.12500000e-03,3.67187500e-03
-9.89750000e-08,1.46250000e-02,1.31250000e-02
-9.81750000e-08,8.00000000e-03,1.07812500e-02
-9.73750000e-08,9.46875000e-03,4.45312500e-03
-9.65750000e-08,6.71875000e-03,7.34375000e-03
-9.57750000e-08,3.25000000e-03,9.84375000e-03
-9.49750000e-08,9.40625000e-03,1.95312500e-03
-9.41750000e-08,7.62500000e-03,4.92187500e-03
-9.33750000e-08,7.34375000e-03,1.64062500e-03
-9.25750000e-08,3.93750000e-03,5.23437500e-03
-9.17750000e-08,1.28437500e-02,1.24218750e-02
-9.09750000e-08,1.62500000e-03,3.67187500e-03
-9.01750000e-08,8.62500000e-03,5.39062500e-03
-8.93750000e-08,4.46875000e-03,1.38281250e-02
-8.85750000e-08,1.44687500e-02,4.37500000e-03
-8.77750000e-08,6.65625000e-03,1.07031250e-02
-8.69750000e-08,8.96875000e-03,1.28906250e-02
-8.61750000e-08,6.28125000e-03,3.75000000e-03
-8.53750000e-08,8.34375000e-03,9.92187500e-03
-8.45750000e-08,5.81250000e-03,3.75000000e-03
-8.37750000e-08,8.53125000e-03,1.20312500e-02
-8.29750000e-08,5.56250000e-03,1.23437500e-02
-8.21750000e-08,1.28750000e-02,1.05468750e-02
-8.13750000e-08,5.03125000e-03,9.76562500e-03
-8.05750000e-08,2.84375000e-03,6.56250000e-03
-7.97750000e-08,9.81250000e-03,8.51562500e-03
-7.89750000e-08,1.14062500e-02,1.95312500e-03
-7.81750000e-08,5.62500000e-04,1.39843750e-02
-7.73750000e-08,6.56250000e-03,1.16406250e-02
-7.65750000e-08,7.96875000e-03,1.29687500e-02
-7.57750000e-08,7.37500000e-03,5.62500000e-03
-7.49750000e-08,7.03125000e-03,1.17187500e-02
-7.41750000e-08,5.56250000e-03,3.59375000e-03
-7.33750000e-08,9.81250000e-03,1.31250000e-02
-7.25750000e-08,8.59375000e-03,8.04687500e-03
-7.17750000e-08,7.21875000e-03,1.15625000e-02
-7.09750000e-08,9.46875000e-03,9.21875000e-03
-7.01750000e-08,1.59375000e-03,1.46093750e-02
-6.93750000e-08,1.01562500e-02,3.12500000e-04
-6.85750000e-08,9.34375000e-03,4.84375000e-03
-6.77750000e-08,1.06562500e-02,5.62500000e-03
-6.69750000e-08,8.96875000e-03,1.04687500e-02
-6.61750000e-08,1.04375000e-02,7.96875000e-03
-6.53750000e-08,-1.40625000e-03,1.20312500e-02
-6.45750000e-08,1.13750000e-02,9.29687500e-03
-6.37750000e-08,1.13437500e-02,2.10937500e-03
-6.29750000e-08,1.33437500e-02,2.42187500e-03
-6.21750000e-08,1.93750000e-03,1.15625000e-02
-6.13750000e-08,1.34062500e-02,2.14843750e-02
-6.05750000e-08,6.46875000e-03,-1.70078125e-01
-5.97750000e-08,8.46875000e-03,-6.97500000e-01
-5.89750000e-08,5.06250000e-03,-1.16726563e+00
-5.81750000e-08,8.18750000e-03,-1.27601563e+00
-5.73750000e-08,7.00000000e-03,-1.36812500e+00
-5.65750000e-08,8.78125000e-03,-1.39679688e+00
-5.57750000e-08,3.93750000e-03,-1.39984375e+00
-5.49750000e-08,7.43750000e-03,-1.39070313e+00
-5.41750000e-08,1.26250000e-02,-1.39867188e+00
-5.33750000e-08,1.23125000e-02,-1.39273438e+00
-5.25750000e-08,3.43750000e-03,-1.41132813e+00
-5.17750000e-08,1.07500000e-02,-1.41320313e+00
-5.09750000e-08,1.03750000e-02,-1.41015625e+00
-5.01750000e-08,6.06250000e-03,-1.41039063e+00
-4.93750000e-08,1.06250000e-02,-1.41421875e+00
-4.85750000e-08,4.62500000e-03,-1.41976563e+00
-4.77750000e-08,1.01250000e-02,-1.41031250e+00
-4.69750000e-08,7.31250000e-03,-1.40804688e+00
-4.61750000e-08,7.15625000e-03,-1.41671875e+00
-4.53750000e-08,1.26875000e-02,-1.42718750e+00
-4.45750000e-08,3.93750000e-03,-1.42367188e+00
-4.37750000e-08,9.53125000e-03,-1.42203125e+00
-4.29750000e-08,5.96875000e-03,-1.42804688e+00
-4.21750000e-08,6.18750000e-03,-1.42625000e+00
-4.13750000e-08,8.65625000e-03,-1.43632813e+00
-4.05750000e-08,9.53125000e-03,-1.41710938e+00
-3.97750000e-08,2.87500000e-03,-1.42867188e+00
-3.89750000e-08,8.81250000e-03,-1.42445313e+00
-3.81750000e-08,8.37500000e-03,-1.42250000e+00
-3.73750000e-08,7.78125000e-03,-1.41757813e+00
-3.65750000e-08,1.25000000e-04,-1.41890625e+00
-3.57750000e-08,9.43750000e-03,-1.41664063e+00
-3.49750000e-08,-6.25000000e-04,-1.42390625e+00
-3.41750000e-08,-9.06250000e-04,-1.41812500e+00
-3.33750000e-08,-1.24687500e-02,-1.42093750e+00
-3.25750000e-08,-2.30312500e-02,-1.42835938e+00
-3.17750000e-08,-7.13437500e-02,-1.42539063e+00
-3.09750000e-08,-1.20500000e-01,-1.42578125e+00
-3.01750000e-08,-2.02531250e-01,-1.42343750e+00
-2.93750000e-08,-2.83093750e-01,-1.41921875e+00
-2.85750000e-08,-3.67156250e-01,-1.42507813e+00
-2.77750000e-08,-4.39218750e-01,-1.42187500e+00
-2.69750000e-08,-5.06562500e-01,-1.41921875e+00
-2.61750000e-08,-5.56250000e-01,-1.41367188e+00
-2.53750000e-08,-5.94968750e-01,-1.41375000e+00
-2.45750000e-08,-6.26718750e-01,-1.41226563e+00
-2.37750000e-08,-6.50312500e-01,-1.41554687e+00
-2.29750000e-08,-6.68187500e-01,-1.41984375e+00
-2.21750000e-08,-6.66906250e-01,-1.41500000e+00
-2.13750000e-08,-6.72250000e-01,-1.41101563e+00
-2.05750000e-08,-6.64562500e-01,-1.41304688e+00
-1.97750000e-08,-6.52625000e-01,-1.41750000e+00
-1.89750000e-08,-6.30437500e-01,-1.41859375e+00
-1.81750000e-08,-6.04468750e-01,-1.41062500e+00
-1.73750000e-08,-5.78406250e-01,-1.42335937e+00
-1.65750000e-08,-5.46468750e-01,-1.42875000e+00
-1.57750000e-08,-5.16156250e-01,-1.42195313e+00
-1.49750000e-08,-4.83562500e-01,-1.41859375e+00
-1.41750000e-08,-4.62687500e-01,-1.42320313e+00
-1.33750000e-08,-4.29625000e-01,-1.41835938e+00
-1.25750000e-08,-4.06093750e-01,-1.42242188e+00
-1.17750000e-08,-3.82500000e-01,-1.42539063e+00
-1.09750000e-08,-3.59531250e-01,-1.42460938e+00
-1.01750000e-08,-3.33500000e-01,-1.42250000e+00
-9.37500000e-09,-3.11218750e-01,-1.42367188e+00
-8.57500000e-09,-2.90593750e-01,-1.41617188e+00
-7.77500000e-09,-2.81437500e-01,-1.41773438e+00
-6.97500000e-09,-2.54625000e-01,-1.42734375e+00
-6.17500000e-09,-2.42343750e-01,-1.42281250e+00
-5.37500000e-09,-2.32906250e-01,-1.41992188e+00
-4.57500000e-09,-2.28375000e-01,-1.41609375e+00
-3.77500000e-09,-2.07468750e-01,-1.39929688e+00
-2.97500000e-09,-1.90343750e-01,-1.36445313e+00
-2.17500000e-09,-1.83593750e-01,-1.25101562e+00
-1.37500000e-09,-1.67031250e-01,-9.28046875e-01
-5.75000000e-10,-1.54187500e-01,-4.71953125e-01
2.25000000e-10,-1.42125000e-01,-2.51953125e-01
1.02500000e-09,-1.37156250e-01,-1.45000000e-01
1.82500000e-09,-1.26718750e-01,-8.26562500e-02
2.62500000e-09,-1.20156250e-01,-7.30468750e-02
3.42500000e-09,-1.10468750e-01,-4.50781250e-02
4.22500000e-09,-1.04593750e-01,-5.53906250e-02
5.02500000e-09,-9.83125000e-02,-4.09375000e-02
5.82500000e-09,-9.54062500e-02,-4.28125000e-02
6.62500000e-09,-9.10625000e-02,-4.29687500e-02
7.42500000e-09,-7.83750000e-02,-3.69531250e-02
8.22500000e-09,-8.14375000e-02,-3.30468750e-02
9.02500000e-09,-7.14062500e-02,-4.05468750e-02
9.82500000e-09,-7.02187500e-02,-2.92968750e-02
1.06250000e-08,-6.70312500e-02,-1.52343750e-02
1.14250000e-08,-6.66562500e-02,-1.64062500e-02
1.22250000e-08,-5.55625000e-02,-2.10937500e-02
1.30250000e-08,-5.22500000e-02,-1.71093750e-02
1.38250000e-08,-4.88437500e-02,-1.71875000e-02
1.46250000e-08,-5.20937500e-02,-1.50781250e-02
1.54250000e-08,-4.48125000e-02,-9.84375000e-03
1.62250000e-08,-4.45625000e-02,-1.77343750e-02
1.70250000e-08,-4.25000000e-02,-5.93750000e-03
1.78250000e-08,-4.31250000e-02,-4.92187500e-03
1.86250000e-08,-3.38437500e-02,-9.76562500e-03
1.94250000e-08,-3.67812500e-02,4.92187500e-03
2.02250000e-08,-3.25625000e-02,-1.10937500e-02
2.10250000e-08,-3.66875000e-02,-1.01562500e-02
2.18250000e-08,-3.00000000e-02,-5.93750000e-03
2.26250000e-08,-2.84375000e-02,-8.20312500e-03
2.34250000e-08,-2.65625000e-02,-1.71875000e-03
2.42250000e-08,-3.20312500e-02,-3.12500000e-04
2.50250000e-08,-2.53437500e-02,7.81250000e-04
2.58250000e-08,-2.00937500e-02,2.34375000e-03
2.66250000e-08,-2.29375000e-02,-1.95312500e-03
2.74250000e-08,-2.09687500e-02,6.48437500e-03
2.82250000e-08,-2.13437500e-02,6.25000000e-04
2.90250000e-08,-1.66875000e-02,8.59375000e-03
2.98250000e-08,-1.41875000e-02,9.92187500e-03
3.06250000e-08,-1.42812500e-02,1.75781250e-02
3.14250000e-08,-1.85937500e-02,8.35937500e-03
3.22250000e-08,-1.85000000e-02,7.34375000e-03
3.30250000e-08,-8.28125000e-03,2.22656250e-02
3.38250000e-08,-1.64375000e-02,3.42968750e-02
3.46250000e-08,-1.32500000e-02,3.41406250e-02
3.54250000e-08,-9.65625000e-03,2.27343750e-02
3.62250000e-08,-1.30937500e-02,2.99218750e-02
3.70250000e-08,-1.32812500e-02,2.16406250e-02
3.78250000e-08,-1.04062500e-02,3.09375000e-02
3.86250000e-08,-1.02187500e-02,2.25000000e-02
3.94250000e-08,-7.15625000e-03,2.66406250e-02
4.02250000e-08,-1.15937500e-02,2.50000000e-02
4.10250000e-08,-6.31250000e-03,2.30468750e-02
4.18250000e-08,-1.10312500e-02,2.63281250e-02
4.26250000e-08,-6.56250000e-03,2.93750000e-02
4.34250000e-08,-7.40625000e-03,2.11718750e-02
4.42250000e-08,-5.18750000e-03,2.72656250e-02
4.50250000e-08,-2.65625000e-03,1.82031250e-02
4.58250000e-08,-5.25000000e-03,1.14062500e-02
4.66250000e-08,-1.17500000e-02,1.73437500e-02
4.74250000e-08,-3.37500000e-03,1.92187500e-02
4.82250000e-08,-4.28125000e-03,1.84375000e-02
4.90250000e-08,-3.00000000e-03,2.29687500e-02
4.98250000e-08,-8.37500000e-03,1.79687500e-02
5.06250000e-08,-2.71875000e-03,7.65625000e-03
5.14250000e-08,-1.81250000e-03,1.04687500e-02
5.22250000e-08,-4.53125000e-03,1.96875000e-02
5.30250000e-08,-7.06250000e-03,1.98437500e-02
5.38250000e-08,-3.40625000e-03,3.43750000e-03
5.46250000e-08,1.46875000e-03,1.50781250e-02
5.54250000e-08,-1.59375000e-03,1.92187500e-02
