muon_CSV/TriggerAuto_ALL_20231205194254564.csv

Model,MSO64B
Channel,CH1,,Channel,CH2
Label,,,Label,
Waveform Type,ANALOG,,Waveform Type,ANALOG
Horizontal Units,s,,Horizontal Units,s
Sample Interval,8.00000000e-10,,Sample Interval,8.00000000e-10
Record Length,5000,,Record Length,5000
Zero Index,349.42187500,,Zero Index,349.42187500
Vertical Units,V,,Vertical Units,V
,,,,
ANALOG_Thumbnail,,,ANALOG_Thumbnail,
yOffset,0.000000,,yOffset,0.000000
yPosition,2.160000,,yPosition,2.180000

Labels,,
TIME,CH1,CH2
-2.79537500e-07,1.13125000e-02,2.03906250e-02
-2.78737500e-07,1.14375000e-02,1.27343750e-02
-2.77937500e-07,6.87500000e-03,1.22656250e-02
-2.77137500e-07,1.09687500e-02,1.63281250e-02
-2.76337500e-07,1.16562500e-02,1.88281250e-02
-2.75537500e-07,1.07187500e-02,1.68750000e-02
-2.74737500e-07,1.00312500e-02,1.68750000e-02
-2.73937500e-07,8.03125000e-03,1.49218750e-02
-2.73137500e-07,1.05312500e-02,1.82812500e-02
-2.72337500e-07,8.75000000e-03,1.88281250e-02
-2.71537500e-07,1.14062500e-02,1.14843750e-02
-2.70737500e-07,9.03125000e-03,1.51562500e-02
-2.69937500e-07,5.87500000e-03,1.95312500e-02
-2.69137500e-07,1.21250000e-02,1.22656250e-02
-2.68337500e-07,1.01250000e-02,2.10156250e-02
-2.67537500e-07,7.84375000e-03,1.34375000e-02
-2.66737500e-07,5.96875000e-03,2.04687500e-02
-2.65937500e-07,1.36562500e-02,2.20312500e-02
-2.65137500e-07,8.06250000e-03,1.94531250e-02
-2.64337500e-07,1.56562500e-02,1.48437500e-02
-2.63537500e-07,1.28437500e-02,2.16406250e-02
-2.62737500e-07,1.12500000e-02,2.66406250e-02
-2.61937500e-07,7.21875000e-03,2.32031250e-02
-2.61137500e-07,1.03125000e-02,1.65625000e-02
-2.60337500e-07,6.21875000e-03,1.75000000e-02
-2.59537500e-07,1.03437500e-02,2.07031250e-02
-2.58737500e-07,2.21875000e-03,2.14062500e-02
-2.57937500e-07,1.29375000e-02,1.53125000e-02
-2.57137500e-07,7.56250000e-03,2.03125000e-02
-2.56337500e-07,1.05937500e-02,2.85937500e-02
-2.55537500e-07,4.12500000e-03,1.72656250e-02
-2.54737500e-07,8.46875000e-03,2.40625000e-02
-2.53937500e-07,1.29687500e-02,1.98437500e-02
-2.53137500e-07,1.39062500e-02,2.32812500e-02
-2.52337500e-07,3.31250000e-03,9.29687500e-03
-2.51537500e-07,1.08437500e-02,1.51562500e-02
-2.50737500e-07,1.00000000e-02,2.94531250e-02
-2.49937500e-07,1.22187500e-02,2.56250000e-02
-2.49137500e-07,1.04687500e-02,7.96875000e-03
-2.48337500e-07,1.13125000e-02,2.03906250e-02
-2.47537500e-07,1.02187500e-02,2.12500000e-02
-2.46737500e-07,9.21875000e-03,1.87500000e-02
-2.45937500e-07,1.33125000e-02,1.66406250e-02
-2.45137500e-07,8.06250000e-03,1.21875000e-02
-2.44337500e-07,1.06562500e-02,2.22656250e-02
-2.43537500e-07,1.23750000e-02,1.60937500e-02
-2.42737500e-07,1.15000000e-02,2.62500000e-02
-2.41937500e-07,1.04062500e-02,2.83593750e-02
-2.41137500e-07,7.84375000e-03,1.50781250e-02
-2.40337500e-07,9.18750000e-03,7.57812500e-03
-2.39537500e-07,6.34375000e-03,1.96875000e-02
-2.38737500e-07,1.12187500e-02,1.92968750e-02
-2.37937500e-07,9.78125000e-03,1.21875000e-02
-2.37137500e-07,1.25312500e-02,1.62500000e-02
-2.36337500e-07,2.71875000e-03,1.95312500e-02
-2.35537500e-07,1.30625000e-02,2.33593750e-02
-2.34737500e-07,6.46875000e-03,1.26562500e-02
-2.33937500e-07,7.84375000e-03,1.30468750e-02
-2.33137500e-07,3.34375000e-03,1.83593750e-02
-2.32337500e-07,1.06875000e-02,2.54687500e-02
-2.31537500e-07,7.00000000e-03,2.39062500e-02
-2.30737500e-07,1.46250000e-02,1.92968750e-02
-2.29937500e-07,6.31250000e-03,1.86718750e-02
-2.29137500e-07,7.84375000e-03,2.00000000e-02
-2.28337500e-07,1.10312500e-02,1.34375000e-02
-2.27537500e-07,1.27500000e-02,1.89843750e-02
-2.26737500e-07,5.12500000e-03,3.19531250e-02
-2.25937500e-07,8.96875000e-03,1.76562500e-02
-2.25137500e-07,1.21875000e-02,1.67968750e-02
-2.24337500e-07,7.65625000e-03,1.53125000e-02
-2.23537500e-07,7.31250000e-03,5.62500000e-03
-2.22737500e-07,7.00000000e-03,1.92187500e-02
-2.21937500e-07,9.84375000e-03,2.19531250e-02
-2.21137500e-07,8.68750000e-03,1.21875000e-02
-2.20337500e-07,8.50000000e-03,2.36718750e-02
-2.19537500e-07,7.84375000e-03,1.58593750e-02
-2.18737500e-07,6.53125000e-03,1.36718750e-02
-2.17937500e-07,1.22500000e-02,1.61718750e-02
-2.17137500e-07,5.90625000e-03,1.56250000e-02
-2.16337500e-07,9.50000000e-03,2.08593750e-02
-2.15537500e-07,1.25625000e-02,1.40625000e-02
-2.14737500e-07,1.20312500e-02,1.56250000e-02
-2.13937500e-07,7.18750000e-04,1.69531250e-02
-2.13137500e-07,1.22187500e-02,2.21875000e-02
-2.12337500e-07,5.06250000e-03,2.26562500e-02
-2.11537500e-07,1.08125000e-02,1.46875000e-02
-2.10737500e-07,3.00000000e-03,1.63281250e-02
-2.09937500e-07,1.34375000e-02,1.95312500e-02
-2.09137500e-07,7.62500000e-03,2.60937500e-02
-2.08337500e-07,1.24375000e-02,1.91406250e-02
-2.07537500e-07,5.78125000e-03,1.15625000e-02
-2.06737500e-07,1.22187500e-02,2.22656250e-02
-2.05937500e-07,4.06250000e-03,2.53125000e-02
-2.05137500e-07,9.46875000e-03,2.50781250e-02
-2.04337500e-07,5.75000000e-03,1.50781250e-02
-2.03537500e-07,8.68750000e-03,4.14062500e-03
-2.02737500e-07,1.13437500e-02,5.31250000e-03
-2.01937500e-07,1.43437500e-02,2.05468750e-02
-2.01137500e-07,3.75000000e-03,2.54687500e-02
-2.00337500e-07,1.06562500e-02,2.00000000e-02
-1.99537500e-07,1.00937500e-02,1.54687500e-02
-1.98737500e-07,6.81250000e-03,2.35156250e-02
-1.97937500e-07,7.21875000e-03,1.73437500e-02
-1.97137500e-07,7.68750000e-03,1.56250000e-02
-1.96337500e-07,1.13750000e-02,2.41406250e-02
-1.95537500e-07,1.03437500e-02,2.72656250e-02
-1.94737500e-07,9.15625000e-03,2.64843750e-02
-1.93937500e-07,9.56250000e-03,1.52343750e-02
-1.93137500e-07,7.03125000e-03,3.21093750e-02
-1.92337500e-07,1.05312500e-02,2.35156250e-02
-1.91537500e-07,8.25000000e-03,2.66406250e-02
-1.90737500e-07,6.93750000e-03,2.35156250e-02
-1.89937500e-07,8.62500000e-03,1.85937500e-02
-1.89137500e-07,1.24062500e-02,2.05468750e-02
-1.88337500e-07,5.12500000e-03,1.73437500e-02
-1.87537500e-07,1.14062500e-02,2.45312500e-02
-1.86737500e-07,7.96875000e-03,9.92187500e-03
-1.85937500e-07,7.96875000e-03,2.42187500e-02
-1.85137500e-07,4.31250000e-03,1.85156250e-02
-1.84337500e-07,1.53750000e-02,2.14062500e-02
-1.83537500e-07,4.81250000e-03,1.85937500e-02
-1.82737500e-07,1.10625000e-02,2.33593750e-02
-1.81937500e-07,7.87500000e-03,1.72656250e-02
-1.81137500e-07,1.33750000e-02,2.01562500e-02
-1.80337500e-07,9.31250000e-03,3.04687500e-02
-1.79537500e-07,8.68750000e-03,1.03906250e-02
-1.78737500e-07,7.96875000e-03,2.63281250e-02
-1.77937500e-07,8.75000000e-03,2.21875000e-02
-1.77137500e-07,1.24687500e-02,7.42187500e-03
-1.76337500e-07,1.52187500e-02,2.03125000e-02
-1.75537500e-07,1.50000000e-03,1.39062500e-02
-1.74737500e-07,8.40625000e-03,1.89062500e-02
-1.73937500e-07,1.24062500e-02,1.26562500e-02
-1.73137500e-07,9.12500000e-03,1.30468750e-02
-1.72337500e-07,8.50000000e-03,1.82812500e-02
-1.71537500e-07,9.56250000e-03,1.55468750e-02
-1.70737500e-07,1.38750000e-02,2.48437500e-02
-1.69937500e-07,8.06250000e-03,1.25781250e-02
-1.69137500e-07,9.75000000e-03,1.91406250e-02
-1.68337500e-07,6.96875000e-03,2.20312500e-02
-1.67537500e-07,4.21875000e-03,2.47656250e-02
-1.66737500e-07,6.62500000e-03,2.44531250e-02
-1.65937500e-07,1.01875000e-02,2.12500000e-02
-1.65137500e-07,9.71875000e-03,1.52343750e-02
-1.64337500e-07,6.90625000e-03,1.82812500e-02
-1.63537500e-07,9.59375000e-03,2.58593750e-02
-1.62737500e-07,6.62500000e-03,1.39843750e-02
-1.61937500e-07,1.13125000e-02,2.07812500e-02
-1.61137500e-07,1.02812500e-02,2.00000000e-02
-1.60337500e-07,1.16250000e-02,1.72656250e-02
-1.59537500e-07,8.15625000e-03,1.61718750e-02
-1.58737500e-07,1.30312500e-02,2.26562500e-02
-1.57937500e-07,9.37500000e-03,8.12500000e-03
-1.57137500e-07,1.13125000e-02,2.23437500e-02
-1.56337500e-07,6.03125000e-03,1.39843750e-02
-1.55537500e-07,1.47187500e-02,2.23437500e-02
-1.54737500e-07,6.00000000e-03,2.13281250e-02
-1.53937500e-07,1.52500000e-02,2.60156250e-02
-1.53137500e-07,9.78125000e-03,2.11718750e-02
-1.52337500e-07,1.02500000e-02,1.93750000e-02
-1.51537500e-07,1.06875000e-02,1.86718750e-02
-1.50737500e-07,1.47812500e-02,2.20312500e-02
-1.49937500e-07,2.50000000e-03,1.92187500e-02
-1.49137500e-07,6.43750000e-03,1.87500000e-02
-1.48337500e-07,1.20312500e-02,2.32812500e-02
-1.47537500e-07,1.04687500e-02,1.66406250e-02
-1.46737500e-07,1.19687500e-02,1.94531250e-02
-1.45937500e-07,8.09375000e-03,1.86718750e-02
-1.45137500e-07,9.25000000e-03,2.07812500e-02
-1.44337500e-07,8.96875000e-03,2.46093750e-02
-1.43537500e-07,9.28125000e-03,1.92187500e-02
-1.42737500e-07,1.11250000e-02,1.94531250e-02
-1.41937500e-07,1.02500000e-02,2.19531250e-02
-1.41137500e-07,1.02500000e-02,2.25781250e-02
-1.40337500e-07,8.96875000e-03,3.17187500e-02
-1.39537500e-07,9.90625000e-03,1.41406250e-02
-1.38737500e-07,5.84375000e-03,1.54687500e-02
-1.37937500e-07,1.19375000e-02,1.92187500e-02
-1.37137500e-07,3.21875000e-03,1.53906250e-02
-1.36337500e-07,1.04687500e-02,2.14062500e-02
-1.35537500e-07,9.65625000e-03,1.46875000e-02
-1.34737500e-07,1.08437500e-02,2.28906250e-02
-1.33937500e-07,3.75000000e-03,1.60156250e-02
-1.33137500e-07,9.06250000e-03,1.83593750e-02
-1.32337500e-07,8.90625000e-03,2.42187500e-02
-1.31537500e-07,8.81250000e-03,2.27343750e-02
-1.30737500e-07,9.96875000e-03,1.75781250e-02
-1.29937500e-07,1.38125000e-02,2.24218750e-02
-1.29137500e-07,1.37500000e-03,2.94531250e-02
-1.28337500e-07,1.53437500e-02,1.28125000e-02
-1.27537500e-07,6.18750000e-03,2.45312500e-02
-1.26737500e-07,7.34375000e-03,1.28125000e-02
-1.25937500e-07,1.20937500e-02,1.15625000e-02
-1.25137500e-07,1.06562500e-02,1.80468750e-02
-1.24337500e-07,1.90625000e-03,1.61718750e-02
-1.23537500e-07,1.11562500e-02,2.28125000e-02
-1.22737500e-07,1.15625000e-02,1.74218750e-02
-1.21937500e-07,7.18750000e-03,1.89062500e-02
-1.21137500e-07,7.62500000e-03,2.17187500e-02
-1.20337500e-07,8.56250000e-03,2.55468750e-02
-1.19537500e-07,8.75000000e-03,2.95312500e-02
-1.18737500e-07,1.03750000e-02,2.72656250e-02
-1.17937500e-07,8.62500000e-03,2.21093750e-02
-1.17137500e-07,7.93750000e-03,1.95312500e-02
-1.16337500e-07,8.03125000e-03,1.96875000e-02
-1.15537500e-07,1.05625000e-02,1.30468750e-02
-1.14737500e-07,6.84375000e-03,1.55468750e-02
-1.13937500e-07,8.18750000e-03,2.00000000e-02
-1.13137500e-07,6.81250000e-03,2.21875000e-02
-1.12337500e-07,1.26250000e-02,2.59375000e-02
-1.11537500e-07,3.34375000e-03,1.94531250e-02
-1.10737500e-07,1.30312500e-02,2.41406250e-02
-1.09937500e-07,8.00000000e-03,2.03125000e-02
-1.09137500e-07,1.14062500e-02,2.75000000e-02
-1.08337500e-07,4.96875000e-03,1.10156250e-02
-1.07537500e-07,1.39062500e-02,2.33593750e-02
-1.06737500e-07,2.59375000e-03,1.78125000e-02
-1.05937500e-07,1.18125000e-02,2.33593750e-02
-1.05137500e-07,4.43750000e-03,1.27343750e-02
-1.04337500e-07,1.18437500e-02,1.71875000e-02
-1.03537500e-07,5.56250000e-03,2.10937500e-02
-1.02737500e-07,1.29687500e-02,2.82812500e-02
-1.01937500e-07,5.37500000e-03,1.75781250e-02
-1.01137500e-07,7.50000000e-03,1.33593750e-02
-1.00337500e-07,9.84375000e-03,1.55468750e-02
-9.95375000e-08,9.50000000e-03,2.88281250e-02
-9.87375000e-08,3.78125000e-03,2.05468750e-02
-9.79375000e-08,1.18750000e-02,1.69531250e-02
-9.71375000e-08,8.06250000e-03,1.70312500e-02
-9.63375000e-08,5.84375000e-03,2.71093750e-02
-9.55375000e-08,4.53125000e-03,1.42968750e-02
-9.47375000e-08,8.25000000e-03,2.02343750e-02
-9.39375000e-08,1.15937500e-02,2.51562500e-02
-9.31375000e-08,1.27500000e-02,2.53906250e-02
-9.23375000e-08,1.41875000e-02,2.59375000e-02
-9.15375000e-08,1.50625000e-02,2.00781250e-02
-9.07375000e-08,7.56250000e-03,3.14062500e-02
-8.99375000e-08,1.27500000e-02,1.19531250e-02
-8.91375000e-08,9.90625000e-03,2.12500000e-02
-8.83375000e-08,9.62500000e-03,1.81250000e-02
-8.75375000e-08,8.09375000e-03,2.11718750e-02
-8.67375000e-08,1.48750000e-02,2.41406250e-02
-8.59375000e-08,4.25000000e-03,1.70312500e-02
-8.51375000e-08,1.47812500e-02,3.03125000e-02
-8.43375000e-08,1.01562500e-02,2.20312500e-02
-8.35375000e-08,1.17812500e-02,2.16406250e-02
-8.27375000e-08,7.40625000e-03,2.17187500e-02
-8.19375000e-08,1.31875000e-02,2.36718750e-02
-8.11375000e-08,1.05312500e-02,2.36718750e-02
-8.03375000e-08,1.12812500e-02,2.21875000e-02
-7.95375000e-08,5.09375000e-03,1.77343750e-02
-7.87375000e-08,1.40000000e-02,2.24218750e-02
-7.79375000e-08,3.81250000e-03,2.17187500e-02
-7.71375000e-08,1.52187500e-02,2.68750000e-02
-7.63375000e-08,7.25000000e-03,2.47656250e-02
-7.55375000e-08,7.81250000e-03,2.40625000e-02
-7.47375000e-08,1.37812500e-02,2.28125000e-02
-7.39375000e-08,1.15000000e-02,3.04687500e-02
-7.31375000e-08,5.78125000e-03,1.04687500e-02
-7.23375000e-08,9.96875000e-03,1.76562500e-02
-7.15375000e-08,1.20625000e-02,1.66406250e-02
-7.07375000e-08,9.93750000e-03,1.80468750e-02
-6.99375000e-08,7.71875000e-03,1.86718750e-02
-6.91375000e-08,1.07500000e-02,2.17968750e-02
-6.83375000e-08,9.65625000e-03,2.42968750e-02
-6.75375000e-08,1.12812500e-02,2.00000000e-02
-6.67375000e-08,9.78125000e-03,1.42187500e-02
-6.59375000e-08,1.51250000e-02,2.33593750e-02
-6.51375000e-08,1.19062500e-02,1.63281250e-02
-6.43375000e-08,9.87500000e-03,1.21875000e-02
-6.35375000e-08,8.21875000e-03,2.07812500e-02
-6.27375000e-08,9.15625000e-03,1.46093750e-02
-6.19375000e-08,9.00000000e-03,1.31250000e-02
-6.11375000e-08,1.30000000e-02,3.26562500e-02
-6.03375000e-08,2.65625000e-03,-2.53515625e-01
-5.95375000e-08,1.52500000e-02,-8.11328125e-01
-5.87375000e-08,1.17187500e-02,-1.22179688e+00
-5.79375000e-08,1.47500000e-02,-1.29671875e+00
-5.71375000e-08,5.78125000e-03,-1.34890625e+00
-5.63375000e-08,1.50937500e-02,-1.35000000e+00
-5.55375000e-08,1.08750000e-02,-1.38203125e+00
-5.47375000e-08,1.01562500e-02,-1.37671875e+00
-5.39375000e-08,5.78125000e-03,-1.39546875e+00
-5.31375000e-08,1.02812500e-02,-1.40476563e+00
-5.23375000e-08,7.12500000e-03,-1.40664063e+00
-5.15375000e-08,1.30937500e-02,-1.40945313e+00
-5.07375000e-08,3.81250000e-03,-1.39710938e+00
-4.99375000e-08,1.10625000e-02,-1.40226563e+00
-4.91375000e-08,1.23750000e-02,-1.41257813e+00
-4.83375000e-08,1.28437500e-02,-1.40539063e+00
-4.75375000e-08,4.93750000e-03,-1.41312500e+00
-4.67375000e-08,1.04375000e-02,-1.41257813e+00
-4.59375000e-08,1.55625000e-02,-1.41484375e+00
-4.51375000e-08,7.34375000e-03,-1.40742188e+00
-4.43375000e-08,1.26562500e-02,-1.42062500e+00
-4.35375000e-08,7.15625000e-03,-1.42875000e+00
-4.27375000e-08,1.33437500e-02,-1.43359375e+00
-4.19375000e-08,8.21875000e-03,-1.42796875e+00
-4.11375000e-08,9.31250000e-03,-1.42335937e+00
-4.03375000e-08,8.53125000e-03,-1.43132813e+00
-3.95375000e-08,7.34375000e-03,-1.41375000e+00
-3.87375000e-08,5.59375000e-03,-1.42507813e+00
-3.79375000e-08,4.03125000e-03,-1.41789063e+00
-3.71375000e-08,8.12500000e-03,-1.42593750e+00
-3.63375000e-08,6.09375000e-03,-1.42601563e+00
-3.55375000e-08,1.02187500e-02,-1.41656250e+00
-3.47375000e-08,-2.93750000e-03,-1.42132813e+00
-3.39375000e-08,8.75000000e-04,-1.42476563e+00
-3.31375000e-08,-1.24375000e-02,-1.41203125e+00
-3.23375000e-08,-3.11562500e-02,-1.41484375e+00
-3.15375000e-08,-7.62500000e-02,-1.42367188e+00
-3.07375000e-08,-1.19812500e-01,-1.41929688e+00
-2.99375000e-08,-1.95968750e-01,-1.41851563e+00
-2.91375000e-08,-2.61500000e-01,-1.42156250e+00
-2.83375000e-08,-3.37875000e-01,-1.42710938e+00
-2.75375000e-08,-3.99687500e-01,-1.41406250e+00
-2.67375000e-08,-4.54062500e-01,-1.41953125e+00
-2.59375000e-08,-4.93468750e-01,-1.41242188e+00
-2.51375000e-08,-5.35687500e-01,-1.40937500e+00
-2.43375000e-08,-5.50562500e-01,-1.42367188e+00
-2.35375000e-08,-5.57718750e-01,-1.41851563e+00
-2.27375000e-08,-5.66250000e-01,-1.40531250e+00
-2.19375000e-08,-5.71750000e-01,-1.41554687e+00
-2.11375000e-08,-5.56718750e-01,-1.42484375e+00
-2.03375000e-08,-5.46687500e-01,-1.40945313e+00
-1.95375000e-08,-5.33750000e-01,-1.41296875e+00
-1.87375000e-08,-5.15687500e-01,-1.41273438e+00
-1.79375000e-08,-4.91812500e-01,-1.41406250e+00
-1.71375000e-08,-4.71750000e-01,-1.40796875e+00
-1.63375000e-08,-4.49562500e-01,-1.40937500e+00
-1.55375000e-08,-4.29062500e-01,-1.41062500e+00
-1.47375000e-08,-4.05531250e-01,-1.41000000e+00
-1.39375000e-08,-3.85625000e-01,-1.42648438e+00
-1.31375000e-08,-3.59312500e-01,-1.42968750e+00
-1.23375000e-08,-3.41375000e-01,-1.41703125e+00
-1.15375000e-08,-3.16781250e-01,-1.42382812e+00
-1.07375000e-08,-2.97906250e-01,-1.42539063e+00
-9.93750000e-09,-2.77812500e-01,-1.42664063e+00
-9.13750000e-09,-2.59937500e-01,-1.42226563e+00
-8.33750000e-09,-2.39062500e-01,-1.42164063e+00
-7.53750000e-09,-2.25437500e-01,-1.42148438e+00
-6.73750000e-09,-2.03468750e-01,-1.42531250e+00
-5.93750000e-09,-1.99781250e-01,-1.42070313e+00
-5.13750000e-09,-1.81000000e-01,-1.41585938e+00
-4.33750000e-09,-1.74406250e-01,-1.41132813e+00
-3.53750000e-09,-1.58125000e-01,-1.38187500e+00
-2.73750000e-09,-1.50375000e-01,-1.34367188e+00
-1.93750000e-09,-1.37093750e-01,-1.19570313e+00
-1.13750000e-09,-1.29937500e-01,-8.07343750e-01
-3.37500000e-10,-1.21812500e-01,-3.87734375e-01
4.62500000e-10,-1.19343750e-01,-2.07812500e-01
1.26250000e-09,-1.08750000e-01,-1.06093750e-01
2.06250000e-09,-1.03500000e-01,-6.91406250e-02
2.86250000e-09,-9.68750000e-02,-4.50000000e-02
3.66250000e-09,-9.96250000e-02,-4.15625000e-02
4.46250000e-09,-8.42187500e-02,-4.05468750e-02
5.26250000e-09,-7.65000000e-02,-2.10937500e-02
6.06250000e-09,-8.11250000e-02,-3.07812500e-02
6.86250000e-09,-7.10000000e-02,-3.05468750e-02
7.66250000e-09,-6.59375000e-02,-1.92968750e-02
8.46250000e-09,-6.48750000e-02,-1.14843750e-02
9.26250000e-09,-5.73750000e-02,-1.12500000e-02
1.00625000e-08,-5.39375000e-02,-9.68750000e-03
1.08625000e-08,-4.85312500e-02,-1.44531250e-02
1.16625000e-08,-5.29687500e-02,-1.17187500e-03
1.24625000e-08,-4.33437500e-02,-1.57031250e-02
1.32625000e-08,-4.65312500e-02,-1.43750000e-02
1.40625000e-08,-3.64687500e-02,-9.29687500e-03
1.48625000e-08,-3.97187500e-02,-7.10937500e-03
1.56625000e-08,-3.75000000e-02,-9.14062500e-03
1.64625000e-08,-3.75937500e-02,-6.09375000e-03
1.72625000e-08,-3.16250000e-02,4.37500000e-03
1.80625000e-08,-3.40312500e-02,-6.01562500e-03
1.88625000e-08,-3.21250000e-02,3.75000000e-03
1.96625000e-08,-3.25312500e-02,6.48437500e-03
2.04625000e-08,-2.95000000e-02,1.84375000e-02
2.12625000e-08,-2.78125000e-02,5.93750000e-03
2.20625000e-08,-2.37812500e-02,1.44531250e-02
2.28625000e-08,-2.50000000e-02,-1.25000000e-03
2.36625000e-08,-2.02187500e-02,1.55468750e-02
2.44625000e-08,-2.40000000e-02,1.19531250e-02
2.52625000e-08,-1.71250000e-02,1.39062500e-02
2.60625000e-08,-2.18750000e-02,1.07031250e-02
2.68625000e-08,-1.74062500e-02,9.92187500e-03
2.76625000e-08,-1.35625000e-02,1.03125000e-02
2.84625000e-08,-1.25312500e-02,1.73437500e-02
2.92625000e-08,-2.03437500e-02,8.20312500e-03
3.00625000e-08,-1.50625000e-02,2.08593750e-02
3.08625000e-08,-1.53437500e-02,1.27343750e-02
3.16625000e-08,-1.55625000e-02,1.77343750e-02
3.24625000e-08,-1.28750000e-02,1.98437500e-02
3.32625000e-08,-1.40000000e-02,3.51562500e-02
3.40625000e-08,-1.12500000e-02,5.33593750e-02
3.48625000e-08,-1.15000000e-02,4.67187500e-02
3.56625000e-08,-7.53125000e-03,4.30468750e-02
3.64625000e-08,-5.46875000e-03,3.24218750e-02
3.72625000e-08,-1.06562500e-02,5.22656250e-02
3.80625000e-08,-7.71875000e-03,3.61718750e-02
3.88625000e-08,-5.53125000e-03,3.78906250e-02
3.96625000e-08,-5.25000000e-03,3.74218750e-02
4.04625000e-08,-8.25000000e-03,2.42968750e-02
4.12625000e-08,-1.21875000e-03,2.92968750e-02
4.20625000e-08,-6.62500000e-03,2.96875000e-02
4.28625000e-08,4.43750000e-03,3.63281250e-02
4.36625000e-08,-3.71875000e-03,4.25781250e-02
4.44625000e-08,2.65625000e-03,3.03125000e-02
4.52625000e-08,-4.56250000e-03,3.00781250e-02
4.60625000e-08,4.87500000e-03,3.89843750e-02
4.68625000e-08,-1.96875000e-03,2.88281250e-02
4.76625000e-08,2.40625000e-03,2.89062500e-02
4.84625000e-08,3.46875000e-03,1.56250000e-02
4.92625000e-08,4.28125000e-03,2.46875000e-02
5.00625000e-08,-1.75000000e-03,2.36718750e-02
5.08625000e-08,2.87500000e-03,2.71093750e-02
5.16625000e-08,-3.28125000e-03,2.49218750e-02
5.24625000e-08,-2.78125000e-03,3.35937500e-02
5.32625000e-08,4.40625000e-03,2.85156250e-02
5.40625000e-08,3.96875000e-03,2.86718750e-02
5.48625000e-08,-5.56250000e-03,2.84375000e-02
5.56625000e-08,1.50000000e-03,2.05468750e-02
5.64625000e-08,2.87500000e-03,2.73437500e-02
