muon_CSV/TriggerAuto_ALL_20231205194656126.csv

Model,MSO64B
Channel,CH1,,Channel,CH2
Label,,,Label,
Waveform Type,ANALOG,,Waveform Type,ANALOG
Horizontal Units,s,,Horizontal Units,s
Sample Interval,8.00000000e-10,,Sample Interval,8.00000000e-10
Record Length,5000,,Record Length,5000
Zero Index,349.12890625,,Zero Index,349.12890625
Vertical Units,V,,Vertical Units,V
,,,,
ANALOG_Thumbnail,,,ANALOG_Thumbnail,
yOffset,0.000000,,yOffset,0.000000
yPosition,2.160000,,yPosition,2.180000

Labels,,
TIME,CH1,CH2
-2.79303125e-07,5.78125000e-03,2.35156250e-02
-2.78503125e-07,9.12500000e-03,2.20312500e-02
-2.77703125e-07,1.09687500e-02,1.74218750e-02
-2.76903125e-07,8.46875000e-03,2.01562500e-02
-2.76103125e-07,7.40625000e-03,1.07812500e-02
-2.75303125e-07,1.05312500e-02,1.31250000e-02
-2.74503125e-07,1.14062500e-02,1.69531250e-02
-2.73703125e-07,1.26562500e-02,1.69531250e-02
-2.72903125e-07,7.81250000e-03,2.01562500e-02
-2.72103125e-07,1.08437500e-02,8.20312500e-03
-2.71303125e-07,4.71875000e-03,1.84375000e-02
-2.70503125e-07,1.57187500e-02,1.01562500e-02
-2.69703125e-07,6.62500000e-03,9.21875000e-03
-2.68903125e-07,1.10312500e-02,1.31250000e-02
-2.68103125e-07,1.17187500e-02,1.50781250e-02
-2.67303125e-07,1.40937500e-02,1.17968750e-02
-2.66503125e-07,6.75000000e-03,1.85937500e-02
-2.65703125e-07,1.11875000e-02,2.35156250e-02
-2.64903125e-07,1.16875000e-02,1.28125000e-02
-2.64103125e-07,1.21562500e-02,9.76562500e-03
-2.63303125e-07,6.31250000e-03,1.38281250e-02
-2.62503125e-07,1.19375000e-02,1.44531250e-02
-2.61703125e-07,8.62500000e-03,2.30468750e-02
-2.60903125e-07,8.87500000e-03,2.13281250e-02
-2.60103125e-07,6.53125000e-03,1.49218750e-02
-2.59303125e-07,1.49375000e-02,1.50000000e-02
-2.58503125e-07,1.07500000e-02,2.49218750e-02
-2.57703125e-07,1.58437500e-02,1.45312500e-02
-2.56903125e-07,7.12500000e-03,1.03906250e-02
-2.56103125e-07,5.12500000e-03,1.42968750e-02
-2.55303125e-07,9.68750000e-03,1.31250000e-02
-2.54503125e-07,1.07500000e-02,2.10156250e-02
-2.53703125e-07,9.00000000e-03,1.22656250e-02
-2.52903125e-07,8.68750000e-03,2.31250000e-02
-2.52103125e-07,1.16250000e-02,2.20312500e-02
-2.51303125e-07,1.57187500e-02,1.75000000e-02
-2.50503125e-07,7.53125000e-03,1.82031250e-02
-2.49703125e-07,4.21875000e-03,1.21875000e-02
-2.48903125e-07,9.53125000e-03,1.91406250e-02
-2.48103125e-07,1.01875000e-02,2.53906250e-02
-2.47303125e-07,1.04062500e-02,2.06250000e-02
-2.46503125e-07,6.56250000e-03,2.27343750e-02
-2.45703125e-07,9.12500000e-03,1.92187500e-02
-2.44903125e-07,1.16562500e-02,1.35156250e-02
-2.44103125e-07,8.00000000e-03,2.42187500e-02
-2.43303125e-07,8.59375000e-03,1.39062500e-02
-2.42503125e-07,1.00625000e-02,1.70312500e-02
-2.41703125e-07,1.04687500e-02,1.80468750e-02
-2.40903125e-07,5.46875000e-03,2.15625000e-02
-2.40103125e-07,1.05312500e-02,1.73437500e-02
-2.39303125e-07,9.18750000e-03,2.15625000e-02
-2.38503125e-07,1.13437500e-02,2.30468750e-02
-2.37703125e-07,3.21875000e-03,2.10937500e-03
-2.36903125e-07,1.18437500e-02,1.32031250e-02
-2.36103125e-07,9.81250000e-03,1.75781250e-02
-2.35303125e-07,1.23750000e-02,1.67187500e-02
-2.34503125e-07,8.40625000e-03,3.90625000e-04
-2.33703125e-07,1.10312500e-02,1.60156250e-02
-2.32903125e-07,8.71875000e-03,1.63281250e-02
-2.32103125e-07,1.04062500e-02,1.77343750e-02
-2.31303125e-07,3.59375000e-03,1.49218750e-02
-2.30503125e-07,8.21875000e-03,2.35937500e-02
-2.29703125e-07,1.17500000e-02,1.07031250e-02
-2.28903125e-07,1.09375000e-02,1.91406250e-02
-2.28103125e-07,7.59375000e-03,1.27343750e-02
-2.27303125e-07,7.15625000e-03,1.71093750e-02
-2.26503125e-07,1.18750000e-02,1.41406250e-02
-2.25703125e-07,9.78125000e-03,1.38281250e-02
-2.24903125e-07,9.90625000e-03,2.42187500e-02
-2.24103125e-07,6.78125000e-03,2.01562500e-02
-2.23303125e-07,5.87500000e-03,2.39843750e-02
-2.22503125e-07,1.08437500e-02,1.33593750e-02
-2.21703125e-07,1.06562500e-02,2.14843750e-02
-2.20903125e-07,7.62500000e-03,1.00000000e-02
-2.20103125e-07,7.71875000e-03,2.03125000e-02
-2.19303125e-07,1.01875000e-02,4.68750000e-03
-2.18503125e-07,1.16250000e-02,6.09375000e-03
-2.17703125e-07,8.46875000e-03,2.24218750e-02
-2.16903125e-07,5.15625000e-03,1.21875000e-02
-2.16103125e-07,1.34062500e-02,1.17968750e-02
-2.15303125e-07,7.12500000e-03,1.38281250e-02
-2.14503125e-07,8.34375000e-03,1.90625000e-02
-2.13703125e-07,7.96875000e-03,2.10156250e-02
-2.12903125e-07,1.33750000e-02,2.67968750e-02
-2.12103125e-07,7.12500000e-03,2.06250000e-02
-2.11303125e-07,9.46875000e-03,2.66406250e-02
-2.10503125e-07,1.00312500e-02,1.57812500e-02
-2.09703125e-07,1.32812500e-02,1.41406250e-02
-2.08903125e-07,8.43750000e-03,8.12500000e-03
-2.08103125e-07,9.59375000e-03,1.38281250e-02
-2.07303125e-07,8.09375000e-03,1.88281250e-02
-2.06503125e-07,1.08750000e-02,1.09375000e-02
-2.05703125e-07,4.25000000e-03,1.70312500e-02
-2.04903125e-07,8.25000000e-03,1.16406250e-02
-2.04103125e-07,8.46875000e-03,2.30468750e-02
-2.03303125e-07,1.33750000e-02,1.60156250e-02
-2.02503125e-07,5.68750000e-03,1.29687500e-02
-2.01703125e-07,8.81250000e-03,1.36718750e-02
-2.00903125e-07,8.84375000e-03,1.76562500e-02
-2.00103125e-07,1.00000000e-02,1.22656250e-02
-1.99303125e-07,9.62500000e-03,2.16406250e-02
-1.98503125e-07,8.25000000e-03,1.27343750e-02
-1.97703125e-07,9.59375000e-03,1.64843750e-02
-1.96903125e-07,1.19687500e-02,1.82031250e-02
-1.96103125e-07,1.10625000e-02,2.15625000e-02
-1.95303125e-07,1.31250000e-02,1.47656250e-02
-1.94503125e-07,5.53125000e-03,2.16406250e-02
-1.93703125e-07,1.19375000e-02,1.33593750e-02
-1.92903125e-07,8.62500000e-03,2.37500000e-02
-1.92103125e-07,8.12500000e-03,2.17187500e-02
-1.91303125e-07,1.19062500e-02,1.08593750e-02
-1.90503125e-07,9.28125000e-03,1.35937500e-02
-1.89703125e-07,6.15625000e-03,1.24218750e-02
-1.88903125e-07,1.25937500e-02,1.96093750e-02
-1.88103125e-07,1.02187500e-02,1.75781250e-02
-1.87303125e-07,1.36875000e-02,2.34375000e-02
-1.86503125e-07,4.43750000e-03,1.74218750e-02
-1.85703125e-07,1.22500000e-02,1.87500000e-02
-1.84903125e-07,6.34375000e-03,1.15625000e-02
-1.84103125e-07,4.46875000e-03,1.76562500e-02
-1.83303125e-07,8.59375000e-03,1.42187500e-02
-1.82503125e-07,1.00625000e-02,2.21875000e-02
-1.81703125e-07,6.03125000e-03,9.37500000e-03
-1.80903125e-07,1.04687500e-02,1.11718750e-02
-1.80103125e-07,4.03125000e-03,1.43750000e-02
-1.79303125e-07,9.50000000e-03,1.89843750e-02
-1.78503125e-07,1.27812500e-02,1.48437500e-02
-1.77703125e-07,1.74687500e-02,1.63281250e-02
-1.76903125e-07,6.56250000e-03,1.21875000e-02
-1.76103125e-07,1.07187500e-02,1.39062500e-02
-1.75303125e-07,1.12500000e-02,2.35937500e-02
-1.74503125e-07,7.43750000e-03,1.87500000e-02
-1.73703125e-07,8.37500000e-03,1.81250000e-02
-1.72903125e-07,9.09375000e-03,1.29687500e-02
-1.72103125e-07,9.65625000e-03,2.95312500e-02
-1.71303125e-07,6.62500000e-03,1.11718750e-02
-1.70503125e-07,1.04687500e-02,2.03906250e-02
-1.69703125e-07,9.37500000e-03,1.46093750e-02
-1.68903125e-07,8.87500000e-03,2.10156250e-02
-1.68103125e-07,1.26875000e-02,1.32812500e-02
-1.67303125e-07,9.03125000e-03,1.51562500e-02
-1.66503125e-07,5.43750000e-03,2.33593750e-02
-1.65703125e-07,9.40625000e-03,1.21875000e-02
-1.64903125e-07,1.28750000e-02,2.69531250e-02
-1.64103125e-07,2.15625000e-03,2.05468750e-02
-1.63303125e-07,1.53750000e-02,1.67187500e-02
-1.62503125e-07,7.31250000e-03,1.81250000e-02
-1.61703125e-07,1.15312500e-02,2.05468750e-02
-1.60903125e-07,5.90625000e-03,5.46875000e-03
-1.60103125e-07,1.26250000e-02,7.89062500e-03
-1.59303125e-07,6.84375000e-03,2.17187500e-02
-1.58503125e-07,8.50000000e-03,1.33593750e-02
-1.57703125e-07,2.59375000e-03,7.18750000e-03
-1.56903125e-07,1.14687500e-02,1.91406250e-02
-1.56103125e-07,6.46875000e-03,1.82031250e-02
-1.55303125e-07,1.29062500e-02,1.10156250e-02
-1.54503125e-07,1.96875000e-03,2.57812500e-02
-1.53703125e-07,9.90625000e-03,2.03906250e-02
-1.52903125e-07,1.01875000e-02,2.42187500e-03
-1.52103125e-07,1.58750000e-02,2.04687500e-02
-1.51303125e-07,6.18750000e-03,1.21093750e-02
-1.50503125e-07,7.12500000e-03,1.84375000e-02
-1.49703125e-07,1.30625000e-02,1.15625000e-02
-1.48903125e-07,7.84375000e-03,2.50000000e-02
-1.48103125e-07,7.68750000e-03,1.46093750e-02
-1.47303125e-07,1.06875000e-02,1.37500000e-02
-1.46503125e-07,8.59375000e-03,2.16406250e-02
-1.45703125e-07,9.68750000e-03,1.94531250e-02
-1.44903125e-07,1.27500000e-02,2.54687500e-02
-1.44103125e-07,1.26875000e-02,2.24218750e-02
-1.43303125e-07,3.78125000e-03,1.26562500e-02
-1.42503125e-07,1.33437500e-02,1.48437500e-02
-1.41703125e-07,1.01250000e-02,1.14843750e-02
-1.40903125e-07,5.81250000e-03,1.61718750e-02
-1.40103125e-07,8.37500000e-03,6.79687500e-03
-1.39303125e-07,1.09687500e-02,1.24218750e-02
-1.38503125e-07,3.96875000e-03,9.68750000e-03
-1.37703125e-07,1.35312500e-02,2.11718750e-02
-1.36903125e-07,8.46875000e-03,1.81250000e-02
-1.36103125e-07,1.22812500e-02,2.03125000e-02
-1.35303125e-07,5.31250000e-03,1.61718750e-02
-1.34503125e-07,1.35937500e-02,1.57031250e-02
-1.33703125e-07,9.87500000e-03,1.70312500e-02
-1.32903125e-07,7.09375000e-03,1.83593750e-02
-1.32103125e-07,2.93750000e-03,1.57031250e-02
-1.31303125e-07,1.41875000e-02,2.10937500e-02
-1.30503125e-07,6.62500000e-03,1.56250000e-02
-1.29703125e-07,6.93750000e-03,1.79687500e-02
-1.28903125e-07,6.46875000e-03,1.97656250e-02
-1.28103125e-07,7.96875000e-03,1.72656250e-02
-1.27303125e-07,8.78125000e-03,1.92968750e-02
-1.26503125e-07,1.30937500e-02,2.71875000e-02
-1.25703125e-07,6.31250000e-03,1.37500000e-02
-1.24903125e-07,1.15625000e-02,1.75781250e-02
-1.24103125e-07,1.10625000e-02,1.20312500e-02
-1.23303125e-07,1.07500000e-02,1.90625000e-02
-1.22503125e-07,1.10937500e-02,1.21093750e-02
-1.21703125e-07,6.53125000e-03,1.53906250e-02
-1.20903125e-07,8.00000000e-03,3.02343750e-02
-1.20103125e-07,9.28125000e-03,1.61718750e-02
-1.19303125e-07,8.68750000e-03,2.04687500e-02
-1.18503125e-07,6.50000000e-03,1.57812500e-02
-1.17703125e-07,6.90625000e-03,2.71875000e-02
-1.16903125e-07,1.32500000e-02,1.36718750e-02
-1.16103125e-07,7.00000000e-03,2.21093750e-02
-1.15303125e-07,9.28125000e-03,1.51562500e-02
-1.14503125e-07,6.71875000e-03,2.35156250e-02
-1.13703125e-07,1.27187500e-02,1.58593750e-02
-1.12903125e-07,4.40625000e-03,1.43750000e-02
-1.12103125e-07,1.38125000e-02,2.08593750e-02
-1.11303125e-07,1.07500000e-02,1.10156250e-02
-1.10503125e-07,1.69375000e-02,1.58593750e-02
-1.09703125e-07,6.78125000e-03,1.00000000e-02
-1.08903125e-07,1.47187500e-02,2.21093750e-02
-1.08103125e-07,7.31250000e-03,1.00000000e-02
-1.07303125e-07,1.58437500e-02,1.84375000e-02
-1.06503125e-07,5.84375000e-03,1.48437500e-02
-1.05703125e-07,1.58125000e-02,2.38281250e-02
-1.04903125e-07,8.34375000e-03,2.47656250e-02
-1.04103125e-07,1.09687500e-02,1.76562500e-02
-1.03303125e-07,7.53125000e-03,2.24218750e-02
-1.02503125e-07,9.46875000e-03,1.64062500e-02
-1.01703125e-07,1.30000000e-02,1.53906250e-02
-1.00903125e-07,1.38437500e-02,2.47656250e-02
-1.00103125e-07,2.93750000e-03,1.78906250e-02
-9.93031250e-08,1.15937500e-02,2.09375000e-02
-9.85031250e-08,1.55937500e-02,2.20312500e-02
-9.77031250e-08,1.15312500e-02,1.36718750e-02
-9.69031250e-08,1.10312500e-02,1.72656250e-02
-9.61031250e-08,1.11875000e-02,1.92187500e-02
-9.53031250e-08,1.28125000e-02,2.06250000e-02
-9.45031250e-08,1.08750000e-02,1.92968750e-02
-9.37031250e-08,1.13750000e-02,1.61718750e-02
-9.29031250e-08,9.78125000e-03,2.42968750e-02
-9.21031250e-08,6.43750000e-03,2.46875000e-02
-9.13031250e-08,1.01562500e-02,1.28906250e-02
-9.05031250e-08,9.31250000e-03,2.05468750e-02
-8.97031250e-08,6.59375000e-03,1.82031250e-02
-8.89031250e-08,1.35937500e-02,1.51562500e-02
-8.81031250e-08,1.55625000e-02,1.84375000e-02
-8.73031250e-08,1.81250000e-03,1.58593750e-02
-8.65031250e-08,1.25937500e-02,2.11718750e-02
-8.57031250e-08,7.25000000e-03,2.23437500e-02
-8.49031250e-08,1.01562500e-02,2.03125000e-02
-8.41031250e-08,2.56250000e-03,8.59375000e-03
-8.33031250e-08,1.33437500e-02,3.01562500e-02
-8.25031250e-08,6.25000000e-03,3.00781250e-02
-8.17031250e-08,1.05000000e-02,2.15625000e-02
-8.09031250e-08,4.71875000e-03,1.77343750e-02
-8.01031250e-08,1.08750000e-02,2.17968750e-02
-7.93031250e-08,8.56250000e-03,1.89843750e-02
-7.85031250e-08,1.68437500e-02,1.84375000e-02
-7.77031250e-08,4.28125000e-03,1.70312500e-02
-7.69031250e-08,8.03125000e-03,1.77343750e-02
-7.61031250e-08,1.43437500e-02,9.14062500e-03
-7.53031250e-08,1.67500000e-02,2.32812500e-02
-7.45031250e-08,7.31250000e-03,1.14843750e-02
-7.37031250e-08,1.00937500e-02,1.07812500e-02
-7.29031250e-08,9.62500000e-03,2.37500000e-02
-7.21031250e-08,1.37500000e-02,2.67187500e-02
-7.13031250e-08,1.55000000e-02,8.59375000e-03
-7.05031250e-08,1.18750000e-02,1.32031250e-02
-6.97031250e-08,1.34687500e-02,2.52343750e-02
-6.89031250e-08,1.10937500e-02,1.58593750e-02
-6.81031250e-08,1.08125000e-02,1.64062500e-02
-6.73031250e-08,1.12187500e-02,9.14062500e-03
-6.65031250e-08,6.18750000e-03,2.51562500e-02
-6.57031250e-08,1.35937500e-02,2.06250000e-02
-6.49031250e-08,9.53125000e-03,2.57031250e-02
-6.41031250e-08,8.93750000e-03,2.50000000e-02
-6.33031250e-08,6.84375000e-03,1.15625000e-02
-6.25031250e-08,1.57187500e-02,8.82812500e-03
-6.17031250e-08,4.96875000e-03,2.70312500e-02
-6.09031250e-08,1.71562500e-02,-2.46875000e-02
-6.01031250e-08,9.21875000e-03,-4.49531250e-01
-5.93031250e-08,1.51250000e-02,-1.01710937e+00
-5.85031250e-08,6.34375000e-03,-1.24171875e+00
-5.77031250e-08,1.55625000e-02,-1.34554688e+00
-5.69031250e-08,9.59375000e-03,-1.38023438e+00
-5.61031250e-08,9.87500000e-03,-1.39750000e+00
-5.53031250e-08,4.34375000e-03,-1.40617188e+00
-5.45031250e-08,1.57187500e-02,-1.39148438e+00
-5.37031250e-08,7.06250000e-03,-1.40195313e+00
-5.29031250e-08,1.47812500e-02,-1.40234375e+00
-5.21031250e-08,4.03125000e-03,-1.41101563e+00
-5.13031250e-08,7.75000000e-03,-1.42062500e+00
-5.05031250e-08,9.50000000e-03,-1.41257813e+00
-4.97031250e-08,1.41562500e-02,-1.40531250e+00
-4.89031250e-08,5.81250000e-03,-1.40921875e+00
-4.81031250e-08,1.06250000e-02,-1.41960938e+00
-4.73031250e-08,1.05937500e-02,-1.41007813e+00
-4.65031250e-08,1.13750000e-02,-1.41250000e+00
-4.57031250e-08,1.31250000e-02,-1.42429688e+00
-4.49031250e-08,7.96875000e-03,-1.42609375e+00
-4.41031250e-08,1.03750000e-02,-1.42289062e+00
-4.33031250e-08,9.25000000e-03,-1.43226563e+00
-4.25031250e-08,1.38750000e-02,-1.42085938e+00
-4.17031250e-08,1.19062500e-02,-1.42085938e+00
-4.09031250e-08,4.84375000e-03,-1.41632813e+00
-4.01031250e-08,1.29375000e-02,-1.41835938e+00
-3.93031250e-08,7.68750000e-03,-1.42117188e+00
-3.85031250e-08,8.21875000e-03,-1.42625000e+00
-3.77031250e-08,6.31250000e-03,-1.42507813e+00
-3.69031250e-08,1.13125000e-02,-1.41843750e+00
-3.61031250e-08,4.18750000e-03,-1.43281250e+00
-3.53031250e-08,1.28437500e-02,-1.42953125e+00
-3.45031250e-08,9.21875000e-03,-1.42343750e+00
-3.37031250e-08,9.68750000e-04,-1.42062500e+00
-3.29031250e-08,-1.52187500e-02,-1.41781250e+00
-3.21031250e-08,-4.02812500e-02,-1.42109375e+00
-3.13031250e-08,-9.74062500e-02,-1.42000000e+00
-3.05031250e-08,-1.74281250e-01,-1.41390625e+00
-2.97031250e-08,-2.71125000e-01,-1.42640625e+00
-2.89031250e-08,-3.78906250e-01,-1.42367188e+00
-2.81031250e-08,-4.98156250e-01,-1.41765625e+00
-2.73031250e-08,-6.01187500e-01,-1.41281250e+00
-2.65031250e-08,-7.03000000e-01,-1.41085938e+00
-2.57031250e-08,-7.78812500e-01,-1.42328125e+00
-2.49031250e-08,-8.44187500e-01,-1.40945313e+00
-2.41031250e-08,-8.97000000e-01,-1.40523438e+00
-2.33031250e-08,-9.33906250e-01,-1.42164063e+00
-2.25031250e-08,-9.53437500e-01,-1.41640625e+00
-2.17031250e-08,-9.68031250e-01,-1.41460938e+00
-2.09031250e-08,-9.81312500e-01,-1.41703125e+00
-2.01031250e-08,-9.69062500e-01,-1.42156250e+00
-1.93031250e-08,-9.61312500e-01,-1.41656250e+00
-1.85031250e-08,-9.41562500e-01,-1.41468750e+00
-1.77031250e-08,-9.17531250e-01,-1.42179688e+00
-1.69031250e-08,-8.84187500e-01,-1.41109375e+00
-1.61031250e-08,-8.53812500e-01,-1.42187500e+00
-1.53031250e-08,-8.15437500e-01,-1.42203125e+00
-1.45031250e-08,-7.73843750e-01,-1.42859375e+00
-1.37031250e-08,-7.38718750e-01,-1.41703125e+00
-1.29031250e-08,-6.99406250e-01,-1.42453125e+00
-1.21031250e-08,-6.60218750e-01,-1.41546875e+00
-1.13031250e-08,-6.27406250e-01,-1.42375000e+00
-1.05031250e-08,-5.91968750e-01,-1.42515625e+00
-9.70312500e-09,-5.51375000e-01,-1.42179688e+00
-8.90312500e-09,-5.21718750e-01,-1.41703125e+00
-8.10312500e-09,-4.88343750e-01,-1.42570313e+00
-7.30312500e-09,-4.62343750e-01,-1.41460938e+00
-6.50312500e-09,-4.29437500e-01,-1.42750000e+00
-5.70312500e-09,-4.07031250e-01,-1.42312500e+00
-4.90312500e-09,-3.79468750e-01,-1.41851563e+00
-4.10312500e-09,-3.57625000e-01,-1.42085938e+00
-3.30312500e-09,-3.32468750e-01,-1.38156250e+00
-2.50312500e-09,-3.15125000e-01,-1.31453125e+00
-1.70312500e-09,-2.88656250e-01,-1.10117188e+00
-9.03125000e-10,-2.78000000e-01,-6.59921875e-01
-1.03125000e-10,-2.58781250e-01,-3.12421875e-01
6.96875000e-10,-2.39218750e-01,-1.76406250e-01
1.49687500e-09,-2.24250000e-01,-8.83593750e-02
2.29687500e-09,-2.18531250e-01,-7.09375000e-02
3.09687500e-09,-1.95187500e-01,-3.80468750e-02
3.89687500e-09,-1.82093750e-01,-3.67187500e-02
4.69687500e-09,-1.73968750e-01,-2.98437500e-02
5.49687500e-09,-1.63187500e-01,-4.04687500e-02
6.29687500e-09,-1.50156250e-01,-2.71875000e-02
7.09687500e-09,-1.38375000e-01,-1.32812500e-02
7.89687500e-09,-1.29343750e-01,-2.21093750e-02
8.69687500e-09,-1.30187500e-01,-1.89062500e-02
9.49687500e-09,-1.19500000e-01,-1.34375000e-02
1.02968750e-08,-1.23781250e-01,-8.43750000e-03
1.10968750e-08,-1.10218750e-01,-1.46875000e-02
1.18968750e-08,-1.14562500e-01,-1.64843750e-02
1.26968750e-08,-1.08781250e-01,-3.43750000e-03
1.34968750e-08,-1.00218750e-01,-8.35937500e-03
1.42968750e-08,-9.78750000e-02,-1.00781250e-02
1.50968750e-08,-9.41875000e-02,-1.12500000e-02
1.58968750e-08,-8.53437500e-02,1.56250000e-04
1.66968750e-08,-8.89687500e-02,-7.26562500e-03
1.74968750e-08,-8.37812500e-02,-1.40625000e-03
1.82968750e-08,-8.25625000e-02,7.89062500e-03
1.90968750e-08,-6.95625000e-02,1.32031250e-02
1.98968750e-08,-7.53750000e-02,1.45312500e-02
2.06968750e-08,-6.17187500e-02,5.46875000e-03
2.14968750e-08,-6.44687500e-02,7.42187500e-03
2.22968750e-08,-5.62187500e-02,6.95312500e-03
2.30968750e-08,-6.00000000e-02,4.84375000e-03
2.38968750e-08,-4.92500000e-02,3.90625000e-03
2.46968750e-08,-5.45937500e-02,1.10156250e-02
2.54968750e-08,-4.46875000e-02,1.31250000e-02
2.62968750e-08,-3.92500000e-02,1.02343750e-02
2.70968750e-08,-3.84375000e-02,1.84375000e-02
2.78968750e-08,-4.42500000e-02,8.04687500e-03
2.86968750e-08,-3.44687500e-02,1.33593750e-02
2.94968750e-08,-3.13437500e-02,1.21875000e-02
3.02968750e-08,-3.04687500e-02,1.00781250e-02
3.10968750e-08,-3.02812500e-02,1.66406250e-02
3.18968750e-08,-2.63750000e-02,3.14843750e-02
3.26968750e-08,-2.14687500e-02,4.33593750e-02
3.34968750e-08,-2.17500000e-02,3.74218750e-02
3.42968750e-08,-1.92187500e-02,4.85937500e-02
3.50968750e-08,-1.94687500e-02,4.23437500e-02
3.58968750e-08,-2.22187500e-02,3.32812500e-02
3.66968750e-08,-1.49062500e-02,4.42187500e-02
3.74968750e-08,-2.13750000e-02,2.85937500e-02
3.82968750e-08,-1.84687500e-02,3.22656250e-02
3.90968750e-08,-1.97187500e-02,2.79687500e-02
3.98968750e-08,-1.52500000e-02,3.72656250e-02
4.06968750e-08,-1.97187500e-02,2.50000000e-02
4.14968750e-08,-1.41875000e-02,2.60156250e-02
4.22968750e-08,-1.50937500e-02,3.83593750e-02
4.30968750e-08,-1.26562500e-02,2.79687500e-02
4.38968750e-08,-1.55312500e-02,1.91406250e-02
4.46968750e-08,-1.13750000e-02,3.69531250e-02
4.54968750e-08,-9.75000000e-03,2.51562500e-02
4.62968750e-08,-7.62500000e-03,3.28906250e-02
4.70968750e-08,-1.35937500e-02,2.83593750e-02
4.78968750e-08,-9.65625000e-03,2.85937500e-02
4.86968750e-08,-1.03437500e-02,3.42968750e-02
4.94968750e-08,-4.34375000e-03,2.81250000e-02
5.02968750e-08,-1.38437500e-02,2.49218750e-02
5.10968750e-08,-8.78125000e-03,2.35937500e-02
5.18968750e-08,-1.84375000e-03,2.62500000e-02
5.26968750e-08,-3.59375000e-03,2.74218750e-02
5.34968750e-08,-1.08750000e-02,2.27343750e-02
5.42968750e-08,-1.50000000e-03,2.75000000e-02
5.50968750e-08,-5.18750000e-03,2.58593750e-02
5.58968750e-08,-4.90625000e-03,1.67187500e-02
5.66968750e-08,-4.06250000e-03,2.21875000e-02
