muon_CSV/TriggerAuto_ALL_20231205193018051.csv

Model,MSO64B
Channel,CH1,,Channel,CH2
Label,,,Label,
Waveform Type,ANALOG,,Waveform Type,ANALOG
Horizontal Units,s,,Horizontal Units,s
Sample Interval,8.00000000e-10,,Sample Interval,8.00000000e-10
Record Length,5000,,Record Length,5000
Zero Index,349.02734375,,Zero Index,349.02734375
Vertical Units,V,,Vertical Units,V
,,,,
ANALOG_Thumbnail,,,ANALOG_Thumbnail,
yOffset,0.000000,,yOffset,0.000000
yPosition,2.160000,,yPosition,2.180000

Labels,,
TIME,CH1,CH2
-2.79221875e-07,2.59375000e-03,2.14062500e-02
-2.78421875e-07,4.62500000e-03,1.75000000e-02
-2.77621875e-07,4.93750000e-03,1.98437500e-02
-2.76821875e-07,3.84375000e-03,1.46875000e-02
-2.76021875e-07,2.21875000e-03,3.20312500e-03
-2.75221875e-07,6.28125000e-03,1.39062500e-02
-2.74421875e-07,-8.12500000e-04,-4.76562500e-03
-2.73621875e-07,9.06250000e-03,1.37500000e-02
-2.72821875e-07,4.03125000e-03,9.06250000e-03
-2.72021875e-07,9.46875000e-03,4.84375000e-03
-2.71221875e-07,4.78125000e-03,4.92187500e-03
-2.70421875e-07,8.46875000e-03,9.60937500e-03
-2.69621875e-07,-6.25000000e-05,2.34375000e-02
-2.68821875e-07,7.21875000e-03,1.55468750e-02
-2.68021875e-07,2.28125000e-03,3.28125000e-03
-2.67221875e-07,4.75000000e-03,1.48437500e-02
-2.66421875e-07,2.18750000e-03,1.24218750e-02
-2.65621875e-07,3.90625000e-03,1.12500000e-02
-2.64821875e-07,3.75000000e-03,4.60937500e-03
-2.64021875e-07,8.06250000e-03,1.01562500e-02
-2.63221875e-07,3.59375000e-03,1.25781250e-02
-2.62421875e-07,8.25000000e-03,1.00000000e-02
-2.61621875e-07,-1.90625000e-03,1.33593750e-02
-2.60821875e-07,6.59375000e-03,7.96875000e-03
-2.60021875e-07,4.00000000e-03,2.21093750e-02
-2.59221875e-07,8.43750000e-03,1.61718750e-02
-2.58421875e-07,2.31250000e-03,9.84375000e-03
-2.57621875e-07,7.62500000e-03,1.51562500e-02
-2.56821875e-07,-2.96875000e-03,9.68750000e-03
-2.56021875e-07,2.59375000e-03,4.60937500e-03
-2.55221875e-07,6.90625000e-03,1.48437500e-03
-2.54421875e-07,2.18750000e-03,1.28906250e-02
-2.53621875e-07,3.25000000e-03,1.46093750e-02
-2.52821875e-07,6.25000000e-03,1.18750000e-02
-2.52021875e-07,5.21875000e-03,1.32031250e-02
-2.51221875e-07,6.96875000e-03,7.89062500e-03
-2.50421875e-07,5.12500000e-03,6.17187500e-03
-2.49621875e-07,5.21875000e-03,1.46875000e-02
-2.48821875e-07,1.03125000e-03,1.17968750e-02
-2.48021875e-07,8.15625000e-03,7.96875000e-03
-2.47221875e-07,2.68750000e-03,1.26562500e-02
-2.46421875e-07,6.78125000e-03,9.84375000e-03
-2.45621875e-07,3.09375000e-03,7.34375000e-03
-2.44821875e-07,1.15625000e-02,6.01562500e-03
-2.44021875e-07,2.18750000e-03,4.76562500e-03
-2.43221875e-07,9.09375000e-03,6.79687500e-03
-2.42421875e-07,4.84375000e-03,4.84375000e-03
-2.41621875e-07,5.90625000e-03,1.35156250e-02
-2.40821875e-07,5.31250000e-04,7.96875000e-03
-2.40021875e-07,7.18750000e-03,1.09375000e-02
-2.39221875e-07,1.50000000e-03,2.46093750e-02
-2.38421875e-07,5.90625000e-03,1.42187500e-02
-2.37621875e-07,2.43750000e-03,1.52343750e-02
-2.36821875e-07,1.01562500e-02,1.42968750e-02
-2.36021875e-07,1.81250000e-03,1.17968750e-02
-2.35221875e-07,6.53125000e-03,1.38281250e-02
-2.34421875e-07,1.56250000e-03,1.10937500e-02
-2.33621875e-07,2.31250000e-03,9.84375000e-03
-2.32821875e-07,4.93750000e-03,9.29687500e-03
-2.32021875e-07,1.06562500e-02,1.25781250e-02
-2.31221875e-07,4.15625000e-03,9.84375000e-03
-2.30421875e-07,6.03125000e-03,8.59375000e-03
-2.29621875e-07,6.87500000e-03,6.71875000e-03
-2.28821875e-07,2.03125000e-03,1.33593750e-02
-2.28021875e-07,5.62500000e-03,9.21875000e-03
-2.27221875e-07,1.12500000e-03,6.01562500e-03
-2.26421875e-07,5.84375000e-03,1.01562500e-02
-2.25621875e-07,1.46875000e-03,1.52343750e-02
-2.24821875e-07,1.43750000e-03,7.89062500e-03
-2.24021875e-07,3.53125000e-03,1.39843750e-02
-2.23221875e-07,1.93750000e-03,8.51562500e-03
-2.22421875e-07,7.65625000e-03,1.20312500e-02
-2.21621875e-07,4.06250000e-03,7.26562500e-03
-2.20821875e-07,7.31250000e-03,1.93750000e-02
-2.20021875e-07,3.75000000e-03,8.28125000e-03
-2.19221875e-07,6.18750000e-03,1.01562500e-02
-2.18421875e-07,0.00000000e+00,1.38281250e-02
-2.17621875e-07,5.15625000e-03,1.52343750e-02
-2.16821875e-07,4.59375000e-03,9.76562500e-03
-2.16021875e-07,7.59375000e-03,8.04687500e-03
-2.15221875e-07,1.46875000e-03,1.25781250e-02
-2.14421875e-07,5.40625000e-03,7.96875000e-03
-2.13621875e-07,3.59375000e-03,1.20312500e-02
-2.12821875e-07,2.40625000e-03,9.29687500e-03
-2.12021875e-07,5.78125000e-03,1.39843750e-02
-2.11221875e-07,5.09375000e-03,1.58593750e-02
-2.10421875e-07,4.96875000e-03,9.84375000e-03
-2.09621875e-07,5.56250000e-03,1.33593750e-02
-2.08821875e-07,6.25000000e-05,1.77343750e-02
-2.08021875e-07,4.93750000e-03,1.16406250e-02
-2.07221875e-07,6.46875000e-03,3.82812500e-03
-2.06421875e-07,5.56250000e-03,2.81250000e-03
-2.05621875e-07,8.75000000e-04,1.14843750e-02
-2.04821875e-07,5.96875000e-03,1.39062500e-02
-2.04021875e-07,8.06250000e-03,1.12500000e-02
-2.03221875e-07,8.53125000e-03,1.46093750e-02
-2.02421875e-07,4.12500000e-03,9.14062500e-03
-2.01621875e-07,5.06250000e-03,4.76562500e-03
-2.00821875e-07,1.09687500e-02,1.21093750e-02
-2.00021875e-07,3.84375000e-03,1.52343750e-02
-1.99221875e-07,2.18750000e-04,1.18750000e-02
-1.98421875e-07,4.37500000e-03,1.65625000e-02
-1.97621875e-07,3.09375000e-03,8.28125000e-03
-1.96821875e-07,3.84375000e-03,4.14062500e-03
-1.96021875e-07,4.56250000e-03,1.27343750e-02
-1.95221875e-07,8.59375000e-03,1.13281250e-02
-1.94421875e-07,6.71875000e-03,2.25000000e-02
-1.93621875e-07,4.81250000e-03,8.82812500e-03
-1.92821875e-07,-6.25000000e-04,6.01562500e-03
-1.92021875e-07,5.31250000e-03,4.06250000e-03
-1.91221875e-07,5.53125000e-03,1.55468750e-02
-1.90421875e-07,6.81250000e-03,1.57812500e-02
-1.89621875e-07,1.18750000e-03,1.38281250e-02
-1.88821875e-07,6.18750000e-03,1.17968750e-02
-1.88021875e-07,6.25000000e-05,1.06250000e-02
-1.87221875e-07,3.65625000e-03,1.32031250e-02
-1.86421875e-07,1.65625000e-03,7.26562500e-03
-1.85621875e-07,9.43750000e-03,1.53906250e-02
-1.84821875e-07,3.12500000e-05,1.84375000e-02
-1.84021875e-07,1.07500000e-02,1.57031250e-02
-1.83221875e-07,-6.56250000e-04,2.17187500e-02
-1.82421875e-07,4.93750000e-03,1.33593750e-02
-1.81621875e-07,9.12500000e-03,4.53125000e-03
-1.80821875e-07,1.06250000e-02,8.59375000e-03
-1.80021875e-07,2.65625000e-03,8.59375000e-03
-1.79221875e-07,5.00000000e-03,1.18750000e-02
-1.78421875e-07,9.37500000e-05,1.32812500e-03
-1.77621875e-07,3.15625000e-03,1.68750000e-02
-1.76821875e-07,5.31250000e-03,1.30468750e-02
-1.76021875e-07,4.15625000e-03,1.26562500e-02
-1.75221875e-07,2.96875000e-03,1.64843750e-02
-1.74421875e-07,3.75000000e-03,1.70312500e-02
-1.73621875e-07,7.34375000e-03,1.10156250e-02
-1.72821875e-07,5.03125000e-03,1.11718750e-02
-1.72021875e-07,6.37500000e-03,7.18750000e-03
-1.71221875e-07,8.12500000e-03,1.20312500e-02
-1.70421875e-07,1.28125000e-03,1.24218750e-02
-1.69621875e-07,4.75000000e-03,1.05468750e-02
-1.68821875e-07,4.59375000e-03,1.12500000e-02
-1.68021875e-07,5.03125000e-03,1.25781250e-02
-1.67221875e-07,-6.87500000e-04,1.17968750e-02
-1.66421875e-07,6.03125000e-03,3.28125000e-03
-1.65621875e-07,7.25000000e-03,6.87500000e-03
-1.64821875e-07,6.34375000e-03,1.40625000e-02
-1.64021875e-07,2.00000000e-03,1.45312500e-02
-1.63221875e-07,9.81250000e-03,7.26562500e-03
-1.62421875e-07,3.43750000e-03,1.60156250e-02
-1.61621875e-07,3.46875000e-03,1.36718750e-02
-1.60821875e-07,5.18750000e-03,7.96875000e-03
-1.60021875e-07,8.68750000e-03,1.39062500e-02
-1.59221875e-07,7.09375000e-03,7.81250000e-03
-1.58421875e-07,6.90625000e-03,1.53125000e-02
-1.57621875e-07,3.09375000e-03,9.06250000e-03
-1.56821875e-07,4.43750000e-03,1.00000000e-02
-1.56021875e-07,4.31250000e-03,8.67187500e-03
-1.55221875e-07,6.78125000e-03,1.85937500e-02
-1.54421875e-07,3.09375000e-03,7.65625000e-03
-1.53621875e-07,5.40625000e-03,1.53906250e-02
-1.52821875e-07,8.53125000e-03,6.95312500e-03
-1.52021875e-07,6.68750000e-03,1.08593750e-02
-1.51221875e-07,7.96875000e-03,9.76562500e-03
-1.50421875e-07,5.15625000e-03,4.21875000e-03
-1.49621875e-07,3.50000000e-03,2.33593750e-02
-1.48821875e-07,3.84375000e-03,1.16406250e-02
-1.48021875e-07,5.90625000e-03,1.79687500e-02
-1.47221875e-07,-9.37500000e-05,1.49218750e-02
-1.46421875e-07,5.65625000e-03,1.24218750e-02
-1.45621875e-07,8.59375000e-03,8.43750000e-03
-1.44821875e-07,2.75000000e-03,9.92187500e-03
-1.44021875e-07,5.96875000e-03,1.11718750e-02
-1.43221875e-07,7.62500000e-03,4.60937500e-03
-1.42421875e-07,4.96875000e-03,9.37500000e-03
-1.41621875e-07,-1.03125000e-03,8.51562500e-03
-1.40821875e-07,8.18750000e-03,7.89062500e-03
-1.40021875e-07,3.75000000e-03,3.43750000e-03
-1.39221875e-07,7.25000000e-03,2.14843750e-02
-1.38421875e-07,2.09375000e-03,1.55468750e-02
-1.37621875e-07,3.56250000e-03,1.26562500e-02
-1.36821875e-07,2.93750000e-03,2.10937500e-02
-1.36021875e-07,7.00000000e-03,2.08593750e-02
-1.35221875e-07,3.34375000e-03,1.29687500e-02
-1.34421875e-07,8.31250000e-03,1.78125000e-02
-1.33621875e-07,2.40625000e-03,1.02343750e-02
-1.32821875e-07,8.68750000e-03,1.40625000e-02
-1.32021875e-07,1.43750000e-03,9.76562500e-03
-1.31221875e-07,5.93750000e-03,1.21875000e-02
-1.30421875e-07,6.18750000e-03,8.59375000e-03
-1.29621875e-07,9.56250000e-03,1.10156250e-02
-1.28821875e-07,2.18750000e-04,1.26562500e-02
-1.28021875e-07,1.96875000e-03,1.01562500e-03
-1.27221875e-07,4.68750000e-03,3.28125000e-03
-1.26421875e-07,7.65625000e-03,1.07812500e-02
-1.25621875e-07,6.06250000e-03,1.37500000e-02
-1.24821875e-07,6.68750000e-03,1.00000000e-02
-1.24021875e-07,3.31250000e-03,1.37500000e-02
-1.23221875e-07,1.50000000e-03,-2.57812500e-03
-1.22421875e-07,4.53125000e-03,1.23437500e-02
-1.21621875e-07,6.46875000e-03,5.39062500e-03
-1.20821875e-07,6.21875000e-03,1.36718750e-02
-1.20021875e-07,5.53125000e-03,6.87500000e-03
-1.19221875e-07,4.06250000e-03,1.57812500e-02
-1.18421875e-07,1.81250000e-03,1.75000000e-02
-1.17621875e-07,3.93750000e-03,9.53125000e-03
-1.16821875e-07,8.96875000e-03,1.18750000e-02
-1.16021875e-07,2.25000000e-03,1.82812500e-02
-1.15221875e-07,1.00625000e-02,9.06250000e-03
-1.14421875e-07,8.50000000e-03,1.98437500e-02
-1.13621875e-07,9.06250000e-03,1.03125000e-02
-1.12821875e-07,2.18750000e-04,1.92968750e-02
-1.12021875e-07,9.06250000e-03,1.29687500e-02
-1.11221875e-07,5.37500000e-03,4.06250000e-03
-1.10421875e-07,4.53125000e-03,1.36718750e-02
-1.09621875e-07,3.12500000e-03,1.21093750e-02
-1.08821875e-07,9.96875000e-03,7.10937500e-03
-1.08021875e-07,4.65625000e-03,2.17968750e-02
-1.07221875e-07,7.21875000e-03,1.07812500e-02
-1.06421875e-07,1.56250000e-04,1.39843750e-02
-1.05621875e-07,5.78125000e-03,8.51562500e-03
-1.04821875e-07,7.81250000e-03,9.53125000e-03
-1.04021875e-07,9.31250000e-03,1.02343750e-02
-1.03221875e-07,2.59375000e-03,2.03125000e-02
-1.02421875e-07,7.06250000e-03,1.40625000e-02
-1.01621875e-07,6.18750000e-03,1.50781250e-02
-1.00821875e-07,7.46875000e-03,2.22656250e-02
-1.00021875e-07,4.87500000e-03,1.61718750e-02
-9.92218750e-08,5.53125000e-03,9.92187500e-03
-9.84218750e-08,8.09375000e-03,2.26562500e-02
-9.76218750e-08,6.15625000e-03,2.02343750e-02
-9.68218750e-08,7.46875000e-03,9.92187500e-03
-9.60218750e-08,6.37500000e-03,1.03125000e-02
-9.52218750e-08,5.21875000e-03,2.28906250e-02
-9.44218750e-08,9.21875000e-03,1.00000000e-02
-9.36218750e-08,3.68750000e-03,1.25000000e-02
-9.28218750e-08,7.09375000e-03,7.03125000e-03
-9.20218750e-08,8.68750000e-03,1.64062500e-03
-9.12218750e-08,8.75000000e-03,1.17187500e-02
-9.04218750e-08,-5.00000000e-04,1.15625000e-02
-8.96218750e-08,6.93750000e-03,1.28906250e-02
-8.88218750e-08,5.09375000e-03,1.15625000e-02
-8.80218750e-08,7.71875000e-03,1.61718750e-02
-8.72218750e-08,4.34375000e-03,1.07031250e-02
-8.64218750e-08,1.19062500e-02,1.03125000e-02
-8.56218750e-08,9.68750000e-04,1.55468750e-02
-8.48218750e-08,7.40625000e-03,9.53125000e-03
-8.40218750e-08,4.18750000e-03,1.43750000e-02
-8.32218750e-08,6.09375000e-03,1.75781250e-02
-8.24218750e-08,3.56250000e-03,2.21093750e-02
-8.16218750e-08,8.65625000e-03,1.27343750e-02
-8.08218750e-08,-1.46875000e-03,2.21093750e-02
-8.00218750e-08,5.96875000e-03,7.18750000e-03
-7.92218750e-08,4.75000000e-03,1.11718750e-02
-7.84218750e-08,8.71875000e-03,1.47656250e-02
-7.76218750e-08,4.68750000e-03,1.67968750e-02
-7.68218750e-08,8.87500000e-03,1.39062500e-02
-7.60218750e-08,7.53125000e-03,5.62500000e-03
-7.52218750e-08,2.93750000e-03,2.55468750e-02
-7.44218750e-08,8.59375000e-03,1.69531250e-02
-7.36218750e-08,3.93750000e-03,1.46875000e-02
-7.28218750e-08,9.96875000e-03,2.36718750e-02
-7.20218750e-08,7.87500000e-03,8.90625000e-03
-7.12218750e-08,9.31250000e-03,2.05468750e-02
-7.04218750e-08,2.28125000e-03,1.39843750e-02
-6.96218750e-08,5.37500000e-03,1.89062500e-02
-6.88218750e-08,9.03125000e-03,5.85937500e-03
-6.80218750e-08,9.18750000e-03,1.29687500e-02
-6.72218750e-08,8.93750000e-03,1.43750000e-02
-6.64218750e-08,7.87500000e-03,4.60937500e-03
-6.56218750e-08,7.59375000e-03,1.64843750e-02
-6.48218750e-08,2.37500000e-03,1.12500000e-02
-6.40218750e-08,6.21875000e-03,3.82812500e-03
-6.32218750e-08,8.68750000e-03,7.34375000e-03
-6.24218750e-08,7.90625000e-03,3.40625000e-02
-6.16218750e-08,3.75000000e-04,2.29687500e-02
-6.08218750e-08,9.37500000e-03,-6.00000000e-02
-6.00218750e-08,9.84375000e-03,-4.89375000e-01
-5.92218750e-08,8.81250000e-03,-1.07078125e+00
-5.84218750e-08,4.84375000e-03,-1.33234375e+00
-5.76218750e-08,9.43750000e-03,-1.36656250e+00
-5.68218750e-08,3.12500000e-03,-1.37679688e+00
-5.60218750e-08,1.12187500e-02,-1.38890625e+00
-5.52218750e-08,4.34375000e-03,-1.40101563e+00
-5.44218750e-08,7.71875000e-03,-1.40203125e+00
-5.36218750e-08,6.06250000e-03,-1.38898438e+00
-5.28218750e-08,9.90625000e-03,-1.39445313e+00
-5.20218750e-08,3.56250000e-03,-1.41210938e+00
-5.12218750e-08,4.50000000e-03,-1.40656250e+00
-5.04218750e-08,1.07187500e-02,-1.40828125e+00
-4.96218750e-08,3.78125000e-03,-1.40070313e+00
-4.88218750e-08,5.81250000e-03,-1.41601562e+00
-4.80218750e-08,4.31250000e-03,-1.41867188e+00
-4.72218750e-08,6.62500000e-03,-1.41078125e+00
-4.64218750e-08,7.62500000e-03,-1.41421875e+00
-4.56218750e-08,6.43750000e-03,-1.41414063e+00
-4.48218750e-08,9.62500000e-03,-1.41445313e+00
-4.40218750e-08,3.56250000e-03,-1.42773438e+00
-4.32218750e-08,1.11562500e-02,-1.41757813e+00
-4.24218750e-08,4.78125000e-03,-1.42218750e+00
-4.16218750e-08,6.53125000e-03,-1.43539063e+00
-4.08218750e-08,8.06250000e-03,-1.43125000e+00
-4.00218750e-08,1.11250000e-02,-1.41648438e+00
-3.92218750e-08,1.03125000e-03,-1.42382812e+00
-3.84218750e-08,6.90625000e-03,-1.42851563e+00
-3.76218750e-08,1.40625000e-03,-1.42890625e+00
-3.68218750e-08,1.06250000e-02,-1.41195313e+00
-3.60218750e-08,-9.06250000e-04,-1.41640625e+00
-3.52218750e-08,5.21875000e-03,-1.42851563e+00
-3.44218750e-08,-7.62500000e-03,-1.41953125e+00
-3.36218750e-08,-1.15625000e-02,-1.42273438e+00
-3.28218750e-08,-4.53750000e-02,-1.41312500e+00
-3.20218750e-08,-7.82500000e-02,-1.42195313e+00
-3.12218750e-08,-1.44562500e-01,-1.42062500e+00
-3.04218750e-08,-2.18625000e-01,-1.41921875e+00
-2.96218750e-08,-3.12531250e-01,-1.42289062e+00
-2.88218750e-08,-3.95406250e-01,-1.42257813e+00
-2.80218750e-08,-4.79437500e-01,-1.42820313e+00
-2.72218750e-08,-5.50593750e-01,-1.41781250e+00
-2.64218750e-08,-6.17156250e-01,-1.42054688e+00
-2.56218750e-08,-6.65343750e-01,-1.41484375e+00
-2.48218750e-08,-7.05281250e-01,-1.41687500e+00
-2.40218750e-08,-7.34812500e-01,-1.40671875e+00
-2.32218750e-08,-7.50375000e-01,-1.41632813e+00
-2.24218750e-08,-7.55250000e-01,-1.42093750e+00
-2.16218750e-08,-7.56062500e-01,-1.40500000e+00
-2.08218750e-08,-7.48500000e-01,-1.41273438e+00
-2.00218750e-08,-7.31500000e-01,-1.41765625e+00
-1.92218750e-08,-7.16812500e-01,-1.42343750e+00
-1.84218750e-08,-6.90718750e-01,-1.41906250e+00
-1.76218750e-08,-6.76500000e-01,-1.41328125e+00
-1.68218750e-08,-6.46875000e-01,-1.42718750e+00
-1.60218750e-08,-6.17312500e-01,-1.43062500e+00
-1.52218750e-08,-5.88718750e-01,-1.43164062e+00
-1.44218750e-08,-5.65718750e-01,-1.41757813e+00
-1.36218750e-08,-5.36281250e-01,-1.42585938e+00
-1.28218750e-08,-5.03156250e-01,-1.41875000e+00
-1.20218750e-08,-4.77156250e-01,-1.42562500e+00
-1.12218750e-08,-4.50875000e-01,-1.41710938e+00
-1.04218750e-08,-4.24687500e-01,-1.41296875e+00
-9.62187500e-09,-3.95531250e-01,-1.42734375e+00
-8.82187500e-09,-3.65593750e-01,-1.42562500e+00
-8.02187500e-09,-3.42468750e-01,-1.42414063e+00
-7.22187500e-09,-3.27250000e-01,-1.42796875e+00
-6.42187500e-09,-3.04687500e-01,-1.42476563e+00
-5.62187500e-09,-2.85031250e-01,-1.42070313e+00
-4.82187500e-09,-2.70062500e-01,-1.42070313e+00
-4.02187500e-09,-2.62562500e-01,-1.39757813e+00
-3.22187500e-09,-2.37968750e-01,-1.38312500e+00
-2.42187500e-09,-2.30187500e-01,-1.30140625e+00
-1.62187500e-09,-2.14500000e-01,-1.04679688e+00
-8.21875000e-10,-2.04906250e-01,-6.00781250e-01
-2.18750000e-11,-1.92656250e-01,-2.97031250e-01
7.78125000e-10,-1.83906250e-01,-1.64687500e-01
1.57812500e-09,-1.77000000e-01,-9.01562500e-02
2.37812500e-09,-1.67281250e-01,-7.56250000e-02
3.17812500e-09,-1.56656250e-01,-5.79687500e-02
3.97812500e-09,-1.40968750e-01,-3.72656250e-02
4.77812500e-09,-1.39656250e-01,-3.46875000e-02
5.57812500e-09,-1.33281250e-01,-3.17968750e-02
6.37812500e-09,-1.23031250e-01,-3.50781250e-02
7.17812500e-09,-1.21125000e-01,-3.75781250e-02
7.97812500e-09,-1.08593750e-01,-2.48437500e-02
8.77812500e-09,-1.09156250e-01,-4.02343750e-02
9.57812500e-09,-1.03093750e-01,-3.24218750e-02
1.03781250e-08,-9.65312500e-02,-2.10937500e-02
1.11781250e-08,-9.25937500e-02,-1.85937500e-02
1.19781250e-08,-8.75312500e-02,-1.22656250e-02
1.27781250e-08,-7.99375000e-02,-1.25000000e-02
1.35781250e-08,-7.60937500e-02,-6.64062500e-03
1.43781250e-08,-7.66875000e-02,-1.53125000e-02
1.51781250e-08,-7.59687500e-02,-1.50000000e-02
1.59781250e-08,-6.89375000e-02,-8.90625000e-03
1.67781250e-08,-6.73750000e-02,-7.65625000e-03
1.75781250e-08,-6.25937500e-02,-2.65625000e-03
1.83781250e-08,-6.16875000e-02,-1.48437500e-03
1.91781250e-08,-5.63125000e-02,-8.90625000e-03
1.99781250e-08,-5.45000000e-02,7.26562500e-03
2.07781250e-08,-4.60312500e-02,-2.10937500e-03
2.15781250e-08,-5.00625000e-02,-1.56250000e-04
2.23781250e-08,-4.13437500e-02,-6.40625000e-03
2.31781250e-08,-4.43750000e-02,1.00781250e-02
2.39781250e-08,-4.29375000e-02,-6.25000000e-04
2.47781250e-08,-4.16875000e-02,2.73437500e-03
2.55781250e-08,-3.38437500e-02,7.50000000e-03
2.63781250e-08,-3.50625000e-02,5.15625000e-03
2.71781250e-08,-2.93125000e-02,7.65625000e-03
2.79781250e-08,-2.61250000e-02,1.03906250e-02
2.87781250e-08,-2.84062500e-02,9.37500000e-04
2.95781250e-08,-2.53750000e-02,1.67187500e-02
3.03781250e-08,-2.41250000e-02,1.00781250e-02
3.11781250e-08,-2.07500000e-02,2.32812500e-02
3.19781250e-08,-2.49687500e-02,8.75000000e-03
3.27781250e-08,-2.45000000e-02,3.09375000e-02
3.35781250e-08,-1.70312500e-02,3.31250000e-02
3.43781250e-08,-2.27500000e-02,4.49218750e-02
3.51781250e-08,-2.14062500e-02,2.74218750e-02
3.59781250e-08,-2.08125000e-02,3.18750000e-02
3.67781250e-08,-1.31562500e-02,2.71875000e-02
3.75781250e-08,-2.35312500e-02,2.49218750e-02
3.83781250e-08,-1.33125000e-02,3.10937500e-02
3.91781250e-08,-1.25312500e-02,2.37500000e-02
3.99781250e-08,-1.22187500e-02,2.70312500e-02
4.07781250e-08,-1.60625000e-02,2.89062500e-02
4.15781250e-08,-9.84375000e-03,2.12500000e-02
4.23781250e-08,-1.48125000e-02,2.49218750e-02
4.31781250e-08,-1.23750000e-02,2.44531250e-02
4.39781250e-08,-1.43750000e-02,1.80468750e-02
4.47781250e-08,-4.37500000e-03,2.52343750e-02
4.55781250e-08,-8.78125000e-03,2.71093750e-02
4.63781250e-08,-4.53125000e-03,2.61718750e-02
4.71781250e-08,-1.43437500e-02,2.09375000e-02
4.79781250e-08,-3.81250000e-03,2.28125000e-02
4.87781250e-08,-5.00000000e-03,2.28906250e-02
4.95781250e-08,-6.59375000e-03,2.46093750e-02
5.03781250e-08,-9.96875000e-03,2.59375000e-02
5.11781250e-08,-6.37500000e-03,2.22656250e-02
5.19781250e-08,-3.62500000e-03,1.46093750e-02
5.27781250e-08,-6.59375000e-03,1.59375000e-02
5.35781250e-08,-6.46875000e-03,2.00000000e-02
5.43781250e-08,-3.84375000e-03,2.76562500e-02
5.51781250e-08,-2.65625000e-03,1.82812500e-02
5.59781250e-08,-4.18750000e-03,2.36718750e-02
5.67781250e-08,-6.53125000e-03,2.08593750e-02
