muon_CSV/TriggerAuto_ALL_20231205192759617.csv

Model,MSO64B
Channel,CH1,,Channel,CH2,,Channel,REF1,,Channel,REF2
Label,,,Label,,,Label,CH1,,Label,CH2
Waveform Type,ANALOG,,Waveform Type,ANALOG,,Waveform Type,ANALOG,,Waveform Type,ANALOG
Horizontal Units,s,,Horizontal Units,s,,Horizontal Units,s,,Horizontal Units,s
Sample Interval,8.00000000e-10,,Sample Interval,8.00000000e-10,,Sample Interval,8.00000000e-10,,Sample Interval,8.00000000e-10
Record Length,5000,,Record Length,5000,,Record Length,5000,,Record Length,5000
Zero Index,349.10156250,,Zero Index,349.10156250,,Zero Index,349.11328125,,Zero Index,349.11328125
Vertical Units,V,,Vertical Units,V,,Vertical Units,V,,Vertical Units,V
,,,,,,,,,,
ANALOG_Thumbnail,,,ANALOG_Thumbnail,,,yOffset,0.000000,,yOffset,0.000000,,yOffset,0.000000,,yOffset,0.000000
yPosition,2.160000,,yPosition,2.180000,,yPosition,2.160000,,yPosition,2.180000

Labels,,,,Labels,CH1,,Labels,CH2
TIME,CH1,CH2,,TIME,REF1,,TIME,REF2
-2.79281250e-07,7.96875000e-03,8.82812500e-03,,-2.79290625e-07,7.03124981e-03,,-2.79290625e-07,9.99999978e-03
-2.78481250e-07,2.50000000e-03,1.81250000e-02,,-2.78490625e-07,9.78124980e-03,,-2.78490625e-07,1.13281254e-02
-2.77681250e-07,5.62500000e-04,1.31250000e-02,,-2.77690625e-07,6.75000018e-03,,-2.77690625e-07,1.02343746e-02
-2.76881250e-07,7.81250000e-03,9.37500000e-03,,-2.76890625e-07,2.00000009e-03,,-2.76890625e-07,1.27343750e-02
-2.76081250e-07,8.50000000e-03,1.59375000e-02,,-2.76090625e-07,2.34375009e-03,,-2.76090625e-07,1.00781247e-02
-2.75281250e-07,4.15625000e-03,7.18750000e-03,,-2.75290625e-07,7.40625011e-03,,-2.75290625e-07,1.47656249e-02
-2.74481250e-07,5.34375000e-03,8.82812500e-03,,-2.74490625e-07,5.75000001e-03,,-2.74490625e-07,1.05468752e-02
-2.73681250e-07,5.34375000e-03,1.33593750e-02,,-2.73690625e-07,6.59374986e-03,,-2.73690625e-07,6.09374978e-03
-2.72881250e-07,5.93750000e-04,1.91406250e-02,,-2.72890625e-07,6.46875007e-03,,-2.72890625e-07,1.35156251e-02
-2.72081250e-07,9.43750000e-03,3.82812500e-03,,-2.72090625e-07,4.40625008e-03,,-2.72090625e-07,1.64843742e-02
-2.71281250e-07,2.06250000e-03,1.55468750e-02,,-2.71290625e-07,5.43749984e-03,,-2.71290625e-07,6.56249980e-03
-2.70481250e-07,6.00000000e-03,7.65625000e-03,,-2.70490625e-07,6.56249991e-04,,-2.70490625e-07,1.53906252e-02
-2.69681250e-07,3.43750000e-04,-3.90625000e-04,,-2.69690625e-07,4.09374991e-03,,-2.69690625e-07,7.10937520e-03
-2.68881250e-07,8.25000000e-03,1.62500000e-02,,-2.68890625e-07,4.09374991e-03,,-2.68890625e-07,6.87499996e-03
-2.68081250e-07,3.43750000e-04,6.48437500e-03,,-2.68090625e-07,1.00624999e-02,,-2.68090625e-07,1.06250001e-02
-2.67281250e-07,2.78125000e-03,1.09375000e-02,,-2.67290625e-07,8.12500017e-04,,-2.67290625e-07,3.35937506e-03
-2.66481250e-07,5.00000000e-03,8.59375000e-03,,-2.66490625e-07,1.02187498e-02,,-2.66490625e-07,8.90624989e-03
-2.65681250e-07,6.93750000e-03,5.54687500e-03,,-2.65690625e-07,9.49999969e-03,,-2.65690625e-07,-4.68749990e-04
-2.64881250e-07,1.18750000e-03,1.47656250e-02,,-2.64890625e-07,8.81250016e-03,,-2.64890625e-07,1.32031254e-02
-2.64081250e-07,9.09375000e-03,5.93750000e-03,,-2.64090625e-07,1.09375000e-03,,-2.64090625e-07,1.78906247e-02
-2.63281250e-07,4.62500000e-03,1.61718750e-02,,-2.63290625e-07,1.25000002e-02,,-2.63290625e-07,1.12500004e-02
-2.62481250e-07,5.71875000e-03,5.15625000e-03,,-2.62490625e-07,4.09374991e-03,,-2.62490625e-07,7.42187491e-03
-2.61681250e-07,1.37500000e-03,1.22656250e-02,,-2.61690625e-07,5.31250006e-03,,-2.61690625e-07,1.60937496e-02
-2.60881250e-07,9.15625000e-03,9.92187500e-03,,-2.60890625e-07,6.12499984e-03,,-2.60890625e-07,9.14062466e-03
-2.60081250e-07,4.53125000e-03,1.67187500e-02,,-2.60090625e-07,9.09375027e-03,,-2.60090625e-07,1.14843752e-02
-2.59281250e-07,4.78125000e-03,1.10937500e-02,,-2.59290625e-07,4.68750019e-03,,-2.59290625e-07,1.10937497e-02
-2.58481250e-07,3.06250000e-03,1.40625000e-02,,-2.58490625e-07,1.02812499e-02,,-2.58490625e-07,-2.49999994e-03
-2.57681250e-07,5.31250000e-04,1.03906250e-02,,-2.57690625e-07,5.75000001e-03,,-2.57690625e-07,1.83593743e-02
-2.56881250e-07,7.34375000e-03,6.09375000e-03,,-2.56890625e-07,4.12499998e-03,,-2.56890625e-07,1.03906253e-02
-2.56081250e-07,8.37500000e-03,1.39843750e-02,,-2.56090625e-07,7.84374960e-03,,-2.56090625e-07,7.49999983e-03
-2.55281250e-07,1.28125000e-03,4.60937500e-03,,-2.55290625e-07,1.02500003e-02,,-2.55290625e-07,8.67187511e-03
-2.54481250e-07,3.21875000e-03,1.07812500e-02,,-2.54490625e-07,2.71874992e-03,,-2.54490625e-07,5.39062498e-03
-2.53681250e-07,7.18750000e-03,7.03125000e-04,,-2.53690625e-07,8.62499978e-03,,-2.53690625e-07,9.37499979e-04
-2.52881250e-07,8.43750000e-03,1.37500000e-02,,-2.52890625e-07,1.06562497e-02,,-2.52890625e-07,7.10937520e-03
-2.52081250e-07,2.90625000e-03,1.57812500e-02,,-2.52090625e-07,5.65624982e-03,,-2.52090625e-07,1.74218751e-02
-2.51281250e-07,4.87500000e-03,4.68750000e-03,,-2.51290625e-07,5.09375008e-03,,-2.51290625e-07,1.06250001e-02
-2.50481250e-07,3.87500000e-03,1.48437500e-02,,-2.50490625e-07,7.74999987e-03,,-2.50490625e-07,1.73437502e-02
-2.49681250e-07,5.87500000e-03,1.52343750e-02,,-2.49690625e-07,6.53125020e-03,,-2.49690625e-07,1.24218753e-02
-2.48881250e-07,2.50000000e-03,1.78906250e-02,,-2.48890625e-07,5.59375016e-03,,-2.48890625e-07,1.07031250e-02
-2.48081250e-07,5.12500000e-03,1.10156250e-02,,-2.48090625e-07,6.87499996e-03,,-2.48090625e-07,1.19531248e-02
-2.47281250e-07,2.28125000e-03,1.44531250e-02,,-2.47290625e-07,3.00000003e-03,,-2.47290625e-07,1.39062498e-02
-2.46481250e-07,5.75000000e-03,-2.18750000e-03,,-2.46490625e-07,4.00000019e-03,,-2.46490625e-07,1.44531252e-02
-2.45681250e-07,4.46875000e-03,6.40625000e-03,,-2.45690625e-07,6.59374986e-03,,-2.45690625e-07,1.24218753e-02
-2.44881250e-07,8.78125000e-03,1.46093750e-02,,-2.44890625e-07,4.06249985e-03,,-2.44890625e-07,8.51562526e-03
-2.44081250e-07,2.93750000e-03,9.92187500e-03,,-2.44090625e-07,3.96875013e-03,,-2.44090625e-07,9.29687545e-03
-2.43281250e-07,7.53125000e-03,1.13281250e-02,,-2.43290625e-07,4.59375000e-03,,-2.43290625e-07,7.26562506e-03
-2.42481250e-07,7.50000000e-04,1.06250000e-02,,-2.42490625e-07,9.28124972e-03,,-2.42490625e-07,6.71875011e-03
-2.41681250e-07,5.37500000e-03,1.20312500e-02,,-2.41690625e-07,5.87499980e-03,,-2.41690625e-07,8.75000004e-03
-2.40881250e-07,5.50000000e-03,1.52343750e-02,,-2.40890625e-07,5.15625020e-03,,-2.40890625e-07,6.09374978e-03
-2.40081250e-07,8.75000000e-03,5.15625000e-03,,-2.40090625e-07,4.34374996e-03,,-2.40090625e-07,6.87499996e-03
-2.39281250e-07,7.81250000e-04,1.07812500e-02,,-2.39290625e-07,1.07187498e-02,,-2.39290625e-07,1.54687501e-02
-2.38481250e-07,8.53125000e-03,3.28125000e-03,,-2.38490625e-07,1.03124999e-03,,-2.38490625e-07,6.56249980e-03
-2.37681250e-07,2.75000000e-03,1.36718750e-02,,-2.37690625e-07,8.62499978e-03,,-2.37690625e-07,1.29687497e-02
-2.36881250e-07,4.68750000e-03,1.30468750e-02,,-2.36890625e-07,1.24999997e-03,,-2.36890625e-07,1.97656248e-02
-2.36081250e-07,-1.87500000e-04,5.39062500e-03,,-2.36090625e-07,9.90625005e-03,,-2.36090625e-07,1.04687503e-02
-2.35281250e-07,8.96875000e-03,1.00000000e-02,,-2.35290625e-07,4.81249997e-03,,-2.35290625e-07,1.25781251e-02
-2.34481250e-07,4.31250000e-03,7.81250000e-05,,-2.34490625e-07,5.37500018e-03,,-2.34490625e-07,6.56249980e-03
-2.33681250e-07,6.43750000e-03,7.73437500e-03,,-2.33690625e-07,3.31249996e-03,,-2.33690625e-07,1.66406259e-02
-2.32881250e-07,4.93750000e-03,1.34375000e-02,,-2.32890625e-07,1.02500003e-02,,-2.32890625e-07,2.42187502e-03
-2.32081250e-07,5.59375000e-03,7.26562500e-03,,-2.32090625e-07,3.81250004e-03,,-2.32090625e-07,1.02343746e-02
-2.31281250e-07,9.53125000e-03,1.15625000e-02,,-2.31290625e-07,9.06249974e-03,,-2.31290625e-07,9.14062466e-03
-2.30481250e-07,1.33750000e-02,1.58593750e-02,,-2.30490625e-07,8.65625031e-03,,-2.30490625e-07,-1.17187505e-03
-2.29681250e-07,3.43750000e-04,9.92187500e-03,,-2.29690625e-07,1.05625000e-02,,-2.29690625e-07,1.16406251e-02
-2.28881250e-07,6.40625000e-03,1.46093750e-02,,-2.28890625e-07,3.18749994e-03,,-2.28890625e-07,7.26562506e-03
-2.28081250e-07,8.25000000e-03,9.14062500e-03,,-2.28090625e-07,8.28124955e-03,,-2.28090625e-07,8.12499970e-03
-2.27281250e-07,6.25000000e-03,4.68750000e-03,,-2.27290625e-07,8.24999996e-03,,-2.27290625e-07,1.48437498e-03
-2.26481250e-07,5.59375000e-03,1.21093750e-02,,-2.26490625e-07,6.09374978e-03,,-2.26490625e-07,1.35937501e-02
-2.25681250e-07,6.56250000e-04,3.90625000e-03,,-2.25690625e-07,5.81250014e-03,,-2.25690625e-07,1.05468752e-02
-2.24881250e-07,7.40625000e-03,1.16406250e-02,,-2.24890625e-07,6.93750009e-03,,-2.24890625e-07,2.81250011e-03
-2.24081250e-07,3.59375000e-03,1.78125000e-02,,-2.24090625e-07,8.21875036e-03,,-2.24090625e-07,8.98437481e-03
-2.23281250e-07,4.43750000e-03,1.18750000e-02,,-2.23290625e-07,5.90624986e-03,,-2.23290625e-07,1.47656249e-02
-2.22481250e-07,1.81250000e-03,1.25781250e-02,,-2.22490625e-07,5.15625020e-03,,-2.22490625e-07,1.45312501e-02
-2.21681250e-07,5.28125000e-03,1.45312500e-02,,-2.21690625e-07,6.21875003e-03,,-2.21690625e-07,4.60937480e-03
-2.20881250e-07,1.06562500e-02,6.40625000e-03,,-2.20890625e-07,3.34375002e-03,,-2.20890625e-07,1.47656249e-02
-2.20081250e-07,7.37500000e-03,2.81250000e-03,,-2.20090625e-07,7.90624972e-03,,-2.20090625e-07,7.10937520e-03
-2.19281250e-07,4.34375000e-03,1.00000000e-02,,-2.19290625e-07,2.43750005e-03,,-2.19290625e-07,9.45312530e-03
-2.18481250e-07,4.53125000e-03,1.56250000e-04,,-2.18490625e-07,8.81250016e-03,,-2.18490625e-07,3.28124990e-03
-2.17681250e-07,5.93750000e-03,1.35937500e-02,,-2.17690625e-07,1.00000005e-03,,-2.17690625e-07,4.99999989e-03
-2.16881250e-07,1.87500000e-03,6.56250000e-03,,-2.16890625e-07,1.01250000e-02,,-2.16890625e-07,7.49999983e-03
-2.16081250e-07,9.71875000e-03,1.15625000e-02,,-2.16090625e-07,2.93749990e-03,,-2.16090625e-07,9.53125022e-03
-2.15281250e-07,6.62500000e-03,1.06250000e-02,,-2.15290625e-07,8.59375019e-03,,-2.15290625e-07,1.39062498e-02
-2.14481250e-07,7.25000000e-03,4.76562500e-03,,-2.14490625e-07,6.15624990e-03,,-2.14490625e-07,-1.24999997e-03
-2.13681250e-07,5.93750000e-04,9.53125000e-03,,-2.13690625e-07,6.71875011e-03,,-2.13690625e-07,1.16406251e-02
-2.12881250e-07,7.03125000e-03,8.75000000e-03,,-2.12890625e-07,3.87499994e-03,,-2.12890625e-07,3.35937506e-03
-2.12081250e-07,1.03125000e-03,1.41406250e-02,,-2.12090625e-07,6.78124977e-03,,-2.12090625e-07,5.70312515e-03
-2.11281250e-07,5.31250000e-03,1.11718750e-02,,-2.11290625e-07,3.81250004e-03,,-2.11290625e-07,1.08593749e-02
-2.10481250e-07,3.84375000e-03,1.00000000e-02,,-2.10490625e-07,4.68750019e-03,,-2.10490625e-07,1.00781247e-02
-2.09681250e-07,8.40625000e-03,7.34375000e-03,,-2.09690625e-07,2.87500001e-03,,-2.09690625e-07,9.45312530e-03
-2.08881250e-07,5.59375000e-03,1.08593750e-02,,-2.08890625e-07,4.21875017e-03,,-2.08890625e-07,1.27343750e-02
-2.08081250e-07,7.93750000e-03,1.45312500e-02,,-2.08090625e-07,5.09375008e-03,,-2.08090625e-07,1.39062498e-02
-2.07281250e-07,-1.56250000e-04,9.29687500e-03,,-2.07290625e-07,5.12500014e-03,,-2.07290625e-07,5.85937500e-03
-2.06481250e-07,3.28125000e-03,1.58593750e-02,,-2.06490625e-07,3.21875000e-03,,-2.06490625e-07,2.18750001e-03
-2.05681250e-07,6.65625000e-03,1.87500000e-03,,-2.05690625e-07,4.78124991e-03,,-2.05690625e-07,1.01562496e-02
-2.04881250e-07,1.08750000e-02,9.60937500e-03,,-2.04890625e-07,9.81250033e-03,,-2.04890625e-07,3.35937506e-03
-2.04081250e-07,1.31250000e-03,9.29687500e-03,,-2.04090625e-07,9.59375035e-03,,-2.04090625e-07,5.70312515e-03
-2.03281250e-07,4.34375000e-03,5.46875000e-03,,-2.03290625e-07,2.56250007e-03,,-2.03290625e-07,8.82812496e-03
-2.02481250e-07,8.00000000e-03,1.15625000e-02,,-2.02490625e-07,8.03124998e-03,,-2.02490625e-07,1.14843752e-02
-2.01681250e-07,2.93750000e-03,1.59375000e-02,,-2.01690625e-07,1.10312495e-02,,-2.01690625e-07,8.04687478e-03
-2.00881250e-07,-1.09375000e-03,1.25781250e-02,,-2.00890625e-07,4.40625008e-03,,-2.00890625e-07,4.21875017e-03
-2.00081250e-07,5.00000000e-03,1.06250000e-02,,-2.00090625e-07,1.21875003e-03,,-2.00090625e-07,1.14843752e-02
-1.99281250e-07,1.37500000e-03,1.32812500e-02,,-1.99290625e-07,6.53125020e-03,,-1.99290625e-07,3.35937506e-03
-1.98481250e-07,2.71875000e-03,1.45312500e-02,,-1.98490625e-07,7.24999979e-03,,-1.98490625e-07,8.35937541e-03
-1.97681250e-07,6.75000000e-03,9.14062500e-03,,-1.97690625e-07,5.90624986e-03,,-1.97690625e-07,8.75000004e-03
-1.96881250e-07,8.15625000e-03,4.68750000e-03,,-1.96890625e-07,2.00000009e-03,,-1.96890625e-07,4.29687509e-03
-1.96081250e-07,3.62500000e-03,1.87500000e-02,,-1.96090625e-07,6.68750005e-03,,-1.96090625e-07,1.96093749e-02
-1.95281250e-07,8.53125000e-03,9.60937500e-03,,-1.95290625e-07,2.21875007e-03,,-1.95290625e-07,1.97656248e-02
-1.94481250e-07,2.90625000e-03,4.84375000e-03,,-1.94490625e-07,8.68749991e-03,,-1.94490625e-07,1.37499999e-02
-1.93681250e-07,7.59375000e-03,1.46093750e-02,,-1.93690625e-07,3.00000003e-03,,-1.93690625e-07,1.25781251e-02
-1.92881250e-07,3.15625000e-03,4.60937500e-03,,-1.92890625e-07,4.18750010e-03,,-1.92890625e-07,1.44531252e-02
-1.92081250e-07,5.59375000e-03,1.14843750e-02,,-1.92090625e-07,6.53125020e-03,,-1.92090625e-07,1.11718746e-02
-1.91281250e-07,-3.03125000e-03,7.26562500e-03,,-1.91290625e-07,5.68749988e-03,,-1.91290625e-07,9.14062466e-03
-1.90481250e-07,2.43750000e-03,8.12500000e-03,,-1.90490625e-07,2.09375005e-03,,-1.90490625e-07,3.35937506e-03
-1.89681250e-07,8.53125000e-03,4.84375000e-03,,-1.89690625e-07,8.09375010e-03,,-1.89690625e-07,1.27343750e-02
-1.88881250e-07,7.84375000e-03,1.55468750e-02,,-1.88890625e-07,5.93749993e-03,,-1.88890625e-07,5.23437513e-03
-1.88081250e-07,2.18750000e-03,1.18750000e-02,,-1.88090625e-07,8.93750042e-03,,-1.88090625e-07,8.20312463e-03
-1.87281250e-07,5.46875000e-03,1.79687500e-02,,-1.87290625e-07,2.43750005e-03,,-1.87290625e-07,8.04687478e-03
-1.86481250e-07,4.12500000e-03,1.17187500e-02,,-1.86490625e-07,1.01875002e-02,,-1.86490625e-07,1.27343750e-02
-1.85681250e-07,5.31250000e-03,1.66406250e-02,,-1.85690625e-07,1.96875003e-03,,-1.85690625e-07,4.60937480e-03
-1.84881250e-07,1.28125000e-03,8.98437500e-03,,-1.84890625e-07,1.04062501e-02,,-1.84890625e-07,2.26562493e-03
-1.84081250e-07,9.75000000e-03,8.04687500e-03,,-1.84090625e-07,4.18750010e-03,,-1.84090625e-07,7.57812522e-03
-1.83281250e-07,1.21875000e-03,1.25000000e-02,,-1.83290625e-07,6.06250018e-03,,-1.83290625e-07,1.28124999e-02
-1.82481250e-07,1.00000000e-02,2.03125000e-03,,-1.82490625e-07,5.03124995e-03,,-1.82490625e-07,6.56249980e-03
-1.81681250e-07,2.78125000e-03,1.75000000e-02,,-1.81690625e-07,9.49999969e-03,,-1.81690625e-07,5.54687483e-03
-1.80881250e-07,4.75000000e-03,1.03125000e-02,,-1.80890625e-07,7.34374998e-03,,-1.80890625e-07,4.14062478e-03
-1.80081250e-07,8.71875000e-03,3.43750000e-03,,-1.80090625e-07,1.07187498e-02,,-1.80090625e-07,1.09374998e-02
-1.79281250e-07,4.46875000e-03,1.21875000e-02,,-1.79290625e-07,8.62499978e-03,,-1.79290625e-07,6.64062519e-03
-1.78481250e-07,3.75000000e-03,1.25781250e-02,,-1.78490625e-07,1.18437503e-02,,-1.78490625e-07,4.92187496e-03
-1.77681250e-07,2.25000000e-03,1.59375000e-02,,-1.77690625e-07,1.68750004e-03,,-1.77690625e-07,4.14062478e-03
-1.76881250e-07,7.81250000e-03,6.40625000e-03,,-1.76890625e-07,8.46874993e-03,,-1.76890625e-07,6.40624994e-03
-1.76081250e-07,7.84375000e-03,8.82812500e-03,,-1.76090625e-07,9.43749957e-03,,-1.76090625e-07,1.40624996e-02
-1.75281250e-07,5.40625000e-03,1.91406250e-02,,-1.75290625e-07,5.59375016e-03,,-1.75290625e-07,2.10937508e-03
-1.74481250e-07,5.50000000e-03,-2.34375000e-04,,-1.74490625e-07,6.81249984e-03,,-1.74490625e-07,1.69531256e-02
-1.73681250e-07,4.68750000e-03,1.29687500e-02,,-1.73690625e-07,6.18749997e-03,,-1.73690625e-07,1.25781251e-02
-1.72881250e-07,5.53125000e-03,9.76562500e-03,,-1.72890625e-07,9.84374993e-03,,-1.72890625e-07,1.40624996e-02
-1.72081250e-07,4.53125000e-03,8.82812500e-03,,-1.72090625e-07,7.00000022e-03,,-1.72090625e-07,1.65624991e-02
-1.71281250e-07,8.12500000e-03,9.29687500e-03,,-1.71290625e-07,8.53125006e-03,,-1.71290625e-07,1.63281243e-02
-1.70481250e-07,2.71875000e-03,1.00000000e-02,,-1.70490625e-07,6.37499988e-03,,-1.70490625e-07,-7.81249983e-05
-1.69681250e-07,5.31250000e-03,5.93750000e-03,,-1.69690625e-07,5.71874995e-03,,-1.69690625e-07,1.82031244e-02
-1.68881250e-07,2.37500000e-03,4.92187500e-03,,-1.68890625e-07,9.96875018e-03,,-1.68890625e-07,4.21875017e-03
-1.68081250e-07,1.02187500e-02,8.04687500e-03,,-1.68090625e-07,2.40624999e-03,,-1.68090625e-07,1.28906248e-02
-1.67281250e-07,3.03125000e-03,6.79687500e-03,,-1.67290625e-07,3.37500009e-03,,-1.67290625e-07,3.59375007e-03
-1.66481250e-07,3.78125000e-03,8.04687500e-03,,-1.66490625e-07,9.34374984e-03,,-1.66490625e-07,-3.59375007e-03
-1.65681250e-07,1.21875000e-03,2.18750000e-03,,-1.65690625e-07,1.25000002e-02,,-1.65690625e-07,1.28906248e-02
-1.64881250e-07,5.84375000e-03,1.01562500e-02,,-1.64890625e-07,4.34374996e-03,,-1.64890625e-07,2.03124993e-03
-1.64081250e-07,8.00000000e-03,2.18750000e-03,,-1.64090625e-07,8.31250008e-03,,-1.64090625e-07,9.60937515e-03
-1.63281250e-07,9.56250000e-03,1.29687500e-02,,-1.63290625e-07,7.15625007e-03,,-1.63290625e-07,-5.46875002e-04
-1.62481250e-07,9.06250000e-04,3.98437500e-03,,-1.62490625e-07,1.13749998e-02,,-1.62490625e-07,3.12500005e-03
-1.61681250e-07,1.19375000e-02,8.98437500e-03,,-1.61690625e-07,5.90624986e-03,,-1.61690625e-07,7.03124981e-03
-1.60881250e-07,3.90625000e-03,1.33593750e-02,,-1.60890625e-07,1.00624999e-02,,-1.60890625e-07,1.14843752e-02
-1.60081250e-07,3.81250000e-03,1.32031250e-02,,-1.60090625e-07,2.87500001e-03,,-1.60090625e-07,3.51562491e-03
-1.59281250e-07,1.21875000e-03,-6.25000000e-04,,-1.59290625e-07,8.59375019e-03,,-1.59290625e-07,1.16406251e-02
-1.58481250e-07,8.65625000e-03,9.76562500e-03,,-1.58490625e-07,8.18749983e-03,,-1.58490625e-07,5.39062498e-03
-1.57681250e-07,-7.50000000e-04,1.32812500e-02,,-1.57690625e-07,5.06250001e-03,,-1.57690625e-07,1.28906248e-02
-1.56881250e-07,5.25000000e-03,6.01562500e-03,,-1.56890625e-07,7.78124994e-03,,-1.56890625e-07,4.60937480e-03
-1.56081250e-07,1.93750000e-03,8.82812500e-03,,-1.56090625e-07,9.43749957e-03,,-1.56090625e-07,5.07812481e-03
-1.55281250e-07,1.81250000e-03,1.13281250e-02,,-1.55290625e-07,3.40624992e-03,,-1.55290625e-07,1.54687501e-02
-1.54481250e-07,1.07187500e-02,1.40625000e-03,,-1.54490625e-07,2.34375009e-03,,-1.54490625e-07,1.45312501e-02
-1.53681250e-07,8.78125000e-03,9.68750000e-03,,-1.53690625e-07,1.01562496e-02,,-1.53690625e-07,6.56249980e-03
-1.52881250e-07,1.81250000e-03,5.93750000e-03,,-1.52890625e-07,1.36562502e-02,,-1.52890625e-07,3.51562491e-03
-1.52081250e-07,4.81250000e-03,7.57812500e-03,,-1.52090625e-07,5.46874991e-03,,-1.52090625e-07,1.40624996e-02
-1.51281250e-07,1.00000000e-02,3.43750000e-03,,-1.51290625e-07,7.37500004e-03,,-1.51290625e-07,5.23437513e-03
-1.50481250e-07,5.21875000e-03,5.07812500e-03,,-1.50490625e-07,1.09374998e-02,,-1.50490625e-07,3.59375007e-03
-1.49681250e-07,1.03125000e-03,1.01562500e-02,,-1.49690625e-07,5.65624982e-03,,-1.49690625e-07,7.57812522e-03
-1.48881250e-07,8.15625000e-03,5.54687500e-03,,-1.48890625e-07,7.40625011e-03,,-1.48890625e-07,1.27343750e-02
-1.48081250e-07,7.21875000e-03,1.02343750e-02,,-1.48090625e-07,3.78124998e-03,,-1.48090625e-07,-6.24999986e-04
-1.47281250e-07,5.71875000e-03,1.01562500e-02,,-1.47290625e-07,7.34374998e-03,,-1.47290625e-07,5.85937500e-03
-1.46481250e-07,5.81250000e-03,2.07031250e-02,,-1.46490625e-07,4.78124991e-03,,-1.46490625e-07,1.60937496e-02
-1.45681250e-07,5.50000000e-03,1.17187500e-02,,-1.45690625e-07,5.28124999e-03,,-1.45690625e-07,1.19531248e-02
-1.44881250e-07,-7.18750000e-04,1.14062500e-02,,-1.44890625e-07,7.62500009e-03,,-1.44890625e-07,9.45312530e-03
-1.44081250e-07,9.96875000e-03,1.71875000e-02,,-1.44090625e-07,8.34374968e-03,,-1.44090625e-07,1.80468746e-02
-1.43281250e-07,2.03125000e-03,1.63281250e-02,,-1.43290625e-07,6.37499988e-03,,-1.43290625e-07,1.24218753e-02
-1.42481250e-07,6.28125000e-03,8.35937500e-03,,-1.42490625e-07,7.15625007e-03,,-1.42490625e-07,1.25781251e-02
-1.41681250e-07,3.59375000e-03,3.90625000e-03,,-1.41690625e-07,8.71875044e-03,,-1.41690625e-07,8.90624989e-03
