data/raw/TriggerAuto_ALL_20231205193405268.csv

Model,MSO64B
Channel,CH1,,Channel,CH2
Label,,,Label,
Waveform Type,ANALOG,,Waveform Type,ANALOG
Horizontal Units,s,,Horizontal Units,s
Sample Interval,8.00000000e-10,,Sample Interval,8.00000000e-10
Record Length,5000,,Record Length,5000
Zero Index,349.13671875,,Zero Index,349.13671875
Vertical Units,V,,Vertical Units,V
,,,,
ANALOG_Thumbnail,,,ANALOG_Thumbnail,
yOffset,0.000000,,yOffset,0.000000
yPosition,2.160000,,yPosition,2.180000

Labels,,
TIME,CH1,CH2
-2.79309375e-07,6.40625000e-03,2.03906250e-02
-2.78509375e-07,4.93750000e-03,-1.40625000e-03
-2.77709375e-07,1.01250000e-02,1.37500000e-02
-2.76909375e-07,8.15625000e-03,1.17968750e-02
-2.76109375e-07,6.93750000e-03,1.13281250e-02
-2.75309375e-07,4.03125000e-03,7.34375000e-03
-2.74509375e-07,7.37500000e-03,1.00781250e-02
-2.73709375e-07,3.50000000e-03,1.00781250e-02
-2.72909375e-07,8.06250000e-03,1.20312500e-02
-2.72109375e-07,6.37500000e-03,1.32812500e-02
-2.71309375e-07,6.25000000e-03,8.59375000e-03
-2.70509375e-07,4.68750000e-03,8.12500000e-03
-2.69709375e-07,7.53125000e-03,1.07031250e-02
-2.68909375e-07,1.78125000e-03,6.71875000e-03
-2.68109375e-07,1.18750000e-02,1.67968750e-02
-2.67309375e-07,6.50000000e-03,4.45312500e-03
-2.66509375e-07,1.09062500e-02,8.98437500e-03
-2.65709375e-07,3.53125000e-03,1.85937500e-02
-2.64909375e-07,1.08750000e-02,1.04687500e-02
-2.64109375e-07,8.50000000e-03,1.07031250e-02
-2.63309375e-07,6.18750000e-03,1.92187500e-02
-2.62509375e-07,2.43750000e-03,1.09375000e-02
-2.61709375e-07,8.87500000e-03,3.98437500e-03
-2.60909375e-07,5.25000000e-03,8.12500000e-03
-2.60109375e-07,8.18750000e-03,1.07031250e-02
-2.59309375e-07,4.37500000e-04,7.34375000e-03
-2.58509375e-07,9.96875000e-03,1.27343750e-02
-2.57709375e-07,6.96875000e-03,6.25000000e-04
-2.56909375e-07,9.09375000e-03,1.57812500e-02
-2.56109375e-07,2.71875000e-03,1.30468750e-02
-2.55309375e-07,1.02187500e-02,6.17187500e-03
-2.54509375e-07,8.15625000e-03,1.07031250e-02
-2.53709375e-07,6.68750000e-03,1.80468750e-02
-2.52909375e-07,4.31250000e-03,9.68750000e-03
-2.52109375e-07,5.28125000e-03,2.96875000e-03
-2.51309375e-07,9.00000000e-03,2.13281250e-02
-2.50509375e-07,6.00000000e-03,1.17968750e-02
-2.49709375e-07,6.12500000e-03,2.18750000e-02
-2.48909375e-07,4.40625000e-03,1.64062500e-03
-2.48109375e-07,4.12500000e-03,1.62500000e-02
-2.47309375e-07,5.78125000e-03,1.56250000e-02
-2.46509375e-07,7.81250000e-04,9.21875000e-03
-2.45709375e-07,4.03125000e-03,1.45312500e-02
-2.44909375e-07,8.71875000e-03,7.73437500e-03
-2.44109375e-07,6.06250000e-03,4.06250000e-03
-2.43309375e-07,4.68750000e-04,8.82812500e-03
-2.42509375e-07,7.68750000e-03,1.25781250e-02
-2.41709375e-07,8.62500000e-03,5.39062500e-03
-2.40909375e-07,9.06250000e-03,1.75000000e-02
-2.40109375e-07,1.00000000e-03,1.70312500e-02
-2.39309375e-07,5.71875000e-03,1.45312500e-02
-2.38509375e-07,4.09375000e-03,1.03906250e-02
-2.37709375e-07,8.03125000e-03,5.31250000e-03
-2.36909375e-07,4.31250000e-03,1.26562500e-02
-2.36109375e-07,9.31250000e-03,7.89062500e-03
-2.35309375e-07,3.96875000e-03,1.46875000e-02
-2.34509375e-07,1.01875000e-02,7.89062500e-03
-2.33709375e-07,3.03125000e-03,1.47656250e-02
-2.32909375e-07,9.03125000e-03,1.84375000e-02
-2.32109375e-07,7.37500000e-03,1.42968750e-02
-2.31309375e-07,1.16250000e-02,5.23437500e-03
-2.30509375e-07,1.50000000e-03,1.01562500e-02
-2.29709375e-07,8.06250000e-03,1.92187500e-02
-2.28909375e-07,5.50000000e-03,1.62500000e-02
-2.28109375e-07,4.40625000e-03,7.18750000e-03
-2.27309375e-07,4.18750000e-03,1.79687500e-02
-2.26509375e-07,3.84375000e-03,1.50000000e-02
-2.25709375e-07,5.96875000e-03,1.78125000e-02
-2.24909375e-07,5.25000000e-03,1.02343750e-02
-2.24109375e-07,3.03125000e-03,1.38281250e-02
-2.23309375e-07,5.93750000e-03,5.07812500e-03
-2.22509375e-07,5.50000000e-03,1.28125000e-02
-2.21709375e-07,1.00937500e-02,1.23437500e-02
-2.20909375e-07,3.62500000e-03,1.06250000e-02
-2.20109375e-07,9.71875000e-03,1.30468750e-02
-2.19309375e-07,4.28125000e-03,-6.01562500e-03
-2.18509375e-07,6.46875000e-03,1.37500000e-02
-2.17709375e-07,1.46875000e-03,1.10937500e-02
-2.16909375e-07,5.87500000e-03,1.13281250e-02
-2.16109375e-07,4.15625000e-03,0.00000000e+00
-2.15309375e-07,5.21875000e-03,1.17187500e-02
-2.14509375e-07,3.15625000e-03,1.65625000e-02
-2.13709375e-07,5.09375000e-03,1.19531250e-02
-2.12909375e-07,8.06250000e-03,1.85156250e-02
-2.12109375e-07,6.53125000e-03,1.43750000e-02
-2.11309375e-07,3.28125000e-03,8.43750000e-03
-2.10509375e-07,8.46875000e-03,9.37500000e-03
-2.09709375e-07,8.53125000e-03,1.57812500e-02
-2.08909375e-07,1.10625000e-02,9.21875000e-03
-2.08109375e-07,2.31250000e-03,1.92187500e-02
-2.07309375e-07,5.09375000e-03,8.90625000e-03
-2.06509375e-07,8.56250000e-03,9.92187500e-03
-2.05709375e-07,1.14062500e-02,2.57812500e-03
-2.04909375e-07,4.87500000e-03,8.90625000e-03
-2.04109375e-07,2.28125000e-03,1.46093750e-02
-2.03309375e-07,7.65625000e-03,1.32031250e-02
-2.02509375e-07,1.00937500e-02,1.38281250e-02
-2.01709375e-07,5.81250000e-03,1.31250000e-02
-2.00909375e-07,3.03125000e-03,5.85937500e-03
-2.00109375e-07,8.56250000e-03,6.87500000e-03
-1.99309375e-07,5.00000000e-04,1.85937500e-02
-1.98509375e-07,3.40625000e-03,1.36718750e-02
-1.97709375e-07,6.03125000e-03,7.89062500e-03
-1.96909375e-07,5.56250000e-03,9.92187500e-03
-1.96109375e-07,6.81250000e-03,7.34375000e-03
-1.95309375e-07,5.21875000e-03,1.66406250e-02
-1.94509375e-07,6.50000000e-03,8.98437500e-03
-1.93709375e-07,4.75000000e-03,4.06250000e-03
-1.92909375e-07,6.34375000e-03,6.09375000e-03
-1.92109375e-07,-2.18750000e-03,8.12500000e-03
-1.91309375e-07,7.75000000e-03,1.26562500e-02
-1.90509375e-07,5.93750000e-03,6.56250000e-03
-1.89709375e-07,8.12500000e-03,7.42187500e-03
-1.88909375e-07,3.75000000e-04,4.68750000e-03
-1.88109375e-07,9.81250000e-03,3.59375000e-03
-1.87309375e-07,5.25000000e-03,1.21875000e-02
-1.86509375e-07,8.25000000e-03,9.92187500e-03
-1.85709375e-07,3.50000000e-03,7.81250000e-04
-1.84909375e-07,9.56250000e-03,1.17187500e-03
-1.84109375e-07,1.00000000e-03,1.96093750e-02
-1.83309375e-07,1.08437500e-02,1.17968750e-02
-1.82509375e-07,-8.75000000e-04,1.86718750e-02
-1.81709375e-07,9.43750000e-03,1.15625000e-02
-1.80909375e-07,8.75000000e-03,8.67187500e-03
-1.80109375e-07,1.01875000e-02,6.56250000e-03
-1.79309375e-07,3.31250000e-03,4.21875000e-03
-1.78509375e-07,6.50000000e-03,1.67968750e-02
-1.77709375e-07,8.21875000e-03,1.17968750e-02
-1.76909375e-07,3.43750000e-03,1.65625000e-02
-1.76109375e-07,3.43750000e-03,9.76562500e-03
-1.75309375e-07,3.65625000e-03,3.35937500e-03
-1.74509375e-07,6.75000000e-03,1.42187500e-02
-1.73709375e-07,5.62500000e-03,1.70312500e-02
-1.72909375e-07,7.25000000e-03,7.89062500e-03
-1.72109375e-07,4.90625000e-03,1.60156250e-02
-1.71309375e-07,4.40625000e-03,1.03906250e-02
-1.70509375e-07,5.56250000e-03,1.46875000e-02
-1.69709375e-07,4.34375000e-03,1.36718750e-02
-1.68909375e-07,3.37500000e-03,1.04687500e-02
-1.68109375e-07,2.71875000e-03,4.53125000e-03
-1.67309375e-07,6.62500000e-03,7.42187500e-03
-1.66509375e-07,2.62500000e-03,5.31250000e-03
-1.65709375e-07,9.71875000e-03,1.08593750e-02
-1.64909375e-07,6.40625000e-03,9.21875000e-03
-1.64109375e-07,9.21875000e-03,4.84375000e-03
-1.63309375e-07,2.37500000e-03,1.40625000e-02
-1.62509375e-07,9.71875000e-03,1.00000000e-02
-1.61709375e-07,3.00000000e-03,1.32812500e-02
-1.60909375e-07,6.56250000e-03,7.26562500e-03
-1.60109375e-07,3.40625000e-03,1.60156250e-02
-1.59309375e-07,7.06250000e-03,9.84375000e-03
-1.58509375e-07,4.25000000e-03,1.40625000e-02
-1.57709375e-07,8.03125000e-03,1.38281250e-02
-1.56909375e-07,-1.06250000e-03,1.78125000e-02
-1.56109375e-07,2.37500000e-03,1.57031250e-02
-1.55309375e-07,7.62500000e-03,1.64062500e-02
-1.54509375e-07,8.18750000e-03,1.03906250e-02
-1.53709375e-07,3.18750000e-03,1.78906250e-02
-1.52909375e-07,7.90625000e-03,9.68750000e-03
-1.52109375e-07,5.18750000e-03,1.53125000e-02
-1.51309375e-07,5.40625000e-03,2.09375000e-02
-1.50509375e-07,2.90625000e-03,1.55468750e-02
-1.49709375e-07,5.90625000e-03,5.78125000e-03
-1.48909375e-07,1.01562500e-02,1.92968750e-02
-1.48109375e-07,4.50000000e-03,1.41406250e-02
-1.47309375e-07,5.65625000e-03,1.51562500e-02
-1.46509375e-07,9.09375000e-03,7.65625000e-03
-1.45709375e-07,2.75000000e-03,1.86718750e-02
-1.44909375e-07,8.81250000e-03,1.28125000e-02
-1.44109375e-07,2.59375000e-03,1.06250000e-02
-1.43309375e-07,8.15625000e-03,1.42968750e-02
-1.42509375e-07,5.34375000e-03,7.89062500e-03
-1.41709375e-07,1.03437500e-02,1.31250000e-02
-1.40909375e-07,2.53125000e-03,1.17968750e-02
-1.40109375e-07,9.21875000e-03,2.03125000e-02
-1.39309375e-07,2.96875000e-03,7.57812500e-03
-1.38509375e-07,6.65625000e-03,8.59375000e-03
-1.37709375e-07,7.56250000e-03,1.71875000e-02
-1.36909375e-07,1.40000000e-02,1.22656250e-02
-1.36109375e-07,1.40625000e-03,9.92187500e-03
-1.35309375e-07,7.53125000e-03,1.11718750e-02
-1.34509375e-07,3.78125000e-03,1.26562500e-02
-1.33709375e-07,1.10312500e-02,1.58593750e-02
-1.32909375e-07,6.43750000e-03,9.92187500e-03
-1.32109375e-07,6.81250000e-03,1.14062500e-02
-1.31309375e-07,2.21875000e-03,2.07812500e-02
-1.30509375e-07,4.06250000e-04,1.76562500e-02
-1.29709375e-07,8.75000000e-03,5.46875000e-03
-1.28909375e-07,8.93750000e-03,1.89062500e-02
-1.28109375e-07,1.87500000e-03,8.04687500e-03
-1.27309375e-07,5.81250000e-03,1.97656250e-02
-1.26509375e-07,9.93750000e-03,1.46875000e-02
-1.25709375e-07,4.28125000e-03,1.82812500e-02
-1.24909375e-07,8.28125000e-03,1.67968750e-02
-1.24109375e-07,3.56250000e-03,7.03125000e-03
-1.23309375e-07,6.34375000e-03,1.72656250e-02
-1.22509375e-07,6.53125000e-03,1.49218750e-02
-1.21709375e-07,6.18750000e-03,8.59375000e-03
-1.20909375e-07,4.93750000e-03,1.72656250e-02
-1.20109375e-07,5.56250000e-03,6.56250000e-03
-1.19309375e-07,8.15625000e-03,1.56250000e-02
-1.18509375e-07,6.15625000e-03,9.29687500e-03
-1.17709375e-07,6.25000000e-03,1.23437500e-02
-1.16909375e-07,4.96875000e-03,1.15625000e-02
-1.16109375e-07,8.09375000e-03,1.10937500e-02
-1.15309375e-07,2.96875000e-03,1.31250000e-02
-1.14509375e-07,6.62500000e-03,1.17968750e-02
-1.13709375e-07,5.03125000e-03,1.26562500e-02
-1.12909375e-07,1.15000000e-02,2.38281250e-02
-1.12109375e-07,-2.06250000e-03,1.42187500e-02
-1.11309375e-07,8.62500000e-03,1.40625000e-02
-1.10509375e-07,2.40625000e-03,1.26562500e-02
-1.09709375e-07,6.65625000e-03,2.41406250e-02
-1.08909375e-07,2.59375000e-03,1.64062500e-02
-1.08109375e-07,1.12500000e-02,1.22656250e-02
-1.07309375e-07,5.43750000e-03,1.55468750e-02
-1.06509375e-07,6.59375000e-03,1.31250000e-02
-1.05709375e-07,2.65625000e-03,1.58593750e-02
-1.04909375e-07,3.90625000e-03,2.38281250e-02
-1.04109375e-07,1.00000000e-02,1.95312500e-02
-1.03309375e-07,1.03125000e-02,8.67187500e-03
-1.02509375e-07,1.65625000e-03,2.27343750e-02
-1.01709375e-07,8.15625000e-03,8.59375000e-03
-1.00909375e-07,1.14687500e-02,9.92187500e-03
-1.00109375e-07,1.75000000e-03,2.50000000e-02
-9.93093750e-08,8.75000000e-03,1.66406250e-02
-9.85093750e-08,7.90625000e-03,7.03125000e-04
-9.77093750e-08,1.08125000e-02,1.42968750e-02
-9.69093750e-08,6.87500000e-03,1.60156250e-02
-9.61093750e-08,2.31250000e-03,1.81250000e-02
-9.53093750e-08,5.87500000e-03,8.20312500e-03
-9.45093750e-08,5.03125000e-03,2.44531250e-02
-9.37093750e-08,3.40625000e-03,1.46093750e-02
-9.29093750e-08,4.03125000e-03,1.25781250e-02
-9.21093750e-08,8.00000000e-03,1.36718750e-02
-9.13093750e-08,4.93750000e-03,3.98437500e-03
-9.05093750e-08,8.75000000e-03,7.73437500e-03
-8.97093750e-08,1.25000000e-03,1.96093750e-02
-8.89093750e-08,7.18750000e-03,1.51562500e-02
-8.81093750e-08,5.50000000e-03,9.53125000e-03
-8.73093750e-08,6.96875000e-03,1.61718750e-02
-8.65093750e-08,5.00000000e-03,1.40625000e-02
-8.57093750e-08,8.21875000e-03,1.54687500e-02
-8.49093750e-08,5.59375000e-03,1.47656250e-02
-8.41093750e-08,3.81250000e-03,2.00000000e-02
-8.33093750e-08,3.18750000e-03,1.32812500e-02
-8.25093750e-08,7.00000000e-03,1.16406250e-02
-8.17093750e-08,1.65625000e-03,1.82812500e-02
-8.09093750e-08,6.40625000e-03,2.13281250e-02
-8.01093750e-08,2.06250000e-03,1.53125000e-02
-7.93093750e-08,2.75000000e-03,1.74218750e-02
-7.85093750e-08,7.09375000e-03,1.72656250e-02
-7.77093750e-08,1.25625000e-02,1.07031250e-02
-7.69093750e-08,1.12500000e-03,1.75000000e-02
-7.61093750e-08,5.50000000e-03,1.71875000e-02
-7.53093750e-08,1.02500000e-02,1.13281250e-02
-7.45093750e-08,4.12500000e-03,2.20312500e-02
-7.37093750e-08,4.00000000e-03,2.09375000e-02
-7.29093750e-08,6.62500000e-03,1.76562500e-02
-7.21093750e-08,8.06250000e-03,1.62500000e-02
-7.13093750e-08,7.59375000e-03,1.68750000e-02
-7.05093750e-08,6.25000000e-03,1.40625000e-02
-6.97093750e-08,5.56250000e-03,6.32812500e-03
-6.89093750e-08,4.43750000e-03,2.09375000e-02
-6.81093750e-08,8.40625000e-03,1.30468750e-02
-6.73093750e-08,3.84375000e-03,1.85937500e-02
-6.65093750e-08,9.15625000e-03,1.14843750e-02
-6.57093750e-08,5.18750000e-03,1.09375000e-03
-6.49093750e-08,8.28125000e-03,7.73437500e-03
-6.41093750e-08,7.50000000e-04,1.51562500e-02
-6.33093750e-08,1.16875000e-02,6.17187500e-03
-6.25093750e-08,7.71875000e-03,7.03125000e-04
-6.17093750e-08,9.12500000e-03,2.83593750e-02
-6.09093750e-08,-7.50000000e-04,-1.03906250e-02
-6.01093750e-08,8.28125000e-03,-4.43671875e-01
-5.93093750e-08,5.00000000e-04,-1.00453125e+00
-5.85093750e-08,8.78125000e-03,-1.23492188e+00
-5.77093750e-08,7.28125000e-03,-1.35109375e+00
-5.69093750e-08,7.34375000e-03,-1.39601562e+00
-5.61093750e-08,8.75000000e-03,-1.40281250e+00
-5.53093750e-08,8.37500000e-03,-1.38750000e+00
-5.45093750e-08,6.21875000e-03,-1.38203125e+00
-5.37093750e-08,7.43750000e-03,-1.40687500e+00
-5.29093750e-08,1.40000000e-02,-1.41476563e+00
-5.21093750e-08,8.71875000e-03,-1.40523438e+00
-5.13093750e-08,1.00000000e-03,-1.40882813e+00
-5.05093750e-08,6.53125000e-03,-1.40695313e+00
-4.97093750e-08,9.68750000e-03,-1.41421875e+00
-4.89093750e-08,4.06250000e-03,-1.41226563e+00
-4.81093750e-08,7.06250000e-03,-1.41312500e+00
-4.73093750e-08,9.81250000e-03,-1.42281250e+00
-4.65093750e-08,3.87500000e-03,-1.41867188e+00
-4.57093750e-08,3.31250000e-03,-1.42007813e+00
-4.49093750e-08,6.56250000e-03,-1.41750000e+00
-4.41093750e-08,6.68750000e-03,-1.42632813e+00
-4.33093750e-08,2.75000000e-03,-1.42156250e+00
-4.25093750e-08,1.11875000e-02,-1.42992188e+00
-4.17093750e-08,4.84375000e-03,-1.42250000e+00
-4.09093750e-08,4.75000000e-03,-1.42445313e+00
-4.01093750e-08,6.75000000e-03,-1.42242188e+00
-3.93093750e-08,5.96875000e-03,-1.41117187e+00
-3.85093750e-08,1.68750000e-03,-1.42304688e+00
-3.77093750e-08,8.15625000e-03,-1.41789063e+00
-3.69093750e-08,7.53125000e-03,-1.42640625e+00
-3.61093750e-08,6.06250000e-03,-1.41726563e+00
-3.53093750e-08,4.68750000e-04,-1.42070313e+00
-3.45093750e-08,-6.56250000e-04,-1.41773438e+00
-3.37093750e-08,-9.03125000e-03,-1.42500000e+00
-3.29093750e-08,-1.87812500e-02,-1.41914063e+00
-3.21093750e-08,-5.07500000e-02,-1.42125000e+00
-3.13093750e-08,-9.08125000e-02,-1.42734375e+00
-3.05093750e-08,-1.69125000e-01,-1.42765625e+00
-2.97093750e-08,-2.53812500e-01,-1.42000000e+00
-2.89093750e-08,-3.55125000e-01,-1.42734375e+00
-2.81093750e-08,-4.44093750e-01,-1.42921875e+00
-2.73093750e-08,-5.20781250e-01,-1.42320313e+00
-2.65093750e-08,-5.88562500e-01,-1.42015625e+00
-2.57093750e-08,-6.38781250e-01,-1.40632813e+00
-2.49093750e-08,-6.74750000e-01,-1.41906250e+00
-2.41093750e-08,-7.00625000e-01,-1.41531250e+00
-2.33093750e-08,-7.13718750e-01,-1.41070313e+00
-2.25093750e-08,-7.16718750e-01,-1.41015625e+00
-2.17093750e-08,-7.15218750e-01,-1.42914063e+00
-2.09093750e-08,-7.13500000e-01,-1.41718750e+00
-2.01093750e-08,-7.04406250e-01,-1.41421875e+00
-1.93093750e-08,-6.92093750e-01,-1.41273438e+00
-1.85093750e-08,-6.77031250e-01,-1.41679688e+00
-1.77093750e-08,-6.56968750e-01,-1.42710938e+00
-1.69093750e-08,-6.31781250e-01,-1.42140625e+00
-1.61093750e-08,-6.04781250e-01,-1.42414063e+00
-1.53093750e-08,-5.72375000e-01,-1.42656250e+00
-1.45093750e-08,-5.41500000e-01,-1.42117188e+00
-1.37093750e-08,-5.12406250e-01,-1.42843750e+00
-1.29093750e-08,-4.89468750e-01,-1.42406250e+00
-1.21093750e-08,-4.55750000e-01,-1.42609375e+00
-1.13093750e-08,-4.26593750e-01,-1.42046875e+00
-1.05093750e-08,-3.96375000e-01,-1.41796875e+00
-9.70937500e-09,-3.77593750e-01,-1.42250000e+00
-8.90937500e-09,-3.43687500e-01,-1.41828125e+00
-8.10937500e-09,-3.26468750e-01,-1.41710938e+00
-7.30937500e-09,-3.04562500e-01,-1.42820313e+00
-6.50937500e-09,-2.86968750e-01,-1.41968750e+00
-5.70937500e-09,-2.66875000e-01,-1.43812500e+00
-4.90937500e-09,-2.44281250e-01,-1.41820313e+00
-4.10937500e-09,-2.32093750e-01,-1.39789063e+00
-3.30937500e-09,-2.23968750e-01,-1.37593750e+00
-2.50937500e-09,-2.07187500e-01,-1.31406250e+00
-1.70937500e-09,-1.95093750e-01,-1.08906250e+00
-9.09375000e-10,-1.83375000e-01,-6.40078125e-01
-1.09375000e-10,-1.72562500e-01,-3.18203125e-01
6.90625000e-10,-1.60781250e-01,-1.71640625e-01
1.49062500e-09,-1.49593750e-01,-1.03906250e-01
2.29062500e-09,-1.39906250e-01,-6.80468750e-02
3.09062500e-09,-1.36093750e-01,-4.66406250e-02
3.89062500e-09,-1.25656250e-01,-4.84375000e-02
4.69062500e-09,-1.18343750e-01,-4.13281250e-02
5.49062500e-09,-1.13406250e-01,-3.01562500e-02
6.29062500e-09,-1.07656250e-01,-2.69531250e-02
7.09062500e-09,-1.00843750e-01,-3.50781250e-02
7.89062500e-09,-9.13750000e-02,-3.00781250e-02
8.69062500e-09,-8.70000000e-02,-3.00000000e-02
9.49062500e-09,-8.93437500e-02,-2.61718750e-02
1.02906250e-08,-8.05000000e-02,-2.65625000e-02
1.10906250e-08,-7.59687500e-02,-2.04687500e-02
1.18906250e-08,-7.30625000e-02,-1.10156250e-02
1.26906250e-08,-7.22812500e-02,-2.04687500e-02
1.34906250e-08,-6.45312500e-02,-2.09375000e-02
1.42906250e-08,-6.41562500e-02,-2.14843750e-02
1.50906250e-08,-6.38750000e-02,-8.12500000e-03
1.58906250e-08,-6.00312500e-02,-1.22656250e-02
1.66906250e-08,-5.33750000e-02,-4.68750000e-03
1.74906250e-08,-5.29687500e-02,-4.14062500e-03
1.82906250e-08,-4.76250000e-02,-9.84375000e-03
1.90906250e-08,-4.56562500e-02,-8.75000000e-03
1.98906250e-08,-4.21875000e-02,-4.45312500e-03
2.06906250e-08,-3.78437500e-02,3.75000000e-03
2.14906250e-08,-3.37187500e-02,1.17187500e-02
2.22906250e-08,-3.97187500e-02,7.18750000e-03
2.30906250e-08,-3.20000000e-02,-2.34375000e-04
2.38906250e-08,-2.75000000e-02,-1.64062500e-03
2.46906250e-08,-2.51250000e-02,8.04687500e-03
2.54906250e-08,-2.80937500e-02,5.39062500e-03
2.62906250e-08,-2.65312500e-02,5.85937500e-03
2.70906250e-08,-1.85937500e-02,6.79687500e-03
2.78906250e-08,-2.22500000e-02,4.53125000e-03
2.86906250e-08,-2.81875000e-02,7.65625000e-03
2.94906250e-08,-2.74062500e-02,5.31250000e-03
3.02906250e-08,-2.61250000e-02,6.48437500e-03
3.10906250e-08,-2.20000000e-02,1.54687500e-02
3.18906250e-08,-2.43750000e-02,1.89062500e-02
3.26906250e-08,-2.35937500e-02,2.14062500e-02
3.34906250e-08,-2.11250000e-02,3.22656250e-02
3.42906250e-08,-1.62500000e-02,3.10937500e-02
3.50906250e-08,-1.97500000e-02,4.60156250e-02
3.58906250e-08,-1.76875000e-02,2.98437500e-02
3.66906250e-08,-1.62500000e-02,2.50000000e-02
3.74906250e-08,-1.35000000e-02,3.32812500e-02
3.82906250e-08,-1.70000000e-02,2.71093750e-02
3.90906250e-08,-1.00625000e-02,3.03906250e-02
3.98906250e-08,-1.49375000e-02,2.88281250e-02
4.06906250e-08,-7.28125000e-03,2.93750000e-02
4.14906250e-08,-1.86562500e-02,2.14062500e-02
4.22906250e-08,-1.23125000e-02,3.07031250e-02
4.30906250e-08,-1.25625000e-02,2.30468750e-02
4.38906250e-08,-1.75937500e-02,2.46093750e-02
4.46906250e-08,-1.31250000e-02,2.83593750e-02
4.54906250e-08,-1.29062500e-02,3.01562500e-02
4.62906250e-08,-1.86562500e-02,1.93750000e-02
4.70906250e-08,-1.12500000e-02,1.70312500e-02
4.78906250e-08,-2.01250000e-02,2.09375000e-02
4.86906250e-08,-1.15937500e-02,1.82031250e-02
4.94906250e-08,-7.09375000e-03,2.08593750e-02
5.02906250e-08,-1.14062500e-02,1.86718750e-02
5.10906250e-08,-1.17187500e-02,1.47656250e-02
5.18906250e-08,-7.03125000e-03,1.94531250e-02
5.26906250e-08,-7.21875000e-03,1.33593750e-02
5.34906250e-08,-5.71875000e-03,2.35156250e-02
5.42906250e-08,-9.28125000e-03,2.69531250e-02
5.50906250e-08,-6.40625000e-03,2.03125000e-02
5.58906250e-08,-6.15625000e-03,2.22656250e-02
5.66906250e-08,-7.15625000e-03,1.42968750e-02
