data/raw/TriggerAuto_ALL_20231205194658797.csv

Model,MSO64B
Channel,CH1,,Channel,CH2
Label,,,Label,
Waveform Type,ANALOG,,Waveform Type,ANALOG
Horizontal Units,s,,Horizontal Units,s
Sample Interval,8.00000000e-10,,Sample Interval,8.00000000e-10
Record Length,5000,,Record Length,5000
Zero Index,349.50781250,,Zero Index,349.50781250
Vertical Units,V,,Vertical Units,V
,,,,
ANALOG_Thumbnail,,,ANALOG_Thumbnail,
yOffset,0.000000,,yOffset,0.000000
yPosition,2.160000,,yPosition,2.180000

Labels,,
TIME,CH1,CH2
-2.79606250e-07,5.84375000e-03,2.78125000e-02
-2.78806250e-07,7.96875000e-03,1.53125000e-02
-2.78006250e-07,9.31250000e-03,1.88281250e-02
-2.77206250e-07,5.43750000e-03,2.66406250e-02
-2.76406250e-07,8.21875000e-03,9.21875000e-03
-2.75606250e-07,8.15625000e-03,1.78125000e-02
-2.74806250e-07,8.06250000e-03,1.39062500e-02
-2.74006250e-07,8.06250000e-03,6.56250000e-03
-2.73206250e-07,1.21875000e-02,2.70312500e-02
-2.72406250e-07,2.65625000e-03,1.39843750e-02
-2.71606250e-07,8.96875000e-03,1.70312500e-02
-2.70806250e-07,9.09375000e-03,1.62500000e-02
-2.70006250e-07,7.18750000e-03,1.89062500e-02
-2.69206250e-07,4.31250000e-03,1.29687500e-02
-2.68406250e-07,1.19375000e-02,1.82812500e-02
-2.67606250e-07,4.96875000e-03,1.68750000e-02
-2.66806250e-07,6.12500000e-03,1.81250000e-02
-2.66006250e-07,5.37500000e-03,5.00000000e-03
-2.65206250e-07,1.24687500e-02,2.25781250e-02
-2.64406250e-07,3.03125000e-03,1.26562500e-02
-2.63606250e-07,6.59375000e-03,1.71875000e-02
-2.62806250e-07,4.06250000e-03,1.80468750e-02
-2.62006250e-07,9.06250000e-03,1.29687500e-02
-2.61206250e-07,8.53125000e-03,1.30468750e-02
-2.60406250e-07,8.53125000e-03,1.84375000e-02
-2.59606250e-07,6.96875000e-03,1.60937500e-02
-2.58806250e-07,8.12500000e-03,9.76562500e-03
-2.58006250e-07,1.18437500e-02,1.64062500e-02
-2.57206250e-07,8.18750000e-03,1.77343750e-02
-2.56406250e-07,6.34375000e-03,2.28125000e-02
-2.55606250e-07,1.09062500e-02,1.02343750e-02
-2.54806250e-07,9.00000000e-03,2.50781250e-02
-2.54006250e-07,7.40625000e-03,1.92968750e-02
-2.53206250e-07,1.16250000e-02,2.02343750e-02
-2.52406250e-07,7.56250000e-03,1.67187500e-02
-2.51606250e-07,6.65625000e-03,1.82812500e-02
-2.50806250e-07,6.93750000e-03,2.07812500e-02
-2.50006250e-07,8.62500000e-03,2.27343750e-02
-2.49206250e-07,8.62500000e-03,2.06250000e-02
-2.48406250e-07,5.15625000e-03,1.81250000e-02
-2.47606250e-07,9.25000000e-03,2.00000000e-02
-2.46806250e-07,2.18750000e-04,1.67187500e-02
-2.46006250e-07,1.03437500e-02,2.00781250e-02
-2.45206250e-07,7.59375000e-03,6.79687500e-03
-2.44406250e-07,1.27187500e-02,2.18750000e-02
-2.43606250e-07,6.25000000e-03,2.19531250e-02
-2.42806250e-07,6.59375000e-03,2.28125000e-02
-2.42006250e-07,5.84375000e-03,2.57812500e-02
-2.41206250e-07,9.50000000e-03,1.17968750e-02
-2.40406250e-07,5.46875000e-03,1.01562500e-03
-2.39606250e-07,1.00625000e-02,8.67187500e-03
-2.38806250e-07,5.15625000e-03,2.03125000e-02
-2.38006250e-07,1.15312500e-02,6.87500000e-03
-2.37206250e-07,5.43750000e-03,1.06250000e-02
-2.36406250e-07,7.37500000e-03,1.57031250e-02
-2.35606250e-07,1.02500000e-02,1.03906250e-02
-2.34806250e-07,9.09375000e-03,1.25781250e-02
-2.34006250e-07,5.37500000e-03,1.30468750e-02
-2.33206250e-07,7.28125000e-03,1.45312500e-02
-2.32406250e-07,1.08750000e-02,1.90625000e-02
-2.31606250e-07,9.28125000e-03,1.75781250e-02
-2.30806250e-07,6.84375000e-03,2.08593750e-02
-2.30006250e-07,8.90625000e-03,1.54687500e-02
-2.29206250e-07,7.37500000e-03,2.08593750e-02
-2.28406250e-07,1.08437500e-02,1.27343750e-02
-2.27606250e-07,1.01875000e-02,1.24218750e-02
-2.26806250e-07,9.21875000e-03,9.84375000e-03
-2.26006250e-07,5.21875000e-03,3.11718750e-02
-2.25206250e-07,1.03437500e-02,2.63281250e-02
-2.24406250e-07,7.43750000e-03,1.60156250e-02
-2.23606250e-07,7.12500000e-03,1.00781250e-02
-2.22806250e-07,1.23125000e-02,1.50781250e-02
-2.22006250e-07,1.00312500e-02,1.60937500e-02
-2.21206250e-07,3.18750000e-03,1.16406250e-02
-2.20406250e-07,1.06250000e-02,1.35937500e-02
-2.19606250e-07,9.21875000e-03,8.43750000e-03
-2.18806250e-07,1.22500000e-02,1.64843750e-02
-2.18006250e-07,6.96875000e-03,1.30468750e-02
-2.17206250e-07,1.10000000e-02,2.29687500e-02
-2.16406250e-07,7.25000000e-03,9.45312500e-03
-2.15606250e-07,9.31250000e-03,1.51562500e-02
-2.14806250e-07,3.65625000e-03,1.36718750e-02
-2.14006250e-07,1.22500000e-02,1.71093750e-02
-2.13206250e-07,5.21875000e-03,1.89062500e-02
-2.12406250e-07,8.81250000e-03,1.89062500e-02
-2.11606250e-07,4.25000000e-03,1.82031250e-02
-2.10806250e-07,7.09375000e-03,2.14843750e-02
-2.10006250e-07,1.04375000e-02,1.67187500e-02
-2.09206250e-07,1.44062500e-02,1.48437500e-02
-2.08406250e-07,7.34375000e-03,8.28125000e-03
-2.07606250e-07,1.16562500e-02,1.78125000e-02
-2.06806250e-07,6.68750000e-03,1.07812500e-02
-2.06006250e-07,6.12500000e-03,1.05468750e-02
-2.05206250e-07,7.59375000e-03,1.64062500e-02
-2.04406250e-07,9.31250000e-03,1.43750000e-02
-2.03606250e-07,1.26250000e-02,2.42968750e-02
-2.02806250e-07,7.25000000e-03,1.39843750e-02
-2.02006250e-07,8.09375000e-03,1.10937500e-02
-2.01206250e-07,9.40625000e-03,1.76562500e-02
-2.00406250e-07,4.53125000e-03,1.28906250e-02
-1.99606250e-07,1.16250000e-02,1.57812500e-02
-1.98806250e-07,6.90625000e-03,2.02343750e-02
-1.98006250e-07,7.06250000e-03,1.67968750e-02
-1.97206250e-07,9.96875000e-03,1.76562500e-02
-1.96406250e-07,1.03750000e-02,2.07031250e-02
-1.95606250e-07,3.59375000e-03,5.54687500e-03
-1.94806250e-07,1.58750000e-02,2.12500000e-02
-1.94006250e-07,4.90625000e-03,1.53906250e-02
-1.93206250e-07,1.25625000e-02,2.03906250e-02
-1.92406250e-07,5.68750000e-03,2.07031250e-02
-1.91606250e-07,1.06562500e-02,1.28906250e-02
-1.90806250e-07,4.09375000e-03,2.16406250e-02
-1.90006250e-07,5.40625000e-03,2.32812500e-02
-1.89206250e-07,7.25000000e-03,4.68750000e-03
-1.88406250e-07,1.19062500e-02,1.67187500e-02
-1.87606250e-07,8.09375000e-03,2.13281250e-02
-1.86806250e-07,1.42500000e-02,1.42187500e-02
-1.86006250e-07,4.43750000e-03,1.55468750e-02
-1.85206250e-07,4.96875000e-03,1.03906250e-02
-1.84406250e-07,1.04687500e-02,1.90625000e-02
-1.83606250e-07,1.46250000e-02,1.75781250e-02
-1.82806250e-07,4.81250000e-03,2.28125000e-02
-1.82006250e-07,8.40625000e-03,1.67968750e-02
-1.81206250e-07,9.31250000e-03,1.75781250e-02
-1.80406250e-07,1.00312500e-02,2.09375000e-02
-1.79606250e-07,7.90625000e-03,2.46093750e-02
-1.78806250e-07,6.87500000e-03,1.20312500e-02
-1.78006250e-07,1.16875000e-02,2.09375000e-02
-1.77206250e-07,8.59375000e-03,1.39843750e-02
-1.76406250e-07,6.90625000e-03,2.15625000e-02
-1.75606250e-07,8.96875000e-03,1.19531250e-02
-1.74806250e-07,3.12500000e-03,1.70312500e-02
-1.74006250e-07,1.05000000e-02,1.28125000e-02
-1.73206250e-07,8.53125000e-03,1.64843750e-02
-1.72406250e-07,8.65625000e-03,1.68750000e-02
-1.71606250e-07,9.84375000e-03,2.03125000e-02
-1.70806250e-07,1.10000000e-02,1.92968750e-02
-1.70006250e-07,2.78125000e-03,1.09375000e-02
-1.69206250e-07,1.18750000e-02,2.09375000e-02
-1.68406250e-07,1.21875000e-02,1.48437500e-02
-1.67606250e-07,7.75000000e-03,2.68750000e-02
-1.66806250e-07,3.50000000e-03,1.32031250e-02
-1.66006250e-07,1.15937500e-02,1.36718750e-02
-1.65206250e-07,4.53125000e-03,1.75781250e-02
-1.64406250e-07,9.34375000e-03,2.21093750e-02
-1.63606250e-07,5.90625000e-03,1.01562500e-02
-1.62806250e-07,8.96875000e-03,2.77343750e-02
-1.62006250e-07,5.53125000e-03,1.96093750e-02
-1.61206250e-07,1.30625000e-02,8.98437500e-03
-1.60406250e-07,5.68750000e-03,1.89062500e-02
-1.59606250e-07,8.12500000e-03,9.45312500e-03
-1.58806250e-07,1.15937500e-02,1.25000000e-02
-1.58006250e-07,1.07500000e-02,1.43750000e-02
-1.57206250e-07,2.40625000e-03,1.56250000e-02
-1.56406250e-07,8.40625000e-03,1.56250000e-02
-1.55606250e-07,8.31250000e-03,8.28125000e-03
-1.54806250e-07,8.34375000e-03,1.59375000e-02
-1.54006250e-07,4.09375000e-03,2.07812500e-02
-1.53206250e-07,8.03125000e-03,9.60937500e-03
-1.52406250e-07,6.84375000e-03,1.57031250e-02
-1.51606250e-07,1.01250000e-02,9.60937500e-03
-1.50806250e-07,9.12500000e-03,1.45312500e-02
-1.50006250e-07,8.00000000e-03,1.57031250e-02
-1.49206250e-07,5.81250000e-03,2.55468750e-02
-1.48406250e-07,7.84375000e-03,1.07031250e-02
-1.47606250e-07,7.21875000e-03,1.85156250e-02
-1.46806250e-07,9.56250000e-03,1.46875000e-02
-1.46006250e-07,5.06250000e-03,7.18750000e-03
-1.45206250e-07,1.04062500e-02,2.04687500e-02
-1.44406250e-07,9.68750000e-04,1.68750000e-02
-1.43606250e-07,1.32812500e-02,2.56250000e-02
-1.42806250e-07,5.93750000e-03,2.18750000e-02
-1.42006250e-07,9.65625000e-03,1.73437500e-02
-1.41206250e-07,6.43750000e-03,1.14062500e-02
-1.40406250e-07,1.24687500e-02,1.35937500e-02
-1.39606250e-07,3.21875000e-03,1.61718750e-02
-1.38806250e-07,8.00000000e-03,1.75781250e-02
-1.38006250e-07,7.09375000e-03,1.88281250e-02
-1.37206250e-07,5.90625000e-03,2.48437500e-02
-1.36406250e-07,7.65625000e-03,2.38281250e-02
-1.35606250e-07,8.09375000e-03,1.20312500e-02
-1.34806250e-07,3.00000000e-03,1.55468750e-02
-1.34006250e-07,5.78125000e-03,1.15625000e-02
-1.33206250e-07,9.12500000e-03,9.76562500e-03
-1.32406250e-07,1.23750000e-02,9.92187500e-03
-1.31606250e-07,5.78125000e-03,1.25781250e-02
-1.30806250e-07,7.81250000e-03,8.04687500e-03
-1.30006250e-07,8.93750000e-03,1.21875000e-02
-1.29206250e-07,1.02812500e-02,1.35156250e-02
-1.28406250e-07,8.56250000e-03,2.07812500e-02
-1.27606250e-07,9.21875000e-03,1.21093750e-02
-1.26806250e-07,9.96875000e-03,2.29687500e-02
-1.26006250e-07,8.56250000e-03,2.78906250e-02
-1.25206250e-07,1.06250000e-02,2.17968750e-02
-1.24406250e-07,9.37500000e-03,1.34375000e-02
-1.23606250e-07,5.59375000e-03,2.15625000e-02
-1.22806250e-07,1.07500000e-02,1.54687500e-02
-1.22006250e-07,7.59375000e-03,2.96093750e-02
-1.21206250e-07,9.31250000e-03,1.64843750e-02
-1.20406250e-07,5.59375000e-03,1.96875000e-02
-1.19606250e-07,1.20312500e-02,1.01562500e-02
-1.18806250e-07,3.78125000e-03,1.21093750e-02
-1.18006250e-07,1.09375000e-02,1.32812500e-02
-1.17206250e-07,6.68750000e-03,1.95312500e-02
-1.16406250e-07,9.62500000e-03,2.05468750e-02
-1.15606250e-07,9.68750000e-04,1.48437500e-02
-1.14806250e-07,1.38750000e-02,2.14843750e-02
-1.14006250e-07,7.78125000e-03,2.40625000e-02
-1.13206250e-07,1.11875000e-02,1.92968750e-02
-1.12406250e-07,6.31250000e-03,1.16406250e-02
-1.11606250e-07,1.30937500e-02,2.17187500e-02
-1.10806250e-07,4.96875000e-03,2.09375000e-02
-1.10006250e-07,7.37500000e-03,1.77343750e-02
-1.09206250e-07,6.81250000e-03,2.04687500e-02
-1.08406250e-07,5.09375000e-03,1.25000000e-02
-1.07606250e-07,7.75000000e-03,1.96093750e-02
-1.06806250e-07,1.19062500e-02,2.06250000e-02
-1.06006250e-07,5.43750000e-03,1.75781250e-02
-1.05206250e-07,7.71875000e-03,2.42187500e-02
-1.04406250e-07,1.15312500e-02,1.75000000e-02
-1.03606250e-07,8.93750000e-03,2.24218750e-02
-1.02806250e-07,9.21875000e-03,1.50781250e-02
-1.02006250e-07,8.18750000e-03,2.14062500e-02
-1.01206250e-07,8.78125000e-03,2.50781250e-02
-1.00406250e-07,5.06250000e-03,1.38281250e-02
-9.96062500e-08,1.03125000e-02,1.75781250e-02
-9.88062500e-08,8.31250000e-03,1.02343750e-02
-9.80062500e-08,5.12500000e-03,1.73437500e-02
-9.72062500e-08,1.46250000e-02,1.50781250e-02
-9.64062500e-08,5.93750000e-03,1.74218750e-02
-9.56062500e-08,7.87500000e-03,2.05468750e-02
-9.48062500e-08,7.84375000e-03,1.81250000e-02
-9.40062500e-08,1.49687500e-02,2.53125000e-02
-9.32062500e-08,4.06250000e-03,1.47656250e-02
-9.24062500e-08,1.60625000e-02,2.30468750e-02
-9.16062500e-08,1.22812500e-02,2.02343750e-02
-9.08062500e-08,9.62500000e-03,2.69531250e-02
-9.00062500e-08,4.96875000e-03,2.35156250e-02
-8.92062500e-08,1.28437500e-02,2.60937500e-02
-8.84062500e-08,4.90625000e-03,1.53906250e-02
-8.76062500e-08,1.00937500e-02,1.77343750e-02
-8.68062500e-08,9.78125000e-03,1.50000000e-02
-8.60062500e-08,1.10312500e-02,1.99218750e-02
-8.52062500e-08,6.81250000e-03,2.10156250e-02
-8.44062500e-08,1.16562500e-02,1.97656250e-02
-8.36062500e-08,6.25000000e-03,2.10937500e-02
-8.28062500e-08,6.15625000e-03,2.25000000e-02
-8.20062500e-08,1.14687500e-02,1.91406250e-02
-8.12062500e-08,1.04375000e-02,2.78125000e-02
-8.04062500e-08,3.78125000e-03,2.14062500e-02
-7.96062500e-08,8.90625000e-03,1.78125000e-02
-7.88062500e-08,1.28437500e-02,1.50000000e-02
-7.80062500e-08,7.03125000e-03,1.13281250e-02
-7.72062500e-08,7.00000000e-03,2.05468750e-02
-7.64062500e-08,7.06250000e-03,1.10937500e-02
-7.56062500e-08,1.01562500e-02,2.07031250e-02
-7.48062500e-08,1.01875000e-02,2.42968750e-02
-7.40062500e-08,9.34375000e-03,2.21093750e-02
-7.32062500e-08,8.90625000e-03,1.15625000e-02
-7.24062500e-08,6.40625000e-03,2.23437500e-02
-7.16062500e-08,1.25000000e-02,1.20312500e-02
-7.08062500e-08,8.12500000e-03,2.23437500e-02
-7.00062500e-08,8.59375000e-03,1.96875000e-02
-6.92062500e-08,8.87500000e-03,1.67187500e-02
-6.84062500e-08,1.55625000e-02,2.76562500e-02
-6.76062500e-08,6.03125000e-03,1.21093750e-02
-6.68062500e-08,8.43750000e-03,1.38281250e-02
-6.60062500e-08,7.78125000e-03,2.42187500e-02
-6.52062500e-08,1.00000000e-02,2.28906250e-02
-6.44062500e-08,7.37500000e-03,8.12500000e-03
-6.36062500e-08,1.22187500e-02,1.53906250e-02
-6.28062500e-08,8.03125000e-03,3.90625000e-04
-6.20062500e-08,7.87500000e-03,1.89843750e-02
-6.12062500e-08,1.34375000e-03,2.63281250e-02
-6.04062500e-08,1.21875000e-02,-2.10781250e-01
-5.96062500e-08,1.04062500e-02,-7.74921875e-01
-5.88062500e-08,1.25312500e-02,-1.21242187e+00
-5.80062500e-08,4.28125000e-03,-1.31796875e+00
-5.72062500e-08,6.00000000e-03,-1.37039063e+00
-5.64062500e-08,1.32500000e-02,-1.36109375e+00
-5.56062500e-08,1.16250000e-02,-1.33382813e+00
-5.48062500e-08,4.06250000e-03,-1.36250000e+00
-5.40062500e-08,8.50000000e-03,-1.39359375e+00
-5.32062500e-08,1.50000000e-02,-1.39335938e+00
-5.24062500e-08,9.09375000e-03,-1.41375000e+00
-5.16062500e-08,1.09375000e-02,-1.41812500e+00
-5.08062500e-08,5.50000000e-03,-1.41101563e+00
-5.00062500e-08,1.20000000e-02,-1.39796875e+00
-4.92062500e-08,9.50000000e-03,-1.40218750e+00
-4.84062500e-08,1.18125000e-02,-1.41562500e+00
-4.76062500e-08,9.18750000e-03,-1.41085938e+00
-4.68062500e-08,4.56250000e-03,-1.42664063e+00
-4.60062500e-08,1.36250000e-02,-1.41289063e+00
-4.52062500e-08,8.50000000e-03,-1.40882813e+00
-4.44062500e-08,7.00000000e-03,-1.41375000e+00
-4.36062500e-08,7.25000000e-03,-1.42234375e+00
-4.28062500e-08,1.00625000e-02,-1.42437500e+00
-4.20062500e-08,6.87500000e-03,-1.43031250e+00
-4.12062500e-08,1.32812500e-02,-1.42250000e+00
-4.04062500e-08,8.34375000e-03,-1.42296875e+00
-3.96062500e-08,9.34375000e-03,-1.41734375e+00
-3.88062500e-08,3.31250000e-03,-1.42375000e+00
-3.80062500e-08,5.93750000e-03,-1.41398438e+00
-3.72062500e-08,1.06250000e-03,-1.41937500e+00
-3.64062500e-08,8.96875000e-03,-1.41445313e+00
-3.56062500e-08,-5.93750000e-04,-1.42765625e+00
-3.48062500e-08,8.25000000e-03,-1.42234375e+00
-3.40062500e-08,-1.71875000e-03,-1.42296875e+00
-3.32062500e-08,-8.31250000e-03,-1.41335938e+00
-3.24062500e-08,-4.01250000e-02,-1.41492188e+00
-3.16062500e-08,-8.04687500e-02,-1.42843750e+00
-3.08062500e-08,-1.40750000e-01,-1.42781250e+00
-3.00062500e-08,-2.28843750e-01,-1.42085938e+00
-2.92062500e-08,-3.41812500e-01,-1.42273438e+00
-2.84062500e-08,-4.38468750e-01,-1.41835938e+00
-2.76062500e-08,-5.32218750e-01,-1.41570313e+00
-2.68062500e-08,-6.20843750e-01,-1.41343750e+00
-2.60062500e-08,-6.85687500e-01,-1.42000000e+00
-2.52062500e-08,-7.39062500e-01,-1.41492188e+00
-2.44062500e-08,-7.75343750e-01,-1.40960938e+00
-2.36062500e-08,-8.04343750e-01,-1.40367188e+00
-2.28062500e-08,-8.17218750e-01,-1.40843750e+00
-2.20062500e-08,-8.24125000e-01,-1.41023438e+00
-2.12062500e-08,-8.21500000e-01,-1.42140625e+00
-2.04062500e-08,-8.12312500e-01,-1.42078125e+00
-1.96062500e-08,-7.97218750e-01,-1.41226563e+00
-1.88062500e-08,-7.74375000e-01,-1.42289062e+00
-1.80062500e-08,-7.54093750e-01,-1.41906250e+00
-1.72062500e-08,-7.24093750e-01,-1.41523438e+00
-1.64062500e-08,-7.00906250e-01,-1.42570313e+00
-1.56062500e-08,-6.70312500e-01,-1.41859375e+00
-1.48062500e-08,-6.42093750e-01,-1.42742188e+00
-1.40062500e-08,-6.10250000e-01,-1.41226563e+00
-1.32062500e-08,-5.75781250e-01,-1.41218750e+00
-1.24062500e-08,-5.43312500e-01,-1.41851563e+00
-1.16062500e-08,-5.13500000e-01,-1.41976563e+00
-1.08062500e-08,-4.81218750e-01,-1.42156250e+00
-1.00062500e-08,-4.52968750e-01,-1.42406250e+00
-9.20625000e-09,-4.20093750e-01,-1.42625000e+00
-8.40625000e-09,-3.90156250e-01,-1.41093750e+00
-7.60625000e-09,-3.69906250e-01,-1.40656250e+00
-6.80625000e-09,-3.43156250e-01,-1.41984375e+00
-6.00625000e-09,-3.19312500e-01,-1.42625000e+00
-5.20625000e-09,-2.93062500e-01,-1.41320313e+00
-4.40625000e-09,-2.72750000e-01,-1.40492188e+00
-3.60625000e-09,-2.61218750e-01,-1.38687500e+00
-2.80625000e-09,-2.39375000e-01,-1.34828125e+00
-2.00625000e-09,-2.26062500e-01,-1.19789063e+00
-1.20625000e-09,-2.15875000e-01,-8.23359375e-01
-4.06250000e-10,-2.01093750e-01,-4.05937500e-01
3.93750000e-10,-1.87125000e-01,-2.21875000e-01
1.19375000e-09,-1.85062500e-01,-1.14921875e-01
1.99375000e-09,-1.68687500e-01,-8.18750000e-02
2.79375000e-09,-1.65468750e-01,-4.96875000e-02
3.59375000e-09,-1.54812500e-01,-3.68750000e-02
4.39375000e-09,-1.54500000e-01,-3.59375000e-02
5.19375000e-09,-1.36812500e-01,-4.21875000e-02
5.99375000e-09,-1.30562500e-01,-3.12500000e-02
6.79375000e-09,-1.25437500e-01,-2.39843750e-02
7.59375000e-09,-1.16187500e-01,-2.32812500e-02
8.39375000e-09,-1.07906250e-01,-2.12500000e-02
9.19375000e-09,-1.09812500e-01,-2.28125000e-02
9.99375000e-09,-8.67812500e-02,-1.71093750e-02
1.07937500e-08,-9.22812500e-02,-1.53125000e-02
1.15937500e-08,-8.21250000e-02,-1.28906250e-02
1.23937500e-08,-8.14062500e-02,-5.07812500e-03
1.31937500e-08,-7.01562500e-02,-2.81250000e-03
1.39937500e-08,-7.30937500e-02,-1.39843750e-02
1.47937500e-08,-6.05312500e-02,-1.35937500e-02
1.55937500e-08,-6.13750000e-02,-2.18750000e-03
1.63937500e-08,-5.61250000e-02,-2.89062500e-03
1.71937500e-08,-5.75625000e-02,1.25781250e-02
1.79937500e-08,-4.64375000e-02,6.17187500e-03
1.87937500e-08,-5.26562500e-02,1.07812500e-02
1.95937500e-08,-4.74375000e-02,1.05468750e-02
2.03937500e-08,-4.15625000e-02,7.03125000e-03
2.11937500e-08,-4.35000000e-02,5.93750000e-03
2.19937500e-08,-4.13125000e-02,-4.68750000e-03
2.27937500e-08,-3.32812500e-02,5.93750000e-03
2.35937500e-08,-2.95000000e-02,1.00781250e-02
2.43937500e-08,-3.30625000e-02,1.29687500e-02
2.51937500e-08,-2.57500000e-02,1.25781250e-02
2.59937500e-08,-2.80625000e-02,1.48437500e-02
2.67937500e-08,-2.27812500e-02,7.89062500e-03
2.75937500e-08,-2.37187500e-02,1.11718750e-02
2.83937500e-08,-2.36562500e-02,2.59375000e-02
2.91937500e-08,-2.01562500e-02,1.45312500e-02
2.99937500e-08,-2.04062500e-02,1.87500000e-02
3.07937500e-08,-1.96875000e-02,1.94531250e-02
3.15937500e-08,-2.28750000e-02,2.08593750e-02
3.23937500e-08,-2.12187500e-02,3.35937500e-02
3.31937500e-08,-1.75312500e-02,2.98437500e-02
3.39937500e-08,-1.59062500e-02,4.21093750e-02
3.47937500e-08,-2.29062500e-02,3.37500000e-02
3.55937500e-08,-1.33437500e-02,4.82031250e-02
3.63937500e-08,-1.33125000e-02,4.22656250e-02
3.71937500e-08,-1.18750000e-02,4.93750000e-02
3.79937500e-08,-1.79375000e-02,3.37500000e-02
3.87937500e-08,-6.90625000e-03,4.98437500e-02
3.95937500e-08,-1.41875000e-02,3.25000000e-02
4.03937500e-08,-7.62500000e-03,3.04687500e-02
4.11937500e-08,-1.38750000e-02,2.88281250e-02
4.19937500e-08,-7.15625000e-03,2.90625000e-02
4.27937500e-08,-1.19062500e-02,3.02343750e-02
4.35937500e-08,-6.53125000e-03,3.14843750e-02
4.43937500e-08,-1.11250000e-02,2.80468750e-02
4.51937500e-08,-1.06250000e-02,3.35156250e-02
4.59937500e-08,-6.87500000e-03,3.17968750e-02
4.67937500e-08,-6.84375000e-03,3.57812500e-02
4.75937500e-08,-1.10937500e-02,2.80468750e-02
4.83937500e-08,-7.43750000e-03,2.71093750e-02
4.91937500e-08,-7.46875000e-03,1.95312500e-02
4.99937500e-08,-8.28125000e-03,2.20312500e-02
5.07937500e-08,-1.06250000e-02,3.28906250e-02
5.15937500e-08,-5.37500000e-03,2.07812500e-02
5.23937500e-08,-3.03125000e-03,3.03125000e-02
5.31937500e-08,-4.21875000e-03,2.33593750e-02
5.39937500e-08,-2.00000000e-03,3.01562500e-02
5.47937500e-08,-4.09375000e-03,2.71093750e-02
5.55937500e-08,-7.50000000e-03,2.58593750e-02
5.63937500e-08,3.28125000e-03,2.04687500e-02
