data/raw/TriggerAuto_ALL_20231205192923015.csv

Model,MSO64B
Channel,CH1,,Channel,CH2
Label,,,Label,
Waveform Type,ANALOG,,Waveform Type,ANALOG
Horizontal Units,s,,Horizontal Units,s
Sample Interval,8.00000000e-10,,Sample Interval,8.00000000e-10
Record Length,5000,,Record Length,5000
Zero Index,349.16796875,,Zero Index,349.16796875
Vertical Units,V,,Vertical Units,V
,,,,
ANALOG_Thumbnail,,,ANALOG_Thumbnail,
yOffset,0.000000,,yOffset,0.000000
yPosition,2.160000,,yPosition,2.180000

Labels,,
TIME,CH1,CH2
-2.79334375e-07,5.34375000e-03,2.04687500e-02
-2.78534375e-07,8.84375000e-03,1.79687500e-03
-2.77734375e-07,1.84375000e-03,1.57812500e-02
-2.76934375e-07,5.15625000e-03,5.00000000e-03
-2.76134375e-07,4.78125000e-03,4.68750000e-04
-2.75334375e-07,1.03750000e-02,4.92187500e-03
-2.74534375e-07,3.65625000e-03,9.68750000e-03
-2.73734375e-07,7.03125000e-03,-1.87500000e-03
-2.72934375e-07,7.62500000e-03,6.71875000e-03
-2.72134375e-07,1.06875000e-02,1.26562500e-02
-2.71334375e-07,3.75000000e-04,3.67187500e-03
-2.70534375e-07,5.25000000e-03,5.00000000e-03
-2.69734375e-07,4.65625000e-03,1.50781250e-02
-2.68934375e-07,6.71875000e-03,1.90625000e-02
-2.68134375e-07,-3.84375000e-03,-4.53125000e-03
-2.67334375e-07,1.14375000e-02,1.11718750e-02
-2.66534375e-07,2.65625000e-03,1.67187500e-02
-2.65734375e-07,1.08125000e-02,1.11718750e-02
-2.64934375e-07,1.53125000e-03,6.09375000e-03
-2.64134375e-07,5.93750000e-04,8.67187500e-03
-2.63334375e-07,1.03750000e-02,5.54687500e-03
-2.62534375e-07,1.05312500e-02,1.01562500e-02
-2.61734375e-07,4.84375000e-03,1.00781250e-02
-2.60934375e-07,4.09375000e-03,1.25781250e-02
-2.60134375e-07,7.03125000e-03,7.81250000e-05
-2.59334375e-07,6.53125000e-03,5.00000000e-03
-2.58534375e-07,2.15625000e-03,2.89062500e-03
-2.57734375e-07,6.06250000e-03,4.37500000e-03
-2.56934375e-07,5.37500000e-03,7.73437500e-03
-2.56134375e-07,9.50000000e-03,1.48437500e-02
-2.55334375e-07,8.87500000e-03,1.26562500e-02
-2.54534375e-07,4.87500000e-03,3.35937500e-03
-2.53734375e-07,4.46875000e-03,1.09375000e-02
-2.52934375e-07,1.01875000e-02,9.21875000e-03
-2.52134375e-07,8.09375000e-03,-3.75000000e-03
-2.51334375e-07,3.75000000e-03,8.43750000e-03
-2.50534375e-07,4.87500000e-03,5.46875000e-03
-2.49734375e-07,9.37500000e-03,6.25000000e-03
-2.48934375e-07,1.37500000e-03,3.59375000e-03
-2.48134375e-07,1.09062500e-02,6.32812500e-03
-2.47334375e-07,8.65625000e-03,3.75000000e-03
-2.46534375e-07,9.96875000e-03,1.69531250e-02
-2.45734375e-07,4.71875000e-03,7.26562500e-03
-2.44934375e-07,1.03437500e-02,9.53125000e-03
-2.44134375e-07,3.50000000e-03,9.37500000e-03
-2.43334375e-07,7.50000000e-03,1.00781250e-02
-2.42534375e-07,1.15625000e-03,2.73437500e-03
-2.41734375e-07,5.84375000e-03,1.28906250e-02
-2.40934375e-07,5.12500000e-03,3.90625000e-03
-2.40134375e-07,1.07187500e-02,7.73437500e-03
-2.39334375e-07,2.37500000e-03,1.13281250e-02
-2.38534375e-07,5.59375000e-03,4.06250000e-03
-2.37734375e-07,5.06250000e-03,6.79687500e-03
-2.36934375e-07,1.10312500e-02,-1.79687500e-03
-2.36134375e-07,1.37500000e-03,7.10937500e-03
-2.35334375e-07,4.21875000e-03,2.18750000e-03
-2.34534375e-07,6.40625000e-03,5.15625000e-03
-2.33734375e-07,1.46875000e-03,1.28906250e-02
-2.32934375e-07,6.28125000e-03,5.39062500e-03
-2.32134375e-07,3.68750000e-03,4.45312500e-03
-2.31334375e-07,5.25000000e-03,1.96093750e-02
-2.30534375e-07,4.84375000e-03,1.31250000e-02
-2.29734375e-07,8.15625000e-03,1.14062500e-02
-2.28934375e-07,4.25000000e-03,1.11718750e-02
-2.28134375e-07,3.46875000e-03,1.00000000e-02
-2.27334375e-07,5.75000000e-03,1.95312500e-03
-2.26534375e-07,2.28125000e-03,3.90625000e-04
-2.25734375e-07,4.03125000e-03,1.02343750e-02
-2.24934375e-07,4.87500000e-03,1.07812500e-02
-2.24134375e-07,8.93750000e-03,7.26562500e-03
-2.23334375e-07,2.50000000e-03,-4.37500000e-03
-2.22534375e-07,8.87500000e-03,1.31250000e-02
-2.21734375e-07,5.59375000e-03,3.35937500e-03
-2.20934375e-07,7.03125000e-03,1.03906250e-02
-2.20134375e-07,1.25000000e-04,5.39062500e-03
-2.19334375e-07,1.00625000e-02,9.68750000e-03
-2.18534375e-07,2.12500000e-03,1.33593750e-02
-2.17734375e-07,3.96875000e-03,1.13281250e-02
-2.16934375e-07,4.40625000e-03,6.64062500e-03
-2.16134375e-07,6.96875000e-03,1.56250000e-03
-2.15334375e-07,5.28125000e-03,7.57812500e-03
-2.14534375e-07,1.22187500e-02,1.56250000e-03
-2.13734375e-07,2.09375000e-03,6.32812500e-03
-2.12934375e-07,6.18750000e-03,3.59375000e-03
-2.12134375e-07,8.31250000e-03,9.68750000e-03
-2.11334375e-07,1.07500000e-02,8.82812500e-03
-2.10534375e-07,1.12500000e-03,1.67968750e-02
-2.09734375e-07,8.56250000e-03,5.46875000e-04
-2.08934375e-07,5.03125000e-03,1.04687500e-02
-2.08134375e-07,5.78125000e-03,1.32031250e-02
-2.07334375e-07,4.68750000e-03,6.79687500e-03
-2.06534375e-07,6.40625000e-03,4.14062500e-03
-2.05734375e-07,1.11562500e-02,1.36718750e-02
-2.04934375e-07,4.75000000e-03,2.37500000e-02
-2.04134375e-07,6.06250000e-03,3.75000000e-03
-2.03334375e-07,6.40625000e-03,2.89062500e-03
-2.02534375e-07,2.50000000e-03,9.53125000e-03
-2.01734375e-07,4.81250000e-03,2.65625000e-03
-2.00934375e-07,5.03125000e-03,7.73437500e-03
-2.00134375e-07,8.71875000e-03,6.64062500e-03
-1.99334375e-07,6.03125000e-03,3.75000000e-03
-1.98534375e-07,1.12812500e-02,2.00781250e-02
-1.97734375e-07,2.00000000e-03,3.90625000e-03
-1.96934375e-07,8.68750000e-03,8.90625000e-03
-1.96134375e-07,5.43750000e-03,2.81250000e-03
-1.95334375e-07,4.06250000e-03,1.55468750e-02
-1.94534375e-07,-1.31250000e-03,4.68750000e-03
-1.93734375e-07,1.20625000e-02,1.89062500e-02
-1.92934375e-07,5.84375000e-03,1.76562500e-02
-1.92134375e-07,6.71875000e-03,9.14062500e-03
-1.91334375e-07,2.93750000e-03,3.43750000e-03
-1.90534375e-07,9.84375000e-03,1.14843750e-02
-1.89734375e-07,7.87500000e-03,5.31250000e-03
-1.88934375e-07,9.46875000e-03,1.35156250e-02
-1.88134375e-07,2.18750000e-03,6.48437500e-03
-1.87334375e-07,8.25000000e-03,4.92187500e-03
-1.86534375e-07,6.18750000e-03,2.89062500e-03
-1.85734375e-07,5.53125000e-03,1.36718750e-02
-1.84934375e-07,7.81250000e-04,1.71875000e-02
-1.84134375e-07,8.65625000e-03,7.18750000e-03
-1.83334375e-07,7.15625000e-03,2.81250000e-03
-1.82534375e-07,2.96875000e-03,8.20312500e-03
-1.81734375e-07,5.46875000e-03,2.81250000e-03
-1.80934375e-07,6.68750000e-03,1.79687500e-03
-1.80134375e-07,7.50000000e-03,1.56250000e-02
-1.79334375e-07,4.31250000e-03,1.71875000e-02
-1.78534375e-07,4.84375000e-03,5.31250000e-03
-1.77734375e-07,8.62500000e-03,1.01562500e-02
-1.76934375e-07,3.56250000e-03,9.29687500e-03
-1.76134375e-07,1.04062500e-02,1.20312500e-02
-1.75334375e-07,3.28125000e-03,3.28125000e-03
-1.74534375e-07,7.06250000e-03,3.59375000e-03
-1.73734375e-07,4.71875000e-03,6.79687500e-03
-1.72934375e-07,4.78125000e-03,2.89062500e-03
-1.72134375e-07,4.71875000e-03,5.00000000e-03
-1.71334375e-07,6.53125000e-03,7.57812500e-03
-1.70534375e-07,4.50000000e-03,6.95312500e-03
-1.69734375e-07,9.18750000e-03,1.54687500e-02
-1.68934375e-07,2.81250000e-03,5.23437500e-03
-1.68134375e-07,1.30625000e-02,6.95312500e-03
-1.67334375e-07,1.00000000e-03,7.42187500e-03
-1.66534375e-07,7.96875000e-03,8.20312500e-03
-1.65734375e-07,1.15625000e-03,6.09375000e-03
-1.64934375e-07,8.87500000e-03,8.20312500e-03
-1.64134375e-07,4.65625000e-03,6.09375000e-03
-1.63334375e-07,1.24375000e-02,4.21875000e-03
-1.62534375e-07,2.12500000e-03,6.87500000e-03
-1.61734375e-07,6.09375000e-03,-3.90625000e-04
-1.60934375e-07,7.78125000e-03,1.37500000e-02
-1.60134375e-07,7.81250000e-03,1.06250000e-02
-1.59334375e-07,3.37500000e-03,8.20312500e-03
-1.58534375e-07,2.21875000e-03,1.27343750e-02
-1.57734375e-07,9.68750000e-03,5.31250000e-03
-1.56934375e-07,5.96875000e-03,6.17187500e-03
-1.56134375e-07,5.62500000e-03,3.43750000e-03
-1.55334375e-07,4.78125000e-03,2.34375000e-04
-1.54534375e-07,6.25000000e-03,4.37500000e-03
-1.53734375e-07,5.25000000e-03,6.17187500e-03
-1.52934375e-07,5.21875000e-03,-1.01562500e-03
-1.52134375e-07,6.84375000e-03,5.46875000e-04
-1.51334375e-07,5.46875000e-03,5.85937500e-03
-1.50534375e-07,8.43750000e-03,1.09375000e-02
-1.49734375e-07,4.75000000e-03,8.82812500e-03
-1.48934375e-07,5.25000000e-03,7.42187500e-03
-1.48134375e-07,3.93750000e-03,-2.50000000e-03
-1.47334375e-07,7.87500000e-03,-7.81250000e-04
-1.46534375e-07,-2.81250000e-04,-1.56250000e-04
-1.45734375e-07,6.75000000e-03,9.21875000e-03
-1.44934375e-07,8.06250000e-03,7.57812500e-03
-1.44134375e-07,8.87500000e-03,1.23437500e-02
-1.43334375e-07,1.56250000e-03,1.00781250e-02
-1.42534375e-07,7.90625000e-03,6.95312500e-03
-1.41734375e-07,5.78125000e-03,1.80468750e-02
-1.40934375e-07,5.78125000e-03,1.10156250e-02
-1.40134375e-07,1.37500000e-03,7.26562500e-03
-1.39334375e-07,6.06250000e-03,4.60937500e-03
-1.38534375e-07,6.56250000e-03,4.84375000e-03
-1.37734375e-07,9.68750000e-03,1.07812500e-02
-1.36934375e-07,-6.87500000e-04,3.35937500e-03
-1.36134375e-07,6.50000000e-03,6.32812500e-03
-1.35334375e-07,5.90625000e-03,4.92187500e-03
-1.34534375e-07,1.23437500e-02,1.16406250e-02
-1.33734375e-07,2.75000000e-03,1.14062500e-02
-1.32934375e-07,7.12500000e-03,1.48437500e-03
-1.32134375e-07,1.09062500e-02,5.23437500e-03
-1.31334375e-07,2.18750000e-03,7.65625000e-03
-1.30534375e-07,5.62500000e-03,1.17187500e-03
-1.29734375e-07,8.18750000e-03,7.26562500e-03
-1.28934375e-07,8.62500000e-03,-7.81250000e-05
-1.28134375e-07,8.25000000e-03,9.53125000e-03
-1.27334375e-07,4.81250000e-03,3.90625000e-03
-1.26534375e-07,6.75000000e-03,4.21875000e-03
-1.25734375e-07,3.34375000e-03,8.82812500e-03
-1.24934375e-07,9.31250000e-03,6.01562500e-03
-1.24134375e-07,4.68750000e-03,-1.01562500e-03
-1.23334375e-07,4.34375000e-03,8.43750000e-03
-1.22534375e-07,5.62500000e-04,7.57812500e-03
-1.21734375e-07,9.90625000e-03,6.40625000e-03
-1.20934375e-07,-9.37500000e-05,4.53125000e-03
-1.20134375e-07,8.37500000e-03,1.46093750e-02
-1.19334375e-07,7.40625000e-03,2.08593750e-02
-1.18534375e-07,8.93750000e-03,7.42187500e-03
-1.17734375e-07,1.03125000e-03,8.59375000e-03
-1.16934375e-07,1.14375000e-02,1.36718750e-02
-1.16134375e-07,2.43750000e-03,5.85937500e-03
-1.15334375e-07,2.40625000e-03,1.46093750e-02
-1.14534375e-07,4.09375000e-03,2.50000000e-03
-1.13734375e-07,7.03125000e-03,1.42187500e-02
-1.12934375e-07,4.81250000e-03,6.56250000e-03
-1.12134375e-07,8.03125000e-03,8.98437500e-03
-1.11334375e-07,1.96875000e-03,6.95312500e-03
-1.10534375e-07,4.28125000e-03,1.64062500e-02
-1.09734375e-07,8.21875000e-03,6.79687500e-03
-1.08934375e-07,1.01562500e-02,1.00000000e-02
-1.08134375e-07,4.06250000e-04,9.06250000e-03
-1.07334375e-07,8.06250000e-03,1.00781250e-02
-1.06534375e-07,5.93750000e-03,1.19531250e-02
-1.05734375e-07,5.93750000e-03,6.17187500e-03
-1.04934375e-07,3.18750000e-03,1.62500000e-02
-1.04134375e-07,4.71875000e-03,1.28125000e-02
-1.03334375e-07,5.84375000e-03,1.76562500e-02
-1.02534375e-07,9.75000000e-03,1.94531250e-02
-1.01734375e-07,9.46875000e-03,1.60937500e-02
-1.00934375e-07,9.46875000e-03,5.70312500e-03
-1.00134375e-07,3.12500000e-03,8.75000000e-03
-9.93343750e-08,9.62500000e-03,1.39062500e-02
-9.85343750e-08,4.90625000e-03,4.06250000e-03
-9.77343750e-08,6.43750000e-03,8.35937500e-03
-9.69343750e-08,3.93750000e-03,7.65625000e-03
-9.61343750e-08,9.12500000e-03,6.56250000e-03
-9.53343750e-08,-1.28125000e-03,8.04687500e-03
-9.45343750e-08,7.65625000e-03,1.46093750e-02
-9.37343750e-08,8.96875000e-03,1.32812500e-02
-9.29343750e-08,7.50000000e-03,1.46093750e-02
-9.21343750e-08,-4.68750000e-04,9.37500000e-03
-9.13343750e-08,1.13125000e-02,1.41406250e-02
-9.05343750e-08,5.21875000e-03,9.37500000e-04
-8.97343750e-08,3.59375000e-03,2.05468750e-02
-8.89343750e-08,1.93750000e-03,7.81250000e-03
-8.81343750e-08,7.40625000e-03,1.25000000e-02
-8.73343750e-08,5.00000000e-03,6.71875000e-03
-8.65343750e-08,7.96875000e-03,9.92187500e-03
-8.57343750e-08,0.00000000e+00,1.81250000e-02
-8.49343750e-08,5.65625000e-03,6.87500000e-03
-8.41343750e-08,5.21875000e-03,1.24218750e-02
-8.33343750e-08,1.10000000e-02,1.29687500e-02
-8.25343750e-08,5.03125000e-03,1.15625000e-02
-8.17343750e-08,6.25000000e-03,5.15625000e-03
-8.09343750e-08,7.06250000e-03,6.56250000e-03
-8.01343750e-08,3.59375000e-03,2.18750000e-02
-7.93343750e-08,6.59375000e-03,1.32812500e-02
-7.85343750e-08,5.37500000e-03,9.14062500e-03
-7.77343750e-08,6.15625000e-03,1.95312500e-02
-7.69343750e-08,8.40625000e-03,8.12500000e-03
-7.61343750e-08,6.81250000e-03,1.63281250e-02
-7.53343750e-08,3.96875000e-03,1.53125000e-02
-7.45343750e-08,-1.62500000e-03,1.72656250e-02
-7.37343750e-08,8.68750000e-03,9.92187500e-03
-7.29343750e-08,2.62500000e-03,1.46093750e-02
-7.21343750e-08,5.34375000e-03,4.45312500e-03
-7.13343750e-08,7.18750000e-03,5.54687500e-03
-7.05343750e-08,3.62500000e-03,1.18750000e-02
-6.97343750e-08,6.56250000e-04,7.18750000e-03
-6.89343750e-08,7.34375000e-03,1.17968750e-02
-6.81343750e-08,7.06250000e-03,3.59375000e-03
-6.73343750e-08,1.25000000e-02,1.17187500e-02
-6.65343750e-08,2.40625000e-03,1.19531250e-02
-6.57343750e-08,7.09375000e-03,7.34375000e-03
-6.49343750e-08,8.00000000e-03,9.06250000e-03
-6.41343750e-08,5.34375000e-03,1.59375000e-02
-6.33343750e-08,2.75000000e-03,1.28906250e-02
-6.25343750e-08,9.87500000e-03,6.48437500e-03
-6.17343750e-08,2.15625000e-03,1.96875000e-02
-6.09343750e-08,6.65625000e-03,-1.32031250e-02
-6.01343750e-08,3.00000000e-03,-4.14375000e-01
-5.93343750e-08,5.93750000e-03,-9.98125000e-01
-5.85343750e-08,9.59375000e-03,-1.24085938e+00
-5.77343750e-08,9.90625000e-03,-1.33585938e+00
-5.69343750e-08,2.62500000e-03,-1.38531250e+00
-5.61343750e-08,7.15625000e-03,-1.40062500e+00
-5.53343750e-08,9.50000000e-03,-1.40367188e+00
-5.45343750e-08,5.50000000e-03,-1.38757813e+00
-5.37343750e-08,3.43750000e-03,-1.39812500e+00
-5.29343750e-08,5.43750000e-03,-1.41031250e+00
-5.21343750e-08,7.40625000e-03,-1.40593750e+00
-5.13343750e-08,5.96875000e-03,-1.39898438e+00
-5.05343750e-08,8.96875000e-03,-1.41453125e+00
-4.97343750e-08,6.37500000e-03,-1.41250000e+00
-4.89343750e-08,3.84375000e-03,-1.41046875e+00
-4.81343750e-08,5.71875000e-03,-1.40632813e+00
-4.73343750e-08,4.87500000e-03,-1.40929688e+00
-4.65343750e-08,7.96875000e-03,-1.42765625e+00
-4.57343750e-08,3.40625000e-03,-1.41523438e+00
-4.49343750e-08,1.01250000e-02,-1.42046875e+00
-4.41343750e-08,1.96875000e-03,-1.42414063e+00
-4.33343750e-08,6.21875000e-03,-1.42171875e+00
-4.25343750e-08,3.65625000e-03,-1.42453125e+00
-4.17343750e-08,7.62500000e-03,-1.41281250e+00
-4.09343750e-08,8.75000000e-04,-1.42742188e+00
-4.01343750e-08,8.62500000e-03,-1.42312500e+00
-3.93343750e-08,4.84375000e-03,-1.41656250e+00
-3.85343750e-08,1.84375000e-03,-1.42093750e+00
-3.77343750e-08,-5.93750000e-04,-1.42718750e+00
-3.69343750e-08,7.68750000e-03,-1.42414063e+00
-3.61343750e-08,4.87500000e-03,-1.41742188e+00
-3.53343750e-08,5.84375000e-03,-1.42070313e+00
-3.45343750e-08,-5.87500000e-03,-1.43164062e+00
-3.37343750e-08,-4.18750000e-03,-1.42101563e+00
-3.29343750e-08,-2.11562500e-02,-1.41406250e+00
-3.21343750e-08,-4.61562500e-02,-1.42632813e+00
-3.13343750e-08,-1.03906250e-01,-1.41531250e+00
-3.05343750e-08,-1.71906250e-01,-1.42070313e+00
-2.97343750e-08,-2.57031250e-01,-1.41945312e+00
-2.89343750e-08,-3.57156250e-01,-1.41804688e+00
-2.81343750e-08,-4.39937500e-01,-1.42710938e+00
-2.73343750e-08,-5.10156250e-01,-1.42710938e+00
-2.65343750e-08,-5.67562500e-01,-1.41367188e+00
-2.57343750e-08,-6.17218750e-01,-1.41187500e+00
-2.49343750e-08,-6.56000000e-01,-1.41507812e+00
-2.41343750e-08,-6.77687500e-01,-1.42210938e+00
-2.33343750e-08,-6.89062500e-01,-1.41257813e+00
-2.25343750e-08,-7.06500000e-01,-1.41945312e+00
-2.17343750e-08,-7.11093750e-01,-1.42687500e+00
-2.09343750e-08,-7.07343750e-01,-1.42726562e+00
-2.01343750e-08,-7.04562500e-01,-1.41578125e+00
-1.93343750e-08,-6.98093750e-01,-1.41210938e+00
-1.85343750e-08,-6.87906250e-01,-1.42523438e+00
-1.77343750e-08,-6.60375000e-01,-1.42546875e+00
-1.69343750e-08,-6.39500000e-01,-1.42132813e+00
-1.61343750e-08,-6.10406250e-01,-1.41742188e+00
-1.53343750e-08,-5.86562500e-01,-1.41414063e+00
-1.45343750e-08,-5.56125000e-01,-1.42882813e+00
-1.37343750e-08,-5.26968750e-01,-1.43007813e+00
-1.29343750e-08,-5.00156250e-01,-1.41554687e+00
-1.21343750e-08,-4.77000000e-01,-1.42500000e+00
-1.13343750e-08,-4.45937500e-01,-1.42257813e+00
-1.05343750e-08,-4.20625000e-01,-1.42132813e+00
-9.73437500e-09,-3.96718750e-01,-1.41593750e+00
-8.93437500e-09,-3.70156250e-01,-1.42984375e+00
-8.13437500e-09,-3.39656250e-01,-1.43046875e+00
-7.33437500e-09,-3.17343750e-01,-1.41914063e+00
-6.53437500e-09,-2.93718750e-01,-1.42179688e+00
-5.73437500e-09,-2.79312500e-01,-1.41343750e+00
-4.93437500e-09,-2.58875000e-01,-1.42390625e+00
-4.13437500e-09,-2.42562500e-01,-1.40679688e+00
-3.33437500e-09,-2.30156250e-01,-1.37554688e+00
-2.53437500e-09,-2.12875000e-01,-1.32687500e+00
-1.73437500e-09,-1.99406250e-01,-1.11757813e+00
-9.34375000e-10,-1.84750000e-01,-6.84218750e-01
-1.34375000e-10,-1.69781250e-01,-3.22890625e-01
6.65625000e-10,-1.64531250e-01,-1.92812500e-01
1.46562500e-09,-1.51312500e-01,-1.12031250e-01
2.26562500e-09,-1.42312500e-01,-7.28125000e-02
3.06562500e-09,-1.28562500e-01,-5.53125000e-02
3.86562500e-09,-1.29093750e-01,-4.11718750e-02
4.66562500e-09,-1.19718750e-01,-5.00000000e-02
5.46562500e-09,-1.11750000e-01,-4.07812500e-02
6.26562500e-09,-1.02531250e-01,-2.92187500e-02
7.06562500e-09,-1.02343750e-01,-4.53125000e-02
7.86562500e-09,-8.49687500e-02,-3.08593750e-02
8.66562500e-09,-8.40000000e-02,-3.36718750e-02
9.46562500e-09,-7.70000000e-02,-1.78125000e-02
1.02656250e-08,-8.10000000e-02,-2.06250000e-02
1.10656250e-08,-7.19375000e-02,-1.85937500e-02
1.18656250e-08,-7.23125000e-02,-1.49218750e-02
1.26656250e-08,-6.25000000e-02,-1.10937500e-02
1.34656250e-08,-6.15000000e-02,-2.25000000e-02
1.42656250e-08,-5.98750000e-02,-1.79687500e-02
1.50656250e-08,-5.55000000e-02,-2.34375000e-03
1.58656250e-08,-4.77812500e-02,-5.23437500e-03
1.66656250e-08,-5.48125000e-02,-1.89062500e-02
1.74656250e-08,-4.31562500e-02,-1.82031250e-02
1.82656250e-08,-4.04062500e-02,-2.18750000e-03
1.90656250e-08,-3.82812500e-02,-8.90625000e-03
1.98656250e-08,-4.34687500e-02,-1.36718750e-02
2.06656250e-08,-3.64687500e-02,2.57812500e-03
2.14656250e-08,-3.05000000e-02,-2.18750000e-03
2.22656250e-08,-3.22500000e-02,-8.04687500e-03
2.30656250e-08,-3.33437500e-02,-3.12500000e-04
2.38656250e-08,-3.24687500e-02,7.73437500e-03
2.46656250e-08,-3.06250000e-02,-3.98437500e-03
2.54656250e-08,-2.68750000e-02,6.01562500e-03
2.62656250e-08,-2.77187500e-02,3.82812500e-03
2.70656250e-08,-2.53750000e-02,1.87500000e-03
2.78656250e-08,-2.97812500e-02,6.79687500e-03
2.86656250e-08,-2.34375000e-02,9.76562500e-03
2.94656250e-08,-2.71562500e-02,1.25781250e-02
3.02656250e-08,-2.46562500e-02,8.98437500e-03
3.10656250e-08,-2.31250000e-02,8.75000000e-03
3.18656250e-08,-2.46875000e-02,8.75000000e-03
3.26656250e-08,-3.10625000e-02,3.10156250e-02
3.34656250e-08,-1.92500000e-02,3.14843750e-02
3.42656250e-08,-2.30937500e-02,4.43750000e-02
3.50656250e-08,-1.70937500e-02,3.95312500e-02
3.58656250e-08,-1.95937500e-02,2.35937500e-02
3.66656250e-08,-1.72187500e-02,3.17187500e-02
3.74656250e-08,-2.11875000e-02,2.98437500e-02
3.82656250e-08,-1.31562500e-02,3.12500000e-02
3.90656250e-08,-1.75312500e-02,3.02343750e-02
3.98656250e-08,-1.08125000e-02,2.75000000e-02
4.06656250e-08,-1.09062500e-02,2.41406250e-02
4.14656250e-08,-1.46875000e-02,2.28125000e-02
4.22656250e-08,-1.59375000e-02,2.39843750e-02
4.30656250e-08,-8.90625000e-03,1.27343750e-02
4.38656250e-08,-9.25000000e-03,1.75781250e-02
4.46656250e-08,-2.34375000e-03,1.93750000e-02
4.54656250e-08,-1.12187500e-02,2.25781250e-02
4.62656250e-08,-5.15625000e-03,1.38281250e-02
4.70656250e-08,-9.75000000e-03,1.60937500e-02
4.78656250e-08,-5.96875000e-03,2.78125000e-02
4.86656250e-08,-3.96875000e-03,1.94531250e-02
4.94656250e-08,-1.02812500e-02,1.97656250e-02
5.02656250e-08,-5.43750000e-03,2.95312500e-02
5.10656250e-08,-7.81250000e-03,3.25000000e-02
5.18656250e-08,-5.06250000e-03,3.15625000e-02
5.26656250e-08,-1.56250000e-03,1.88281250e-02
5.34656250e-08,-6.25000000e-03,2.50781250e-02
5.42656250e-08,-1.31250000e-03,1.81250000e-02
5.50656250e-08,-1.13125000e-02,1.51562500e-02
5.58656250e-08,-4.40625000e-03,2.55468750e-02
5.66656250e-08,-6.62500000e-03,7.42187500e-03
