data/raw/TriggerAuto_ALL_20231205194531511.csv

Model,MSO64B
Channel,CH1,,Channel,CH2
Label,,,Label,
Waveform Type,ANALOG,,Waveform Type,ANALOG
Horizontal Units,s,,Horizontal Units,s
Sample Interval,8.00000000e-10,,Sample Interval,8.00000000e-10
Record Length,5000,,Record Length,5000
Zero Index,349.43359375,,Zero Index,349.43359375
Vertical Units,V,,Vertical Units,V
,,,,
ANALOG_Thumbnail,,,ANALOG_Thumbnail,
yOffset,0.000000,,yOffset,0.000000
yPosition,2.160000,,yPosition,2.180000

Labels,,
TIME,CH1,CH2
-2.79546875e-07,3.81250000e-03,2.14062500e-02
-2.78746875e-07,1.01562500e-02,2.10156250e-02
-2.77946875e-07,1.24062500e-02,1.92968750e-02
-2.77146875e-07,1.07187500e-02,1.42968750e-02
-2.76346875e-07,1.07187500e-02,1.28125000e-02
-2.75546875e-07,1.33437500e-02,6.01562500e-03
-2.74746875e-07,1.05937500e-02,3.03906250e-02
-2.73946875e-07,1.41875000e-02,1.19531250e-02
-2.73146875e-07,9.56250000e-03,1.57812500e-02
-2.72346875e-07,9.71875000e-03,1.29687500e-02
-2.71546875e-07,9.53125000e-03,2.03906250e-02
-2.70746875e-07,1.07812500e-02,7.65625000e-03
-2.69946875e-07,1.10625000e-02,2.13281250e-02
-2.69146875e-07,6.87500000e-03,2.33593750e-02
-2.68346875e-07,1.14687500e-02,1.28906250e-02
-2.67546875e-07,9.84375000e-03,1.96875000e-02
-2.66746875e-07,6.09375000e-03,1.94531250e-02
-2.65946875e-07,1.12812500e-02,1.41406250e-02
-2.65146875e-07,8.87500000e-03,1.23437500e-02
-2.64346875e-07,1.17500000e-02,1.29687500e-02
-2.63546875e-07,9.68750000e-03,1.04687500e-02
-2.62746875e-07,1.31875000e-02,1.72656250e-02
-2.61946875e-07,5.78125000e-03,2.49218750e-02
-2.61146875e-07,9.43750000e-03,2.07031250e-02
-2.60346875e-07,5.71875000e-03,9.53125000e-03
-2.59546875e-07,1.38437500e-02,1.98437500e-02
-2.58746875e-07,9.65625000e-03,2.00000000e-02
-2.57946875e-07,9.56250000e-03,7.65625000e-03
-2.57146875e-07,3.40625000e-03,1.97656250e-02
-2.56346875e-07,7.87500000e-03,1.54687500e-02
-2.55546875e-07,1.25000000e-02,2.03906250e-02
-2.54746875e-07,1.44687500e-02,1.87500000e-02
-2.53946875e-07,4.59375000e-03,1.61718750e-02
-2.53146875e-07,9.71875000e-03,1.56250000e-02
-2.52346875e-07,1.05625000e-02,1.56250000e-02
-2.51546875e-07,8.56250000e-03,2.29687500e-02
-2.50746875e-07,7.18750000e-03,2.25781250e-02
-2.49946875e-07,5.18750000e-03,8.82812500e-03
-2.49146875e-07,1.13750000e-02,1.57812500e-02
-2.48346875e-07,1.18125000e-02,1.75781250e-02
-2.47546875e-07,1.14062500e-02,2.02343750e-02
-2.46746875e-07,1.02812500e-02,1.48437500e-02
-2.45946875e-07,5.09375000e-03,2.48437500e-02
-2.45146875e-07,1.33125000e-02,1.13281250e-02
-2.44346875e-07,4.15625000e-03,2.04687500e-02
-2.43546875e-07,7.40625000e-03,1.65625000e-02
-2.42746875e-07,1.00000000e-02,1.10156250e-02
-2.41946875e-07,1.40937500e-02,1.89843750e-02
-2.41146875e-07,1.93750000e-03,1.61718750e-02
-2.40346875e-07,1.33437500e-02,1.82031250e-02
-2.39546875e-07,6.00000000e-03,1.61718750e-02
-2.38746875e-07,1.11562500e-02,1.68750000e-02
-2.37946875e-07,6.18750000e-03,1.42187500e-02
-2.37146875e-07,1.59375000e-02,1.42968750e-02
-2.36346875e-07,7.09375000e-03,1.64062500e-02
-2.35546875e-07,7.59375000e-03,2.29687500e-02
-2.34746875e-07,3.81250000e-03,2.47656250e-02
-2.33946875e-07,1.18437500e-02,2.59375000e-02
-2.33146875e-07,9.31250000e-03,1.85937500e-02
-2.32346875e-07,1.47812500e-02,2.07812500e-02
-2.31546875e-07,4.12500000e-03,2.39062500e-02
-2.30746875e-07,7.75000000e-03,1.58593750e-02
-2.29946875e-07,1.28437500e-02,1.41406250e-02
-2.29146875e-07,1.24375000e-02,1.82031250e-02
-2.28346875e-07,5.71875000e-03,1.87500000e-02
-2.27546875e-07,1.21250000e-02,1.88281250e-02
-2.26746875e-07,1.16875000e-02,2.20312500e-02
-2.25946875e-07,6.78125000e-03,1.47656250e-02
-2.25146875e-07,1.24062500e-02,2.03125000e-02
-2.24346875e-07,9.43750000e-03,2.53906250e-02
-2.23546875e-07,1.17187500e-02,2.96875000e-02
-2.22746875e-07,1.12187500e-02,5.78125000e-03
-2.21946875e-07,1.03437500e-02,1.45312500e-02
-2.21146875e-07,1.49375000e-02,1.60937500e-02
-2.20346875e-07,4.59375000e-03,1.76562500e-02
-2.19546875e-07,9.34375000e-03,1.35156250e-02
-2.18746875e-07,1.12500000e-02,2.42968750e-02
-2.17946875e-07,1.02812500e-02,2.04687500e-02
-2.17146875e-07,1.14375000e-02,1.35937500e-02
-2.16346875e-07,1.13125000e-02,1.67968750e-02
-2.15546875e-07,4.81250000e-03,1.36718750e-02
-2.14746875e-07,1.55312500e-02,2.55468750e-02
-2.13946875e-07,8.68750000e-03,2.19531250e-02
-2.13146875e-07,1.32812500e-02,1.66406250e-02
-2.12346875e-07,5.81250000e-03,1.35937500e-02
-2.11546875e-07,1.45625000e-02,2.47656250e-02
-2.10746875e-07,9.68750000e-03,1.53125000e-02
-2.09946875e-07,1.27187500e-02,1.48437500e-02
-2.09146875e-07,5.53125000e-03,8.98437500e-03
-2.08346875e-07,1.29062500e-02,2.30468750e-02
-2.07546875e-07,5.18750000e-03,1.80468750e-02
-2.06746875e-07,1.38750000e-02,2.01562500e-02
-2.05946875e-07,5.50000000e-03,1.47656250e-02
-2.05146875e-07,1.05937500e-02,2.42187500e-02
-2.04346875e-07,1.16250000e-02,1.39843750e-02
-2.03546875e-07,1.27500000e-02,2.70312500e-02
-2.02746875e-07,5.62500000e-03,2.16406250e-02
-2.01946875e-07,1.07812500e-02,1.47656250e-02
-2.01146875e-07,1.04375000e-02,1.21093750e-02
-2.00346875e-07,8.06250000e-03,1.38281250e-02
-1.99546875e-07,7.75000000e-03,2.81250000e-02
-1.98746875e-07,9.53125000e-03,1.79687500e-02
-1.97946875e-07,1.26250000e-02,2.66406250e-02
-1.97146875e-07,1.16562500e-02,1.12500000e-02
-1.96346875e-07,1.42500000e-02,2.17187500e-02
-1.95546875e-07,1.31250000e-02,2.52343750e-02
-1.94746875e-07,4.31250000e-03,2.50781250e-02
-1.93946875e-07,1.38750000e-02,8.59375000e-03
-1.93146875e-07,1.29375000e-02,1.96875000e-02
-1.92346875e-07,1.33750000e-02,1.92968750e-02
-1.91546875e-07,8.71875000e-03,1.68750000e-02
-1.90746875e-07,1.21250000e-02,2.07031250e-02
-1.89946875e-07,5.56250000e-03,2.07031250e-02
-1.89146875e-07,1.35312500e-02,1.67187500e-02
-1.88346875e-07,9.40625000e-03,2.41406250e-02
-1.87546875e-07,1.15000000e-02,1.78125000e-02
-1.86746875e-07,9.34375000e-03,1.42187500e-02
-1.85946875e-07,1.32187500e-02,2.00781250e-02
-1.85146875e-07,6.31250000e-03,1.67968750e-02
-1.84346875e-07,1.32187500e-02,2.27343750e-02
-1.83546875e-07,7.56250000e-03,1.33593750e-02
-1.82746875e-07,1.37500000e-02,2.28906250e-02
-1.81946875e-07,7.43750000e-03,1.72656250e-02
-1.81146875e-07,1.13750000e-02,1.67968750e-02
-1.80346875e-07,6.37500000e-03,7.50000000e-03
-1.79546875e-07,7.46875000e-03,1.71875000e-02
-1.78746875e-07,8.59375000e-03,2.01562500e-02
-1.77946875e-07,1.17812500e-02,3.01562500e-02
-1.77146875e-07,4.28125000e-03,2.03125000e-02
-1.76346875e-07,7.71875000e-03,1.75000000e-02
-1.75546875e-07,1.25000000e-02,2.32031250e-02
-1.74746875e-07,7.93750000e-03,1.20312500e-02
-1.73946875e-07,8.71875000e-03,1.94531250e-02
-1.73146875e-07,9.59375000e-03,6.17187500e-03
-1.72346875e-07,8.93750000e-03,2.77343750e-02
-1.71546875e-07,9.87500000e-03,1.38281250e-02
-1.70746875e-07,1.05312500e-02,2.17187500e-02
-1.69946875e-07,1.07500000e-02,2.05468750e-02
-1.69146875e-07,7.09375000e-03,1.87500000e-02
-1.68346875e-07,1.31250000e-02,1.54687500e-02
-1.67546875e-07,9.25000000e-03,2.22656250e-02
-1.66746875e-07,9.50000000e-03,2.78906250e-02
-1.65946875e-07,8.46875000e-03,2.31250000e-02
-1.65146875e-07,1.20312500e-02,1.52343750e-02
-1.64346875e-07,2.50000000e-03,2.15625000e-02
-1.63546875e-07,1.55937500e-02,2.50781250e-02
-1.62746875e-07,1.00625000e-02,1.19531250e-02
-1.61946875e-07,9.06250000e-03,1.75000000e-02
-1.61146875e-07,6.25000000e-03,1.33593750e-02
-1.60346875e-07,1.36875000e-02,1.22656250e-02
-1.59546875e-07,6.18750000e-03,1.82812500e-02
-1.58746875e-07,9.28125000e-03,1.48437500e-02
-1.57946875e-07,7.18750000e-03,1.76562500e-02
-1.57146875e-07,9.93750000e-03,2.28125000e-02
-1.56346875e-07,4.75000000e-03,2.72656250e-02
-1.55546875e-07,7.40625000e-03,1.58593750e-02
-1.54746875e-07,5.15625000e-03,2.28125000e-02
-1.53946875e-07,7.46875000e-03,1.64843750e-02
-1.53146875e-07,9.46875000e-03,1.28906250e-02
-1.52346875e-07,1.64687500e-02,1.87500000e-02
-1.51546875e-07,3.75000000e-03,1.53906250e-02
-1.50746875e-07,1.20000000e-02,1.28906250e-02
-1.49946875e-07,1.26250000e-02,1.43750000e-02
-1.49146875e-07,1.14375000e-02,2.28125000e-02
-1.48346875e-07,8.50000000e-03,1.41406250e-02
-1.47546875e-07,1.18437500e-02,1.90625000e-02
-1.46746875e-07,1.14375000e-02,3.07031250e-02
-1.45946875e-07,1.27500000e-02,2.10156250e-02
-1.45146875e-07,1.03125000e-02,1.74218750e-02
-1.44346875e-07,1.16250000e-02,2.13281250e-02
-1.43546875e-07,7.09375000e-03,2.06250000e-02
-1.42746875e-07,8.06250000e-03,1.26562500e-02
-1.41946875e-07,8.43750000e-03,1.88281250e-02
-1.41146875e-07,9.75000000e-03,1.18750000e-02
-1.40346875e-07,7.21875000e-03,2.09375000e-02
-1.39546875e-07,1.46250000e-02,2.29687500e-02
-1.38746875e-07,5.81250000e-03,3.43750000e-03
-1.37946875e-07,1.48750000e-02,2.17187500e-02
-1.37146875e-07,8.25000000e-03,1.46093750e-02
-1.36346875e-07,9.59375000e-03,1.09375000e-02
-1.35546875e-07,4.37500000e-03,9.14062500e-03
-1.34746875e-07,1.54687500e-02,2.25000000e-02
-1.33946875e-07,8.50000000e-03,2.48437500e-02
-1.33146875e-07,1.13437500e-02,2.07812500e-02
-1.32346875e-07,7.68750000e-03,1.36718750e-02
-1.31546875e-07,1.45000000e-02,2.44531250e-02
-1.30746875e-07,4.78125000e-03,2.47656250e-02
-1.29946875e-07,1.38125000e-02,1.49218750e-02
-1.29146875e-07,8.03125000e-03,2.32031250e-02
-1.28346875e-07,9.03125000e-03,2.94531250e-02
-1.27546875e-07,1.59375000e-02,9.06250000e-03
-1.26746875e-07,1.08125000e-02,3.47656250e-02
-1.25946875e-07,3.15625000e-03,2.64843750e-02
-1.25146875e-07,1.13750000e-02,1.59375000e-02
-1.24346875e-07,1.15000000e-02,2.25781250e-02
-1.23546875e-07,8.62500000e-03,1.85156250e-02
-1.22746875e-07,1.06562500e-02,2.07031250e-02
-1.21946875e-07,6.50000000e-03,1.28125000e-02
-1.21146875e-07,6.71875000e-03,2.62500000e-02
-1.20346875e-07,1.20625000e-02,1.79687500e-02
-1.19546875e-07,1.07187500e-02,1.64062500e-02
-1.18746875e-07,1.04375000e-02,1.83593750e-02
-1.17946875e-07,5.56250000e-03,1.90625000e-02
-1.17146875e-07,1.67500000e-02,8.59375000e-03
-1.16346875e-07,1.17187500e-02,2.22656250e-02
-1.15546875e-07,1.07187500e-02,2.43750000e-02
-1.14746875e-07,5.37500000e-03,2.26562500e-02
-1.13946875e-07,1.11875000e-02,1.85156250e-02
-1.13146875e-07,3.59375000e-03,1.75781250e-02
-1.12346875e-07,1.88437500e-02,2.14062500e-02
-1.11546875e-07,1.17187500e-02,2.16406250e-02
-1.10746875e-07,1.09062500e-02,2.34375000e-02
-1.09946875e-07,5.21875000e-03,1.84375000e-02
-1.09146875e-07,1.41562500e-02,3.16406250e-02
-1.08346875e-07,9.21875000e-03,2.55468750e-02
-1.07546875e-07,8.87500000e-03,3.21875000e-02
-1.06746875e-07,5.03125000e-03,8.28125000e-03
-1.05946875e-07,1.25937500e-02,2.89843750e-02
-1.05146875e-07,6.75000000e-03,2.16406250e-02
-1.04346875e-07,1.34687500e-02,1.75781250e-02
-1.03546875e-07,5.68750000e-03,2.15625000e-02
-1.02746875e-07,7.37500000e-03,2.35937500e-02
-1.01946875e-07,1.37500000e-02,2.29687500e-02
-1.01146875e-07,1.40312500e-02,1.97656250e-02
-1.00346875e-07,7.31250000e-03,1.66406250e-02
-9.95468750e-08,7.65625000e-03,2.21875000e-02
-9.87468750e-08,1.39375000e-02,2.66406250e-02
-9.79468750e-08,1.13750000e-02,2.00000000e-02
-9.71468750e-08,1.21250000e-02,1.57031250e-02
-9.63468750e-08,8.25000000e-03,2.65625000e-02
-9.55468750e-08,1.06250000e-02,2.95312500e-02
-9.47468750e-08,9.18750000e-03,2.17187500e-02
-9.39468750e-08,1.13125000e-02,2.78125000e-02
-9.31468750e-08,9.06250000e-03,2.70312500e-02
-9.23468750e-08,5.12500000e-03,3.30468750e-02
-9.15468750e-08,1.36250000e-02,1.30468750e-02
-9.07468750e-08,1.04062500e-02,2.64843750e-02
-8.99468750e-08,1.18750000e-02,2.97656250e-02
-8.91468750e-08,1.02187500e-02,1.93750000e-02
-8.83468750e-08,1.17500000e-02,2.27343750e-02
-8.75468750e-08,8.90625000e-03,1.49218750e-02
-8.67468750e-08,1.30312500e-02,2.76562500e-02
-8.59468750e-08,8.18750000e-03,1.87500000e-02
-8.51468750e-08,1.27812500e-02,3.03125000e-02
-8.43468750e-08,8.34375000e-03,2.06250000e-02
-8.35468750e-08,1.32812500e-02,2.36718750e-02
-8.27468750e-08,1.00625000e-02,2.35156250e-02
-8.19468750e-08,1.14062500e-02,2.23437500e-02
-8.11468750e-08,6.50000000e-03,2.49218750e-02
-8.03468750e-08,1.63750000e-02,2.16406250e-02
-7.95468750e-08,6.34375000e-03,3.09375000e-02
-7.87468750e-08,1.60625000e-02,2.59375000e-02
-7.79468750e-08,5.50000000e-03,2.14843750e-02
-7.71468750e-08,7.59375000e-03,2.28125000e-02
-7.63468750e-08,1.40312500e-02,2.01562500e-02
-7.55468750e-08,1.77187500e-02,2.35156250e-02
-7.47468750e-08,7.43750000e-03,1.67187500e-02
-7.39468750e-08,1.15312500e-02,2.09375000e-02
-7.31468750e-08,1.55000000e-02,2.39843750e-02
-7.23468750e-08,1.01250000e-02,1.80468750e-02
-7.15468750e-08,1.24687500e-02,2.80468750e-02
-7.07468750e-08,1.08750000e-02,2.50000000e-02
-6.99468750e-08,1.40000000e-02,2.96875000e-02
-6.91468750e-08,6.84375000e-03,1.54687500e-02
-6.83468750e-08,1.00000000e-02,2.77343750e-02
-6.75468750e-08,8.96875000e-03,1.84375000e-02
-6.67468750e-08,8.87500000e-03,1.95312500e-02
-6.59468750e-08,1.28125000e-02,1.71093750e-02
-6.51468750e-08,1.27500000e-02,2.19531250e-02
-6.43468750e-08,1.00000000e-02,2.44531250e-02
-6.35468750e-08,1.13750000e-02,1.11718750e-02
-6.27468750e-08,1.85625000e-02,1.70312500e-02
-6.19468750e-08,6.21875000e-03,2.11718750e-02
-6.11468750e-08,1.17187500e-02,3.07031250e-02
-6.03468750e-08,1.41562500e-02,-1.63046875e-01
-5.95468750e-08,8.93750000e-03,-6.94453125e-01
-5.87468750e-08,4.68750000e-03,-1.18078125e+00
-5.79468750e-08,1.33750000e-02,-1.32187500e+00
-5.71468750e-08,7.43750000e-03,-1.38757813e+00
-5.63468750e-08,8.78125000e-03,-1.39578125e+00
-5.55468750e-08,8.03125000e-03,-1.41101563e+00
-5.47468750e-08,1.85937500e-02,-1.39164062e+00
-5.39468750e-08,1.01562500e-02,-1.41000000e+00
-5.31468750e-08,1.30937500e-02,-1.40593750e+00
-5.23468750e-08,7.90625000e-03,-1.40523438e+00
-5.15468750e-08,7.56250000e-03,-1.38250000e+00
-5.07468750e-08,1.69375000e-02,-1.36859375e+00
-4.99468750e-08,1.75312500e-02,-1.38796875e+00
-4.91468750e-08,4.62500000e-03,-1.41390625e+00
-4.83468750e-08,9.71875000e-03,-1.41492188e+00
-4.75468750e-08,1.29687500e-02,-1.40515625e+00
-4.67468750e-08,1.01562500e-02,-1.41726563e+00
-4.59468750e-08,9.96875000e-03,-1.42617188e+00
-4.51468750e-08,7.37500000e-03,-1.42187500e+00
-4.43468750e-08,1.15312500e-02,-1.41867188e+00
-4.35468750e-08,1.36250000e-02,-1.41289063e+00
-4.27468750e-08,1.45625000e-02,-1.42726562e+00
-4.19468750e-08,9.56250000e-03,-1.42757813e+00
-4.11468750e-08,3.18750000e-03,-1.42273438e+00
-4.03468750e-08,1.31250000e-02,-1.42421875e+00
-3.95468750e-08,7.93750000e-03,-1.41664063e+00
-3.87468750e-08,4.56250000e-03,-1.42773438e+00
-3.79468750e-08,5.43750000e-03,-1.41515625e+00
-3.71468750e-08,5.75000000e-03,-1.41078125e+00
-3.63468750e-08,3.28125000e-03,-1.41859375e+00
-3.55468750e-08,9.31250000e-03,-1.41820313e+00
-3.47468750e-08,6.00000000e-03,-1.41484375e+00
-3.39468750e-08,3.37500000e-03,-1.42140625e+00
-3.31468750e-08,-1.03125000e-02,-1.42945313e+00
-3.23468750e-08,-2.53750000e-02,-1.42507813e+00
-3.15468750e-08,-7.28750000e-02,-1.42156250e+00
-3.07468750e-08,-1.43531250e-01,-1.41742188e+00
-2.99468750e-08,-2.46625000e-01,-1.43179688e+00
-2.91468750e-08,-3.64687500e-01,-1.41976563e+00
-2.83468750e-08,-4.97968750e-01,-1.42523438e+00
-2.75468750e-08,-6.25281250e-01,-1.42195313e+00
-2.67468750e-08,-7.55437500e-01,-1.42132813e+00
-2.59468750e-08,-8.56187500e-01,-1.42093750e+00
-2.51468750e-08,-9.48593750e-01,-1.41078125e+00
-2.43468750e-08,-1.02887500e+00,-1.39906250e+00
-2.35468750e-08,-1.08740625e+00,-1.41070313e+00
-2.27468750e-08,-1.12468750e+00,-1.41476563e+00
-2.19468750e-08,-1.14756250e+00,-1.41484375e+00
-2.11468750e-08,-1.17750000e+00,-1.42773438e+00
-2.03468750e-08,-1.17281250e+00,-1.42132813e+00
-1.95468750e-08,-1.16500000e+00,-1.42195313e+00
-1.87468750e-08,-1.14750000e+00,-1.40656250e+00
-1.79468750e-08,-1.11518750e+00,-1.41757813e+00
-1.71468750e-08,-1.07465625e+00,-1.41773438e+00
-1.63468750e-08,-1.03434375e+00,-1.42437500e+00
-1.55468750e-08,-9.92593750e-01,-1.41859375e+00
-1.47468750e-08,-9.51062500e-01,-1.41554687e+00
-1.39468750e-08,-9.01718750e-01,-1.42406250e+00
-1.31468750e-08,-8.53437500e-01,-1.41976563e+00
-1.23468750e-08,-8.02781250e-01,-1.42039063e+00
-1.15468750e-08,-7.59687500e-01,-1.41898437e+00
-1.07468750e-08,-7.13468750e-01,-1.42351563e+00
-9.94687500e-09,-6.70875000e-01,-1.41937500e+00
-9.14687500e-09,-6.25375000e-01,-1.42593750e+00
-8.34687500e-09,-5.87625000e-01,-1.42687500e+00
-7.54687500e-09,-5.44812500e-01,-1.42203125e+00
-6.74687500e-09,-5.05937500e-01,-1.42664063e+00
-5.94687500e-09,-4.81593750e-01,-1.42867188e+00
-5.14687500e-09,-4.51281250e-01,-1.42171875e+00
-4.34687500e-09,-4.27562500e-01,-1.42179688e+00
-3.54687500e-09,-4.00625000e-01,-1.39671875e+00
-2.74687500e-09,-3.74281250e-01,-1.34648438e+00
-1.94687500e-09,-3.56750000e-01,-1.19828125e+00
-1.14687500e-09,-3.36562500e-01,-8.23671875e-01
-3.46875000e-10,-3.08375000e-01,-3.95000000e-01
4.53125000e-10,-2.91718750e-01,-2.09531250e-01
1.25312500e-09,-2.73468750e-01,-1.11796875e-01
2.05312500e-09,-2.66968750e-01,-7.41406250e-02
2.85312500e-09,-2.38468750e-01,-5.53125000e-02
3.65312500e-09,-2.28593750e-01,-4.40625000e-02
4.45312500e-09,-2.22781250e-01,-3.89843750e-02
5.25312500e-09,-2.10687500e-01,-2.88281250e-02
6.05312500e-09,-1.95875000e-01,-2.57031250e-02
6.85312500e-09,-1.94187500e-01,-1.94531250e-02
7.65312500e-09,-1.79281250e-01,-2.80468750e-02
8.45312500e-09,-1.74031250e-01,-1.84375000e-02
9.25312500e-09,-1.65875000e-01,-1.69531250e-02
1.00531250e-08,-1.61531250e-01,-4.06250000e-03
1.08531250e-08,-1.46187500e-01,-1.52343750e-02
1.16531250e-08,-1.41375000e-01,-1.21875000e-02
1.24531250e-08,-1.33406250e-01,-3.28125000e-03
1.32531250e-08,-1.22843750e-01,-8.12500000e-03
1.40531250e-08,-1.14531250e-01,-9.37500000e-03
1.48531250e-08,-1.12750000e-01,-1.51562500e-02
1.56531250e-08,-9.84687500e-02,-6.09375000e-03
1.64531250e-08,-1.01062500e-01,7.73437500e-03
1.72531250e-08,-9.34062500e-02,1.00781250e-02
1.80531250e-08,-9.23437500e-02,-1.56250000e-03
1.88531250e-08,-8.42187500e-02,8.20312500e-03
1.96531250e-08,-8.41250000e-02,1.21093750e-02
2.04531250e-08,-7.69062500e-02,1.56250000e-02
2.12531250e-08,-7.42500000e-02,-7.81250000e-04
2.20531250e-08,-6.83125000e-02,1.08593750e-02
2.28531250e-08,-6.61562500e-02,2.32031250e-02
2.36531250e-08,-6.28125000e-02,4.92187500e-03
2.44531250e-08,-6.39062500e-02,1.10156250e-02
2.52531250e-08,-5.80000000e-02,1.84375000e-02
2.60531250e-08,-5.09375000e-02,1.65625000e-02
2.68531250e-08,-4.83437500e-02,5.85937500e-03
2.76531250e-08,-5.02187500e-02,1.96093750e-02
2.84531250e-08,-4.23437500e-02,1.43750000e-02
2.92531250e-08,-4.15312500e-02,1.89843750e-02
3.00531250e-08,-4.07500000e-02,1.97656250e-02
3.08531250e-08,-3.58125000e-02,1.89843750e-02
3.16531250e-08,-3.55312500e-02,2.94531250e-02
3.24531250e-08,-3.53125000e-02,4.53125000e-02
3.32531250e-08,-3.02500000e-02,3.78906250e-02
3.40531250e-08,-2.66875000e-02,3.98437500e-02
3.48531250e-08,-2.78437500e-02,3.54687500e-02
3.56531250e-08,-2.54687500e-02,3.94531250e-02
3.64531250e-08,-2.25000000e-02,4.10156250e-02
3.72531250e-08,-2.64375000e-02,5.40625000e-02
3.80531250e-08,-2.10625000e-02,3.86718750e-02
3.88531250e-08,-2.15000000e-02,3.59375000e-02
3.96531250e-08,-1.59375000e-02,4.14843750e-02
4.04531250e-08,-2.58437500e-02,3.48437500e-02
4.12531250e-08,-2.06562500e-02,3.67968750e-02
4.20531250e-08,-1.80312500e-02,3.72656250e-02
4.28531250e-08,-1.84375000e-02,2.91406250e-02
4.36531250e-08,-2.68750000e-02,2.89843750e-02
4.44531250e-08,-1.73437500e-02,3.79687500e-02
4.52531250e-08,-2.65312500e-02,4.10937500e-02
4.60531250e-08,-2.07500000e-02,4.52343750e-02
4.68531250e-08,-2.46250000e-02,2.59375000e-02
4.76531250e-08,-1.66250000e-02,3.03125000e-02
4.84531250e-08,-2.45312500e-02,2.75000000e-02
4.92531250e-08,-2.18750000e-02,3.15625000e-02
5.00531250e-08,-2.34375000e-02,2.74218750e-02
5.08531250e-08,-2.01562500e-02,3.41406250e-02
5.16531250e-08,-1.56250000e-02,3.58593750e-02
5.24531250e-08,-1.27187500e-02,3.76562500e-02
5.32531250e-08,-1.94375000e-02,2.89062500e-02
5.40531250e-08,-1.83125000e-02,2.37500000e-02
5.48531250e-08,-1.12187500e-02,2.52343750e-02
5.56531250e-08,-1.78750000e-02,2.71093750e-02
5.64531250e-08,-9.84375000e-03,1.98437500e-02
