data/raw/TriggerAuto_ALL_20231205194124468.csv

Model,MSO64B
Channel,CH1,,Channel,CH2
Label,,,Label,
Waveform Type,ANALOG,,Waveform Type,ANALOG
Horizontal Units,s,,Horizontal Units,s
Sample Interval,8.00000000e-10,,Sample Interval,8.00000000e-10
Record Length,5000,,Record Length,5000
Zero Index,349.93750000,,Zero Index,349.93750000
Vertical Units,V,,Vertical Units,V
,,,,
ANALOG_Thumbnail,,,ANALOG_Thumbnail,
yOffset,0.000000,,yOffset,0.000000
yPosition,2.160000,,yPosition,2.180000

Labels,,
TIME,CH1,CH2
-2.79950000e-07,1.31875000e-02,1.58593750e-02
-2.79150000e-07,6.59375000e-03,9.76562500e-03
-2.78350000e-07,8.78125000e-03,1.06250000e-02
-2.77550000e-07,4.12500000e-03,1.12500000e-02
-2.76750000e-07,9.71875000e-03,1.59375000e-02
-2.75950000e-07,7.65625000e-03,1.24218750e-02
-2.75150000e-07,1.51250000e-02,1.52343750e-02
-2.74350000e-07,1.43750000e-03,1.17968750e-02
-2.73550000e-07,5.87500000e-03,1.72656250e-02
-2.72750000e-07,1.09375000e-02,1.16406250e-02
-2.71950000e-07,7.31250000e-03,1.32812500e-02
-2.71150000e-07,4.84375000e-03,1.77343750e-02
-2.70350000e-07,4.37500000e-03,7.81250000e-03
-2.69550000e-07,8.31250000e-03,2.13281250e-02
-2.68750000e-07,7.75000000e-03,1.88281250e-02
-2.67950000e-07,1.31250000e-02,1.57812500e-02
-2.67150000e-07,1.01562500e-02,2.69531250e-02
-2.66350000e-07,5.15625000e-03,1.99218750e-02
-2.65550000e-07,3.56250000e-03,1.15625000e-02
-2.64750000e-07,6.43750000e-03,1.89843750e-02
-2.63950000e-07,1.01875000e-02,1.07812500e-02
-2.63150000e-07,8.34375000e-03,8.67187500e-03
-2.62350000e-07,1.16250000e-02,2.17187500e-02
-2.61550000e-07,3.59375000e-03,1.35156250e-02
-2.60750000e-07,8.75000000e-03,1.64062500e-02
-2.59950000e-07,5.28125000e-03,7.65625000e-03
-2.59150000e-07,8.93750000e-03,1.85937500e-02
-2.58350000e-07,4.87500000e-03,1.29687500e-02
-2.57550000e-07,1.47500000e-02,1.98437500e-02
-2.56750000e-07,1.08125000e-02,1.75000000e-02
-2.55950000e-07,7.31250000e-03,1.76562500e-02
-2.55150000e-07,3.28125000e-03,1.15625000e-02
-2.54350000e-07,1.07812500e-02,1.98437500e-02
-2.53550000e-07,2.81250000e-03,1.53125000e-02
-2.52750000e-07,1.34375000e-02,9.76562500e-03
-2.51950000e-07,2.90625000e-03,1.30468750e-02
-2.51150000e-07,6.46875000e-03,9.84375000e-03
-2.50350000e-07,1.03125000e-02,1.84375000e-02
-2.49550000e-07,1.12187500e-02,1.29687500e-02
-2.48750000e-07,4.81250000e-03,1.17968750e-02
-2.47950000e-07,9.18750000e-03,1.65625000e-02
-2.47150000e-07,1.12812500e-02,2.35937500e-02
-2.46350000e-07,8.12500000e-03,1.67968750e-02
-2.45550000e-07,2.87500000e-03,1.42968750e-02
-2.44750000e-07,9.96875000e-03,1.63281250e-02
-2.43950000e-07,9.37500000e-03,2.01562500e-02
-2.43150000e-07,7.25000000e-03,1.21875000e-02
-2.42350000e-07,8.37500000e-03,1.69531250e-02
-2.41550000e-07,1.27187500e-02,1.15625000e-02
-2.40750000e-07,6.00000000e-03,1.31250000e-02
-2.39950000e-07,1.40625000e-02,9.06250000e-03
-2.39150000e-07,7.53125000e-03,1.52343750e-02
-2.38350000e-07,9.53125000e-03,1.49218750e-02
-2.37550000e-07,1.05312500e-02,9.14062500e-03
-2.36750000e-07,1.10000000e-02,1.58593750e-02
-2.35950000e-07,4.68750000e-03,1.50000000e-02
-2.35150000e-07,1.26875000e-02,1.17968750e-02
-2.34350000e-07,6.56250000e-03,1.51562500e-02
-2.33550000e-07,8.09375000e-03,1.63281250e-02
-2.32750000e-07,5.09375000e-03,1.89843750e-02
-2.31950000e-07,1.67812500e-02,1.42187500e-02
-2.31150000e-07,7.40625000e-03,1.29687500e-02
-2.30350000e-07,9.21875000e-03,1.03125000e-02
-2.29550000e-07,4.00000000e-03,6.48437500e-03
-2.28750000e-07,1.05000000e-02,1.32812500e-02
-2.27950000e-07,8.28125000e-03,1.43750000e-02
-2.27150000e-07,1.35000000e-02,8.51562500e-03
-2.26350000e-07,5.28125000e-03,2.45312500e-02
-2.25550000e-07,5.96875000e-03,9.37500000e-03
-2.24750000e-07,8.78125000e-03,6.71875000e-03
-2.23950000e-07,1.36250000e-02,1.58593750e-02
-2.23150000e-07,2.96875000e-03,1.43750000e-02
-2.22350000e-07,9.09375000e-03,1.37500000e-02
-2.21550000e-07,9.18750000e-03,1.11718750e-02
-2.20750000e-07,9.62500000e-03,2.24218750e-02
-2.19950000e-07,9.75000000e-03,9.53125000e-03
-2.19150000e-07,7.09375000e-03,1.46875000e-02
-2.18350000e-07,1.19375000e-02,1.82031250e-02
-2.17550000e-07,1.05937500e-02,1.10937500e-02
-2.16750000e-07,1.13125000e-02,2.96875000e-02
-2.15950000e-07,8.78125000e-03,7.89062500e-03
-2.15150000e-07,4.71875000e-03,2.26562500e-02
-2.14350000e-07,8.09375000e-03,1.46875000e-02
-2.13550000e-07,5.21875000e-03,2.37500000e-02
-2.12750000e-07,7.87500000e-03,1.91406250e-02
-2.11950000e-07,6.93750000e-03,1.02343750e-02
-2.11150000e-07,9.59375000e-03,1.16406250e-02
-2.10350000e-07,5.34375000e-03,9.76562500e-03
-2.09550000e-07,1.15937500e-02,1.17187500e-02
-2.08750000e-07,7.87500000e-03,1.45312500e-02
-2.07950000e-07,1.14062500e-02,1.16406250e-02
-2.07150000e-07,2.28125000e-03,1.07812500e-02
-2.06350000e-07,1.42187500e-02,2.76562500e-02
-2.05550000e-07,5.34375000e-03,1.60156250e-02
-2.04750000e-07,9.65625000e-03,1.49218750e-02
-2.03950000e-07,5.06250000e-03,9.06250000e-03
-2.03150000e-07,1.24375000e-02,1.97656250e-02
-2.02350000e-07,8.90625000e-03,1.75000000e-02
-2.01550000e-07,1.11250000e-02,1.49218750e-02
-2.00750000e-07,6.46875000e-03,1.36718750e-02
-1.99950000e-07,7.31250000e-03,1.35937500e-02
-1.99150000e-07,1.27187500e-02,1.10937500e-02
-1.98350000e-07,1.14687500e-02,1.17968750e-02
-1.97550000e-07,9.68750000e-04,1.25000000e-02
-1.96750000e-07,7.53125000e-03,1.77343750e-02
-1.95950000e-07,1.26875000e-02,1.16406250e-02
-1.95150000e-07,1.16250000e-02,1.64062500e-02
-1.94350000e-07,5.06250000e-03,1.03125000e-02
-1.93550000e-07,1.15312500e-02,1.05468750e-02
-1.92750000e-07,1.03125000e-02,1.52343750e-02
-1.91950000e-07,1.05312500e-02,1.96093750e-02
-1.91150000e-07,1.20625000e-02,1.48437500e-02
-1.90350000e-07,1.19687500e-02,8.98437500e-03
-1.89550000e-07,2.31250000e-03,7.26562500e-03
-1.88750000e-07,1.00312500e-02,1.19531250e-02
-1.87950000e-07,8.62500000e-03,1.91406250e-02
-1.87150000e-07,5.71875000e-03,1.35156250e-02
-1.86350000e-07,7.43750000e-03,1.11718750e-02
-1.85550000e-07,7.68750000e-03,1.50000000e-02
-1.84750000e-07,2.87500000e-03,3.90625000e-03
-1.83950000e-07,8.12500000e-03,2.07031250e-02
-1.83150000e-07,1.08437500e-02,1.35156250e-02
-1.82350000e-07,7.00000000e-03,1.64843750e-02
-1.81550000e-07,2.84375000e-03,1.23437500e-02
-1.80750000e-07,1.24687500e-02,1.91406250e-02
-1.79950000e-07,5.87500000e-03,1.82031250e-02
-1.79150000e-07,8.65625000e-03,1.10156250e-02
-1.78350000e-07,3.12500000e-03,1.64843750e-02
-1.77550000e-07,1.05937500e-02,2.48437500e-02
-1.76750000e-07,8.75000000e-04,9.37500000e-03
-1.75950000e-07,1.36562500e-02,1.12500000e-02
-1.75150000e-07,4.75000000e-03,2.09375000e-02
-1.74350000e-07,1.02500000e-02,1.21093750e-02
-1.73550000e-07,1.08437500e-02,7.18750000e-03
-1.72750000e-07,1.24062500e-02,1.51562500e-02
-1.71950000e-07,4.25000000e-03,1.50781250e-02
-1.71150000e-07,9.68750000e-03,1.50781250e-02
-1.70350000e-07,8.90625000e-03,1.76562500e-02
-1.69550000e-07,1.93750000e-03,1.48437500e-02
-1.68750000e-07,9.03125000e-03,3.12500000e-03
-1.67950000e-07,5.25000000e-03,1.60156250e-02
-1.67150000e-07,1.20937500e-02,1.96093750e-02
-1.66350000e-07,8.96875000e-03,1.09375000e-02
-1.65550000e-07,1.06250000e-02,7.96875000e-03
-1.64750000e-07,6.68750000e-03,1.85156250e-02
-1.63950000e-07,5.46875000e-03,1.76562500e-02
-1.63150000e-07,9.90625000e-03,1.62500000e-02
-1.62350000e-07,6.59375000e-03,8.35937500e-03
-1.61550000e-07,8.84375000e-03,1.25000000e-02
-1.60750000e-07,7.31250000e-03,5.85937500e-03
-1.59950000e-07,1.45937500e-02,1.79687500e-02
-1.59150000e-07,2.00000000e-03,9.60937500e-03
-1.58350000e-07,1.01562500e-02,1.78906250e-02
-1.57550000e-07,1.22812500e-02,1.22656250e-02
-1.56750000e-07,9.65625000e-03,1.19531250e-02
-1.55950000e-07,2.34375000e-03,1.39062500e-02
-1.55150000e-07,1.29062500e-02,2.17968750e-02
-1.54350000e-07,9.21875000e-03,2.14062500e-02
-1.53550000e-07,9.93750000e-03,1.87500000e-02
-1.52750000e-07,4.53125000e-03,2.18750000e-03
-1.51950000e-07,9.87500000e-03,1.67187500e-02
-1.51150000e-07,6.71875000e-03,1.01562500e-02
-1.50350000e-07,1.02812500e-02,9.45312500e-03
-1.49550000e-07,2.84375000e-03,2.24218750e-02
-1.48750000e-07,7.96875000e-03,2.34375000e-02
-1.47950000e-07,9.43750000e-03,1.41406250e-02
-1.47150000e-07,1.12500000e-02,1.90625000e-02
-1.46350000e-07,2.78125000e-03,1.67187500e-02
-1.45550000e-07,8.00000000e-03,1.69531250e-02
-1.44750000e-07,7.90625000e-03,1.27343750e-02
-1.43950000e-07,5.84375000e-03,9.14062500e-03
-1.43150000e-07,5.71875000e-03,1.37500000e-02
-1.42350000e-07,6.46875000e-03,1.25000000e-02
-1.41550000e-07,9.00000000e-03,1.96875000e-02
-1.40750000e-07,7.31250000e-03,2.00781250e-02
-1.39950000e-07,7.37500000e-03,1.60937500e-02
-1.39150000e-07,5.43750000e-03,1.62500000e-02
-1.38350000e-07,7.90625000e-03,1.94531250e-02
-1.37550000e-07,1.09375000e-02,1.47656250e-02
-1.36750000e-07,5.93750000e-03,1.48437500e-02
-1.35950000e-07,6.84375000e-03,7.57812500e-03
-1.35150000e-07,9.18750000e-03,8.59375000e-03
-1.34350000e-07,1.10000000e-02,1.64843750e-02
-1.33550000e-07,4.06250000e-04,2.50000000e-03
-1.32750000e-07,1.11875000e-02,1.50000000e-02
-1.31950000e-07,9.03125000e-03,1.51562500e-02
-1.31150000e-07,9.43750000e-03,1.34375000e-02
-1.30350000e-07,4.93750000e-03,1.66406250e-02
-1.29550000e-07,1.17812500e-02,1.39843750e-02
-1.28750000e-07,7.87500000e-03,1.80468750e-02
-1.27950000e-07,5.96875000e-03,1.66406250e-02
-1.27150000e-07,4.81250000e-03,6.79687500e-03
-1.26350000e-07,1.03437500e-02,2.17968750e-02
-1.25550000e-07,6.25000000e-03,1.92187500e-02
-1.24750000e-07,1.13750000e-02,1.10937500e-02
-1.23950000e-07,2.21875000e-03,2.75781250e-02
-1.23150000e-07,7.31250000e-03,1.65625000e-02
-1.22350000e-07,1.13125000e-02,1.43750000e-02
-1.21550000e-07,1.00937500e-02,1.57031250e-02
-1.20750000e-07,2.68750000e-03,1.50781250e-02
-1.19950000e-07,1.18437500e-02,1.92187500e-02
-1.19150000e-07,1.28125000e-02,1.57031250e-02
-1.18350000e-07,7.31250000e-03,1.33593750e-02
-1.17550000e-07,9.31250000e-03,1.20312500e-02
-1.16750000e-07,2.96875000e-03,1.16406250e-02
-1.15950000e-07,1.03750000e-02,2.54687500e-02
-1.15150000e-07,9.21875000e-03,1.52343750e-02
-1.14350000e-07,1.10000000e-02,1.56250000e-02
-1.13550000e-07,1.01250000e-02,1.23437500e-02
-1.12750000e-07,5.53125000e-03,2.43750000e-02
-1.11950000e-07,8.31250000e-03,1.01562500e-02
-1.11150000e-07,8.81250000e-03,1.80468750e-02
-1.10350000e-07,7.15625000e-03,1.23437500e-02
-1.09550000e-07,2.40625000e-03,1.95312500e-02
-1.08750000e-07,1.24687500e-02,2.30468750e-02
-1.07950000e-07,-3.46875000e-03,9.37500000e-03
-1.07150000e-07,7.34375000e-03,2.56250000e-02
-1.06350000e-07,5.28125000e-03,1.39062500e-02
-1.05550000e-07,1.15000000e-02,1.71093750e-02
-1.04750000e-07,3.87500000e-03,1.42968750e-02
-1.03950000e-07,1.43437500e-02,1.05468750e-02
-1.03150000e-07,7.28125000e-03,1.53906250e-02
-1.02350000e-07,8.09375000e-03,1.46875000e-02
-1.01550000e-07,5.34375000e-03,1.15625000e-02
-1.00750000e-07,1.27812500e-02,1.57031250e-02
-9.99500000e-08,6.15625000e-03,1.42187500e-02
-9.91500000e-08,9.34375000e-03,5.85937500e-03
-9.83500000e-08,6.25000000e-05,1.28125000e-02
-9.75500000e-08,3.06250000e-03,1.79687500e-02
-9.67500000e-08,1.03437500e-02,8.67187500e-03
-9.59500000e-08,1.08125000e-02,1.57031250e-02
-9.51500000e-08,6.06250000e-03,1.94531250e-02
-9.43500000e-08,6.62500000e-03,1.49218750e-02
-9.35500000e-08,1.09375000e-02,1.63281250e-02
-9.27500000e-08,9.84375000e-03,1.63281250e-02
-9.19500000e-08,9.81250000e-03,1.51562500e-02
-9.11500000e-08,8.43750000e-03,1.59375000e-02
-9.03500000e-08,8.03125000e-03,1.32812500e-02
-8.95500000e-08,7.46875000e-03,1.81250000e-02
-8.87500000e-08,9.21875000e-03,2.57812500e-02
-8.79500000e-08,1.10312500e-02,2.10156250e-02
-8.71500000e-08,7.87500000e-03,2.56250000e-02
-8.63500000e-08,7.00000000e-03,8.20312500e-03
-8.55500000e-08,7.28125000e-03,1.48437500e-02
-8.47500000e-08,9.56250000e-03,1.30468750e-02
-8.39500000e-08,6.31250000e-03,5.54687500e-03
-8.31500000e-08,7.28125000e-03,1.82031250e-02
-8.23500000e-08,-1.37500000e-03,4.76562500e-03
-8.15500000e-08,9.75000000e-03,2.12500000e-02
-8.07500000e-08,5.34375000e-03,1.78906250e-02
-7.99500000e-08,1.11875000e-02,1.95312500e-02
-7.91500000e-08,7.15625000e-03,2.18750000e-02
-7.83500000e-08,1.20937500e-02,1.52343750e-02
-7.75500000e-08,3.78125000e-03,1.65625000e-02
-7.67500000e-08,6.21875000e-03,7.34375000e-03
-7.59500000e-08,4.75000000e-03,1.88281250e-02
-7.51500000e-08,1.14062500e-02,2.10937500e-02
-7.43500000e-08,6.71875000e-03,1.56250000e-02
-7.35500000e-08,1.00937500e-02,7.96875000e-03
-7.27500000e-08,3.03125000e-03,2.38281250e-02
-7.19500000e-08,6.68750000e-03,6.87500000e-03
-7.11500000e-08,1.30625000e-02,1.66406250e-02
-7.03500000e-08,8.71875000e-03,1.40625000e-02
-6.95500000e-08,4.93750000e-03,1.82812500e-02
-6.87500000e-08,9.43750000e-03,1.19531250e-02
-6.79500000e-08,1.48750000e-02,1.81250000e-02
-6.71500000e-08,7.53125000e-03,1.42968750e-02
-6.63500000e-08,8.28125000e-03,1.71875000e-02
-6.55500000e-08,9.46875000e-03,1.60937500e-02
-6.47500000e-08,1.07812500e-02,1.80468750e-02
-6.39500000e-08,1.05312500e-02,2.13281250e-02
-6.31500000e-08,1.25000000e-02,1.39062500e-02
-6.23500000e-08,1.34687500e-02,1.13281250e-02
-6.15500000e-08,5.90625000e-03,2.78125000e-02
-6.07500000e-08,1.14687500e-02,-3.28906250e-02
-5.99500000e-08,4.75000000e-03,-4.62500000e-01
-5.91500000e-08,9.03125000e-03,-1.02781250e+00
-5.83500000e-08,8.12500000e-03,-1.28687500e+00
-5.75500000e-08,9.46875000e-03,-1.35640625e+00
-5.67500000e-08,3.65625000e-03,-1.38570313e+00
-5.59500000e-08,1.40000000e-02,-1.34789063e+00
-5.51500000e-08,5.28125000e-03,-1.34695313e+00
-5.43500000e-08,1.02187500e-02,-1.36851563e+00
-5.35500000e-08,4.50000000e-03,-1.39015625e+00
-5.27500000e-08,1.18437500e-02,-1.40453125e+00
-5.19500000e-08,6.34375000e-03,-1.40648438e+00
-5.11500000e-08,7.40625000e-03,-1.40023438e+00
-5.03500000e-08,7.34375000e-03,-1.42281250e+00
-4.95500000e-08,1.10000000e-02,-1.40460938e+00
-4.87500000e-08,1.08437500e-02,-1.41742188e+00
-4.79500000e-08,1.13750000e-02,-1.40414063e+00
-4.71500000e-08,5.21875000e-03,-1.41203125e+00
-4.63500000e-08,6.59375000e-03,-1.41359375e+00
-4.55500000e-08,1.10312500e-02,-1.41570313e+00
-4.47500000e-08,9.75000000e-03,-1.40710938e+00
-4.39500000e-08,4.93750000e-03,-1.41500000e+00
-4.31500000e-08,8.12500000e-03,-1.43000000e+00
-4.23500000e-08,7.78125000e-03,-1.42656250e+00
-4.15500000e-08,7.15625000e-03,-1.42085938e+00
-4.07500000e-08,8.06250000e-03,-1.42125000e+00
-3.99500000e-08,8.06250000e-03,-1.42343750e+00
-3.91500000e-08,7.93750000e-03,-1.41585938e+00
-3.83500000e-08,4.12500000e-03,-1.41515625e+00
-3.75500000e-08,6.84375000e-03,-1.42351563e+00
-3.67500000e-08,6.84375000e-03,-1.42445313e+00
-3.59500000e-08,7.18750000e-04,-1.43015625e+00
-3.51500000e-08,5.31250000e-03,-1.42828125e+00
-3.43500000e-08,4.68750000e-03,-1.41820313e+00
-3.35500000e-08,-2.78125000e-03,-1.42492188e+00
-3.27500000e-08,-2.12812500e-02,-1.42695313e+00
-3.19500000e-08,-4.82187500e-02,-1.41492188e+00
-3.11500000e-08,-1.07343750e-01,-1.41953125e+00
-3.03500000e-08,-1.71750000e-01,-1.41718750e+00
-2.95500000e-08,-2.67906250e-01,-1.41703125e+00
-2.87500000e-08,-3.68625000e-01,-1.41953125e+00
-2.79500000e-08,-4.72812500e-01,-1.42500000e+00
-2.71500000e-08,-5.59781250e-01,-1.41554687e+00
-2.63500000e-08,-6.45906250e-01,-1.42867188e+00
-2.55500000e-08,-7.19343750e-01,-1.41281250e+00
-2.47500000e-08,-7.76093750e-01,-1.42578125e+00
-2.39500000e-08,-8.14906250e-01,-1.41507812e+00
-2.31500000e-08,-8.45750000e-01,-1.41804688e+00
-2.23500000e-08,-8.69000000e-01,-1.40906250e+00
-2.15500000e-08,-8.82437500e-01,-1.41210938e+00
-2.07500000e-08,-8.77343750e-01,-1.42492188e+00
-1.99500000e-08,-8.69812500e-01,-1.41859375e+00
-1.91500000e-08,-8.60562500e-01,-1.41140625e+00
-1.83500000e-08,-8.40625000e-01,-1.42406250e+00
-1.75500000e-08,-8.10687500e-01,-1.41945312e+00
-1.67500000e-08,-7.85031250e-01,-1.41445313e+00
-1.59500000e-08,-7.62093750e-01,-1.41562500e+00
-1.51500000e-08,-7.26812500e-01,-1.42359375e+00
-1.43500000e-08,-6.92156250e-01,-1.42250000e+00
-1.35500000e-08,-6.59125000e-01,-1.41796875e+00
-1.27500000e-08,-6.25843750e-01,-1.42304688e+00
-1.19500000e-08,-5.90375000e-01,-1.41828125e+00
-1.11500000e-08,-5.55281250e-01,-1.42093750e+00
-1.03500000e-08,-5.25125000e-01,-1.42335937e+00
-9.55000000e-09,-4.85937500e-01,-1.41648438e+00
-8.75000000e-09,-4.59406250e-01,-1.42070313e+00
-7.95000000e-09,-4.25843750e-01,-1.42882813e+00
-7.15000000e-09,-4.02281250e-01,-1.42320313e+00
-6.35000000e-09,-3.82968750e-01,-1.42171875e+00
-5.55000000e-09,-3.55500000e-01,-1.41929688e+00
-4.75000000e-09,-3.29187500e-01,-1.41289063e+00
-3.95000000e-09,-3.07593750e-01,-1.39507813e+00
-3.15000000e-09,-2.93187500e-01,-1.36187500e+00
-2.35000000e-09,-2.77906250e-01,-1.28796875e+00
-1.55000000e-09,-2.53812500e-01,-1.01914063e+00
-7.50000000e-10,-2.43781250e-01,-5.64140625e-01
5.00000000e-11,-2.32781250e-01,-2.80625000e-01
8.50000000e-10,-2.19531250e-01,-1.63671875e-01
1.65000000e-09,-2.02125000e-01,-9.78906250e-02
2.45000000e-09,-1.96593750e-01,-5.85156250e-02
3.25000000e-09,-1.83312500e-01,-4.45312500e-02
4.05000000e-09,-1.81281250e-01,-4.85156250e-02
4.85000000e-09,-1.66531250e-01,-4.33593750e-02
5.65000000e-09,-1.52250000e-01,-3.37500000e-02
6.45000000e-09,-1.47125000e-01,-2.58593750e-02
7.25000000e-09,-1.47593750e-01,-3.78906250e-02
8.05000000e-09,-1.32187500e-01,-2.75781250e-02
8.85000000e-09,-1.20500000e-01,-3.07812500e-02
9.65000000e-09,-1.19125000e-01,-1.22656250e-02
1.04500000e-08,-1.11406250e-01,-1.84375000e-02
1.12500000e-08,-1.07593750e-01,-1.22656250e-02
1.20500000e-08,-1.03968750e-01,-6.87500000e-03
1.28500000e-08,-9.73125000e-02,-1.82031250e-02
1.36500000e-08,-9.15312500e-02,-1.72656250e-02
1.44500000e-08,-8.85625000e-02,-1.98437500e-02
1.52500000e-08,-8.71562500e-02,-1.03906250e-02
1.60500000e-08,-8.01562500e-02,-1.50000000e-02
1.68500000e-08,-8.31562500e-02,-2.73437500e-03
1.76500000e-08,-7.12187500e-02,-9.37500000e-04
1.84500000e-08,-6.86562500e-02,-3.28125000e-03
1.92500000e-08,-6.33125000e-02,7.50000000e-03
2.00500000e-08,-6.89687500e-02,2.81250000e-03
2.08500000e-08,-5.38125000e-02,2.65625000e-03
2.16500000e-08,-4.96875000e-02,7.57812500e-03
2.24500000e-08,-5.20937500e-02,8.43750000e-03
2.32500000e-08,-5.00937500e-02,2.96875000e-03
2.40500000e-08,-3.96875000e-02,6.79687500e-03
2.48500000e-08,-4.26250000e-02,2.03125000e-02
2.56500000e-08,-3.21875000e-02,1.87500000e-02
2.64500000e-08,-3.99062500e-02,2.73437500e-03
2.72500000e-08,-2.67500000e-02,1.39843750e-02
2.80500000e-08,-3.33125000e-02,8.12500000e-03
2.88500000e-08,-2.42500000e-02,1.67968750e-02
2.96500000e-08,-3.29062500e-02,1.74218750e-02
3.04500000e-08,-2.23125000e-02,2.11718750e-02
3.12500000e-08,-2.15625000e-02,1.42187500e-02
3.20500000e-08,-1.81562500e-02,3.74218750e-02
3.28500000e-08,-2.45625000e-02,2.70312500e-02
3.36500000e-08,-2.00625000e-02,3.47656250e-02
3.44500000e-08,-1.27812500e-02,4.17187500e-02
3.52500000e-08,-2.25312500e-02,3.24218750e-02
3.60500000e-08,-1.64687500e-02,5.07031250e-02
3.68500000e-08,-1.70000000e-02,4.07031250e-02
3.76500000e-08,-1.56875000e-02,4.20312500e-02
3.84500000e-08,-1.41562500e-02,3.06250000e-02
3.92500000e-08,-1.33750000e-02,4.19531250e-02
4.00500000e-08,-1.61250000e-02,3.54687500e-02
4.08500000e-08,-1.51250000e-02,3.09375000e-02
4.16500000e-08,-1.13750000e-02,2.17187500e-02
4.24500000e-08,-1.22500000e-02,3.38281250e-02
4.32500000e-08,-1.14375000e-02,2.74218750e-02
4.40500000e-08,-1.42500000e-02,2.89843750e-02
4.48500000e-08,-1.21562500e-02,2.67187500e-02
4.56500000e-08,-2.01250000e-02,2.95312500e-02
4.64500000e-08,-7.18750000e-03,3.18750000e-02
4.72500000e-08,-1.37187500e-02,2.45312500e-02
4.80500000e-08,-9.65625000e-03,2.59375000e-02
4.88500000e-08,-1.74687500e-02,2.46093750e-02
4.96500000e-08,-9.25000000e-03,3.17968750e-02
5.04500000e-08,-1.52500000e-02,3.28906250e-02
5.12500000e-08,-9.62500000e-03,2.92968750e-02
5.20500000e-08,-1.45312500e-02,2.08593750e-02
5.28500000e-08,-9.71875000e-03,3.54687500e-02
5.36500000e-08,-1.32187500e-02,2.10937500e-02
5.44500000e-08,-7.75000000e-03,2.28906250e-02
5.52500000e-08,-1.83750000e-02,2.32812500e-02
5.60500000e-08,-1.14375000e-02,1.94531250e-02
