data/raw/TriggerAuto_ALL_20231205194307144.csv

Model,MSO64B
Channel,CH1,,Channel,CH2
Label,,,Label,
Waveform Type,ANALOG,,Waveform Type,ANALOG
Horizontal Units,s,,Horizontal Units,s
Sample Interval,8.00000000e-10,,Sample Interval,8.00000000e-10
Record Length,5000,,Record Length,5000
Zero Index,349.33984375,,Zero Index,349.33984375
Vertical Units,V,,Vertical Units,V
,,,,
ANALOG_Thumbnail,,,ANALOG_Thumbnail,
yOffset,0.000000,,yOffset,0.000000
yPosition,2.160000,,yPosition,2.180000

Labels,,
TIME,CH1,CH2
-2.79471875e-07,2.53125000e-03,2.02343750e-02
-2.78671875e-07,1.14687500e-02,8.28125000e-03
-2.77871875e-07,9.62500000e-03,2.25000000e-02
-2.77071875e-07,7.40625000e-03,1.20312500e-02
-2.76271875e-07,7.65625000e-03,1.78906250e-02
-2.75471875e-07,1.43125000e-02,2.07812500e-02
-2.74671875e-07,6.12500000e-03,9.06250000e-03
-2.73871875e-07,9.96875000e-03,2.05468750e-02
-2.73071875e-07,7.68750000e-03,2.60937500e-02
-2.72271875e-07,1.47812500e-02,2.06250000e-02
-2.71471875e-07,8.93750000e-03,1.02343750e-02
-2.70671875e-07,9.81250000e-03,1.97656250e-02
-2.69871875e-07,6.50000000e-03,2.47656250e-02
-2.69071875e-07,8.78125000e-03,2.00000000e-02
-2.68271875e-07,3.96875000e-03,1.81250000e-02
-2.67471875e-07,1.08125000e-02,1.21875000e-02
-2.66671875e-07,4.96875000e-03,1.97656250e-02
-2.65871875e-07,1.51562500e-02,2.14062500e-02
-2.65071875e-07,3.12500000e-03,1.60937500e-02
-2.64271875e-07,7.28125000e-03,1.28906250e-02
-2.63471875e-07,1.44062500e-02,1.64062500e-02
-2.62671875e-07,1.73437500e-02,2.15625000e-02
-2.61871875e-07,3.06250000e-03,1.81250000e-02
-2.61071875e-07,7.12500000e-03,1.88281250e-02
-2.60271875e-07,9.53125000e-03,1.61718750e-02
-2.59471875e-07,6.18750000e-03,1.96093750e-02
-2.58671875e-07,6.37500000e-03,2.00781250e-02
-2.57871875e-07,1.10000000e-02,1.02343750e-02
-2.57071875e-07,1.69062500e-02,2.64062500e-02
-2.56271875e-07,9.65625000e-03,1.85156250e-02
-2.55471875e-07,9.93750000e-03,1.89843750e-02
-2.54671875e-07,9.90625000e-03,1.86718750e-02
-2.53871875e-07,1.43750000e-03,1.55468750e-02
-2.53071875e-07,1.51250000e-02,2.28125000e-02
-2.52271875e-07,5.09375000e-03,1.53125000e-02
-2.51471875e-07,8.50000000e-03,1.15625000e-02
-2.50671875e-07,7.68750000e-03,1.64062500e-02
-2.49871875e-07,1.36250000e-02,1.88281250e-02
-2.49071875e-07,5.84375000e-03,1.29687500e-02
-2.48271875e-07,1.05625000e-02,2.42187500e-02
-2.47471875e-07,7.84375000e-03,1.39843750e-02
-2.46671875e-07,1.39062500e-02,1.69531250e-02
-2.45871875e-07,6.56250000e-03,1.21875000e-02
-2.45071875e-07,1.12812500e-02,1.50781250e-02
-2.44271875e-07,4.18750000e-03,1.75781250e-02
-2.43471875e-07,1.02187500e-02,1.81250000e-02
-2.42671875e-07,8.03125000e-03,2.26562500e-03
-2.41871875e-07,1.24375000e-02,1.08593750e-02
-2.41071875e-07,9.31250000e-03,2.76562500e-02
-2.40271875e-07,1.38750000e-02,1.99218750e-02
-2.39471875e-07,4.25000000e-03,1.02343750e-02
-2.38671875e-07,7.87500000e-03,1.58593750e-02
-2.37871875e-07,1.05000000e-02,2.42968750e-02
-2.37071875e-07,1.35937500e-02,2.40625000e-02
-2.36271875e-07,7.00000000e-03,2.19531250e-02
-2.35471875e-07,9.87500000e-03,1.73437500e-02
-2.34671875e-07,1.16875000e-02,1.28906250e-02
-2.33871875e-07,9.21875000e-03,2.56250000e-02
-2.33071875e-07,7.34375000e-03,2.10937500e-02
-2.32271875e-07,1.12187500e-02,9.53125000e-03
-2.31471875e-07,6.84375000e-03,2.75781250e-02
-2.30671875e-07,6.84375000e-03,1.96875000e-02
-2.29871875e-07,1.15312500e-02,1.08593750e-02
-2.29071875e-07,1.19687500e-02,1.23437500e-02
-2.28271875e-07,5.18750000e-03,2.15625000e-02
-2.27471875e-07,1.15625000e-02,1.73437500e-02
-2.26671875e-07,8.84375000e-03,1.35156250e-02
-2.25871875e-07,1.00625000e-02,1.08593750e-02
-2.25071875e-07,7.71875000e-03,1.25000000e-02
-2.24271875e-07,1.34375000e-02,1.76562500e-02
-2.23471875e-07,4.31250000e-03,1.23437500e-02
-2.22671875e-07,1.29687500e-02,2.03906250e-02
-2.21871875e-07,7.37500000e-03,2.35156250e-02
-2.21071875e-07,1.11875000e-02,2.19531250e-02
-2.20271875e-07,2.90625000e-03,1.01562500e-02
-2.19471875e-07,1.00937500e-02,2.30468750e-02
-2.18671875e-07,4.28125000e-03,2.25000000e-02
-2.17871875e-07,9.25000000e-03,1.14062500e-02
-2.17071875e-07,2.25000000e-03,7.73437500e-03
-2.16271875e-07,1.35000000e-02,2.30468750e-02
-2.15471875e-07,5.65625000e-03,1.92968750e-02
-2.14671875e-07,1.15937500e-02,6.32812500e-03
-2.13871875e-07,4.75000000e-03,1.92187500e-02
-2.13071875e-07,5.53125000e-03,2.00781250e-02
-2.12271875e-07,1.04687500e-02,1.49218750e-02
-2.11471875e-07,1.62187500e-02,2.35156250e-02
-2.10671875e-07,3.34375000e-03,1.06250000e-02
-2.09871875e-07,8.28125000e-03,1.51562500e-02
-2.09071875e-07,8.40625000e-03,2.21093750e-02
-2.08271875e-07,9.68750000e-03,1.33593750e-02
-2.07471875e-07,1.16875000e-02,1.17187500e-02
-2.06671875e-07,9.37500000e-03,1.43750000e-02
-2.05871875e-07,1.10312500e-02,1.76562500e-02
-2.05071875e-07,1.09375000e-02,1.89843750e-02
-2.04271875e-07,1.42187500e-02,1.95312500e-02
-2.03471875e-07,9.37500000e-03,1.95312500e-02
-2.02671875e-07,3.71875000e-03,2.27343750e-02
-2.01871875e-07,1.32812500e-02,8.12500000e-03
-2.01071875e-07,1.08437500e-02,2.45312500e-02
-2.00271875e-07,8.87500000e-03,2.37500000e-02
-1.99471875e-07,7.03125000e-03,1.21093750e-02
-1.98671875e-07,1.58125000e-02,1.95312500e-02
-1.97871875e-07,6.56250000e-04,1.27343750e-02
-1.97071875e-07,1.39062500e-02,1.03906250e-02
-1.96271875e-07,1.03750000e-02,2.16406250e-02
-1.95471875e-07,1.23750000e-02,1.12500000e-02
-1.94671875e-07,7.37500000e-03,1.25000000e-03
-1.93871875e-07,1.43437500e-02,8.67187500e-03
-1.93071875e-07,9.00000000e-03,1.85937500e-02
-1.92271875e-07,8.93750000e-03,1.29687500e-02
-1.91471875e-07,8.59375000e-03,1.46093750e-02
-1.90671875e-07,1.34062500e-02,2.68750000e-02
-1.89871875e-07,6.75000000e-03,1.53906250e-02
-1.89071875e-07,1.36562500e-02,1.69531250e-02
-1.88271875e-07,9.71875000e-03,1.61718750e-02
-1.87471875e-07,7.90625000e-03,1.02343750e-02
-1.86671875e-07,9.93750000e-03,1.52343750e-02
-1.85871875e-07,1.41875000e-02,2.61718750e-02
-1.85071875e-07,7.65625000e-03,1.60156250e-02
-1.84271875e-07,8.87500000e-03,1.82812500e-02
-1.83471875e-07,1.32500000e-02,1.28125000e-02
-1.82671875e-07,8.65625000e-03,2.29687500e-02
-1.81871875e-07,7.50000000e-03,9.92187500e-03
-1.81071875e-07,8.09375000e-03,2.57812500e-03
-1.80271875e-07,1.05000000e-02,2.31250000e-02
-1.79471875e-07,7.87500000e-03,8.75000000e-03
-1.78671875e-07,9.40625000e-03,1.14062500e-02
-1.77871875e-07,1.37187500e-02,1.83593750e-02
-1.77071875e-07,5.78125000e-03,2.22656250e-02
-1.76271875e-07,1.20312500e-02,1.35156250e-02
-1.75471875e-07,1.31875000e-02,2.24218750e-02
-1.74671875e-07,8.06250000e-03,2.58593750e-02
-1.73871875e-07,1.07500000e-02,1.66406250e-02
-1.73071875e-07,1.48750000e-02,6.71875000e-03
-1.72271875e-07,6.06250000e-03,3.98437500e-03
-1.71471875e-07,1.10625000e-02,2.44531250e-02
-1.70671875e-07,1.15625000e-02,1.46875000e-02
-1.69871875e-07,1.50000000e-02,1.42968750e-02
-1.69071875e-07,7.87500000e-03,1.10156250e-02
-1.68271875e-07,1.25000000e-02,1.84375000e-02
-1.67471875e-07,7.65625000e-03,1.75781250e-02
-1.66671875e-07,1.19687500e-02,1.82031250e-02
-1.65871875e-07,4.68750000e-03,1.35156250e-02
-1.65071875e-07,1.09375000e-02,1.69531250e-02
-1.64271875e-07,1.03750000e-02,1.22656250e-02
-1.63471875e-07,1.24375000e-02,1.77343750e-02
-1.62671875e-07,4.65625000e-03,1.61718750e-02
-1.61871875e-07,9.34375000e-03,1.36718750e-02
-1.61071875e-07,9.78125000e-03,1.57031250e-02
-1.60271875e-07,1.68125000e-02,1.75781250e-02
-1.59471875e-07,6.03125000e-03,8.90625000e-03
-1.58671875e-07,1.38125000e-02,1.25781250e-02
-1.57871875e-07,1.42812500e-02,1.83593750e-02
-1.57071875e-07,1.16875000e-02,1.62500000e-02
-1.56271875e-07,9.93750000e-03,1.89843750e-02
-1.55471875e-07,1.05000000e-02,1.75000000e-02
-1.54671875e-07,1.43437500e-02,1.62500000e-02
-1.53871875e-07,1.20937500e-02,2.08593750e-02
-1.53071875e-07,1.43125000e-02,1.34375000e-02
-1.52271875e-07,8.62500000e-03,1.43750000e-02
-1.51471875e-07,7.71875000e-03,1.55468750e-02
-1.50671875e-07,1.35625000e-02,1.35937500e-02
-1.49871875e-07,1.25000000e-02,1.82812500e-02
-1.49071875e-07,1.11562500e-02,8.12500000e-03
-1.48271875e-07,1.00312500e-02,1.32812500e-02
-1.47471875e-07,1.37812500e-02,1.62500000e-02
-1.46671875e-07,4.78125000e-03,7.10937500e-03
-1.45871875e-07,1.23750000e-02,1.85156250e-02
-1.45071875e-07,1.04062500e-02,1.48437500e-02
-1.44271875e-07,1.42187500e-02,8.43750000e-03
-1.43471875e-07,6.87500000e-03,1.46093750e-02
-1.42671875e-07,1.52187500e-02,1.96093750e-02
-1.41871875e-07,6.87500000e-03,1.22656250e-02
-1.41071875e-07,9.68750000e-03,1.56250000e-02
-1.40271875e-07,6.40625000e-03,1.82031250e-02
-1.39471875e-07,1.34687500e-02,1.28125000e-02
-1.38671875e-07,7.84375000e-03,1.64062500e-02
-1.37871875e-07,1.42812500e-02,1.14843750e-02
-1.37071875e-07,5.90625000e-03,1.25781250e-02
-1.36271875e-07,5.18750000e-03,2.54687500e-02
-1.35471875e-07,1.37187500e-02,4.92187500e-03
-1.34671875e-07,1.98125000e-02,2.32812500e-02
-1.33871875e-07,6.62500000e-03,1.34375000e-02
-1.33071875e-07,8.93750000e-03,2.04687500e-02
-1.32271875e-07,1.42500000e-02,8.28125000e-03
-1.31471875e-07,1.00000000e-02,1.93750000e-02
-1.30671875e-07,1.01250000e-02,1.03125000e-02
-1.29871875e-07,1.06562500e-02,1.28906250e-02
-1.29071875e-07,1.33437500e-02,1.92968750e-02
-1.28271875e-07,1.05000000e-02,1.79687500e-02
-1.27471875e-07,1.47812500e-02,1.59375000e-02
-1.26671875e-07,1.09687500e-02,1.21875000e-02
-1.25871875e-07,1.04062500e-02,2.01562500e-02
-1.25071875e-07,1.51562500e-02,1.01562500e-02
-1.24271875e-07,1.08437500e-02,2.17968750e-02
-1.23471875e-07,1.02812500e-02,2.20312500e-02
-1.22671875e-07,7.75000000e-03,1.88281250e-02
-1.21871875e-07,1.60625000e-02,1.75781250e-02
-1.21071875e-07,7.59375000e-03,1.03906250e-02
-1.20271875e-07,1.18750000e-02,1.60156250e-02
-1.19471875e-07,6.12500000e-03,2.11718750e-02
-1.18671875e-07,1.00312500e-02,1.64062500e-02
-1.17871875e-07,5.34375000e-03,1.73437500e-02
-1.17071875e-07,1.70625000e-02,2.25000000e-02
-1.16271875e-07,4.78125000e-03,1.84375000e-02
-1.15471875e-07,1.22500000e-02,8.04687500e-03
-1.14671875e-07,6.25000000e-03,7.81250000e-03
-1.13871875e-07,1.16250000e-02,2.04687500e-02
-1.13071875e-07,5.84375000e-03,2.28125000e-02
-1.12271875e-07,1.65937500e-02,1.68750000e-02
-1.11471875e-07,8.90625000e-03,1.64062500e-02
-1.10671875e-07,1.28437500e-02,1.31250000e-02
-1.09871875e-07,1.22500000e-02,1.48437500e-02
-1.09071875e-07,1.30937500e-02,2.33593750e-02
-1.08271875e-07,9.53125000e-03,1.92968750e-02
-1.07471875e-07,8.71875000e-03,3.32812500e-02
-1.06671875e-07,1.52812500e-02,1.95312500e-02
-1.05871875e-07,1.33125000e-02,1.42187500e-02
-1.05071875e-07,1.14375000e-02,1.29687500e-02
-1.04271875e-07,1.15937500e-02,1.06250000e-02
-1.03471875e-07,1.07187500e-02,2.59375000e-02
-1.02671875e-07,1.11562500e-02,1.42968750e-02
-1.01871875e-07,1.41875000e-02,2.01562500e-02
-1.01071875e-07,1.59062500e-02,1.52343750e-02
-1.00271875e-07,6.50000000e-03,1.63281250e-02
-9.94718750e-08,1.30625000e-02,1.49218750e-02
-9.86718750e-08,1.16562500e-02,1.91406250e-02
-9.78718750e-08,1.09375000e-02,1.69531250e-02
-9.70718750e-08,8.96875000e-03,1.93750000e-02
-9.62718750e-08,2.06875000e-02,2.75781250e-02
-9.54718750e-08,4.81250000e-03,1.25000000e-03
-9.46718750e-08,1.21875000e-02,1.66406250e-02
-9.38718750e-08,9.18750000e-03,2.61718750e-02
-9.30718750e-08,1.44062500e-02,2.79687500e-02
-9.22718750e-08,7.56250000e-03,2.07812500e-02
-9.14718750e-08,1.36562500e-02,2.94531250e-02
-9.06718750e-08,6.43750000e-03,1.93750000e-02
-8.98718750e-08,1.08437500e-02,2.16406250e-02
-8.90718750e-08,6.62500000e-03,1.15625000e-02
-8.82718750e-08,1.35312500e-02,2.05468750e-02
-8.74718750e-08,8.62500000e-03,1.55468750e-02
-8.66718750e-08,1.60937500e-02,1.46093750e-02
-8.58718750e-08,7.40625000e-03,1.71875000e-02
-8.50718750e-08,1.01250000e-02,1.72656250e-02
-8.42718750e-08,1.39687500e-02,2.11718750e-02
-8.34718750e-08,1.67812500e-02,1.52343750e-02
-8.26718750e-08,8.37500000e-03,2.53906250e-02
-8.18718750e-08,8.56250000e-03,2.10156250e-02
-8.10718750e-08,1.40937500e-02,1.78906250e-02
-8.02718750e-08,8.50000000e-03,2.04687500e-02
-7.94718750e-08,5.81250000e-03,1.38281250e-02
-7.86718750e-08,1.14062500e-02,1.60937500e-02
-7.78718750e-08,1.21250000e-02,2.39062500e-02
-7.70718750e-08,1.23125000e-02,2.49218750e-02
-7.62718750e-08,1.27812500e-02,2.16406250e-02
-7.54718750e-08,1.39687500e-02,2.15625000e-02
-7.46718750e-08,4.43750000e-03,1.96093750e-02
-7.38718750e-08,1.17812500e-02,1.96093750e-02
-7.30718750e-08,1.20312500e-02,2.48437500e-02
-7.22718750e-08,9.03125000e-03,1.59375000e-02
-7.14718750e-08,8.56250000e-03,2.35156250e-02
-7.06718750e-08,1.45000000e-02,1.83593750e-02
-6.98718750e-08,5.96875000e-03,1.67968750e-02
-6.90718750e-08,1.27812500e-02,1.91406250e-02
-6.82718750e-08,8.25000000e-03,2.25000000e-02
-6.74718750e-08,1.60312500e-02,2.33593750e-02
-6.66718750e-08,8.96875000e-03,1.68750000e-02
-6.58718750e-08,1.55312500e-02,2.59375000e-02
-6.50718750e-08,7.90625000e-03,2.22656250e-02
-6.42718750e-08,1.45937500e-02,2.30468750e-02
-6.34718750e-08,5.50000000e-03,7.18750000e-03
-6.26718750e-08,1.24375000e-02,1.43750000e-02
-6.18718750e-08,7.25000000e-03,2.78906250e-02
-6.10718750e-08,1.64687500e-02,1.75781250e-02
-6.02718750e-08,7.62500000e-03,-3.13906250e-01
-5.94718750e-08,7.15625000e-03,-8.89765625e-01
-5.86718750e-08,9.90625000e-03,-1.23765625e+00
-5.78718750e-08,1.59687500e-02,-1.28671875e+00
-5.70718750e-08,6.84375000e-03,-1.37328125e+00
-5.62718750e-08,6.56250000e-03,-1.39976563e+00
-5.54718750e-08,1.14062500e-02,-1.39914063e+00
-5.46718750e-08,1.39062500e-02,-1.37757813e+00
-5.38718750e-08,9.71875000e-03,-1.40187500e+00
-5.30718750e-08,1.30937500e-02,-1.41078125e+00
-5.22718750e-08,1.13750000e-02,-1.40664063e+00
-5.14718750e-08,9.12500000e-03,-1.40984375e+00
-5.06718750e-08,1.11250000e-02,-1.41195313e+00
-4.98718750e-08,1.25312500e-02,-1.40890625e+00
-4.90718750e-08,5.03125000e-03,-1.41218750e+00
-4.82718750e-08,1.51250000e-02,-1.41453125e+00
-4.74718750e-08,9.87500000e-03,-1.41648438e+00
-4.66718750e-08,8.40625000e-03,-1.41710938e+00
-4.58718750e-08,8.93750000e-03,-1.42359375e+00
-4.50718750e-08,1.19375000e-02,-1.41031250e+00
-4.42718750e-08,5.53125000e-03,-1.42671875e+00
-4.34718750e-08,1.07812500e-02,-1.41898437e+00
-4.26718750e-08,8.62500000e-03,-1.42492188e+00
-4.18718750e-08,9.18750000e-03,-1.41625000e+00
-4.10718750e-08,6.18750000e-03,-1.43750000e+00
-4.02718750e-08,1.70000000e-02,-1.42953125e+00
-3.94718750e-08,5.68750000e-03,-1.41648438e+00
-3.86718750e-08,8.25000000e-03,-1.42554688e+00
-3.78718750e-08,4.37500000e-03,-1.42578125e+00
-3.70718750e-08,7.18750000e-03,-1.42023438e+00
-3.62718750e-08,7.21875000e-03,-1.41687500e+00
-3.54718750e-08,1.21250000e-02,-1.41609375e+00
-3.46718750e-08,-1.25000000e-04,-1.42992188e+00
-3.38718750e-08,-1.12500000e-03,-1.42515625e+00
-3.30718750e-08,-9.90625000e-03,-1.41601562e+00
-3.22718750e-08,-3.20312500e-02,-1.42125000e+00
-3.14718750e-08,-8.58125000e-02,-1.42882813e+00
-3.06718750e-08,-1.38312500e-01,-1.42234375e+00
-2.98718750e-08,-2.18781250e-01,-1.42093750e+00
-2.90718750e-08,-3.09750000e-01,-1.42062500e+00
-2.82718750e-08,-3.93812500e-01,-1.42773438e+00
-2.74718750e-08,-4.71968750e-01,-1.42507813e+00
-2.66718750e-08,-5.45062500e-01,-1.41304688e+00
-2.58718750e-08,-6.05406250e-01,-1.41117187e+00
-2.50718750e-08,-6.50562500e-01,-1.40648438e+00
-2.42718750e-08,-6.85281250e-01,-1.40789063e+00
-2.34718750e-08,-7.08500000e-01,-1.41632813e+00
-2.26718750e-08,-7.23343750e-01,-1.41273438e+00
-2.18718750e-08,-7.25187500e-01,-1.42007813e+00
-2.10718750e-08,-7.20625000e-01,-1.42882813e+00
-2.02718750e-08,-7.07718750e-01,-1.41320313e+00
-1.94718750e-08,-6.91937500e-01,-1.41031250e+00
-1.86718750e-08,-6.74406250e-01,-1.42007813e+00
-1.78718750e-08,-6.48062500e-01,-1.42046875e+00
-1.70718750e-08,-6.22750000e-01,-1.42226563e+00
-1.62718750e-08,-6.01437500e-01,-1.41484375e+00
-1.54718750e-08,-5.65593750e-01,-1.41953125e+00
-1.46718750e-08,-5.36562500e-01,-1.41140625e+00
-1.38718750e-08,-5.12187500e-01,-1.41687500e+00
-1.30718750e-08,-4.78406250e-01,-1.41132813e+00
-1.22718750e-08,-4.51250000e-01,-1.42664063e+00
-1.14718750e-08,-4.21406250e-01,-1.41859375e+00
-1.06718750e-08,-3.98781250e-01,-1.40906250e+00
-9.87187500e-09,-3.70343750e-01,-1.41710938e+00
-9.07187500e-09,-3.56718750e-01,-1.42539063e+00
-8.27187500e-09,-3.30968750e-01,-1.42890625e+00
-7.47187500e-09,-3.07406250e-01,-1.42460938e+00
-6.67187500e-09,-2.89406250e-01,-1.41390625e+00
-5.87187500e-09,-2.76937500e-01,-1.42718750e+00
-5.07187500e-09,-2.53312500e-01,-1.42546875e+00
-4.27187500e-09,-2.41093750e-01,-1.41445313e+00
-3.47187500e-09,-2.26000000e-01,-1.38210938e+00
-2.67187500e-09,-2.12812500e-01,-1.33812500e+00
-1.87187500e-09,-1.97968750e-01,-1.18742188e+00
-1.07187500e-09,-1.84062500e-01,-7.67031250e-01
-2.71875000e-10,-1.70406250e-01,-3.67734375e-01
5.28125000e-10,-1.59156250e-01,-1.98593750e-01
1.32812500e-09,-1.54843750e-01,-1.09453125e-01
2.12812500e-09,-1.45906250e-01,-6.41406250e-02
2.92812500e-09,-1.30343750e-01,-5.68750000e-02
3.72812500e-09,-1.22375000e-01,-4.90625000e-02
4.52812500e-09,-1.13875000e-01,-4.14062500e-02
5.32812500e-09,-1.02406250e-01,-3.75000000e-02
6.12812500e-09,-9.83750000e-02,-2.50000000e-02
6.92812500e-09,-1.00718750e-01,-2.95312500e-02
7.72812500e-09,-8.50625000e-02,-3.06250000e-02
8.52812500e-09,-8.57500000e-02,-2.83593750e-02
9.32812500e-09,-7.89375000e-02,-2.27343750e-02
1.01281250e-08,-7.97812500e-02,-2.16406250e-02
1.09281250e-08,-6.60625000e-02,-9.29687500e-03
1.17281250e-08,-6.84687500e-02,-8.43750000e-03
1.25281250e-08,-6.06562500e-02,-8.51562500e-03
1.33281250e-08,-6.13125000e-02,-1.45312500e-02
1.41281250e-08,-5.24062500e-02,-8.35937500e-03
1.49281250e-08,-4.95625000e-02,-7.81250000e-03
1.57281250e-08,-3.99375000e-02,-1.01562500e-03
1.65281250e-08,-4.72812500e-02,8.59375000e-04
1.73281250e-08,-4.44062500e-02,-1.64062500e-03
1.81281250e-08,-3.45000000e-02,1.95312500e-03
1.89281250e-08,-3.08125000e-02,-1.95312500e-03
1.97281250e-08,-3.95937500e-02,-9.37500000e-03
2.05281250e-08,-2.92500000e-02,7.03125000e-03
2.13281250e-08,-2.45937500e-02,3.59375000e-03
2.21281250e-08,-3.09062500e-02,6.87500000e-03
2.29281250e-08,-2.45937500e-02,7.03125000e-03
2.37281250e-08,-2.34687500e-02,1.14062500e-02
2.45281250e-08,-2.52812500e-02,3.59375000e-03
2.53281250e-08,-1.82500000e-02,8.28125000e-03
2.61281250e-08,-2.01562500e-02,9.68750000e-03
2.69281250e-08,-1.85937500e-02,6.17187500e-03
2.77281250e-08,-1.94375000e-02,1.84375000e-02
2.85281250e-08,-1.66250000e-02,9.76562500e-03
2.93281250e-08,-1.78437500e-02,2.65625000e-03
3.01281250e-08,-2.11875000e-02,1.90625000e-02
3.09281250e-08,-1.71250000e-02,1.96875000e-02
3.17281250e-08,-1.07500000e-02,2.54687500e-02
3.25281250e-08,-1.83125000e-02,1.91406250e-02
3.33281250e-08,-1.16875000e-02,4.03125000e-02
3.41281250e-08,-1.47500000e-02,4.19531250e-02
3.49281250e-08,-9.81250000e-03,4.57031250e-02
3.57281250e-08,-1.65625000e-02,3.92187500e-02
3.65281250e-08,-1.05937500e-02,4.37500000e-02
3.73281250e-08,-1.47187500e-02,4.06250000e-02
3.81281250e-08,-6.31250000e-03,3.32031250e-02
3.89281250e-08,-8.56250000e-03,1.60156250e-02
3.97281250e-08,-1.87500000e-03,3.17968750e-02
4.05281250e-08,-7.34375000e-03,2.90625000e-02
4.13281250e-08,-2.12500000e-03,2.80468750e-02
4.21281250e-08,-1.28437500e-02,3.10937500e-02
4.29281250e-08,-9.12500000e-03,3.36718750e-02
4.37281250e-08,-9.06250000e-04,3.01562500e-02
4.45281250e-08,-9.06250000e-04,3.80468750e-02
4.53281250e-08,-5.12500000e-03,1.24218750e-02
4.61281250e-08,-6.43750000e-03,2.73437500e-02
4.69281250e-08,-1.62500000e-03,2.78125000e-02
4.77281250e-08,-1.46875000e-03,2.95312500e-02
4.85281250e-08,-5.18750000e-03,3.75781250e-02
4.93281250e-08,-3.96875000e-03,2.42187500e-02
5.01281250e-08,-8.12500000e-04,3.36718750e-02
5.09281250e-08,-1.28125000e-03,2.66406250e-02
5.17281250e-08,2.34375000e-03,1.35156250e-02
5.25281250e-08,-1.18750000e-03,2.26562500e-02
5.33281250e-08,-2.37500000e-03,2.53906250e-02
5.41281250e-08,3.87500000e-03,2.30468750e-02
5.49281250e-08,1.71875000e-03,3.66406250e-02
5.57281250e-08,-4.06250000e-04,2.16406250e-02
5.65281250e-08,7.18750000e-04,2.14062500e-02
