data/raw/TriggerAuto_ALL_20231205194650902.csv

Model,MSO64B
Channel,CH1,,Channel,CH2
Label,,,Label,
Waveform Type,ANALOG,,Waveform Type,ANALOG
Horizontal Units,s,,Horizontal Units,s
Sample Interval,8.00000000e-10,,Sample Interval,8.00000000e-10
Record Length,5000,,Record Length,5000
Zero Index,349.23046875,,Zero Index,349.23046875
Vertical Units,V,,Vertical Units,V
,,,,
ANALOG_Thumbnail,,,ANALOG_Thumbnail,
yOffset,0.000000,,yOffset,0.000000
yPosition,2.160000,,yPosition,2.180000

Labels,,
TIME,CH1,CH2
-2.79384375e-07,7.40625000e-03,2.01562500e-02
-2.78584375e-07,1.42187500e-02,1.76562500e-02
-2.77784375e-07,1.05000000e-02,2.94531250e-02
-2.76984375e-07,1.13750000e-02,1.91406250e-02
-2.76184375e-07,8.06250000e-03,1.49218750e-02
-2.75384375e-07,1.51875000e-02,2.15625000e-02
-2.74584375e-07,8.15625000e-03,1.73437500e-02
-2.73784375e-07,1.79687500e-02,2.48437500e-02
-2.72984375e-07,6.34375000e-03,1.91406250e-02
-2.72184375e-07,1.02500000e-02,1.15625000e-02
-2.71384375e-07,9.96875000e-03,1.63281250e-02
-2.70584375e-07,1.48437500e-02,2.21875000e-02
-2.69784375e-07,8.87500000e-03,1.60937500e-02
-2.68984375e-07,1.02187500e-02,1.69531250e-02
-2.68184375e-07,1.28125000e-02,2.53906250e-02
-2.67384375e-07,1.01875000e-02,1.32812500e-02
-2.66584375e-07,1.23437500e-02,1.23437500e-02
-2.65784375e-07,7.37500000e-03,1.56250000e-02
-2.64984375e-07,1.05000000e-02,1.82031250e-02
-2.64184375e-07,9.00000000e-03,8.98437500e-03
-2.63384375e-07,1.18750000e-02,2.11718750e-02
-2.62584375e-07,9.59375000e-03,2.00000000e-02
-2.61784375e-07,7.65625000e-03,1.75781250e-02
-2.60984375e-07,1.31562500e-02,1.21875000e-02
-2.60184375e-07,1.21562500e-02,2.10937500e-02
-2.59384375e-07,9.12500000e-03,1.79687500e-02
-2.58584375e-07,9.84375000e-03,1.50000000e-02
-2.57784375e-07,1.36250000e-02,1.67968750e-02
-2.56984375e-07,6.65625000e-03,1.03906250e-02
-2.56184375e-07,1.34375000e-02,2.63281250e-02
-2.55384375e-07,9.43750000e-03,1.46875000e-02
-2.54584375e-07,1.17187500e-02,1.96093750e-02
-2.53784375e-07,7.15625000e-03,1.48437500e-02
-2.52984375e-07,1.43437500e-02,1.96093750e-02
-2.52184375e-07,1.08750000e-02,2.21093750e-02
-2.51384375e-07,9.09375000e-03,1.72656250e-02
-2.50584375e-07,1.10312500e-02,7.65625000e-03
-2.49784375e-07,1.31875000e-02,2.10937500e-02
-2.48984375e-07,8.96875000e-03,1.80468750e-02
-2.48184375e-07,1.39062500e-02,1.82031250e-02
-2.47384375e-07,7.87500000e-03,1.08593750e-02
-2.46584375e-07,6.87500000e-03,1.97656250e-02
-2.45784375e-07,1.29375000e-02,1.88281250e-02
-2.44984375e-07,1.17187500e-02,2.02343750e-02
-2.44184375e-07,4.93750000e-03,2.14062500e-02
-2.43384375e-07,8.06250000e-03,2.53125000e-02
-2.42584375e-07,1.42187500e-02,2.11718750e-02
-2.41784375e-07,1.12812500e-02,1.13281250e-02
-2.40984375e-07,1.15000000e-02,1.30468750e-02
-2.40184375e-07,8.90625000e-03,1.89062500e-02
-2.39384375e-07,1.49687500e-02,2.28125000e-02
-2.38584375e-07,1.17187500e-02,2.32812500e-02
-2.37784375e-07,1.01250000e-02,1.67187500e-02
-2.36984375e-07,1.26250000e-02,2.72656250e-02
-2.36184375e-07,5.21875000e-03,5.78125000e-03
-2.35384375e-07,1.50312500e-02,7.96875000e-03
-2.34584375e-07,1.21250000e-02,2.16406250e-02
-2.33784375e-07,1.09375000e-02,1.86718750e-02
-2.32984375e-07,1.11875000e-02,1.35937500e-02
-2.32184375e-07,1.40937500e-02,1.88281250e-02
-2.31384375e-07,8.12500000e-04,1.02343750e-02
-2.30584375e-07,9.46875000e-03,1.90625000e-02
-2.29784375e-07,6.43750000e-03,1.28906250e-02
-2.28984375e-07,1.87500000e-02,2.82812500e-02
-2.28184375e-07,7.18750000e-03,1.45312500e-02
-2.27384375e-07,1.55937500e-02,2.56250000e-02
-2.26584375e-07,7.96875000e-03,1.64843750e-02
-2.25784375e-07,1.28750000e-02,1.62500000e-02
-2.24984375e-07,7.06250000e-03,1.15625000e-02
-2.24184375e-07,1.42187500e-02,2.89843750e-02
-2.23384375e-07,6.65625000e-03,1.43750000e-02
-2.22584375e-07,1.35000000e-02,1.64062500e-02
-2.21784375e-07,3.84375000e-03,1.92968750e-02
-2.20984375e-07,9.12500000e-03,1.28906250e-02
-2.20184375e-07,1.54687500e-02,1.62500000e-02
-2.19384375e-07,1.51875000e-02,2.21875000e-02
-2.18584375e-07,3.59375000e-03,1.59375000e-02
-2.17784375e-07,8.18750000e-03,1.10937500e-02
-2.16984375e-07,1.08750000e-02,2.42968750e-02
-2.16184375e-07,1.24062500e-02,2.59375000e-02
-2.15384375e-07,1.04062500e-02,1.46093750e-02
-2.14584375e-07,8.34375000e-03,2.10156250e-02
-2.13784375e-07,1.15000000e-02,2.84375000e-02
-2.12984375e-07,8.75000000e-03,8.59375000e-03
-2.12184375e-07,1.46875000e-02,2.03125000e-02
-2.11384375e-07,1.25625000e-02,1.71875000e-02
-2.10584375e-07,7.40625000e-03,1.55468750e-02
-2.09784375e-07,1.86875000e-02,1.08593750e-02
-2.08984375e-07,1.04375000e-02,1.90625000e-02
-2.08184375e-07,8.18750000e-03,2.32812500e-02
-2.07384375e-07,9.21875000e-03,6.09375000e-03
-2.06584375e-07,1.25312500e-02,1.64843750e-02
-2.05784375e-07,3.50000000e-03,7.57812500e-03
-2.04984375e-07,1.41562500e-02,1.85937500e-02
-2.04184375e-07,1.04687500e-02,1.81250000e-02
-2.03384375e-07,1.38125000e-02,1.49218750e-02
-2.02584375e-07,3.93750000e-03,1.76562500e-02
-2.01784375e-07,8.87500000e-03,1.89062500e-02
-2.00984375e-07,7.96875000e-03,1.61718750e-02
-2.00184375e-07,1.25000000e-02,2.01562500e-02
-1.99384375e-07,1.07812500e-02,1.07031250e-02
-1.98584375e-07,1.11875000e-02,1.44531250e-02
-1.97784375e-07,8.53125000e-03,1.61718750e-02
-1.96984375e-07,1.64375000e-02,1.37500000e-02
-1.96184375e-07,9.34375000e-03,2.09375000e-02
-1.95384375e-07,9.03125000e-03,2.07812500e-02
-1.94584375e-07,1.27500000e-02,1.74218750e-02
-1.93784375e-07,1.40000000e-02,1.82031250e-02
-1.92984375e-07,6.84375000e-03,1.47656250e-02
-1.92184375e-07,9.68750000e-03,1.96875000e-02
-1.91384375e-07,1.41562500e-02,1.66406250e-02
-1.90584375e-07,7.03125000e-03,1.36718750e-02
-1.89784375e-07,9.43750000e-03,2.42187500e-02
-1.88984375e-07,8.21875000e-03,1.40625000e-02
-1.88184375e-07,1.22187500e-02,3.02343750e-02
-1.87384375e-07,1.10312500e-02,1.57031250e-02
-1.86584375e-07,1.34375000e-02,1.23437500e-02
-1.85784375e-07,9.59375000e-03,2.28125000e-02
-1.84984375e-07,4.00000000e-03,1.85156250e-02
-1.84184375e-07,1.51562500e-02,1.64062500e-03
-1.83384375e-07,1.27500000e-02,2.66406250e-02
-1.82584375e-07,5.56250000e-03,2.10937500e-02
-1.81784375e-07,7.09375000e-03,1.96875000e-02
-1.80984375e-07,1.17500000e-02,2.98437500e-02
-1.80184375e-07,4.46875000e-03,1.78125000e-02
-1.79384375e-07,1.40000000e-02,2.00781250e-02
-1.78584375e-07,8.37500000e-03,1.14062500e-02
-1.77784375e-07,9.87500000e-03,1.56250000e-02
-1.76984375e-07,6.84375000e-03,2.08593750e-02
-1.76184375e-07,1.50000000e-02,1.79687500e-02
-1.75384375e-07,7.62500000e-03,1.82812500e-02
-1.74584375e-07,1.70312500e-02,3.06250000e-02
-1.73784375e-07,1.07187500e-02,1.04687500e-02
-1.72984375e-07,9.68750000e-03,2.29687500e-02
-1.72184375e-07,1.17812500e-02,1.64062500e-02
-1.71384375e-07,1.47500000e-02,1.28906250e-02
-1.70584375e-07,6.62500000e-03,1.08593750e-02
-1.69784375e-07,9.56250000e-03,1.30468750e-02
-1.68984375e-07,1.34062500e-02,2.16406250e-02
-1.68184375e-07,1.54687500e-02,1.67968750e-02
-1.67384375e-07,5.03125000e-03,1.68750000e-02
-1.66584375e-07,1.30000000e-02,1.82031250e-02
-1.65784375e-07,1.50937500e-02,1.75000000e-02
-1.64984375e-07,8.93750000e-03,1.75781250e-02
-1.64184375e-07,1.23125000e-02,1.88281250e-02
-1.63384375e-07,1.09687500e-02,1.75000000e-02
-1.62584375e-07,1.01250000e-02,2.08593750e-02
-1.61784375e-07,8.40625000e-03,2.39843750e-02
-1.60984375e-07,1.25312500e-02,2.06250000e-02
-1.60184375e-07,1.34687500e-02,1.92968750e-02
-1.59384375e-07,6.37500000e-03,1.46875000e-02
-1.58584375e-07,1.10000000e-02,8.90625000e-03
-1.57784375e-07,1.12500000e-02,1.83593750e-02
-1.56984375e-07,1.17812500e-02,1.60156250e-02
-1.56184375e-07,9.21875000e-03,1.56250000e-02
-1.55384375e-07,1.50000000e-02,1.61718750e-02
-1.54584375e-07,7.12500000e-03,1.89843750e-02
-1.53784375e-07,1.55937500e-02,2.40625000e-02
-1.52984375e-07,1.23125000e-02,2.00000000e-02
-1.52184375e-07,1.45000000e-02,1.46093750e-02
-1.51384375e-07,6.93750000e-03,9.06250000e-03
-1.50584375e-07,1.21875000e-02,2.69531250e-02
-1.49784375e-07,1.26562500e-02,1.52343750e-02
-1.48984375e-07,1.23437500e-02,2.21875000e-02
-1.48184375e-07,9.56250000e-03,9.29687500e-03
-1.47384375e-07,1.40625000e-02,2.04687500e-02
-1.46584375e-07,9.34375000e-03,1.53125000e-02
-1.45784375e-07,9.81250000e-03,1.63281250e-02
-1.44984375e-07,7.71875000e-03,1.74218750e-02
-1.44184375e-07,1.10000000e-02,1.42187500e-02
-1.43384375e-07,1.24375000e-02,1.42968750e-02
-1.42584375e-07,1.70000000e-02,2.55468750e-02
-1.41784375e-07,3.40625000e-03,9.84375000e-03
-1.40984375e-07,1.35312500e-02,1.51562500e-02
-1.40184375e-07,1.15625000e-02,1.79687500e-02
-1.39384375e-07,9.34375000e-03,1.89062500e-02
-1.38584375e-07,7.37500000e-03,1.79687500e-02
-1.37784375e-07,1.09687500e-02,1.09375000e-02
-1.36984375e-07,1.65312500e-02,2.48437500e-02
-1.36184375e-07,1.38125000e-02,1.33593750e-02
-1.35384375e-07,1.15625000e-02,2.28906250e-02
-1.34584375e-07,1.01562500e-02,8.12500000e-03
-1.33784375e-07,7.43750000e-03,2.06250000e-02
-1.32984375e-07,1.05000000e-02,1.61718750e-02
-1.32184375e-07,1.21875000e-02,2.71093750e-02
-1.31384375e-07,7.50000000e-03,1.85937500e-02
-1.30584375e-07,1.13125000e-02,1.25781250e-02
-1.29784375e-07,1.37187500e-02,2.64062500e-02
-1.28984375e-07,4.56250000e-03,1.82812500e-02
-1.28184375e-07,1.35625000e-02,1.91406250e-02
-1.27384375e-07,1.21562500e-02,1.64843750e-02
-1.26584375e-07,1.42500000e-02,2.38281250e-02
-1.25784375e-07,8.06250000e-03,9.21875000e-03
-1.24984375e-07,1.06875000e-02,1.70312500e-02
-1.24184375e-07,1.01250000e-02,2.40625000e-02
-1.23384375e-07,1.35625000e-02,2.00000000e-02
-1.22584375e-07,1.01875000e-02,2.07812500e-02
-1.21784375e-07,1.00312500e-02,2.14843750e-02
-1.20984375e-07,9.93750000e-03,1.88281250e-02
-1.20184375e-07,1.29687500e-02,1.70312500e-02
-1.19384375e-07,7.81250000e-03,2.50000000e-02
-1.18584375e-07,8.59375000e-03,1.89062500e-02
-1.17784375e-07,1.02812500e-02,2.37500000e-02
-1.16984375e-07,1.43437500e-02,1.89062500e-02
-1.16184375e-07,9.09375000e-03,1.78906250e-02
-1.15384375e-07,1.11250000e-02,1.52343750e-02
-1.14584375e-07,1.61562500e-02,1.41406250e-02
-1.13784375e-07,8.12500000e-03,1.42187500e-02
-1.12984375e-07,1.20312500e-02,2.03125000e-02
-1.12184375e-07,1.12812500e-02,1.95312500e-02
-1.11384375e-07,9.53125000e-03,2.29687500e-02
-1.10584375e-07,1.23437500e-02,1.41406250e-02
-1.09784375e-07,1.43125000e-02,1.60156250e-02
-1.08984375e-07,1.43437500e-02,1.71093750e-02
-1.08184375e-07,6.37500000e-03,1.21093750e-02
-1.07384375e-07,9.12500000e-03,1.55468750e-02
-1.06584375e-07,7.50000000e-03,1.96093750e-02
-1.05784375e-07,1.34062500e-02,1.88281250e-02
-1.04984375e-07,8.71875000e-03,1.97656250e-02
-1.04184375e-07,1.38437500e-02,2.42187500e-02
-1.03384375e-07,2.21875000e-03,2.10156250e-02
-1.02584375e-07,1.20312500e-02,1.90625000e-02
-1.01784375e-07,6.34375000e-03,2.06250000e-02
-1.00984375e-07,1.50000000e-02,2.24218750e-02
-1.00184375e-07,7.90625000e-03,1.53906250e-02
-9.93843750e-08,1.70312500e-02,2.01562500e-02
-9.85843750e-08,1.22812500e-02,1.82031250e-02
-9.77843750e-08,1.12187500e-02,2.15625000e-02
-9.69843750e-08,1.04375000e-02,1.17968750e-02
-9.61843750e-08,1.44062500e-02,2.99218750e-02
-9.53843750e-08,6.68750000e-03,1.75781250e-02
-9.45843750e-08,1.50000000e-02,2.14843750e-02
-9.37843750e-08,3.81250000e-03,2.25781250e-02
-9.29843750e-08,1.18437500e-02,2.32812500e-02
-9.21843750e-08,1.40000000e-02,1.73437500e-02
-9.13843750e-08,1.59687500e-02,1.50000000e-02
-9.05843750e-08,6.03125000e-03,1.64843750e-02
-8.97843750e-08,1.27812500e-02,2.11718750e-02
-8.89843750e-08,1.32187500e-02,2.22656250e-02
-8.81843750e-08,9.84375000e-03,2.10156250e-02
-8.73843750e-08,8.59375000e-03,1.83593750e-02
-8.65843750e-08,8.03125000e-03,2.71093750e-02
-8.57843750e-08,1.04375000e-02,2.74218750e-02
-8.49843750e-08,1.23750000e-02,1.96093750e-02
-8.41843750e-08,1.10937500e-02,2.75781250e-02
-8.33843750e-08,1.48125000e-02,1.67968750e-02
-8.25843750e-08,6.87500000e-03,2.71875000e-02
-8.17843750e-08,1.64687500e-02,1.80468750e-02
-8.09843750e-08,8.90625000e-03,1.85156250e-02
-8.01843750e-08,1.14062500e-02,1.63281250e-02
-7.93843750e-08,1.22500000e-02,1.85937500e-02
-7.85843750e-08,1.52812500e-02,2.17187500e-02
-7.77843750e-08,6.31250000e-03,1.58593750e-02
-7.69843750e-08,1.69062500e-02,2.50781250e-02
-7.61843750e-08,1.20000000e-02,2.08593750e-02
-7.53843750e-08,1.38125000e-02,1.63281250e-02
-7.45843750e-08,9.18750000e-03,2.17968750e-02
-7.37843750e-08,1.77812500e-02,2.53906250e-02
-7.29843750e-08,1.01562500e-02,2.14062500e-02
-7.21843750e-08,1.69062500e-02,2.12500000e-02
-7.13843750e-08,8.03125000e-03,1.40625000e-02
-7.05843750e-08,1.24062500e-02,2.40625000e-02
-6.97843750e-08,8.71875000e-03,2.03125000e-02
-6.89843750e-08,1.57187500e-02,9.84375000e-03
-6.81843750e-08,5.56250000e-03,1.93750000e-02
-6.73843750e-08,7.71875000e-03,2.08593750e-02
-6.65843750e-08,1.47812500e-02,2.49218750e-02
-6.57843750e-08,1.29375000e-02,2.64062500e-02
-6.49843750e-08,5.93750000e-03,2.09375000e-02
-6.41843750e-08,1.17812500e-02,2.51562500e-02
-6.33843750e-08,1.40000000e-02,1.42968750e-02
-6.25843750e-08,1.19062500e-02,1.27343750e-02
-6.17843750e-08,1.00312500e-02,2.30468750e-02
-6.09843750e-08,8.00000000e-03,1.60156250e-02
-6.01843750e-08,1.17500000e-02,-3.51406250e-01
-5.93843750e-08,1.18437500e-02,-9.30859375e-01
-5.85843750e-08,1.15937500e-02,-1.24242188e+00
-5.77843750e-08,8.93750000e-03,-1.30703125e+00
-5.69843750e-08,6.31250000e-03,-1.33414063e+00
-5.61843750e-08,1.85937500e-02,-1.37101563e+00
-5.53843750e-08,9.78125000e-03,-1.39156250e+00
-5.45843750e-08,1.31250000e-02,-1.38507813e+00
-5.37843750e-08,1.07500000e-02,-1.38835938e+00
-5.29843750e-08,1.70625000e-02,-1.39882813e+00
-5.21843750e-08,4.65625000e-03,-1.40960938e+00
-5.13843750e-08,9.65625000e-03,-1.40742188e+00
-5.05843750e-08,1.08750000e-02,-1.40015625e+00
-4.97843750e-08,1.66250000e-02,-1.40687500e+00
-4.89843750e-08,6.15625000e-03,-1.42007813e+00
-4.81843750e-08,1.68750000e-02,-1.40593750e+00
-4.73843750e-08,1.00000000e-02,-1.41406250e+00
-4.65843750e-08,9.87500000e-03,-1.41125000e+00
-4.57843750e-08,6.06250000e-03,-1.42851563e+00
-4.49843750e-08,1.17500000e-02,-1.41421875e+00
-4.41843750e-08,8.15625000e-03,-1.41937500e+00
-4.33843750e-08,1.66875000e-02,-1.42000000e+00
-4.25843750e-08,6.25000000e-03,-1.42093750e+00
-4.17843750e-08,1.15625000e-02,-1.42382812e+00
-4.09843750e-08,1.23125000e-02,-1.42976563e+00
-4.01843750e-08,1.39375000e-02,-1.41539063e+00
-3.93843750e-08,5.93750000e-03,-1.41945312e+00
-3.85843750e-08,9.96875000e-03,-1.42093750e+00
-3.77843750e-08,9.75000000e-03,-1.41468750e+00
-3.69843750e-08,1.13125000e-02,-1.41210938e+00
-3.61843750e-08,1.06562500e-02,-1.42445313e+00
-3.53843750e-08,7.40625000e-03,-1.42132813e+00
-3.45843750e-08,2.87500000e-03,-1.42117188e+00
-3.37843750e-08,3.75000000e-04,-1.41296875e+00
-3.29843750e-08,-1.06250000e-02,-1.41906250e+00
-3.21843750e-08,-4.31562500e-02,-1.42257813e+00
-3.13843750e-08,-1.02031250e-01,-1.42296875e+00
-3.05843750e-08,-1.67000000e-01,-1.42921875e+00
-2.97843750e-08,-2.73000000e-01,-1.42203125e+00
-2.89843750e-08,-3.86843750e-01,-1.42867188e+00
-2.81843750e-08,-5.01625000e-01,-1.41867188e+00
-2.73843750e-08,-6.07343750e-01,-1.41242188e+00
-2.65843750e-08,-7.05312500e-01,-1.42523438e+00
-2.57843750e-08,-7.75312500e-01,-1.41093750e+00
-2.49843750e-08,-8.41593750e-01,-1.41382813e+00
-2.41843750e-08,-8.89843750e-01,-1.41164062e+00
-2.33843750e-08,-9.14031250e-01,-1.41085938e+00
-2.25843750e-08,-9.23218750e-01,-1.41164062e+00
-2.17843750e-08,-9.38437500e-01,-1.42046875e+00
-2.09843750e-08,-9.31468750e-01,-1.40718750e+00
-2.01843750e-08,-9.22812500e-01,-1.43109375e+00
-1.93843750e-08,-9.04906250e-01,-1.41367188e+00
-1.85843750e-08,-8.80031250e-01,-1.41812500e+00
-1.77843750e-08,-8.51250000e-01,-1.40789063e+00
-1.69843750e-08,-8.25343750e-01,-1.42609375e+00
-1.61843750e-08,-7.83937500e-01,-1.41867188e+00
-1.53843750e-08,-7.48718750e-01,-1.42156250e+00
-1.45843750e-08,-7.10906250e-01,-1.41656250e+00
-1.37843750e-08,-6.76437500e-01,-1.41671875e+00
-1.29843750e-08,-6.38062500e-01,-1.41195313e+00
-1.21843750e-08,-5.99281250e-01,-1.42265625e+00
-1.13843750e-08,-5.65812500e-01,-1.41750000e+00
-1.05843750e-08,-5.32250000e-01,-1.41570313e+00
-9.78437500e-09,-4.92718750e-01,-1.42085938e+00
-8.98437500e-09,-4.63593750e-01,-1.42054688e+00
-8.18437500e-09,-4.36000000e-01,-1.42117188e+00
-7.38437500e-09,-4.08656250e-01,-1.42679687e+00
-6.58437500e-09,-3.76531250e-01,-1.41445313e+00
-5.78437500e-09,-3.59906250e-01,-1.41843750e+00
-4.98437500e-09,-3.33000000e-01,-1.41390625e+00
-4.18437500e-09,-3.18250000e-01,-1.41273438e+00
-3.38437500e-09,-2.96437500e-01,-1.38148438e+00
-2.58437500e-09,-2.75718750e-01,-1.32781250e+00
-1.78437500e-09,-2.58843750e-01,-1.13984375e+00
-9.84375000e-10,-2.50250000e-01,-7.30000000e-01
-1.84375000e-10,-2.27343750e-01,-3.36015625e-01
6.15625000e-10,-2.17625000e-01,-1.95390625e-01
1.41562500e-09,-2.03125000e-01,-9.86718750e-02
2.21562500e-09,-1.95312500e-01,-5.96093750e-02
3.01562500e-09,-1.76625000e-01,-3.60937500e-02
3.81562500e-09,-1.76593750e-01,-3.96875000e-02
4.61562500e-09,-1.60437500e-01,-3.46093750e-02
5.41562500e-09,-1.56812500e-01,-3.37500000e-02
6.21562500e-09,-1.40718750e-01,-3.65625000e-02
7.01562500e-09,-1.38406250e-01,-2.29687500e-02
7.81562500e-09,-1.28968750e-01,-3.57031250e-02
8.61562500e-09,-1.27250000e-01,-2.82812500e-02
9.41562500e-09,-1.18281250e-01,-1.82031250e-02
1.02156250e-08,-1.11406250e-01,-1.85937500e-02
1.10156250e-08,-1.04593750e-01,-8.75000000e-03
1.18156250e-08,-1.06343750e-01,-4.68750000e-03
1.26156250e-08,-9.45937500e-02,-1.28125000e-02
1.34156250e-08,-8.95312500e-02,-1.64843750e-02
1.42156250e-08,-9.13750000e-02,1.40625000e-03
1.50156250e-08,-8.09687500e-02,-1.28906250e-02
1.58156250e-08,-7.64375000e-02,-1.02343750e-02
1.66156250e-08,-7.45625000e-02,-1.01562500e-03
1.74156250e-08,-6.49687500e-02,2.42187500e-03
1.82156250e-08,-6.44375000e-02,1.25000000e-03
1.90156250e-08,-5.53750000e-02,7.42187500e-03
1.98156250e-08,-5.05000000e-02,1.14843750e-02
2.06156250e-08,-4.86875000e-02,1.09375000e-02
2.14156250e-08,-4.82500000e-02,6.01562500e-03
2.22156250e-08,-4.22187500e-02,7.81250000e-03
2.30156250e-08,-3.68125000e-02,1.64062500e-03
2.38156250e-08,-3.41875000e-02,1.67187500e-02
2.46156250e-08,-3.73437500e-02,8.59375000e-03
2.54156250e-08,-2.43750000e-02,1.39843750e-02
2.62156250e-08,-2.67500000e-02,8.12500000e-03
2.70156250e-08,-2.26875000e-02,1.53906250e-02
2.78156250e-08,-2.59375000e-02,1.87500000e-02
2.86156250e-08,-1.74687500e-02,1.77343750e-02
2.94156250e-08,-2.27187500e-02,1.47656250e-02
3.02156250e-08,-1.69375000e-02,2.05468750e-02
3.10156250e-08,-2.20625000e-02,1.55468750e-02
3.18156250e-08,-1.71250000e-02,3.00781250e-02
3.26156250e-08,-1.96875000e-02,2.73437500e-02
3.34156250e-08,-1.25937500e-02,4.13281250e-02
3.42156250e-08,-2.20000000e-02,4.36718750e-02
3.50156250e-08,-1.16875000e-02,4.42187500e-02
3.58156250e-08,-7.53125000e-03,3.97656250e-02
3.66156250e-08,-1.04687500e-02,4.63281250e-02
3.74156250e-08,-1.99375000e-02,3.77343750e-02
3.82156250e-08,-9.84375000e-03,3.27343750e-02
3.90156250e-08,-1.14375000e-02,2.85156250e-02
3.98156250e-08,-8.59375000e-03,3.40625000e-02
4.06156250e-08,-8.53125000e-03,3.22656250e-02
4.14156250e-08,-1.35625000e-02,2.92187500e-02
4.22156250e-08,-7.09375000e-03,4.07812500e-02
4.30156250e-08,-1.13750000e-02,2.46875000e-02
4.38156250e-08,-1.11250000e-02,3.49218750e-02
4.46156250e-08,-8.65625000e-03,2.65625000e-02
4.54156250e-08,-9.75000000e-03,3.21093750e-02
4.62156250e-08,-7.00000000e-03,2.38281250e-02
4.70156250e-08,-1.34375000e-02,2.87500000e-02
4.78156250e-08,-4.31250000e-03,2.70312500e-02
4.86156250e-08,-8.46875000e-03,2.32812500e-02
4.94156250e-08,-7.59375000e-03,2.97656250e-02
5.02156250e-08,-1.04687500e-02,3.16406250e-02
5.10156250e-08,-4.34375000e-03,2.93750000e-02
5.18156250e-08,-5.28125000e-03,2.02343750e-02
5.26156250e-08,-1.43750000e-03,3.14843750e-02
5.34156250e-08,-4.40625000e-03,1.92968750e-02
5.42156250e-08,5.62500000e-04,1.82812500e-02
5.50156250e-08,-4.09375000e-03,2.03125000e-02
5.58156250e-08,-9.06250000e-04,3.67187500e-02
5.66156250e-08,-6.25000000e-03,2.03906250e-02
