data/raw/TriggerAuto_ALL_20231205194731607.csv

Model,MSO64B
Channel,CH1,,Channel,CH2
Label,,,Label,
Waveform Type,ANALOG,,Waveform Type,ANALOG
Horizontal Units,s,,Horizontal Units,s
Sample Interval,8.00000000e-10,,Sample Interval,8.00000000e-10
Record Length,5000,,Record Length,5000
Zero Index,349.89453125,,Zero Index,349.89453125
Vertical Units,V,,Vertical Units,V
,,,,
ANALOG_Thumbnail,,,ANALOG_Thumbnail,
yOffset,0.000000,,yOffset,0.000000
yPosition,2.160000,,yPosition,2.180000

Labels,,
TIME,CH1,CH2
-2.79915625e-07,9.31250000e-03,1.61718750e-02
-2.79115625e-07,1.14062500e-02,1.90625000e-02
-2.78315625e-07,4.12500000e-03,1.09375000e-02
-2.77515625e-07,1.45937500e-02,2.11718750e-02
-2.76715625e-07,4.28125000e-03,2.00781250e-02
-2.75915625e-07,1.00000000e-02,1.03125000e-02
-2.75115625e-07,6.81250000e-03,1.25000000e-02
-2.74315625e-07,9.09375000e-03,2.43750000e-02
-2.73515625e-07,9.96875000e-03,1.86718750e-02
-2.72715625e-07,1.08125000e-02,1.63281250e-02
-2.71915625e-07,7.50000000e-04,1.54687500e-02
-2.71115625e-07,8.34375000e-03,1.10156250e-02
-2.70315625e-07,1.04687500e-02,1.64062500e-02
-2.69515625e-07,1.17812500e-02,1.75781250e-02
-2.68715625e-07,4.40625000e-03,1.15625000e-02
-2.67915625e-07,1.01562500e-02,9.84375000e-03
-2.67115625e-07,1.35312500e-02,1.57031250e-02
-2.66315625e-07,1.11875000e-02,7.65625000e-03
-2.65515625e-07,9.18750000e-03,2.03125000e-03
-2.64715625e-07,6.84375000e-03,7.57812500e-03
-2.63915625e-07,1.46250000e-02,2.26562500e-02
-2.63115625e-07,8.71875000e-03,1.89843750e-02
-2.62315625e-07,1.07187500e-02,2.03125000e-02
-2.61515625e-07,7.81250000e-03,1.09375000e-02
-2.60715625e-07,4.46875000e-03,2.10937500e-02
-2.59915625e-07,1.27187500e-02,8.67187500e-03
-2.59115625e-07,2.34375000e-03,1.12500000e-02
-2.58315625e-07,4.46875000e-03,5.54687500e-03
-2.57515625e-07,5.09375000e-03,2.34375000e-04
-2.56715625e-07,1.47500000e-02,1.73437500e-02
-2.55915625e-07,4.53125000e-03,3.82812500e-03
-2.55115625e-07,1.00937500e-02,1.42187500e-02
-2.54315625e-07,7.68750000e-03,1.39062500e-02
-2.53515625e-07,1.44375000e-02,2.52343750e-02
-2.52715625e-07,5.90625000e-03,2.07812500e-02
-2.51915625e-07,1.61562500e-02,1.35937500e-02
-2.51115625e-07,4.71875000e-03,1.24218750e-02
-2.50315625e-07,1.04687500e-02,1.84375000e-02
-2.49515625e-07,3.81250000e-03,1.56250000e-02
-2.48715625e-07,8.65625000e-03,2.75781250e-02
-2.47915625e-07,5.06250000e-03,1.64843750e-02
-2.47115625e-07,1.16250000e-02,1.23437500e-02
-2.46315625e-07,5.90625000e-03,1.16406250e-02
-2.45515625e-07,7.68750000e-03,1.64062500e-02
-2.44715625e-07,1.15625000e-02,1.15625000e-02
-2.43915625e-07,1.14375000e-02,1.84375000e-02
-2.43115625e-07,3.90625000e-03,1.00781250e-02
-2.42315625e-07,9.90625000e-03,1.06250000e-02
-2.41515625e-07,1.32500000e-02,1.17187500e-02
-2.40715625e-07,1.04375000e-02,1.59375000e-02
-2.39915625e-07,1.00625000e-02,2.01562500e-02
-2.39115625e-07,6.90625000e-03,9.68750000e-03
-2.38315625e-07,8.71875000e-03,2.29687500e-02
-2.37515625e-07,7.96875000e-03,8.75000000e-03
-2.36715625e-07,9.37500000e-03,1.32031250e-02
-2.35915625e-07,1.18125000e-02,5.07812500e-03
-2.35115625e-07,4.34375000e-03,1.73437500e-02
-2.34315625e-07,1.25625000e-02,1.62500000e-02
-2.33515625e-07,7.71875000e-03,1.82812500e-02
-2.32715625e-07,3.56250000e-03,7.50000000e-03
-2.31915625e-07,6.62500000e-03,7.34375000e-03
-2.31115625e-07,1.16562500e-02,1.05468750e-02
-2.30315625e-07,1.09375000e-03,1.06250000e-02
-2.29515625e-07,8.50000000e-03,1.32031250e-02
-2.28715625e-07,7.78125000e-03,1.45312500e-02
-2.27915625e-07,9.21875000e-03,2.23437500e-02
-2.27115625e-07,4.03125000e-03,1.55468750e-02
-2.26315625e-07,7.50000000e-03,1.10937500e-02
-2.25515625e-07,6.00000000e-03,1.57812500e-02
-2.24715625e-07,7.12500000e-03,1.42968750e-02
-2.23915625e-07,4.25000000e-03,9.14062500e-03
-2.23115625e-07,1.21562500e-02,2.05468750e-02
-2.22315625e-07,8.68750000e-03,2.07812500e-02
-2.21515625e-07,9.81250000e-03,1.48437500e-02
-2.20715625e-07,5.75000000e-03,1.09375000e-02
-2.19915625e-07,6.75000000e-03,7.89062500e-03
-2.19115625e-07,8.37500000e-03,1.66406250e-02
-2.18315625e-07,8.46875000e-03,1.89843750e-02
-2.17515625e-07,7.50000000e-03,2.49218750e-02
-2.16715625e-07,6.96875000e-03,1.79687500e-02
-2.15915625e-07,1.16250000e-02,1.62500000e-02
-2.15115625e-07,7.40625000e-03,1.42187500e-02
-2.14315625e-07,8.50000000e-03,1.23437500e-02
-2.13515625e-07,6.15625000e-03,9.76562500e-03
-2.12715625e-07,1.08437500e-02,2.05468750e-02
-2.11915625e-07,9.40625000e-03,2.67187500e-02
-2.11115625e-07,1.05000000e-02,1.53906250e-02
-2.10315625e-07,8.87500000e-03,1.69531250e-02
-2.09515625e-07,3.75000000e-04,1.54687500e-02
-2.08715625e-07,1.07187500e-02,1.03125000e-02
-2.07915625e-07,8.71875000e-03,1.71093750e-02
-2.07115625e-07,1.08437500e-02,1.47656250e-02
-2.06315625e-07,5.03125000e-03,1.03906250e-02
-2.05515625e-07,1.12500000e-02,1.36718750e-02
-2.04715625e-07,3.62500000e-03,7.10937500e-03
-2.03915625e-07,1.30937500e-02,1.00000000e-02
-2.03115625e-07,6.28125000e-03,1.72656250e-02
-2.02315625e-07,8.12500000e-03,2.56250000e-02
-2.01515625e-07,1.75000000e-03,1.48437500e-02
-2.00715625e-07,1.12187500e-02,1.77343750e-02
-1.99915625e-07,1.06562500e-02,2.35156250e-02
-1.99115625e-07,9.62500000e-03,1.99218750e-02
-1.98315625e-07,6.25000000e-03,8.12500000e-03
-1.97515625e-07,9.68750000e-03,1.17968750e-02
-1.96715625e-07,3.53125000e-03,1.83593750e-02
-1.95915625e-07,1.02500000e-02,2.01562500e-02
-1.95115625e-07,6.25000000e-03,1.34375000e-02
-1.94315625e-07,4.25000000e-03,5.78125000e-03
-1.93515625e-07,7.40625000e-03,1.72656250e-02
-1.92715625e-07,1.25625000e-02,1.89062500e-02
-1.91915625e-07,2.09375000e-03,1.89062500e-02
-1.91115625e-07,9.65625000e-03,1.14062500e-02
-1.90315625e-07,8.90625000e-03,1.10937500e-02
-1.89515625e-07,4.68750000e-03,1.03906250e-02
-1.88715625e-07,5.34375000e-03,6.01562500e-03
-1.87915625e-07,8.06250000e-03,2.00000000e-02
-1.87115625e-07,1.22812500e-02,2.49218750e-02
-1.86315625e-07,1.00312500e-02,2.60156250e-02
-1.85515625e-07,1.20625000e-02,1.46875000e-02
-1.84715625e-07,1.32187500e-02,1.75781250e-02
-1.83915625e-07,3.25000000e-03,1.28906250e-02
-1.83115625e-07,1.06562500e-02,1.56250000e-02
-1.82315625e-07,7.68750000e-03,9.68750000e-03
-1.81515625e-07,7.53125000e-03,2.24218750e-02
-1.80715625e-07,7.78125000e-03,2.27343750e-02
-1.79915625e-07,1.13125000e-02,2.06250000e-02
-1.79115625e-07,2.28125000e-03,8.75000000e-03
-1.78315625e-07,1.20625000e-02,8.43750000e-03
-1.77515625e-07,5.40625000e-03,5.93750000e-03
-1.76715625e-07,5.25000000e-03,2.85156250e-02
-1.75915625e-07,2.12500000e-03,1.39062500e-02
-1.75115625e-07,9.43750000e-03,1.91406250e-02
-1.74315625e-07,4.78125000e-03,1.20312500e-02
-1.73515625e-07,3.75000000e-03,1.39062500e-02
-1.72715625e-07,6.12500000e-03,1.16406250e-02
-1.71915625e-07,1.32500000e-02,1.99218750e-02
-1.71115625e-07,6.65625000e-03,2.32812500e-02
-1.70315625e-07,9.75000000e-03,1.34375000e-02
-1.69515625e-07,9.37500000e-04,1.41406250e-02
-1.68715625e-07,4.03125000e-03,2.42187500e-03
-1.67915625e-07,7.81250000e-03,8.04687500e-03
-1.67115625e-07,1.08125000e-02,1.99218750e-02
-1.66315625e-07,4.84375000e-03,1.74218750e-02
-1.65515625e-07,8.96875000e-03,1.17968750e-02
-1.64715625e-07,1.04375000e-02,1.63281250e-02
-1.63915625e-07,5.59375000e-03,9.68750000e-03
-1.63115625e-07,6.31250000e-03,8.51562500e-03
-1.62315625e-07,1.10312500e-02,6.71875000e-03
-1.61515625e-07,7.28125000e-03,1.92968750e-02
-1.60715625e-07,7.78125000e-03,2.35937500e-02
-1.59915625e-07,4.43750000e-03,1.74218750e-02
-1.59115625e-07,6.28125000e-03,1.23437500e-02
-1.58315625e-07,3.78125000e-03,1.89062500e-02
-1.57515625e-07,8.03125000e-03,6.32812500e-03
-1.56715625e-07,9.12500000e-03,2.05468750e-02
-1.55915625e-07,9.25000000e-03,1.34375000e-02
-1.55115625e-07,5.71875000e-03,1.90625000e-02
-1.54315625e-07,1.22187500e-02,9.45312500e-03
-1.53515625e-07,1.09375000e-03,9.92187500e-03
-1.52715625e-07,8.68750000e-03,1.58593750e-02
-1.51915625e-07,6.56250000e-03,1.96093750e-02
-1.51115625e-07,9.93750000e-03,1.55468750e-02
-1.50315625e-07,1.18750000e-03,1.56250000e-02
-1.49515625e-07,9.81250000e-03,6.32812500e-03
-1.48715625e-07,6.18750000e-03,1.80468750e-02
-1.47915625e-07,9.50000000e-03,1.75000000e-02
-1.47115625e-07,5.31250000e-04,1.50781250e-02
-1.46315625e-07,7.50000000e-03,2.03125000e-02
-1.45515625e-07,4.34375000e-03,2.28906250e-02
-1.44715625e-07,8.71875000e-03,2.26562500e-02
-1.43915625e-07,4.00000000e-03,1.40625000e-02
-1.43115625e-07,7.71875000e-03,1.56250000e-02
-1.42315625e-07,7.56250000e-03,1.82031250e-02
-1.41515625e-07,8.84375000e-03,2.06250000e-02
-1.40715625e-07,7.28125000e-03,1.32812500e-02
-1.39915625e-07,1.10625000e-02,1.08593750e-02
-1.39115625e-07,1.15937500e-02,9.68750000e-03
-1.38315625e-07,5.06250000e-03,1.91406250e-02
-1.37515625e-07,7.18750000e-03,2.40625000e-02
-1.36715625e-07,4.75000000e-03,1.35156250e-02
-1.35915625e-07,3.34375000e-03,2.89843750e-02
-1.35115625e-07,6.65625000e-03,2.10937500e-02
-1.34315625e-07,8.37500000e-03,1.42187500e-02
-1.33515625e-07,7.28125000e-03,1.28906250e-02
-1.32715625e-07,-4.06250000e-04,1.10937500e-02
-1.31915625e-07,1.06250000e-02,1.46093750e-02
-1.31115625e-07,7.25000000e-03,2.30468750e-02
-1.30315625e-07,5.90625000e-03,8.90625000e-03
-1.29515625e-07,1.21875000e-03,1.03125000e-02
-1.28715625e-07,1.27500000e-02,2.20312500e-02
-1.27915625e-07,6.56250000e-03,1.58593750e-02
-1.27115625e-07,6.40625000e-03,1.60937500e-02
-1.26315625e-07,7.78125000e-03,1.66406250e-02
-1.25515625e-07,9.84375000e-03,8.75000000e-03
-1.24715625e-07,1.81250000e-03,9.76562500e-03
-1.23915625e-07,1.13125000e-02,6.48437500e-03
-1.23115625e-07,3.53125000e-03,2.26562500e-02
-1.22315625e-07,3.00000000e-03,1.54687500e-02
-1.21515625e-07,1.43750000e-03,1.39843750e-02
-1.20715625e-07,8.78125000e-03,1.84375000e-02
-1.19915625e-07,5.78125000e-03,2.44531250e-02
-1.19115625e-07,1.02187500e-02,1.08593750e-02
-1.18315625e-07,4.81250000e-03,9.60937500e-03
-1.17515625e-07,8.21875000e-03,2.06250000e-02
-1.16715625e-07,8.96875000e-03,6.79687500e-03
-1.15915625e-07,1.21562500e-02,2.42968750e-02
-1.15115625e-07,4.37500000e-03,1.06250000e-02
-1.14315625e-07,7.21875000e-03,2.04687500e-02
-1.13515625e-07,1.17812500e-02,1.54687500e-02
-1.12715625e-07,6.59375000e-03,2.36718750e-02
-1.11915625e-07,6.18750000e-03,1.14843750e-02
-1.11115625e-07,8.87500000e-03,7.42187500e-03
-1.10315625e-07,5.25000000e-03,2.60937500e-02
-1.09515625e-07,9.06250000e-03,1.96093750e-02
-1.08715625e-07,6.50000000e-03,1.53906250e-02
-1.07915625e-07,8.71875000e-03,1.60156250e-02
-1.07115625e-07,6.31250000e-03,1.55468750e-02
-1.06315625e-07,1.15000000e-02,1.69531250e-02
-1.05515625e-07,8.78125000e-03,1.70312500e-02
-1.04715625e-07,9.21875000e-03,1.96093750e-02
-1.03915625e-07,8.40625000e-03,9.21875000e-03
-1.03115625e-07,6.96875000e-03,2.28125000e-02
-1.02315625e-07,3.31250000e-03,1.12500000e-02
-1.01515625e-07,1.14687500e-02,2.30468750e-02
-1.00715625e-07,1.19062500e-02,2.32031250e-02
-9.99156250e-08,1.04375000e-02,1.67968750e-02
-9.91156250e-08,4.34375000e-03,2.02343750e-02
-9.83156250e-08,1.39375000e-02,1.55468750e-02
-9.75156250e-08,1.09687500e-02,9.84375000e-03
-9.67156250e-08,8.28125000e-03,1.14062500e-02
-9.59156250e-08,6.03125000e-03,5.54687500e-03
-9.51156250e-08,9.31250000e-03,1.71875000e-02
-9.43156250e-08,7.12500000e-03,1.75000000e-02
-9.35156250e-08,9.00000000e-03,2.03906250e-02
-9.27156250e-08,3.62500000e-03,1.89062500e-02
-9.19156250e-08,7.21875000e-03,1.78125000e-02
-9.11156250e-08,1.03125000e-02,1.78906250e-02
-9.03156250e-08,1.47812500e-02,2.72656250e-02
-8.95156250e-08,2.75000000e-03,2.07812500e-02
-8.87156250e-08,7.65625000e-03,1.72656250e-02
-8.79156250e-08,1.14687500e-02,2.76562500e-02
-8.71156250e-08,4.34375000e-03,1.63281250e-02
-8.63156250e-08,6.34375000e-03,2.64843750e-02
-8.55156250e-08,1.20312500e-02,1.68750000e-02
-8.47156250e-08,1.22187500e-02,3.17968750e-02
-8.39156250e-08,5.78125000e-03,1.60156250e-02
-8.31156250e-08,1.07812500e-02,1.93750000e-02
-8.23156250e-08,8.68750000e-03,2.50781250e-02
-8.15156250e-08,4.31250000e-03,2.69531250e-02
-8.07156250e-08,1.01562500e-02,1.42187500e-02
-7.99156250e-08,3.93750000e-03,1.74218750e-02
-7.91156250e-08,2.00000000e-03,2.50000000e-02
-7.83156250e-08,6.00000000e-03,1.43750000e-02
-7.75156250e-08,9.40625000e-03,1.45312500e-02
-7.67156250e-08,-2.53125000e-03,1.45312500e-02
-7.59156250e-08,1.05312500e-02,1.58593750e-02
-7.51156250e-08,8.00000000e-03,2.12500000e-02
-7.43156250e-08,1.22500000e-02,1.89062500e-02
-7.35156250e-08,2.06250000e-03,1.58593750e-02
-7.27156250e-08,1.08437500e-02,2.75781250e-02
-7.19156250e-08,6.06250000e-03,2.19531250e-02
-7.11156250e-08,8.09375000e-03,1.92968750e-02
-7.03156250e-08,5.00000000e-03,1.20312500e-02
-6.95156250e-08,9.03125000e-03,2.48437500e-02
-6.87156250e-08,6.65625000e-03,2.62500000e-02
-6.79156250e-08,9.56250000e-03,2.28125000e-02
-6.71156250e-08,5.84375000e-03,2.00781250e-02
-6.63156250e-08,7.65625000e-03,1.54687500e-02
-6.55156250e-08,1.20000000e-02,2.53906250e-02
-6.47156250e-08,1.08750000e-02,3.18750000e-02
-6.39156250e-08,4.68750000e-03,1.87500000e-02
-6.31156250e-08,9.53125000e-03,8.28125000e-03
-6.23156250e-08,9.75000000e-03,9.76562500e-03
-6.15156250e-08,9.56250000e-03,3.39062500e-02
-6.07156250e-08,8.46875000e-03,-9.83593750e-02
-5.99156250e-08,9.62500000e-03,-5.99218750e-01
-5.91156250e-08,1.14062500e-02,-1.13820312e+00
-5.83156250e-08,7.43750000e-03,-1.30687500e+00
-5.75156250e-08,8.65625000e-03,-1.36601563e+00
-5.67156250e-08,7.00000000e-03,-1.40898438e+00
-5.59156250e-08,3.46875000e-03,-1.39085938e+00
-5.51156250e-08,1.43750000e-02,-1.39968750e+00
-5.43156250e-08,8.37500000e-03,-1.38421875e+00
-5.35156250e-08,7.46875000e-03,-1.39882813e+00
-5.27156250e-08,9.34375000e-03,-1.40968750e+00
-5.19156250e-08,1.29687500e-02,-1.39851563e+00
-5.11156250e-08,3.12500000e-03,-1.41609375e+00
-5.03156250e-08,1.24062500e-02,-1.41179688e+00
-4.95156250e-08,1.10000000e-02,-1.41179688e+00
-4.87156250e-08,1.34687500e-02,-1.40757813e+00
-4.79156250e-08,5.84375000e-03,-1.41156250e+00
-4.71156250e-08,1.36250000e-02,-1.41945312e+00
-4.63156250e-08,5.59375000e-03,-1.41382813e+00
-4.55156250e-08,1.13437500e-02,-1.40968750e+00
-4.47156250e-08,8.62500000e-03,-1.43164062e+00
-4.39156250e-08,1.42500000e-02,-1.42453125e+00
-4.31156250e-08,3.46875000e-03,-1.43101563e+00
-4.23156250e-08,1.01250000e-02,-1.42679687e+00
-4.15156250e-08,8.56250000e-03,-1.42992188e+00
-4.07156250e-08,6.59375000e-03,-1.42203125e+00
-3.99156250e-08,9.53125000e-03,-1.42734375e+00
-3.91156250e-08,1.35000000e-02,-1.42468750e+00
-3.83156250e-08,3.93750000e-03,-1.42531250e+00
-3.75156250e-08,9.75000000e-03,-1.42617188e+00
-3.67156250e-08,1.19062500e-02,-1.41812500e+00
-3.59156250e-08,8.37500000e-03,-1.41671875e+00
-3.51156250e-08,7.65625000e-03,-1.42203125e+00
-3.43156250e-08,3.31250000e-03,-1.42937500e+00
-3.35156250e-08,-2.59375000e-03,-1.40929688e+00
-3.27156250e-08,-2.54062500e-02,-1.42226563e+00
-3.19156250e-08,-5.15000000e-02,-1.42289062e+00
-3.11156250e-08,-9.33437500e-02,-1.42671875e+00
-3.03156250e-08,-1.50843750e-01,-1.41429688e+00
-2.95156250e-08,-2.03687500e-01,-1.42054688e+00
-2.87156250e-08,-2.69187500e-01,-1.42984375e+00
-2.79156250e-08,-3.26250000e-01,-1.43601563e+00
-2.71156250e-08,-3.73187500e-01,-1.42734375e+00
-2.63156250e-08,-4.16187500e-01,-1.41101563e+00
-2.55156250e-08,-4.56468750e-01,-1.42234375e+00
-2.47156250e-08,-4.73937500e-01,-1.41601562e+00
-2.39156250e-08,-4.94468750e-01,-1.41726563e+00
-2.31156250e-08,-5.05312500e-01,-1.40851563e+00
-2.23156250e-08,-5.13031250e-01,-1.41984375e+00
-2.15156250e-08,-5.11062500e-01,-1.40953125e+00
-2.07156250e-08,-5.09750000e-01,-1.41125000e+00
-1.99156250e-08,-4.98468750e-01,-1.41367188e+00
-1.91156250e-08,-4.91843750e-01,-1.42351563e+00
-1.83156250e-08,-4.68937500e-01,-1.42500000e+00
-1.75156250e-08,-4.51562500e-01,-1.42218750e+00
-1.67156250e-08,-4.34000000e-01,-1.40960938e+00
-1.59156250e-08,-4.21375000e-01,-1.42125000e+00
-1.51156250e-08,-4.02531250e-01,-1.42851563e+00
-1.43156250e-08,-3.78406250e-01,-1.41507812e+00
-1.35156250e-08,-3.56562500e-01,-1.41203125e+00
-1.27156250e-08,-3.40812500e-01,-1.42265625e+00
-1.19156250e-08,-3.14218750e-01,-1.43085938e+00
-1.11156250e-08,-2.92375000e-01,-1.42585938e+00
-1.03156250e-08,-2.72875000e-01,-1.41781250e+00
-9.51562500e-09,-2.52781250e-01,-1.41859375e+00
-8.71562500e-09,-2.30625000e-01,-1.42500000e+00
-7.91562500e-09,-2.16062500e-01,-1.41007813e+00
-7.11562500e-09,-1.98500000e-01,-1.41585938e+00
-6.31562500e-09,-1.85781250e-01,-1.42515625e+00
-5.51562500e-09,-1.73250000e-01,-1.41539063e+00
-4.71562500e-09,-1.63187500e-01,-1.42046875e+00
-3.91562500e-09,-1.43937500e-01,-1.40406250e+00
-3.11562500e-09,-1.40218750e-01,-1.36953125e+00
-2.31562500e-09,-1.25406250e-01,-1.28359375e+00
-1.51562500e-09,-1.20187500e-01,-1.00445313e+00
-7.15625000e-10,-1.14375000e-01,-5.51093750e-01
8.43750000e-11,-1.07687500e-01,-2.73515625e-01
8.84375000e-10,-9.94687500e-02,-1.44843750e-01
1.68437500e-09,-9.40625000e-02,-7.07031250e-02
2.48437500e-09,-9.00000000e-02,-4.55468750e-02
3.28437500e-09,-9.20000000e-02,-4.33593750e-02
4.08437500e-09,-8.32187500e-02,-3.16406250e-02
4.88437500e-09,-8.24062500e-02,-2.69531250e-02
5.68437500e-09,-7.78750000e-02,-2.58593750e-02
6.48437500e-09,-7.42500000e-02,-2.97656250e-02
7.28437500e-09,-6.70312500e-02,-3.21093750e-02
8.08437500e-09,-6.47500000e-02,-2.26562500e-02
8.88437500e-09,-5.22500000e-02,-2.38281250e-02
9.68437500e-09,-6.20625000e-02,-1.74218750e-02
1.04843750e-08,-5.37812500e-02,-1.76562500e-02
1.12843750e-08,-4.91250000e-02,-5.85937500e-03
1.20843750e-08,-3.96562500e-02,1.64062500e-03
1.28843750e-08,-4.84062500e-02,-8.67187500e-03
1.36843750e-08,-3.66250000e-02,-1.89062500e-02
1.44843750e-08,-3.63750000e-02,-4.06250000e-03
1.52843750e-08,-3.62500000e-02,-1.10156250e-02
1.60843750e-08,-3.15625000e-02,-4.45312500e-03
1.68843750e-08,-3.30625000e-02,0.00000000e+00
1.76843750e-08,-2.71562500e-02,4.92187500e-03
1.84843750e-08,-2.26875000e-02,1.15625000e-02
1.92843750e-08,-2.72187500e-02,7.65625000e-03
2.00843750e-08,-2.22187500e-02,7.96875000e-03
2.08843750e-08,-2.32500000e-02,8.90625000e-03
2.16843750e-08,-1.72187500e-02,9.84375000e-03
2.24843750e-08,-2.32187500e-02,1.09375000e-02
2.32843750e-08,-1.87187500e-02,1.25000000e-03
2.40843750e-08,-1.95625000e-02,8.04687500e-03
2.48843750e-08,-1.24687500e-02,1.39062500e-02
2.56843750e-08,-2.24687500e-02,1.17187500e-03
2.64843750e-08,-5.18750000e-03,1.43750000e-02
2.72843750e-08,-1.53750000e-02,7.81250000e-03
2.80843750e-08,-8.03125000e-03,2.75781250e-02
2.88843750e-08,-9.96875000e-03,1.14062500e-02
2.96843750e-08,-6.71875000e-03,2.35937500e-02
3.04843750e-08,-1.24062500e-02,1.54687500e-02
3.12843750e-08,-4.21875000e-03,2.37500000e-02
3.20843750e-08,-9.18750000e-03,3.03125000e-02
3.28843750e-08,-2.71875000e-03,4.26562500e-02
3.36843750e-08,-6.68750000e-03,4.31250000e-02
3.44843750e-08,-1.00000000e-03,3.78125000e-02
3.52843750e-08,-5.56250000e-03,4.85937500e-02
3.60843750e-08,-1.87500000e-03,3.76562500e-02
3.68843750e-08,-1.56250000e-03,5.21875000e-02
3.76843750e-08,-1.28125000e-03,3.61718750e-02
3.84843750e-08,-8.65625000e-03,3.26562500e-02
3.92843750e-08,-3.46875000e-03,3.57031250e-02
4.00843750e-08,-6.87500000e-04,2.36718750e-02
4.08843750e-08,-3.43750000e-03,3.33593750e-02
4.16843750e-08,-2.28125000e-03,3.02343750e-02
4.24843750e-08,-5.90625000e-03,3.37500000e-02
4.32843750e-08,3.65625000e-03,3.86718750e-02
4.40843750e-08,-2.06250000e-03,2.78906250e-02
4.48843750e-08,-2.28125000e-03,3.07812500e-02
4.56843750e-08,4.68750000e-04,3.32031250e-02
4.64843750e-08,-3.53125000e-03,3.23437500e-02
4.72843750e-08,4.28125000e-03,2.56250000e-02
4.80843750e-08,-6.21875000e-03,2.11718750e-02
4.88843750e-08,-4.56250000e-03,2.78906250e-02
4.96843750e-08,-1.03125000e-03,2.62500000e-02
5.04843750e-08,5.40625000e-03,2.57031250e-02
5.12843750e-08,-5.25000000e-03,2.48437500e-02
5.20843750e-08,5.31250000e-03,2.16406250e-02
5.28843750e-08,2.90625000e-03,2.75781250e-02
5.36843750e-08,7.71875000e-03,2.46875000e-02
5.44843750e-08,-3.53125000e-03,1.60937500e-02
5.52843750e-08,5.15625000e-03,1.98437500e-02
5.60843750e-08,1.56250000e-03,3.33593750e-02
