data/raw/TriggerAuto_ALL_20231205192838476.csv

Model,MSO64B
Channel,CH1,,Channel,CH2
Label,,,Label,
Waveform Type,ANALOG,,Waveform Type,ANALOG
Horizontal Units,s,,Horizontal Units,s
Sample Interval,8.00000000e-10,,Sample Interval,8.00000000e-10
Record Length,5000,,Record Length,5000
Zero Index,349.30859375,,Zero Index,349.30859375
Vertical Units,V,,Vertical Units,V
,,,,
ANALOG_Thumbnail,,,ANALOG_Thumbnail,
yOffset,0.000000,,yOffset,0.000000
yPosition,2.160000,,yPosition,2.180000

Labels,,
TIME,CH1,CH2
-2.79446875e-07,3.78125000e-03,1.09375000e-02
-2.78646875e-07,7.25000000e-03,7.18750000e-03
-2.77846875e-07,3.15625000e-03,-1.01562500e-03
-2.77046875e-07,5.68750000e-03,1.10156250e-02
-2.76246875e-07,3.31250000e-03,9.45312500e-03
-2.75446875e-07,1.06875000e-02,1.81250000e-02
-2.74646875e-07,1.01562500e-02,9.29687500e-03
-2.73846875e-07,5.90625000e-03,1.93750000e-02
-2.73046875e-07,4.25000000e-03,4.45312500e-03
-2.72246875e-07,2.53125000e-03,2.02343750e-02
-2.71446875e-07,3.03125000e-03,9.60937500e-03
-2.70646875e-07,9.31250000e-03,1.08593750e-02
-2.69846875e-07,3.50000000e-03,1.78125000e-02
-2.69046875e-07,9.93750000e-03,9.84375000e-03
-2.68246875e-07,2.25000000e-03,1.46875000e-02
-2.67446875e-07,9.87500000e-03,1.11718750e-02
-2.66646875e-07,3.37500000e-03,1.92968750e-02
-2.65846875e-07,5.62500000e-03,1.82031250e-02
-2.65046875e-07,5.28125000e-03,2.42187500e-03
-2.64246875e-07,9.53125000e-03,1.28906250e-02
-2.63446875e-07,5.78125000e-03,1.17187500e-02
-2.62646875e-07,3.43750000e-03,1.06250000e-02
-2.61846875e-07,1.05000000e-02,7.26562500e-03
-2.61046875e-07,6.56250000e-03,7.50000000e-03
-2.60246875e-07,-5.93750000e-04,1.93750000e-02
-2.59446875e-07,4.40625000e-03,1.24218750e-02
-2.58646875e-07,8.28125000e-03,1.20312500e-02
-2.57846875e-07,5.90625000e-03,1.78125000e-02
-2.57046875e-07,9.09375000e-03,1.30468750e-02
-2.56246875e-07,4.78125000e-03,1.50781250e-02
-2.55446875e-07,3.93750000e-03,6.32812500e-03
-2.54646875e-07,7.78125000e-03,7.03125000e-04
-2.53846875e-07,7.43750000e-03,4.92187500e-03
-2.53046875e-07,4.40625000e-03,1.33593750e-02
-2.52246875e-07,8.09375000e-03,2.03125000e-03
-2.51446875e-07,1.05937500e-02,1.50000000e-02
-2.50646875e-07,3.43750000e-03,1.71093750e-02
-2.49846875e-07,8.31250000e-03,9.21875000e-03
-2.49046875e-07,7.43750000e-03,3.51562500e-03
-2.48246875e-07,7.21875000e-03,1.87500000e-02
-2.47446875e-07,2.75000000e-03,1.29687500e-02
-2.46646875e-07,7.93750000e-03,7.26562500e-03
-2.45846875e-07,1.00000000e-03,1.40625000e-03
-2.45046875e-07,6.06250000e-03,1.22656250e-02
-2.44246875e-07,3.50000000e-03,6.64062500e-03
-2.43446875e-07,7.62500000e-03,1.35937500e-02
-2.42646875e-07,8.06250000e-03,1.57812500e-02
-2.41846875e-07,1.05000000e-02,8.59375000e-03
-2.41046875e-07,3.31250000e-03,1.46875000e-02
-2.40246875e-07,7.37500000e-03,9.76562500e-03
-2.39446875e-07,9.40625000e-03,1.40625000e-03
-2.38646875e-07,1.22187500e-02,1.95312500e-02
-2.37846875e-07,5.00000000e-04,1.14843750e-02
-2.37046875e-07,9.78125000e-03,3.43750000e-03
-2.36246875e-07,9.81250000e-03,6.71875000e-03
-2.35446875e-07,9.87500000e-03,8.12500000e-03
-2.34646875e-07,7.59375000e-03,8.75000000e-03
-2.33846875e-07,4.00000000e-03,2.81250000e-03
-2.33046875e-07,9.87500000e-03,1.68750000e-02
-2.32246875e-07,3.37500000e-03,3.20312500e-03
-2.31446875e-07,5.87500000e-03,1.31250000e-02
-2.30646875e-07,6.31250000e-03,2.03906250e-02
-2.29846875e-07,1.43750000e-03,7.18750000e-03
-2.29046875e-07,3.75000000e-03,1.33593750e-02
-2.28246875e-07,3.15625000e-03,1.38281250e-02
-2.27446875e-07,6.12500000e-03,1.63281250e-02
-2.26646875e-07,5.03125000e-03,-2.81250000e-03
-2.25846875e-07,7.53125000e-03,1.22656250e-02
-2.25046875e-07,1.53125000e-03,3.20312500e-03
-2.24246875e-07,1.02187500e-02,9.60937500e-03
-2.23446875e-07,4.68750000e-03,7.96875000e-03
-2.22646875e-07,6.81250000e-03,8.82812500e-03
-2.21846875e-07,6.25000000e-05,1.86718750e-02
-2.21046875e-07,9.59375000e-03,1.42968750e-02
-2.20246875e-07,5.21875000e-03,3.90625000e-03
-2.19446875e-07,8.84375000e-03,6.71875000e-03
-2.18646875e-07,3.93750000e-03,-5.15625000e-03
-2.17846875e-07,9.06250000e-03,1.18750000e-02
-2.17046875e-07,9.37500000e-04,7.96875000e-03
-2.16246875e-07,1.02187500e-02,1.55468750e-02
-2.15446875e-07,3.87500000e-03,1.17187500e-02
-2.14646875e-07,5.68750000e-03,6.09375000e-03
-2.13846875e-07,9.37500000e-03,4.84375000e-03
-2.13046875e-07,1.21562500e-02,1.28906250e-02
-2.12246875e-07,3.84375000e-03,1.64062500e-02
-2.11446875e-07,5.59375000e-03,3.90625000e-03
-2.10646875e-07,9.46875000e-03,1.48437500e-03
-2.09846875e-07,5.37500000e-03,9.60937500e-03
-2.09046875e-07,2.40625000e-03,9.37500000e-03
-2.08246875e-07,5.75000000e-03,6.25000000e-03
-2.07446875e-07,6.96875000e-03,1.81250000e-02
-2.06646875e-07,8.25000000e-03,1.25781250e-02
-2.05846875e-07,8.50000000e-03,2.13281250e-02
-2.05046875e-07,8.03125000e-03,1.15625000e-02
-2.04246875e-07,4.87500000e-03,1.32812500e-02
-2.03446875e-07,1.20000000e-02,8.35937500e-03
-2.02646875e-07,6.31250000e-03,6.71875000e-03
-2.01846875e-07,6.37500000e-03,1.13281250e-02
-2.01046875e-07,5.84375000e-03,9.37500000e-03
-2.00246875e-07,8.68750000e-03,1.45312500e-02
-1.99446875e-07,2.75000000e-03,5.93750000e-03
-1.98646875e-07,5.00000000e-03,1.07031250e-02
-1.97846875e-07,9.25000000e-03,2.73437500e-03
-1.97046875e-07,1.19687500e-02,1.35937500e-02
-1.96246875e-07,1.87500000e-03,1.19531250e-02
-1.95446875e-07,8.21875000e-03,2.12500000e-02
-1.94646875e-07,5.56250000e-03,9.60937500e-03
-1.93846875e-07,5.21875000e-03,1.40625000e-02
-1.93046875e-07,8.03125000e-03,1.23437500e-02
-1.92246875e-07,8.06250000e-03,9.21875000e-03
-1.91446875e-07,3.96875000e-03,8.59375000e-03
-1.90646875e-07,8.65625000e-03,9.29687500e-03
-1.89846875e-07,7.84375000e-03,1.06250000e-02
-1.89046875e-07,6.87500000e-03,6.01562500e-03
-1.88246875e-07,7.75000000e-03,8.75000000e-03
-1.87446875e-07,9.62500000e-03,9.37500000e-03
-1.86646875e-07,1.62500000e-03,6.71875000e-03
-1.85846875e-07,4.53125000e-03,1.21093750e-02
-1.85046875e-07,7.75000000e-03,6.64062500e-03
-1.84246875e-07,7.09375000e-03,1.21875000e-02
-1.83446875e-07,6.37500000e-03,1.12500000e-02
-1.82646875e-07,5.46875000e-03,6.01562500e-03
-1.81846875e-07,5.78125000e-03,7.50000000e-03
-1.81046875e-07,9.28125000e-03,1.40625000e-02
-1.80246875e-07,7.96875000e-03,1.32812500e-02
-1.79446875e-07,6.81250000e-03,1.85156250e-02
-1.78646875e-07,-5.31250000e-04,1.09375000e-02
-1.77846875e-07,6.37500000e-03,-1.32812500e-03
-1.77046875e-07,5.90625000e-03,9.68750000e-03
-1.76246875e-07,8.56250000e-03,1.18750000e-02
-1.75446875e-07,8.84375000e-03,3.43750000e-03
-1.74646875e-07,8.68750000e-03,1.95312500e-02
-1.73846875e-07,1.37500000e-03,1.36718750e-02
-1.73046875e-07,9.46875000e-03,1.20312500e-02
-1.72246875e-07,6.84375000e-03,1.52343750e-02
-1.71446875e-07,9.71875000e-03,1.43750000e-02
-1.70646875e-07,1.75000000e-03,9.84375000e-03
-1.69846875e-07,1.04062500e-02,1.04687500e-02
-1.69046875e-07,8.84375000e-03,1.32812500e-03
-1.68246875e-07,9.68750000e-03,1.48437500e-02
-1.67446875e-07,3.03125000e-03,7.10937500e-03
-1.66646875e-07,1.00312500e-02,5.46875000e-03
-1.65846875e-07,6.96875000e-03,6.79687500e-03
-1.65046875e-07,1.04375000e-02,1.00781250e-02
-1.64246875e-07,6.34375000e-03,7.34375000e-03
-1.63446875e-07,7.46875000e-03,1.07031250e-02
-1.62646875e-07,5.50000000e-03,-3.20312500e-03
-1.61846875e-07,1.20625000e-02,1.45312500e-02
-1.61046875e-07,4.56250000e-03,1.31250000e-02
-1.60246875e-07,6.46875000e-03,1.66406250e-02
-1.59446875e-07,1.04375000e-02,-4.21875000e-03
-1.58646875e-07,7.09375000e-03,5.93750000e-03
-1.57846875e-07,7.90625000e-03,1.32031250e-02
-1.57046875e-07,9.00000000e-03,3.43750000e-03
-1.56246875e-07,8.81250000e-03,2.18750000e-03
-1.55446875e-07,4.71875000e-03,9.06250000e-03
-1.54646875e-07,1.10312500e-02,1.39843750e-02
-1.53846875e-07,5.87500000e-03,6.79687500e-03
-1.53046875e-07,4.21875000e-03,1.26562500e-02
-1.52246875e-07,8.09375000e-03,1.32812500e-03
-1.51446875e-07,5.12500000e-03,5.00000000e-03
-1.50646875e-07,7.78125000e-03,1.01562500e-02
-1.49846875e-07,2.15625000e-03,6.01562500e-03
-1.49046875e-07,8.78125000e-03,2.26562500e-03
-1.48246875e-07,9.68750000e-04,8.28125000e-03
-1.47446875e-07,8.84375000e-03,9.45312500e-03
-1.46646875e-07,6.71875000e-03,6.79687500e-03
-1.45846875e-07,5.78125000e-03,6.25000000e-03
-1.45046875e-07,2.21875000e-03,1.41406250e-02
-1.44246875e-07,1.00312500e-02,1.25000000e-02
-1.43446875e-07,4.25000000e-03,2.73437500e-03
-1.42646875e-07,8.00000000e-03,8.90625000e-03
-1.41846875e-07,7.46875000e-03,4.60937500e-03
-1.41046875e-07,5.56250000e-03,1.28125000e-02
-1.40246875e-07,5.06250000e-03,8.35937500e-03
-1.39446875e-07,8.28125000e-03,4.06250000e-03
-1.38646875e-07,4.06250000e-03,9.29687500e-03
-1.37846875e-07,6.06250000e-03,-1.25000000e-03
-1.37046875e-07,7.90625000e-03,4.68750000e-04
-1.36246875e-07,6.84375000e-03,3.82812500e-03
-1.35446875e-07,4.75000000e-03,1.69531250e-02
-1.34646875e-07,8.62500000e-03,6.71875000e-03
-1.33846875e-07,5.84375000e-03,5.78125000e-03
-1.33046875e-07,4.09375000e-03,1.70312500e-02
-1.32246875e-07,5.53125000e-03,1.66406250e-02
-1.31446875e-07,4.12500000e-03,6.79687500e-03
-1.30646875e-07,9.40625000e-03,1.43750000e-02
-1.29846875e-07,4.84375000e-03,1.40625000e-02
-1.29046875e-07,7.59375000e-03,1.23437500e-02
-1.28246875e-07,3.18750000e-03,1.28906250e-02
-1.27446875e-07,7.37500000e-03,1.36718750e-02
-1.26646875e-07,1.09062500e-02,8.98437500e-03
-1.25846875e-07,4.93750000e-03,1.20312500e-02
-1.25046875e-07,3.62500000e-03,2.10156250e-02
-1.24246875e-07,7.56250000e-03,1.16406250e-02
-1.23446875e-07,1.00312500e-02,5.93750000e-03
-1.22646875e-07,2.68750000e-03,1.15625000e-02
-1.21846875e-07,6.90625000e-03,2.11718750e-02
-1.21046875e-07,7.12500000e-03,4.60937500e-03
-1.20246875e-07,1.00625000e-02,1.57031250e-02
-1.19446875e-07,1.06250000e-03,1.40625000e-02
-1.18646875e-07,1.05312500e-02,2.14843750e-02
-1.17846875e-07,5.37500000e-03,9.92187500e-03
-1.17046875e-07,6.06250000e-03,1.36718750e-02
-1.16246875e-07,1.90625000e-03,2.96875000e-03
-1.15446875e-07,7.81250000e-03,1.67187500e-02
-1.14646875e-07,3.15625000e-03,1.41406250e-02
-1.13846875e-07,8.34375000e-03,5.31250000e-03
-1.13046875e-07,1.62500000e-03,1.07812500e-02
-1.12246875e-07,4.00000000e-03,1.53125000e-02
-1.11446875e-07,6.03125000e-03,4.68750000e-03
-1.10646875e-07,1.15312500e-02,7.18750000e-03
-1.09846875e-07,5.21875000e-03,1.62500000e-02
-1.09046875e-07,2.75000000e-03,1.55468750e-02
-1.08246875e-07,5.78125000e-03,4.92187500e-03
-1.07446875e-07,9.34375000e-03,6.09375000e-03
-1.06646875e-07,5.71875000e-03,1.26562500e-02
-1.05846875e-07,6.84375000e-03,8.75000000e-03
-1.05046875e-07,1.12187500e-02,9.53125000e-03
-1.04246875e-07,8.12500000e-03,1.42968750e-02
-1.03446875e-07,1.40625000e-02,1.21875000e-02
-1.02646875e-07,7.28125000e-03,1.90625000e-02
-1.01846875e-07,2.59375000e-03,1.60156250e-02
-1.01046875e-07,1.25312500e-02,1.95312500e-03
-1.00246875e-07,5.34375000e-03,3.13281250e-02
-9.94468750e-08,8.40625000e-03,1.11718750e-02
-9.86468750e-08,6.43750000e-03,4.29687500e-03
-9.78468750e-08,1.02500000e-02,1.81250000e-02
-9.70468750e-08,5.15625000e-03,8.67187500e-03
-9.62468750e-08,9.84375000e-03,1.50781250e-02
-9.54468750e-08,6.09375000e-03,5.54687500e-03
-9.46468750e-08,1.24687500e-02,1.01562500e-02
-9.38468750e-08,1.37500000e-03,2.45312500e-02
-9.30468750e-08,1.18437500e-02,1.75000000e-02
-9.22468750e-08,4.43750000e-03,1.25781250e-02
-9.14468750e-08,9.71875000e-03,1.65625000e-02
-9.06468750e-08,7.00000000e-03,7.34375000e-03
-8.98468750e-08,1.13125000e-02,1.69531250e-02
-8.90468750e-08,4.50000000e-03,7.89062500e-03
-8.82468750e-08,1.00625000e-02,1.17187500e-02
-8.74468750e-08,1.96875000e-03,1.20312500e-02
-8.66468750e-08,6.53125000e-03,1.28906250e-02
-8.58468750e-08,4.28125000e-03,1.07812500e-02
-8.50468750e-08,1.12500000e-02,1.17187500e-02
-8.42468750e-08,5.53125000e-03,1.81250000e-02
-8.34468750e-08,8.09375000e-03,9.53125000e-03
-8.26468750e-08,1.01250000e-02,1.43750000e-02
-8.18468750e-08,4.09375000e-03,1.42187500e-02
-8.10468750e-08,4.15625000e-03,1.48437500e-02
-8.02468750e-08,8.59375000e-03,7.65625000e-03
-7.94468750e-08,6.59375000e-03,2.10937500e-02
-7.86468750e-08,8.34375000e-03,2.06250000e-02
-7.78468750e-08,7.93750000e-03,2.18750000e-02
-7.70468750e-08,6.59375000e-03,9.84375000e-03
-7.62468750e-08,4.50000000e-03,1.41406250e-02
-7.54468750e-08,1.14687500e-02,9.92187500e-03
-7.46468750e-08,6.56250000e-03,1.14843750e-02
-7.38468750e-08,4.56250000e-03,1.39062500e-02
-7.30468750e-08,6.31250000e-03,9.29687500e-03
-7.22468750e-08,7.75000000e-03,1.33593750e-02
-7.14468750e-08,3.90625000e-03,1.65625000e-02
-7.06468750e-08,7.37500000e-03,1.56250000e-02
-6.98468750e-08,1.15625000e-02,1.56250000e-02
-6.90468750e-08,8.15625000e-03,1.33593750e-02
-6.82468750e-08,2.37500000e-03,8.20312500e-03
-6.74468750e-08,7.59375000e-03,2.06250000e-02
-6.66468750e-08,4.40625000e-03,1.22656250e-02
-6.58468750e-08,1.44375000e-02,1.17187500e-02
-6.50468750e-08,4.40625000e-03,1.34375000e-02
-6.42468750e-08,8.43750000e-03,1.56250000e-02
-6.34468750e-08,5.18750000e-03,6.17187500e-03
-6.26468750e-08,7.87500000e-03,1.10937500e-02
-6.18468750e-08,3.90625000e-03,2.71875000e-02
-6.10468750e-08,6.15625000e-03,-3.20312500e-02
-6.02468750e-08,9.25000000e-03,-4.72500000e-01
-5.94468750e-08,1.15625000e-02,-1.03507813e+00
-5.86468750e-08,2.15625000e-03,-1.27609375e+00
-5.78468750e-08,6.46875000e-03,-1.35476563e+00
-5.70468750e-08,7.93750000e-03,-1.39546875e+00
-5.62468750e-08,9.34375000e-03,-1.39367188e+00
-5.54468750e-08,6.87500000e-03,-1.40195313e+00
-5.46468750e-08,3.37500000e-03,-1.38968750e+00
-5.38468750e-08,1.00000000e-02,-1.39437500e+00
-5.30468750e-08,9.06250000e-03,-1.39765625e+00
-5.22468750e-08,7.65625000e-03,-1.40757813e+00
-5.14468750e-08,9.15625000e-03,-1.40929688e+00
-5.06468750e-08,3.12500000e-05,-1.40562500e+00
-4.98468750e-08,1.32187500e-02,-1.40937500e+00
-4.90468750e-08,4.71875000e-03,-1.40585938e+00
-4.82468750e-08,5.34375000e-03,-1.41843750e+00
-4.74468750e-08,9.50000000e-03,-1.41203125e+00
-4.66468750e-08,1.00625000e-02,-1.41101563e+00
-4.58468750e-08,2.90625000e-03,-1.42023438e+00
-4.50468750e-08,9.25000000e-03,-1.41093750e+00
-4.42468750e-08,2.96875000e-03,-1.42718750e+00
-4.34468750e-08,7.62500000e-03,-1.41281250e+00
-4.26468750e-08,5.31250000e-04,-1.41835938e+00
-4.18468750e-08,6.68750000e-03,-1.42023438e+00
-4.10468750e-08,1.03125000e-03,-1.42390625e+00
-4.02468750e-08,7.78125000e-03,-1.41937500e+00
-3.94468750e-08,3.87500000e-03,-1.41601562e+00
-3.86468750e-08,8.09375000e-03,-1.42890625e+00
-3.78468750e-08,1.62500000e-03,-1.42304688e+00
-3.70468750e-08,8.43750000e-03,-1.42367188e+00
-3.62468750e-08,5.00000000e-04,-1.41937500e+00
-3.54468750e-08,2.34375000e-03,-1.42796875e+00
-3.46468750e-08,2.53125000e-03,-1.43398438e+00
-3.38468750e-08,2.18750000e-04,-1.41773438e+00
-3.30468750e-08,-2.31875000e-02,-1.42328125e+00
-3.22468750e-08,-5.35937500e-02,-1.42335937e+00
-3.14468750e-08,-9.31875000e-02,-1.41671875e+00
-3.06468750e-08,-1.64781250e-01,-1.42187500e+00
-2.98468750e-08,-2.53000000e-01,-1.42476563e+00
-2.90468750e-08,-3.35875000e-01,-1.42312500e+00
-2.82468750e-08,-4.18843750e-01,-1.42484375e+00
-2.74468750e-08,-4.92750000e-01,-1.41585938e+00
-2.66468750e-08,-5.42281250e-01,-1.41937500e+00
-2.58468750e-08,-5.82000000e-01,-1.41757813e+00
-2.50468750e-08,-6.09656250e-01,-1.41625000e+00
-2.42468750e-08,-6.27062500e-01,-1.41539063e+00
-2.34468750e-08,-6.39156250e-01,-1.40750000e+00
-2.26468750e-08,-6.45187500e-01,-1.42343750e+00
-2.18468750e-08,-6.43968750e-01,-1.42335937e+00
-2.10468750e-08,-6.42687500e-01,-1.41343750e+00
-2.02468750e-08,-6.39750000e-01,-1.40960938e+00
-1.94468750e-08,-6.20093750e-01,-1.41757813e+00
-1.86468750e-08,-6.02656250e-01,-1.42250000e+00
-1.78468750e-08,-5.80531250e-01,-1.41898437e+00
-1.70468750e-08,-5.60656250e-01,-1.41562500e+00
-1.62468750e-08,-5.27312500e-01,-1.41375000e+00
-1.54468750e-08,-5.04281250e-01,-1.43085938e+00
-1.46468750e-08,-4.83250000e-01,-1.41898437e+00
-1.38468750e-08,-4.58281250e-01,-1.41609375e+00
-1.30468750e-08,-4.29687500e-01,-1.42578125e+00
-1.22468750e-08,-4.05843750e-01,-1.43148438e+00
-1.14468750e-08,-3.77656250e-01,-1.42117188e+00
-1.06468750e-08,-3.61156250e-01,-1.42218750e+00
-9.84687500e-09,-3.36906250e-01,-1.43632813e+00
-9.04687500e-09,-3.13531250e-01,-1.42398438e+00
-8.24687500e-09,-2.93281250e-01,-1.42546875e+00
-7.44687500e-09,-2.74281250e-01,-1.42250000e+00
-6.64687500e-09,-2.59125000e-01,-1.42906250e+00
-5.84687500e-09,-2.42437500e-01,-1.42453125e+00
-5.04687500e-09,-2.30062500e-01,-1.42546875e+00
-4.24687500e-09,-2.19437500e-01,-1.40953125e+00
-3.44687500e-09,-2.06125000e-01,-1.38820312e+00
-2.64687500e-09,-1.95718750e-01,-1.33820313e+00
-1.84687500e-09,-1.80906250e-01,-1.16414063e+00
-1.04687500e-09,-1.71781250e-01,-7.51015625e-01
-2.46875000e-10,-1.64031250e-01,-3.57734375e-01
5.53125000e-10,-1.52187500e-01,-2.01093750e-01
1.35312500e-09,-1.40281250e-01,-1.12890625e-01
2.15312500e-09,-1.36343750e-01,-7.00781250e-02
2.95312500e-09,-1.27187500e-01,-5.47656250e-02
3.75312500e-09,-1.20250000e-01,-4.78125000e-02
4.55312500e-09,-1.11093750e-01,-4.28125000e-02
5.35312500e-09,-1.11406250e-01,-4.21875000e-02
6.15312500e-09,-1.02250000e-01,-3.81250000e-02
6.95312500e-09,-9.41562500e-02,-3.62500000e-02
7.75312500e-09,-8.77187500e-02,-2.49218750e-02
8.55312500e-09,-8.63125000e-02,-2.17187500e-02
9.35312500e-09,-7.73750000e-02,-1.54687500e-02
1.01531250e-08,-8.07187500e-02,-1.66406250e-02
1.09531250e-08,-7.11562500e-02,-1.21093750e-02
1.17531250e-08,-7.05000000e-02,-1.83593750e-02
1.25531250e-08,-6.41875000e-02,-1.41406250e-02
1.33531250e-08,-5.98437500e-02,-5.15625000e-03
1.41531250e-08,-5.33437500e-02,-6.71875000e-03
1.49531250e-08,-5.90937500e-02,-1.38281250e-02
1.57531250e-08,-5.18125000e-02,-1.02343750e-02
1.65531250e-08,-4.86250000e-02,-1.01562500e-02
1.73531250e-08,-4.04375000e-02,-9.14062500e-03
1.81531250e-08,-4.40000000e-02,-9.37500000e-04
1.89531250e-08,-3.52812500e-02,7.57812500e-03
1.97531250e-08,-3.51562500e-02,-6.32812500e-03
2.05531250e-08,-3.44062500e-02,-1.56250000e-03
2.13531250e-08,-3.05625000e-02,-5.39062500e-03
2.21531250e-08,-2.75000000e-02,7.89062500e-03
2.29531250e-08,-2.57812500e-02,1.16406250e-02
2.37531250e-08,-2.60000000e-02,4.06250000e-03
2.45531250e-08,-1.80937500e-02,9.14062500e-03
2.53531250e-08,-2.33437500e-02,-3.20312500e-03
2.61531250e-08,-2.03125000e-02,2.26562500e-03
2.69531250e-08,-1.91250000e-02,5.70312500e-03
2.77531250e-08,-2.09375000e-02,1.00000000e-02
2.85531250e-08,-1.85937500e-02,1.54687500e-02
2.93531250e-08,-1.86562500e-02,8.43750000e-03
3.01531250e-08,-1.53125000e-02,1.03906250e-02
3.09531250e-08,-1.72187500e-02,1.27343750e-02
3.17531250e-08,-1.09375000e-02,2.43750000e-02
3.25531250e-08,-1.60312500e-02,2.04687500e-02
3.33531250e-08,-1.07187500e-02,3.30468750e-02
3.41531250e-08,-1.45625000e-02,4.35156250e-02
3.49531250e-08,-7.87500000e-03,3.43750000e-02
3.57531250e-08,-1.17187500e-02,3.63281250e-02
3.65531250e-08,-1.25312500e-02,3.52343750e-02
3.73531250e-08,-1.63437500e-02,2.97656250e-02
3.81531250e-08,-1.05312500e-02,2.91406250e-02
3.89531250e-08,-1.46562500e-02,3.75000000e-02
3.97531250e-08,-9.31250000e-03,2.18750000e-02
4.05531250e-08,-1.81562500e-02,2.30468750e-02
4.13531250e-08,-9.93750000e-03,2.53125000e-02
4.21531250e-08,-7.50000000e-03,1.55468750e-02
4.29531250e-08,-7.40625000e-03,3.02343750e-02
4.37531250e-08,-8.12500000e-03,2.57031250e-02
4.45531250e-08,-4.50000000e-03,2.97656250e-02
4.53531250e-08,-3.03125000e-03,1.82031250e-02
4.61531250e-08,-3.56250000e-03,1.78125000e-02
4.69531250e-08,-4.87500000e-03,1.96875000e-02
4.77531250e-08,-7.56250000e-03,1.63281250e-02
4.85531250e-08,-1.68750000e-03,1.97656250e-02
4.93531250e-08,-4.18750000e-03,2.47656250e-02
5.01531250e-08,-1.84375000e-03,2.13281250e-02
5.09531250e-08,-6.53125000e-03,2.20312500e-02
5.17531250e-08,-3.50000000e-03,1.78906250e-02
5.25531250e-08,-3.65625000e-03,2.25781250e-02
5.33531250e-08,-4.09375000e-03,1.83593750e-02
5.41531250e-08,6.56250000e-04,1.85156250e-02
5.49531250e-08,-2.78125000e-03,1.37500000e-02
5.57531250e-08,5.62500000e-04,1.92187500e-02
5.65531250e-08,-4.50000000e-03,2.35937500e-02
