data/raw/TriggerAuto_ALL_20231205193320223.csv

Model,MSO64B
Channel,CH1,,Channel,CH2
Label,,,Label,
Waveform Type,ANALOG,,Waveform Type,ANALOG
Horizontal Units,s,,Horizontal Units,s
Sample Interval,8.00000000e-10,,Sample Interval,8.00000000e-10
Record Length,5000,,Record Length,5000
Zero Index,349.57421875,,Zero Index,349.57421875
Vertical Units,V,,Vertical Units,V
,,,,
ANALOG_Thumbnail,,,ANALOG_Thumbnail,
yOffset,0.000000,,yOffset,0.000000
yPosition,2.160000,,yPosition,2.180000

Labels,,
TIME,CH1,CH2
-2.79659375e-07,8.46875000e-03,8.35937500e-03
-2.78859375e-07,1.07187500e-02,1.21093750e-02
-2.78059375e-07,6.06250000e-03,5.46875000e-03
-2.77259375e-07,4.06250000e-03,1.35937500e-02
-2.76459375e-07,8.12500000e-03,7.26562500e-03
-2.75659375e-07,1.43750000e-03,5.62500000e-03
-2.74859375e-07,4.15625000e-03,6.87500000e-03
-2.74059375e-07,3.81250000e-03,2.96875000e-03
-2.73259375e-07,7.25000000e-03,8.35937500e-03
-2.72459375e-07,3.81250000e-03,1.47656250e-02
-2.71659375e-07,1.13125000e-02,5.31250000e-03
-2.70859375e-07,2.00000000e-03,8.98437500e-03
-2.70059375e-07,3.84375000e-03,6.71875000e-03
-2.69259375e-07,8.31250000e-03,9.60937500e-03
-2.68459375e-07,8.34375000e-03,1.00000000e-02
-2.67659375e-07,-5.00000000e-04,2.89062500e-03
-2.66859375e-07,3.65625000e-03,1.49218750e-02
-2.66059375e-07,7.93750000e-03,7.89062500e-03
-2.65259375e-07,1.81250000e-03,5.62500000e-03
-2.64459375e-07,5.15625000e-03,1.01562500e-02
-2.63659375e-07,8.56250000e-03,7.42187500e-03
-2.62859375e-07,9.87500000e-03,1.21875000e-02
-2.62059375e-07,4.71875000e-03,1.00000000e-02
-2.61259375e-07,5.37500000e-03,9.37500000e-03
-2.60459375e-07,8.25000000e-03,2.34375000e-04
-2.59659375e-07,2.87500000e-03,1.64062500e-02
-2.58859375e-07,1.20000000e-02,1.38281250e-02
-2.58059375e-07,4.59375000e-03,1.40625000e-02
-2.57259375e-07,7.18750000e-03,8.43750000e-03
-2.56459375e-07,4.06250000e-03,3.51562500e-03
-2.55659375e-07,8.65625000e-03,7.42187500e-03
-2.54859375e-07,-1.93750000e-03,2.81250000e-03
-2.54059375e-07,7.90625000e-03,3.59375000e-03
-2.53259375e-07,6.84375000e-03,5.70312500e-03
-2.52459375e-07,8.75000000e-03,1.15625000e-02
-2.51659375e-07,3.12500000e-03,1.15625000e-02
-2.50859375e-07,9.93750000e-03,1.59375000e-02
-2.50059375e-07,1.53125000e-03,7.03125000e-04
-2.49259375e-07,4.28125000e-03,1.36718750e-02
-2.48459375e-07,3.50000000e-03,6.56250000e-03
-2.47659375e-07,8.12500000e-03,5.62500000e-03
-2.46859375e-07,2.21875000e-03,1.60937500e-02
-2.46059375e-07,5.59375000e-03,7.10937500e-03
-2.45259375e-07,2.65625000e-03,4.21875000e-03
-2.44459375e-07,9.46875000e-03,1.26562500e-02
-2.43659375e-07,9.15625000e-03,-3.28125000e-03
-2.42859375e-07,1.00625000e-02,7.89062500e-03
-2.42059375e-07,9.37500000e-04,6.09375000e-03
-2.41259375e-07,6.15625000e-03,1.09375000e-02
-2.40459375e-07,1.06562500e-02,6.01562500e-03
-2.39659375e-07,3.37500000e-03,1.03125000e-02
-2.38859375e-07,5.71875000e-03,8.67187500e-03
-2.38059375e-07,8.34375000e-03,4.92187500e-03
-2.37259375e-07,8.87500000e-03,1.87500000e-02
-2.36459375e-07,3.40625000e-03,3.12500000e-03
-2.35659375e-07,9.84375000e-03,6.32812500e-03
-2.34859375e-07,8.15625000e-03,1.67187500e-02
-2.34059375e-07,4.87500000e-03,8.51562500e-03
-2.33259375e-07,7.06250000e-03,6.25000000e-03
-2.32459375e-07,3.65625000e-03,1.53125000e-02
-2.31659375e-07,2.65625000e-03,5.93750000e-03
-2.30859375e-07,6.53125000e-03,1.42187500e-02
-2.30059375e-07,9.81250000e-03,1.24218750e-02
-2.29259375e-07,1.37500000e-03,1.19531250e-02
-2.28459375e-07,8.37500000e-03,4.60937500e-03
-2.27659375e-07,5.03125000e-03,5.54687500e-03
-2.26859375e-07,6.81250000e-03,1.20312500e-02
-2.26059375e-07,1.46875000e-03,5.93750000e-03
-2.25259375e-07,1.13437500e-02,3.51562500e-03
-2.24459375e-07,3.78125000e-03,8.90625000e-03
-2.23659375e-07,8.37500000e-03,5.46875000e-03
-2.22859375e-07,2.18750000e-03,1.55468750e-02
-2.22059375e-07,6.09375000e-03,9.76562500e-03
-2.21259375e-07,5.34375000e-03,8.12500000e-03
-2.20459375e-07,9.00000000e-03,3.98437500e-03
-2.19659375e-07,-2.15625000e-03,3.12500000e-04
-2.18859375e-07,4.34375000e-03,9.68750000e-03
-2.18059375e-07,7.71875000e-03,1.34375000e-02
-2.17259375e-07,8.31250000e-03,5.31250000e-03
-2.16459375e-07,3.78125000e-03,1.35937500e-02
-2.15659375e-07,4.21875000e-03,7.10937500e-03
-2.14859375e-07,5.62500000e-03,3.12500000e-04
-2.14059375e-07,6.50000000e-03,4.92187500e-03
-2.13259375e-07,5.78125000e-03,8.28125000e-03
-2.12459375e-07,4.87500000e-03,1.07031250e-02
-2.11659375e-07,6.96875000e-03,5.54687500e-03
-2.10859375e-07,5.59375000e-03,1.21875000e-02
-2.10059375e-07,8.59375000e-03,1.01562500e-02
-2.09259375e-07,3.65625000e-03,1.92968750e-02
-2.08459375e-07,2.40625000e-03,6.48437500e-03
-2.07659375e-07,5.28125000e-03,1.07812500e-02
-2.06859375e-07,3.15625000e-03,1.19531250e-02
-2.06059375e-07,7.25000000e-03,9.21875000e-03
-2.05259375e-07,6.81250000e-03,6.17187500e-03
-2.04459375e-07,8.56250000e-03,1.40625000e-02
-2.03659375e-07,2.50000000e-03,1.19531250e-02
-2.02859375e-07,9.12500000e-03,2.05468750e-02
-2.02059375e-07,5.87500000e-03,1.09375000e-02
-2.01259375e-07,9.12500000e-03,7.96875000e-03
-2.00459375e-07,-2.56250000e-03,1.00000000e-02
-1.99659375e-07,4.93750000e-03,5.93750000e-03
-1.98859375e-07,4.50000000e-03,7.57812500e-03
-1.98059375e-07,4.21875000e-03,1.45312500e-02
-1.97259375e-07,-9.37500000e-04,7.03125000e-04
-1.96459375e-07,4.78125000e-03,1.56250000e-02
-1.95659375e-07,2.62500000e-03,5.15625000e-03
-1.94859375e-07,9.96875000e-03,1.22656250e-02
-1.94059375e-07,-3.18750000e-03,1.25000000e-02
-1.93259375e-07,6.37500000e-03,9.29687500e-03
-1.92459375e-07,8.68750000e-03,5.46875000e-03
-1.91659375e-07,9.71875000e-03,1.54687500e-02
-1.90859375e-07,4.18750000e-03,9.84375000e-03
-1.90059375e-07,5.40625000e-03,1.00781250e-02
-1.89259375e-07,8.90625000e-03,7.34375000e-03
-1.88459375e-07,2.06250000e-03,1.35156250e-02
-1.87659375e-07,4.68750000e-03,1.98437500e-02
-1.86859375e-07,3.53125000e-03,1.37500000e-02
-1.86059375e-07,9.90625000e-03,1.39062500e-02
-1.85259375e-07,6.87500000e-03,1.77343750e-02
-1.84459375e-07,6.09375000e-03,8.35937500e-03
-1.83659375e-07,6.96875000e-03,1.39062500e-02
-1.82859375e-07,5.34375000e-03,7.65625000e-03
-1.82059375e-07,1.15937500e-02,0.00000000e+00
-1.81259375e-07,4.93750000e-03,4.92187500e-03
-1.80459375e-07,6.81250000e-03,9.45312500e-03
-1.79659375e-07,5.78125000e-03,2.89062500e-03
-1.78859375e-07,9.81250000e-03,2.02343750e-02
-1.78059375e-07,-1.62500000e-03,8.35937500e-03
-1.77259375e-07,1.02187500e-02,8.82812500e-03
-1.76459375e-07,7.00000000e-03,5.31250000e-03
-1.75659375e-07,7.06250000e-03,1.41406250e-02
-1.74859375e-07,1.09375000e-03,5.78125000e-03
-1.74059375e-07,1.00000000e-02,6.95312500e-03
-1.73259375e-07,1.87500000e-03,8.67187500e-03
-1.72459375e-07,5.31250000e-03,1.47656250e-02
-1.71659375e-07,3.25000000e-03,7.73437500e-03
-1.70859375e-07,9.81250000e-03,2.96875000e-03
-1.70059375e-07,5.15625000e-03,1.27343750e-02
-1.69259375e-07,8.90625000e-03,8.75000000e-03
-1.68459375e-07,2.40625000e-03,1.72656250e-02
-1.67659375e-07,7.59375000e-03,3.82812500e-03
-1.66859375e-07,8.34375000e-03,4.29687500e-03
-1.66059375e-07,7.65625000e-03,1.61718750e-02
-1.65259375e-07,1.28125000e-03,1.10156250e-02
-1.64459375e-07,1.75000000e-03,2.73437500e-03
-1.63659375e-07,1.05625000e-02,9.45312500e-03
-1.62859375e-07,6.40625000e-03,3.43750000e-03
-1.62059375e-07,4.40625000e-03,1.03125000e-02
-1.61259375e-07,8.34375000e-03,8.04687500e-03
-1.60459375e-07,1.00937500e-02,1.48437500e-02
-1.59659375e-07,5.31250000e-03,1.32031250e-02
-1.58859375e-07,8.06250000e-03,1.33593750e-02
-1.58059375e-07,1.04375000e-02,1.77343750e-02
-1.57259375e-07,8.12500000e-04,8.43750000e-03
-1.56459375e-07,1.00000000e-02,9.29687500e-03
-1.55659375e-07,5.96875000e-03,5.93750000e-03
-1.54859375e-07,6.84375000e-03,1.32812500e-02
-1.54059375e-07,5.50000000e-03,-3.35937500e-03
-1.53259375e-07,1.09375000e-02,1.17968750e-02
-1.52459375e-07,-4.37500000e-04,1.38281250e-02
-1.51659375e-07,7.46875000e-03,1.07031250e-02
-1.50859375e-07,6.37500000e-03,1.06250000e-02
-1.50059375e-07,8.93750000e-03,6.01562500e-03
-1.49259375e-07,1.34375000e-03,1.21093750e-02
-1.48459375e-07,1.22187500e-02,1.05468750e-02
-1.47659375e-07,5.87500000e-03,5.31250000e-03
-1.46859375e-07,1.15625000e-02,8.82812500e-03
-1.46059375e-07,5.00000000e-03,2.65625000e-03
-1.45259375e-07,1.04687500e-02,6.32812500e-03
-1.44459375e-07,3.37500000e-03,1.20312500e-02
-1.43659375e-07,8.43750000e-03,4.68750000e-03
-1.42859375e-07,1.18750000e-03,5.54687500e-03
-1.42059375e-07,6.37500000e-03,6.79687500e-03
-1.41259375e-07,8.59375000e-03,2.81250000e-03
-1.40459375e-07,8.34375000e-03,1.36718750e-02
-1.39659375e-07,6.65625000e-03,1.91406250e-02
-1.38859375e-07,5.96875000e-03,1.77343750e-02
-1.38059375e-07,9.28125000e-03,8.35937500e-03
-1.37259375e-07,7.50000000e-03,8.75000000e-03
-1.36459375e-07,3.06250000e-03,1.05468750e-02
-1.35659375e-07,6.81250000e-03,6.17187500e-03
-1.34859375e-07,4.00000000e-03,1.74218750e-02
-1.34059375e-07,2.59375000e-03,1.78125000e-02
-1.33259375e-07,7.09375000e-03,1.57812500e-02
-1.32459375e-07,7.68750000e-03,2.65625000e-03
-1.31659375e-07,7.21875000e-03,1.82812500e-02
-1.30859375e-07,8.71875000e-03,5.15625000e-03
-1.30059375e-07,6.25000000e-03,9.14062500e-03
-1.29259375e-07,5.84375000e-03,1.28125000e-02
-1.28459375e-07,8.65625000e-03,5.70312500e-03
-1.27659375e-07,9.53125000e-03,1.58593750e-02
-1.26859375e-07,1.43750000e-03,1.28906250e-02
-1.26059375e-07,4.46875000e-03,8.35937500e-03
-1.25259375e-07,8.43750000e-03,4.60937500e-03
-1.24459375e-07,9.03125000e-03,8.67187500e-03
-1.23659375e-07,1.59375000e-03,7.42187500e-03
-1.22859375e-07,9.56250000e-03,1.01562500e-02
-1.22059375e-07,9.46875000e-03,7.50000000e-03
-1.21259375e-07,8.81250000e-03,1.22656250e-02
-1.20459375e-07,3.93750000e-03,1.08593750e-02
-1.19659375e-07,8.46875000e-03,2.02343750e-02
-1.18859375e-07,2.84375000e-03,1.32031250e-02
-1.18059375e-07,9.71875000e-03,1.03125000e-02
-1.17259375e-07,1.50000000e-03,1.35156250e-02
-1.16459375e-07,5.25000000e-03,5.62500000e-03
-1.15659375e-07,1.12187500e-02,1.25000000e-03
-1.14859375e-07,1.04062500e-02,7.50000000e-03
-1.14059375e-07,3.78125000e-03,9.92187500e-03
-1.13259375e-07,8.71875000e-03,4.21875000e-03
-1.12459375e-07,7.43750000e-03,8.28125000e-03
-1.11659375e-07,7.28125000e-03,4.45312500e-03
-1.10859375e-07,9.34375000e-03,2.30468750e-02
-1.10059375e-07,3.00000000e-03,7.96875000e-03
-1.09259375e-07,8.18750000e-03,1.11718750e-02
-1.08459375e-07,4.40625000e-03,7.03125000e-03
-1.07659375e-07,4.31250000e-03,2.00000000e-02
-1.06859375e-07,6.71875000e-03,1.34375000e-02
-1.06059375e-07,3.37500000e-03,2.65625000e-03
-1.05259375e-07,7.40625000e-03,1.01562500e-02
-1.04459375e-07,4.68750000e-03,5.54687500e-03
-1.03659375e-07,6.75000000e-03,1.04687500e-02
-1.02859375e-07,1.68750000e-03,9.14062500e-03
-1.02059375e-07,1.39687500e-02,1.78125000e-02
-1.01259375e-07,2.43750000e-03,1.56250000e-02
-1.00459375e-07,8.28125000e-03,9.14062500e-03
-9.96593750e-08,4.25000000e-03,9.45312500e-03
-9.88593750e-08,7.59375000e-03,1.79687500e-02
-9.80593750e-08,9.37500000e-04,9.29687500e-03
-9.72593750e-08,1.16250000e-02,1.22656250e-02
-9.64593750e-08,3.25000000e-03,1.14843750e-02
-9.56593750e-08,8.84375000e-03,1.57031250e-02
-9.48593750e-08,8.37500000e-03,1.09375000e-02
-9.40593750e-08,4.65625000e-03,1.06250000e-02
-9.32593750e-08,4.90625000e-03,1.85156250e-02
-9.24593750e-08,1.32812500e-02,9.14062500e-03
-9.16593750e-08,3.71875000e-03,1.48437500e-02
-9.08593750e-08,6.34375000e-03,1.39062500e-02
-9.00593750e-08,8.09375000e-03,-3.90625000e-04
-8.92593750e-08,1.19062500e-02,1.66406250e-02
-8.84593750e-08,4.46875000e-03,2.05468750e-02
-8.76593750e-08,5.46875000e-03,7.50000000e-03
-8.68593750e-08,7.31250000e-03,1.57031250e-02
-8.60593750e-08,1.96875000e-03,2.26562500e-02
-8.52593750e-08,3.40625000e-03,1.65625000e-02
-8.44593750e-08,3.75000000e-03,1.28125000e-02
-8.36593750e-08,8.46875000e-03,1.67968750e-02
-8.28593750e-08,3.96875000e-03,1.67968750e-02
-8.20593750e-08,8.68750000e-03,1.60937500e-02
-8.12593750e-08,7.18750000e-03,1.46875000e-02
-8.04593750e-08,3.56250000e-03,1.07031250e-02
-7.96593750e-08,1.07500000e-02,1.71875000e-03
-7.88593750e-08,4.75000000e-03,1.46093750e-02
-7.80593750e-08,6.56250000e-03,2.00781250e-02
-7.72593750e-08,5.87500000e-03,1.26562500e-02
-7.64593750e-08,1.10625000e-02,8.90625000e-03
-7.56593750e-08,5.93750000e-03,1.68750000e-02
-7.48593750e-08,9.84375000e-03,2.18750000e-02
-7.40593750e-08,8.93750000e-03,5.78125000e-03
-7.32593750e-08,1.12500000e-02,6.87500000e-03
-7.24593750e-08,5.15625000e-03,1.60156250e-02
-7.16593750e-08,1.18437500e-02,1.04687500e-02
-7.08593750e-08,8.71875000e-03,1.12500000e-02
-7.00593750e-08,6.62500000e-03,1.89843750e-02
-6.92593750e-08,7.00000000e-03,7.50000000e-03
-6.84593750e-08,8.43750000e-03,1.64843750e-02
-6.76593750e-08,4.56250000e-03,1.57812500e-02
-6.68593750e-08,6.12500000e-03,6.71875000e-03
-6.60593750e-08,1.87500000e-04,1.92968750e-02
-6.52593750e-08,1.12187500e-02,1.93750000e-02
-6.44593750e-08,8.09375000e-03,1.03906250e-02
-6.36593750e-08,7.03125000e-03,7.10937500e-03
-6.28593750e-08,2.12500000e-03,7.50000000e-03
-6.20593750e-08,6.37500000e-03,9.92187500e-03
-6.12593750e-08,9.21875000e-03,2.83593750e-02
-6.04593750e-08,1.00000000e-02,-1.43281250e-01
-5.96593750e-08,7.65625000e-03,-6.67343750e-01
-5.88593750e-08,8.18750000e-03,-1.16750000e+00
-5.80593750e-08,7.31250000e-03,-1.30820313e+00
-5.72593750e-08,2.84375000e-03,-1.38031250e+00
-5.64593750e-08,1.15312500e-02,-1.40906250e+00
-5.56593750e-08,7.12500000e-03,-1.40585938e+00
-5.48593750e-08,6.65625000e-03,-1.37218750e+00
-5.40593750e-08,8.40625000e-03,-1.34890625e+00
-5.32593750e-08,8.59375000e-03,-1.37960938e+00
-5.24593750e-08,3.56250000e-03,-1.41250000e+00
-5.16593750e-08,2.59375000e-03,-1.41218750e+00
-5.08593750e-08,1.07187500e-02,-1.40523438e+00
-5.00593750e-08,1.56250000e-03,-1.40679688e+00
-4.92593750e-08,8.56250000e-03,-1.40750000e+00
-4.84593750e-08,2.81250000e-03,-1.42156250e+00
-4.76593750e-08,8.87500000e-03,-1.40523438e+00
-4.68593750e-08,5.12500000e-03,-1.41492188e+00
-4.60593750e-08,6.84375000e-03,-1.40867188e+00
-4.52593750e-08,5.81250000e-03,-1.42109375e+00
-4.44593750e-08,7.21875000e-03,-1.42460938e+00
-4.36593750e-08,5.12500000e-03,-1.42414063e+00
-4.28593750e-08,1.25312500e-02,-1.43015625e+00
-4.20593750e-08,3.90625000e-03,-1.42492188e+00
-4.12593750e-08,1.14062500e-02,-1.43515625e+00
-4.04593750e-08,4.46875000e-03,-1.41851563e+00
-3.96593750e-08,6.12500000e-03,-1.41882813e+00
-3.88593750e-08,9.75000000e-03,-1.43546875e+00
-3.80593750e-08,1.31250000e-02,-1.41890625e+00
-3.72593750e-08,4.50000000e-03,-1.41664063e+00
-3.64593750e-08,7.78125000e-03,-1.42687500e+00
-3.56593750e-08,5.09375000e-03,-1.42046875e+00
-3.48593750e-08,3.75000000e-03,-1.41929688e+00
-3.40593750e-08,-5.15625000e-03,-1.42757813e+00
-3.32593750e-08,-1.13125000e-02,-1.42851563e+00
-3.24593750e-08,-3.15625000e-02,-1.42554688e+00
-3.16593750e-08,-4.98750000e-02,-1.41281250e+00
-3.08593750e-08,-8.82500000e-02,-1.42093750e+00
-3.00593750e-08,-1.23656250e-01,-1.43085938e+00
-2.92593750e-08,-1.53062500e-01,-1.42312500e+00
-2.84593750e-08,-1.83406250e-01,-1.42765625e+00
-2.76593750e-08,-2.07968750e-01,-1.42054688e+00
-2.68593750e-08,-2.24000000e-01,-1.42664063e+00
-2.60593750e-08,-2.40875000e-01,-1.42203125e+00
-2.52593750e-08,-2.45000000e-01,-1.41421875e+00
-2.44593750e-08,-2.50937500e-01,-1.41875000e+00
-2.36593750e-08,-2.43500000e-01,-1.41390625e+00
-2.28593750e-08,-2.48562500e-01,-1.41921875e+00
-2.20593750e-08,-2.48312500e-01,-1.41562500e+00
-2.12593750e-08,-2.44375000e-01,-1.41375000e+00
-2.04593750e-08,-2.31687500e-01,-1.42304688e+00
-1.96593750e-08,-2.28250000e-01,-1.42773438e+00
-1.88593750e-08,-2.21718750e-01,-1.41570313e+00
-1.80593750e-08,-2.17000000e-01,-1.42117188e+00
-1.72593750e-08,-2.07093750e-01,-1.41828125e+00
-1.64593750e-08,-1.97062500e-01,-1.42625000e+00
-1.56593750e-08,-1.81718750e-01,-1.41718750e+00
-1.48593750e-08,-1.76093750e-01,-1.42406250e+00
-1.40593750e-08,-1.62562500e-01,-1.42632813e+00
-1.32593750e-08,-1.51656250e-01,-1.42164063e+00
-1.24593750e-08,-1.37187500e-01,-1.41898437e+00
-1.16593750e-08,-1.33906250e-01,-1.42687500e+00
-1.08593750e-08,-1.19593750e-01,-1.41984375e+00
-1.00593750e-08,-1.04343750e-01,-1.42734375e+00
-9.25937500e-09,-9.97187500e-02,-1.42078125e+00
-8.45937500e-09,-9.37187500e-02,-1.41984375e+00
-7.65937500e-09,-8.99375000e-02,-1.43070312e+00
-6.85937500e-09,-8.08125000e-02,-1.42632813e+00
-6.05937500e-09,-7.55625000e-02,-1.42140625e+00
-5.25937500e-09,-7.31875000e-02,-1.42187500e+00
-4.45937500e-09,-6.84687500e-02,-1.42375000e+00
-3.65937500e-09,-6.31875000e-02,-1.39281250e+00
-2.85937500e-09,-5.15937500e-02,-1.35406250e+00
-2.05937500e-09,-5.16250000e-02,-1.21414063e+00
-1.25937500e-09,-4.66250000e-02,-8.48593750e-01
-4.59375000e-10,-4.66562500e-02,-4.22812500e-01
3.40625000e-10,-4.10937500e-02,-2.31640625e-01
1.14062500e-09,-4.21250000e-02,-1.16718750e-01
1.94062500e-09,-3.54375000e-02,-7.16406250e-02
2.74062500e-09,-3.41562500e-02,-6.69531250e-02
3.54062500e-09,-3.09687500e-02,-4.79687500e-02
4.34062500e-09,-3.68750000e-02,-4.28125000e-02
5.14062500e-09,-2.70937500e-02,-4.57812500e-02
5.94062500e-09,-3.19062500e-02,-4.35937500e-02
6.74062500e-09,-2.87812500e-02,-3.60156250e-02
7.54062500e-09,-3.23437500e-02,-3.33593750e-02
8.34062500e-09,-2.56875000e-02,-3.18750000e-02
9.14062500e-09,-2.86250000e-02,-2.56250000e-02
9.94062500e-09,-2.44375000e-02,-2.40625000e-02
1.07406250e-08,-2.90937500e-02,-1.75781250e-02
1.15406250e-08,-2.26250000e-02,-1.92187500e-02
1.23406250e-08,-2.25625000e-02,-1.32031250e-02
1.31406250e-08,-1.50000000e-02,-1.35156250e-02
1.39406250e-08,-2.54687500e-02,-9.45312500e-03
1.47406250e-08,-2.04687500e-02,-1.35937500e-02
1.55406250e-08,-1.85625000e-02,-2.03125000e-03
1.63406250e-08,-1.59687500e-02,-1.49218750e-02
1.71406250e-08,-1.90937500e-02,-8.75000000e-03
1.79406250e-08,-1.38437500e-02,3.51562500e-03
1.87406250e-08,-1.26562500e-02,-4.21875000e-03
1.95406250e-08,-1.21875000e-02,3.35937500e-03
2.03406250e-08,-1.19687500e-02,-5.15625000e-03
2.11406250e-08,-1.09062500e-02,-1.25000000e-03
2.19406250e-08,-1.41562500e-02,1.01562500e-03
2.27406250e-08,-6.18750000e-03,-3.35937500e-03
2.35406250e-08,-8.15625000e-03,-2.57812500e-03
2.43406250e-08,-8.18750000e-03,1.07812500e-02
2.51406250e-08,-9.65625000e-03,1.64062500e-03
2.59406250e-08,-6.96875000e-03,8.82812500e-03
2.67406250e-08,-1.23437500e-02,3.12500000e-04
2.75406250e-08,-3.25000000e-03,1.21875000e-02
2.83406250e-08,-7.59375000e-03,1.56250000e-03
2.91406250e-08,-4.53125000e-03,6.40625000e-03
2.99406250e-08,-8.09375000e-03,1.43750000e-02
3.07406250e-08,-3.56250000e-03,1.07812500e-02
3.15406250e-08,-8.12500000e-03,1.85937500e-02
3.23406250e-08,-2.53125000e-03,2.27343750e-02
3.31406250e-08,-9.84375000e-03,2.50781250e-02
3.39406250e-08,-9.68750000e-04,4.07031250e-02
3.47406250e-08,-6.81250000e-03,3.97656250e-02
3.55406250e-08,2.25000000e-03,2.97656250e-02
3.63406250e-08,-2.90625000e-03,4.21093750e-02
3.71406250e-08,-1.90625000e-03,2.82031250e-02
3.79406250e-08,2.75000000e-03,2.20312500e-02
3.87406250e-08,5.93750000e-04,3.04687500e-02
3.95406250e-08,-7.56250000e-03,2.54687500e-02
4.03406250e-08,-1.40625000e-03,2.49218750e-02
4.11406250e-08,-3.43750000e-04,2.14843750e-02
4.19406250e-08,4.06250000e-04,2.15625000e-02
4.27406250e-08,-4.37500000e-04,2.54687500e-02
4.35406250e-08,-1.90625000e-03,2.06250000e-02
4.43406250e-08,-2.46875000e-03,2.60156250e-02
4.51406250e-08,-3.21875000e-03,2.62500000e-02
4.59406250e-08,-7.18750000e-04,1.77343750e-02
4.67406250e-08,-7.50000000e-04,2.31250000e-02
4.75406250e-08,-2.65625000e-03,2.35156250e-02
4.83406250e-08,1.25000000e-03,2.15625000e-02
4.91406250e-08,6.56250000e-04,2.54687500e-02
4.99406250e-08,-8.75000000e-04,2.38281250e-02
5.07406250e-08,-3.75000000e-04,1.46875000e-02
5.15406250e-08,6.78125000e-03,1.94531250e-02
5.23406250e-08,-2.75000000e-03,2.25781250e-02
5.31406250e-08,5.15625000e-03,1.97656250e-02
5.39406250e-08,-2.15625000e-03,1.52343750e-02
5.47406250e-08,5.62500000e-04,2.38281250e-02
5.55406250e-08,-6.46875000e-03,1.68750000e-02
5.63406250e-08,2.78125000e-03,1.44531250e-02
