data/raw/TriggerAuto_ALL_20231205193645727.csv

Model,MSO64B
Channel,CH1,,Channel,CH2
Label,,,Label,
Waveform Type,ANALOG,,Waveform Type,ANALOG
Horizontal Units,s,,Horizontal Units,s
Sample Interval,8.00000000e-10,,Sample Interval,8.00000000e-10
Record Length,5000,,Record Length,5000
Zero Index,349.73046875,,Zero Index,349.73046875
Vertical Units,V,,Vertical Units,V
,,,,
ANALOG_Thumbnail,,,ANALOG_Thumbnail,
yOffset,0.000000,,yOffset,0.000000
yPosition,2.160000,,yPosition,2.180000

Labels,,
TIME,CH1,CH2
-2.79784375e-07,3.84375000e-03,1.25000000e-02
-2.78984375e-07,2.56250000e-03,6.01562500e-03
-2.78184375e-07,1.16250000e-02,6.71875000e-03
-2.77384375e-07,-3.43750000e-04,9.37500000e-04
-2.76584375e-07,1.13125000e-02,1.15625000e-02
-2.75784375e-07,4.96875000e-03,6.17187500e-03
-2.74984375e-07,6.25000000e-03,1.47656250e-02
-2.74184375e-07,3.75000000e-03,-5.46875000e-04
-2.73384375e-07,1.02812500e-02,2.63281250e-02
-2.72584375e-07,4.87500000e-03,6.87500000e-03
-2.71784375e-07,8.68750000e-03,1.10156250e-02
-2.70984375e-07,5.12500000e-03,1.25000000e-02
-2.70184375e-07,6.78125000e-03,1.26562500e-02
-2.69384375e-07,4.78125000e-03,9.21875000e-03
-2.68584375e-07,1.07812500e-02,8.04687500e-03
-2.67784375e-07,2.71875000e-03,8.59375000e-03
-2.66984375e-07,1.09375000e-03,6.71875000e-03
-2.66184375e-07,5.21875000e-03,2.73437500e-03
-2.65384375e-07,8.93750000e-03,5.00000000e-03
-2.64584375e-07,3.93750000e-03,8.12500000e-03
-2.63784375e-07,2.50000000e-04,1.64062500e-03
-2.62984375e-07,7.40625000e-03,1.04687500e-02
-2.62184375e-07,3.65625000e-03,2.20312500e-02
-2.61384375e-07,6.75000000e-03,1.16406250e-02
-2.60584375e-07,7.59375000e-03,4.06250000e-03
-2.59784375e-07,6.03125000e-03,7.50000000e-03
-2.58984375e-07,1.10000000e-02,8.12500000e-03
-2.58184375e-07,1.10625000e-02,8.82812500e-03
-2.57384375e-07,7.87500000e-03,8.75000000e-03
-2.56584375e-07,4.50000000e-03,1.20312500e-02
-2.55784375e-07,4.34375000e-03,5.23437500e-03
-2.54984375e-07,3.43750000e-03,-1.01562500e-03
-2.54184375e-07,8.15625000e-03,1.10156250e-02
-2.53384375e-07,3.18750000e-03,5.39062500e-03
-2.52584375e-07,4.75000000e-03,8.35937500e-03
-2.51784375e-07,2.34375000e-03,1.74218750e-02
-2.50984375e-07,7.50000000e-03,1.38281250e-02
-2.50184375e-07,4.68750000e-03,6.09375000e-03
-2.49384375e-07,9.81250000e-03,1.34375000e-02
-2.48584375e-07,2.68750000e-03,9.29687500e-03
-2.47784375e-07,1.11562500e-02,1.34375000e-02
-2.46984375e-07,9.96875000e-03,1.25000000e-02
-2.46184375e-07,8.71875000e-03,1.25781250e-02
-2.45384375e-07,2.43750000e-03,6.64062500e-03
-2.44584375e-07,1.06250000e-02,1.86718750e-02
-2.43784375e-07,1.12500000e-03,8.35937500e-03
-2.42984375e-07,1.06562500e-02,1.53906250e-02
-2.42184375e-07,1.59375000e-03,1.10156250e-02
-2.41384375e-07,2.78125000e-03,1.46093750e-02
-2.40584375e-07,5.34375000e-03,4.37500000e-03
-2.39784375e-07,5.40625000e-03,6.25000000e-03
-2.38984375e-07,4.84375000e-03,6.01562500e-03
-2.38184375e-07,6.25000000e-03,6.32812500e-03
-2.37384375e-07,8.90625000e-03,1.74218750e-02
-2.36584375e-07,8.06250000e-03,1.45312500e-02
-2.35784375e-07,5.12500000e-03,1.78125000e-02
-2.34984375e-07,8.53125000e-03,5.15625000e-03
-2.34184375e-07,8.03125000e-03,1.35156250e-02
-2.33384375e-07,9.87500000e-03,1.90625000e-02
-2.32584375e-07,3.68750000e-03,9.68750000e-03
-2.31784375e-07,1.06875000e-02,9.29687500e-03
-2.30984375e-07,5.03125000e-03,8.59375000e-03
-2.30184375e-07,5.06250000e-03,1.00781250e-02
-2.29384375e-07,4.87500000e-03,1.39843750e-02
-2.28584375e-07,8.46875000e-03,1.64062500e-02
-2.27784375e-07,6.15625000e-03,6.40625000e-03
-2.26984375e-07,8.62500000e-03,9.37500000e-03
-2.26184375e-07,2.40625000e-03,5.93750000e-03
-2.25384375e-07,1.00312500e-02,8.20312500e-03
-2.24584375e-07,7.34375000e-03,1.73437500e-02
-2.23784375e-07,9.71875000e-03,1.96875000e-02
-2.22984375e-07,3.65625000e-03,7.73437500e-03
-2.22184375e-07,1.12812500e-02,1.27343750e-02
-2.21384375e-07,4.15625000e-03,1.30468750e-02
-2.20584375e-07,4.62500000e-03,1.05468750e-02
-2.19784375e-07,5.43750000e-03,9.84375000e-03
-2.18984375e-07,9.25000000e-03,5.31250000e-03
-2.18184375e-07,4.25000000e-03,9.45312500e-03
-2.17384375e-07,1.14375000e-02,1.13281250e-02
-2.16584375e-07,7.18750000e-04,8.59375000e-03
-2.15784375e-07,8.50000000e-03,7.42187500e-03
-2.14984375e-07,1.07187500e-02,1.14062500e-02
-2.14184375e-07,1.04687500e-02,1.66406250e-02
-2.13384375e-07,2.25000000e-03,1.37500000e-02
-2.12584375e-07,3.46875000e-03,1.44531250e-02
-2.11784375e-07,8.06250000e-03,4.68750000e-04
-2.10984375e-07,7.28125000e-03,1.36718750e-02
-2.10184375e-07,2.87500000e-03,1.69531250e-02
-2.09384375e-07,6.56250000e-03,6.25000000e-04
-2.08584375e-07,8.00000000e-03,8.20312500e-03
-2.07784375e-07,7.31250000e-03,1.14062500e-02
-2.06984375e-07,5.37500000e-03,1.19531250e-02
-2.06184375e-07,7.62500000e-03,1.33593750e-02
-2.05384375e-07,4.31250000e-03,1.89843750e-02
-2.04584375e-07,9.31250000e-03,-7.81250000e-04
-2.03784375e-07,5.21875000e-03,1.69531250e-02
-2.02984375e-07,7.65625000e-03,8.35937500e-03
-2.02184375e-07,3.75000000e-03,1.15625000e-02
-2.01384375e-07,1.07187500e-02,1.71875000e-02
-2.00584375e-07,4.28125000e-03,1.50781250e-02
-1.99784375e-07,6.78125000e-03,1.30468750e-02
-1.98984375e-07,7.46875000e-03,5.23437500e-03
-1.98184375e-07,8.03125000e-03,9.37500000e-03
-1.97384375e-07,1.59375000e-03,1.06250000e-02
-1.96584375e-07,7.75000000e-03,9.21875000e-03
-1.95784375e-07,1.56250000e-03,2.03125000e-03
-1.94984375e-07,9.81250000e-03,4.84375000e-03
-1.94184375e-07,3.53125000e-03,8.75000000e-03
-1.93384375e-07,1.00625000e-02,1.56250000e-04
-1.92584375e-07,3.53125000e-03,6.48437500e-03
-1.91784375e-07,1.30937500e-02,1.21093750e-02
-1.90984375e-07,3.59375000e-03,1.14843750e-02
-1.90184375e-07,4.40625000e-03,1.73437500e-02
-1.89384375e-07,7.53125000e-03,1.24218750e-02
-1.88584375e-07,7.03125000e-03,9.21875000e-03
-1.87784375e-07,6.46875000e-03,4.68750000e-03
-1.86984375e-07,5.68750000e-03,9.45312500e-03
-1.86184375e-07,7.90625000e-03,1.06250000e-02
-1.85384375e-07,5.21875000e-03,1.07031250e-02
-1.84584375e-07,3.71875000e-03,1.06250000e-02
-1.83784375e-07,6.84375000e-03,8.67187500e-03
-1.82984375e-07,8.15625000e-03,1.53906250e-02
-1.82184375e-07,5.31250000e-03,1.17968750e-02
-1.81384375e-07,8.37500000e-03,7.34375000e-03
-1.80584375e-07,8.62500000e-03,1.67187500e-02
-1.79784375e-07,7.71875000e-03,1.76562500e-02
-1.78984375e-07,8.09375000e-03,1.17187500e-02
-1.78184375e-07,7.15625000e-03,9.84375000e-03
-1.77384375e-07,5.28125000e-03,5.85937500e-03
-1.76584375e-07,3.43750000e-03,7.42187500e-03
-1.75784375e-07,9.40625000e-03,2.73437500e-03
-1.74984375e-07,-6.25000000e-04,1.35937500e-02
-1.74184375e-07,1.02500000e-02,1.04687500e-02
-1.73384375e-07,6.31250000e-03,3.51562500e-03
-1.72584375e-07,5.65625000e-03,1.75000000e-02
-1.71784375e-07,4.53125000e-03,1.44531250e-02
-1.70984375e-07,8.31250000e-03,1.65625000e-02
-1.70184375e-07,3.75000000e-03,9.06250000e-03
-1.69384375e-07,2.81250000e-03,1.32031250e-02
-1.68584375e-07,6.31250000e-03,3.20312500e-03
-1.67784375e-07,7.43750000e-03,5.00000000e-03
-1.66984375e-07,8.40625000e-03,1.86718750e-02
-1.66184375e-07,1.09375000e-02,1.50000000e-02
-1.65384375e-07,3.56250000e-03,4.53125000e-03
-1.64584375e-07,7.50000000e-03,4.84375000e-03
-1.63784375e-07,1.93750000e-03,1.34375000e-02
-1.62984375e-07,5.25000000e-03,1.04687500e-02
-1.62184375e-07,2.62500000e-03,7.03125000e-04
-1.61384375e-07,7.53125000e-03,1.02343750e-02
-1.60584375e-07,9.00000000e-03,3.35937500e-03
-1.59784375e-07,9.90625000e-03,1.02343750e-02
-1.58984375e-07,9.90625000e-03,3.28125000e-03
-1.58184375e-07,6.25000000e-03,2.42187500e-03
-1.57384375e-07,9.06250000e-03,1.22656250e-02
-1.56584375e-07,6.40625000e-03,1.79687500e-02
-1.55784375e-07,9.46875000e-03,5.23437500e-03
-1.54984375e-07,7.25000000e-03,1.36718750e-02
-1.54184375e-07,4.18750000e-03,1.84375000e-02
-1.53384375e-07,9.12500000e-03,7.96875000e-03
-1.52584375e-07,3.96875000e-03,2.39062500e-02
-1.51784375e-07,6.84375000e-03,7.42187500e-03
-1.50984375e-07,5.00000000e-03,1.56250000e-04
-1.50184375e-07,1.20937500e-02,1.02343750e-02
-1.49384375e-07,1.90625000e-03,1.65625000e-02
-1.48584375e-07,7.34375000e-03,9.21875000e-03
-1.47784375e-07,7.25000000e-03,1.13281250e-02
-1.46984375e-07,1.09687500e-02,8.59375000e-03
-1.46184375e-07,1.18750000e-03,1.07031250e-02
-1.45384375e-07,1.03750000e-02,3.98437500e-03
-1.44584375e-07,6.93750000e-03,9.60937500e-03
-1.43784375e-07,7.15625000e-03,1.46093750e-02
-1.42984375e-07,6.50000000e-03,1.46093750e-02
-1.42184375e-07,1.25937500e-02,7.89062500e-03
-1.41384375e-07,1.93750000e-03,1.85937500e-02
-1.40584375e-07,1.35312500e-02,1.54687500e-02
-1.39784375e-07,2.00000000e-03,5.15625000e-03
-1.38984375e-07,5.25000000e-03,1.19531250e-02
-1.38184375e-07,7.65625000e-03,1.18750000e-02
-1.37384375e-07,1.26250000e-02,1.32031250e-02
-1.36584375e-07,6.68750000e-03,1.25000000e-02
-1.35784375e-07,6.84375000e-03,1.17968750e-02
-1.34984375e-07,9.62500000e-03,6.01562500e-03
-1.34184375e-07,7.09375000e-03,9.45312500e-03
-1.33384375e-07,8.96875000e-03,1.00781250e-02
-1.32584375e-07,6.15625000e-03,6.17187500e-03
-1.31784375e-07,6.75000000e-03,9.68750000e-03
-1.30984375e-07,9.93750000e-03,1.49218750e-02
-1.30184375e-07,5.12500000e-03,1.94531250e-02
-1.29384375e-07,6.59375000e-03,6.64062500e-03
-1.28584375e-07,4.71875000e-03,1.25000000e-02
-1.27784375e-07,5.78125000e-03,1.14843750e-02
-1.26984375e-07,2.96875000e-03,9.84375000e-03
-1.26184375e-07,5.87500000e-03,1.36718750e-02
-1.25384375e-07,5.56250000e-03,6.56250000e-03
-1.24584375e-07,1.15625000e-02,1.84375000e-02
-1.23784375e-07,3.75000000e-04,-1.56250000e-03
-1.22984375e-07,1.13750000e-02,7.03125000e-03
-1.22184375e-07,1.10000000e-02,5.54687500e-03
-1.21384375e-07,1.55937500e-02,1.09375000e-02
-1.20584375e-07,5.25000000e-03,1.16406250e-02
-1.19784375e-07,6.96875000e-03,1.35156250e-02
-1.18984375e-07,4.56250000e-03,7.73437500e-03
-1.18184375e-07,7.00000000e-03,2.35937500e-02
-1.17384375e-07,4.71875000e-03,-6.25000000e-04
-1.16584375e-07,1.15625000e-02,1.35156250e-02
-1.15784375e-07,3.56250000e-03,9.60937500e-03
-1.14984375e-07,8.34375000e-03,1.92968750e-02
-1.14184375e-07,7.31250000e-03,6.95312500e-03
-1.13384375e-07,4.09375000e-03,1.34375000e-02
-1.12584375e-07,8.37500000e-03,7.18750000e-03
-1.11784375e-07,1.29687500e-02,1.29687500e-02
-1.10984375e-07,4.56250000e-03,5.93750000e-03
-1.10184375e-07,5.87500000e-03,5.23437500e-03
-1.09384375e-07,9.65625000e-03,8.35937500e-03
-1.08584375e-07,6.81250000e-03,9.29687500e-03
-1.07784375e-07,6.53125000e-03,1.05468750e-02
-1.06984375e-07,6.93750000e-03,9.53125000e-03
-1.06184375e-07,8.50000000e-03,2.00000000e-02
-1.05384375e-07,1.03750000e-02,1.72656250e-02
-1.04584375e-07,9.59375000e-03,1.25781250e-02
-1.03784375e-07,5.65625000e-03,1.02343750e-02
-1.02984375e-07,4.56250000e-03,2.07812500e-02
-1.02184375e-07,6.75000000e-03,-5.46875000e-04
-1.01384375e-07,3.96875000e-03,1.48437500e-02
-1.00584375e-07,4.56250000e-03,4.37500000e-03
-9.97843750e-08,7.71875000e-03,1.70312500e-02
-9.89843750e-08,5.62500000e-03,2.09375000e-02
-9.81843750e-08,2.43750000e-03,7.03125000e-04
-9.73843750e-08,4.71875000e-03,1.78125000e-02
-9.65843750e-08,7.71875000e-03,7.42187500e-03
-9.57843750e-08,9.00000000e-03,1.71875000e-02
-9.49843750e-08,4.71875000e-03,1.35156250e-02
-9.41843750e-08,1.30937500e-02,1.17968750e-02
-9.33843750e-08,7.15625000e-03,4.68750000e-03
-9.25843750e-08,4.28125000e-03,2.15625000e-02
-9.17843750e-08,9.62500000e-03,1.24218750e-02
-9.09843750e-08,9.03125000e-03,1.35937500e-02
-9.01843750e-08,8.50000000e-03,1.13281250e-02
-8.93843750e-08,1.21875000e-02,9.06250000e-03
-8.85843750e-08,4.31250000e-03,2.42187500e-02
-8.77843750e-08,5.65625000e-03,1.96875000e-02
-8.69843750e-08,1.10937500e-02,8.59375000e-03
-8.61843750e-08,1.14687500e-02,1.22656250e-02
-8.53843750e-08,3.46875000e-03,1.21093750e-02
-8.45843750e-08,6.06250000e-03,1.35937500e-02
-8.37843750e-08,8.71875000e-03,1.08593750e-02
-8.29843750e-08,5.40625000e-03,1.76562500e-02
-8.21843750e-08,4.81250000e-03,1.73437500e-02
-8.13843750e-08,5.84375000e-03,8.90625000e-03
-8.05843750e-08,7.81250000e-03,1.23437500e-02
-7.97843750e-08,7.34375000e-03,1.15625000e-02
-7.89843750e-08,1.02187500e-02,1.16406250e-02
-7.81843750e-08,7.00000000e-03,1.48437500e-02
-7.73843750e-08,3.43750000e-03,8.59375000e-04
-7.65843750e-08,9.59375000e-03,1.53125000e-02
-7.57843750e-08,4.28125000e-03,1.46093750e-02
-7.49843750e-08,5.50000000e-03,1.14843750e-02
-7.41843750e-08,8.25000000e-03,6.09375000e-03
-7.33843750e-08,1.27187500e-02,1.36718750e-02
-7.25843750e-08,2.31250000e-03,1.58593750e-02
-7.17843750e-08,9.53125000e-03,9.29687500e-03
-7.09843750e-08,4.28125000e-03,1.85156250e-02
-7.01843750e-08,1.04687500e-02,1.49218750e-02
-6.93843750e-08,6.75000000e-03,1.75781250e-02
-6.85843750e-08,1.20937500e-02,1.14062500e-02
-6.77843750e-08,8.28125000e-03,1.20312500e-02
-6.69843750e-08,9.93750000e-03,1.71875000e-02
-6.61843750e-08,6.53125000e-03,5.70312500e-03
-6.53843750e-08,8.21875000e-03,1.25781250e-02
-6.45843750e-08,9.37500000e-03,1.64062500e-02
-6.37843750e-08,9.87500000e-03,6.95312500e-03
-6.29843750e-08,5.81250000e-03,1.14843750e-02
-6.21843750e-08,5.62500000e-03,1.85937500e-02
-6.13843750e-08,1.15937500e-02,9.45312500e-03
-6.05843750e-08,1.42500000e-02,-2.07500000e-01
-5.97843750e-08,5.34375000e-03,-7.73046875e-01
-5.89843750e-08,4.46875000e-03,-1.21226563e+00
-5.81843750e-08,7.93750000e-03,-1.32273438e+00
-5.73843750e-08,5.46875000e-03,-1.37585938e+00
-5.65843750e-08,2.15625000e-03,-1.39851563e+00
-5.57843750e-08,7.09375000e-03,-1.39945312e+00
-5.49843750e-08,6.31250000e-03,-1.38210938e+00
-5.41843750e-08,1.04375000e-02,-1.39593750e+00
-5.33843750e-08,8.96875000e-03,-1.40843750e+00
-5.25843750e-08,7.62500000e-03,-1.41726563e+00
-5.17843750e-08,1.84375000e-03,-1.41625000e+00
-5.09843750e-08,9.87500000e-03,-1.41578125e+00
-5.01843750e-08,4.62500000e-03,-1.41335938e+00
-4.93843750e-08,2.75000000e-03,-1.40859375e+00
-4.85843750e-08,5.15625000e-03,-1.41648438e+00
-4.77843750e-08,1.02812500e-02,-1.40562500e+00
-4.69843750e-08,2.00000000e-03,-1.41273438e+00
-4.61843750e-08,7.68750000e-03,-1.41703125e+00
-4.53843750e-08,9.75000000e-03,-1.41453125e+00
-4.45843750e-08,8.37500000e-03,-1.41539063e+00
-4.37843750e-08,2.53125000e-03,-1.42359375e+00
-4.29843750e-08,7.81250000e-03,-1.43335938e+00
-4.21843750e-08,4.06250000e-03,-1.42937500e+00
-4.13843750e-08,9.62500000e-03,-1.42234375e+00
-4.05843750e-08,2.21875000e-03,-1.42023438e+00
-3.97843750e-08,7.87500000e-03,-1.42640625e+00
-3.89843750e-08,3.84375000e-03,-1.42000000e+00
-3.81843750e-08,1.01875000e-02,-1.41601562e+00
-3.73843750e-08,2.43750000e-03,-1.41992188e+00
-3.65843750e-08,5.53125000e-03,-1.43085938e+00
-3.57843750e-08,7.93750000e-03,-1.42968750e+00
-3.49843750e-08,5.90625000e-03,-1.42156250e+00
-3.41843750e-08,-3.43750000e-03,-1.42750000e+00
-3.33843750e-08,-1.16562500e-02,-1.42367188e+00
-3.25843750e-08,-3.31875000e-02,-1.42437500e+00
-3.17843750e-08,-7.04062500e-02,-1.42132813e+00
-3.09843750e-08,-1.21093750e-01,-1.42593750e+00
-3.01843750e-08,-1.83437500e-01,-1.43718750e+00
-2.93843750e-08,-2.57687500e-01,-1.41742188e+00
-2.85843750e-08,-3.24843750e-01,-1.41914063e+00
-2.77843750e-08,-3.89656250e-01,-1.42203125e+00
-2.69843750e-08,-4.44312500e-01,-1.41851563e+00
-2.61843750e-08,-4.90281250e-01,-1.42375000e+00
-2.53843750e-08,-5.26437500e-01,-1.41664063e+00
-2.45843750e-08,-5.57656250e-01,-1.41351563e+00
-2.37843750e-08,-5.77875000e-01,-1.41929688e+00
-2.29843750e-08,-5.87281250e-01,-1.41179688e+00
-2.21843750e-08,-5.95062500e-01,-1.42054688e+00
-2.13843750e-08,-5.96625000e-01,-1.42078125e+00
-2.05843750e-08,-5.88156250e-01,-1.42335937e+00
-1.97843750e-08,-5.66500000e-01,-1.42046875e+00
-1.89843750e-08,-5.50343750e-01,-1.41515625e+00
-1.81843750e-08,-5.33500000e-01,-1.41851563e+00
-1.73843750e-08,-5.05343750e-01,-1.42226563e+00
-1.65843750e-08,-4.80343750e-01,-1.41679688e+00
-1.57843750e-08,-4.53250000e-01,-1.42218750e+00
-1.49843750e-08,-4.40500000e-01,-1.42453125e+00
-1.41843750e-08,-4.10531250e-01,-1.42578125e+00
-1.33843750e-08,-3.90218750e-01,-1.42421875e+00
-1.25843750e-08,-3.71750000e-01,-1.42015625e+00
-1.17843750e-08,-3.60593750e-01,-1.42210938e+00
-1.09843750e-08,-3.32187500e-01,-1.42335937e+00
-1.01843750e-08,-3.11437500e-01,-1.42382812e+00
-9.38437500e-09,-2.91875000e-01,-1.42234375e+00
-8.58437500e-09,-2.79593750e-01,-1.42609375e+00
-7.78437500e-09,-2.55781250e-01,-1.41593750e+00
-6.98437500e-09,-2.37437500e-01,-1.41945312e+00
-6.18437500e-09,-2.32031250e-01,-1.41039063e+00
-5.38437500e-09,-2.17937500e-01,-1.42507813e+00
-4.58437500e-09,-2.02156250e-01,-1.42835938e+00
-3.78437500e-09,-1.91625000e-01,-1.39367188e+00
-2.98437500e-09,-1.79500000e-01,-1.35515625e+00
-2.18437500e-09,-1.65843750e-01,-1.24601563e+00
-1.38437500e-09,-1.55031250e-01,-9.18828125e-01
-5.84375000e-10,-1.42531250e-01,-4.65156250e-01
2.15625000e-10,-1.24750000e-01,-2.56718750e-01
1.01562500e-09,-1.24656250e-01,-1.39140625e-01
1.81562500e-09,-1.18468750e-01,-8.75000000e-02
2.61562500e-09,-1.08875000e-01,-7.03906250e-02
3.41562500e-09,-9.65312500e-02,-4.78125000e-02
4.21562500e-09,-1.00250000e-01,-5.00781250e-02
5.01562500e-09,-8.64687500e-02,-5.03125000e-02
5.81562500e-09,-8.40000000e-02,-3.71093750e-02
6.61562500e-09,-7.87500000e-02,-3.11718750e-02
7.41562500e-09,-7.84375000e-02,-2.66406250e-02
8.21562500e-09,-6.88750000e-02,-3.20312500e-02
9.01562500e-09,-7.18125000e-02,-2.94531250e-02
9.81562500e-09,-6.07187500e-02,-2.58593750e-02
1.06156250e-08,-6.17500000e-02,-1.87500000e-02
1.14156250e-08,-5.11250000e-02,-1.64062500e-02
1.22156250e-08,-5.26250000e-02,-1.32812500e-02
1.30156250e-08,-4.80625000e-02,-1.67187500e-02
1.38156250e-08,-5.04062500e-02,-9.29687500e-03
1.46156250e-08,-4.53125000e-02,-1.68750000e-02
1.54156250e-08,-3.85625000e-02,-1.70312500e-02
1.62156250e-08,-3.76562500e-02,-6.40625000e-03
1.70156250e-08,-3.82187500e-02,-1.30468750e-02
1.78156250e-08,-3.45625000e-02,-1.18750000e-02
1.86156250e-08,-3.21250000e-02,4.14062500e-03
1.94156250e-08,-3.30625000e-02,-1.25781250e-02
2.02156250e-08,-3.08437500e-02,4.21875000e-03
2.10156250e-08,-3.06250000e-02,2.34375000e-03
2.18156250e-08,-2.62812500e-02,-8.12500000e-03
2.26156250e-08,-2.76875000e-02,-4.29687500e-03
2.34156250e-08,-2.59375000e-02,3.35937500e-03
2.42156250e-08,-2.34375000e-02,-3.82812500e-03
2.50156250e-08,-2.04375000e-02,3.59375000e-03
2.58156250e-08,-1.93437500e-02,5.31250000e-03
2.66156250e-08,-2.70937500e-02,7.81250000e-05
2.74156250e-08,-1.77187500e-02,8.90625000e-03
2.82156250e-08,-1.35312500e-02,5.15625000e-03
2.90156250e-08,-1.40625000e-02,9.45312500e-03
2.98156250e-08,-1.69062500e-02,6.56250000e-03
3.06156250e-08,-1.22187500e-02,3.67187500e-03
3.14156250e-08,-1.51562500e-02,1.30468750e-02
3.22156250e-08,-6.62500000e-03,2.82031250e-02
3.30156250e-08,-1.18750000e-02,2.37500000e-02
3.38156250e-08,-6.03125000e-03,3.07812500e-02
3.46156250e-08,-9.59375000e-03,3.70312500e-02
3.54156250e-08,-2.28125000e-03,4.42968750e-02
3.62156250e-08,-1.21562500e-02,2.46875000e-02
3.70156250e-08,-3.09375000e-03,2.95312500e-02
3.78156250e-08,-6.50000000e-03,2.72656250e-02
3.86156250e-08,-6.78125000e-03,3.44531250e-02
3.94156250e-08,-1.16562500e-02,2.60937500e-02
4.02156250e-08,-3.21875000e-03,2.54687500e-02
4.10156250e-08,-2.37500000e-03,1.55468750e-02
4.18156250e-08,-6.03125000e-03,2.24218750e-02
4.26156250e-08,-8.37500000e-03,2.00781250e-02
4.34156250e-08,-4.50000000e-03,2.07812500e-02
4.42156250e-08,-6.43750000e-03,2.00000000e-02
4.50156250e-08,-5.65625000e-03,1.66406250e-02
4.58156250e-08,-4.93750000e-03,1.41406250e-02
4.66156250e-08,-1.10625000e-02,2.53906250e-02
4.74156250e-08,-8.21875000e-03,2.42187500e-02
4.82156250e-08,-6.78125000e-03,2.29687500e-02
4.90156250e-08,-7.59375000e-03,2.46875000e-02
4.98156250e-08,-6.12500000e-03,1.27343750e-02
5.06156250e-08,-1.36562500e-02,2.75781250e-02
5.14156250e-08,-8.84375000e-03,1.42968750e-02
5.22156250e-08,-7.37500000e-03,1.23437500e-02
5.30156250e-08,-6.03125000e-03,2.72656250e-02
5.38156250e-08,-1.07187500e-02,1.30468750e-02
5.46156250e-08,-7.15625000e-03,2.14062500e-02
5.54156250e-08,-5.78125000e-03,1.96875000e-02
5.62156250e-08,-2.65625000e-03,2.03906250e-02
