data/raw/TriggerAuto_ALL_20231205194115955.csv

Model,MSO64B
Channel,CH1,,Channel,CH2
Label,,,Label,
Waveform Type,ANALOG,,Waveform Type,ANALOG
Horizontal Units,s,,Horizontal Units,s
Sample Interval,8.00000000e-10,,Sample Interval,8.00000000e-10
Record Length,5000,,Record Length,5000
Zero Index,349.22265625,,Zero Index,349.22265625
Vertical Units,V,,Vertical Units,V
,,,,
ANALOG_Thumbnail,,,ANALOG_Thumbnail,
yOffset,0.000000,,yOffset,0.000000
yPosition,2.160000,,yPosition,2.180000

Labels,,
TIME,CH1,CH2
-2.79378125e-07,1.00625000e-02,1.81250000e-02
-2.78578125e-07,3.37500000e-03,1.69531250e-02
-2.77778125e-07,1.08125000e-02,8.51562500e-03
-2.76978125e-07,9.25000000e-03,1.21093750e-02
-2.76178125e-07,1.41875000e-02,2.31250000e-02
-2.75378125e-07,4.96875000e-03,1.56250000e-02
-2.74578125e-07,9.90625000e-03,1.77343750e-02
-2.73778125e-07,7.46875000e-03,1.09375000e-02
-2.72978125e-07,6.68750000e-03,1.25781250e-02
-2.72178125e-07,1.40625000e-03,9.76562500e-03
-2.71378125e-07,1.29375000e-02,1.46093750e-02
-2.70578125e-07,4.43750000e-03,1.36718750e-02
-2.69778125e-07,1.11562500e-02,1.06250000e-02
-2.68978125e-07,5.68750000e-03,1.58593750e-02
-2.68178125e-07,8.43750000e-03,1.71093750e-02
-2.67378125e-07,8.34375000e-03,1.29687500e-02
-2.66578125e-07,9.43750000e-03,5.93750000e-03
-2.65778125e-07,3.53125000e-03,1.92968750e-02
-2.64978125e-07,1.16875000e-02,1.50000000e-02
-2.64178125e-07,5.59375000e-03,1.31250000e-02
-2.63378125e-07,7.21875000e-03,1.25000000e-02
-2.62578125e-07,8.43750000e-03,1.44531250e-02
-2.61778125e-07,6.21875000e-03,9.21875000e-03
-2.60978125e-07,1.10625000e-02,1.85156250e-02
-2.60178125e-07,5.59375000e-03,8.98437500e-03
-2.59378125e-07,9.43750000e-03,1.26562500e-02
-2.58578125e-07,7.31250000e-03,5.85937500e-03
-2.57778125e-07,3.81250000e-03,2.27343750e-02
-2.56978125e-07,9.87500000e-03,9.53125000e-03
-2.56178125e-07,7.87500000e-03,1.74218750e-02
-2.55378125e-07,1.00000000e-02,1.48437500e-02
-2.54578125e-07,8.12500000e-03,1.45312500e-02
-2.53778125e-07,8.50000000e-03,1.03125000e-02
-2.52978125e-07,2.62500000e-03,1.07031250e-02
-2.52178125e-07,1.02812500e-02,1.57031250e-02
-2.51378125e-07,8.59375000e-03,1.06250000e-02
-2.50578125e-07,9.15625000e-03,2.16406250e-02
-2.49778125e-07,5.43750000e-03,2.42187500e-03
-2.48978125e-07,7.87500000e-03,2.34375000e-02
-2.48178125e-07,4.46875000e-03,1.34375000e-02
-2.47378125e-07,8.18750000e-03,1.44531250e-02
-2.46578125e-07,3.12500000e-03,1.10156250e-02
-2.45778125e-07,1.07812500e-02,9.14062500e-03
-2.44978125e-07,4.71875000e-03,1.51562500e-02
-2.44178125e-07,7.03125000e-03,6.32812500e-03
-2.43378125e-07,3.00000000e-03,6.79687500e-03
-2.42578125e-07,6.43750000e-03,9.92187500e-03
-2.41778125e-07,1.09687500e-02,1.00781250e-02
-2.40978125e-07,1.25000000e-02,2.18750000e-02
-2.40178125e-07,2.25000000e-03,8.28125000e-03
-2.39378125e-07,6.78125000e-03,1.86718750e-02
-2.38578125e-07,1.15312500e-02,7.65625000e-03
-2.37778125e-07,8.37500000e-03,1.47656250e-02
-2.36978125e-07,1.00000000e-02,1.96875000e-02
-2.36178125e-07,7.09375000e-03,1.96093750e-02
-2.35378125e-07,6.12500000e-03,1.61718750e-02
-2.34578125e-07,6.46875000e-03,9.06250000e-03
-2.33778125e-07,6.53125000e-03,1.85156250e-02
-2.32978125e-07,1.12812500e-02,2.00781250e-02
-2.32178125e-07,5.40625000e-03,3.51562500e-03
-2.31378125e-07,9.59375000e-03,7.81250000e-04
-2.30578125e-07,7.31250000e-03,1.33593750e-02
-2.29778125e-07,9.71875000e-03,1.05468750e-02
-2.28978125e-07,5.62500000e-03,1.46875000e-02
-2.28178125e-07,6.25000000e-03,1.57031250e-02
-2.27378125e-07,2.62500000e-03,9.14062500e-03
-2.26578125e-07,8.93750000e-03,1.32812500e-02
-2.25778125e-07,6.37500000e-03,1.24218750e-02
-2.24978125e-07,3.75000000e-03,1.25781250e-02
-2.24178125e-07,9.62500000e-03,1.38281250e-02
-2.23378125e-07,1.24375000e-02,1.50781250e-02
-2.22578125e-07,6.06250000e-03,1.31250000e-02
-2.21778125e-07,1.35312500e-02,1.32031250e-02
-2.20978125e-07,7.00000000e-03,1.84375000e-02
-2.20178125e-07,7.06250000e-03,1.62500000e-02
-2.19378125e-07,3.56250000e-03,7.03125000e-03
-2.18578125e-07,7.53125000e-03,1.19531250e-02
-2.17778125e-07,5.43750000e-03,1.30468750e-02
-2.16978125e-07,6.15625000e-03,1.18750000e-02
-2.16178125e-07,7.53125000e-03,9.84375000e-03
-2.15378125e-07,1.08125000e-02,1.32812500e-02
-2.14578125e-07,5.59375000e-03,1.24218750e-02
-2.13778125e-07,7.62500000e-03,6.64062500e-03
-2.12978125e-07,1.24375000e-02,1.78906250e-02
-2.12178125e-07,7.59375000e-03,8.35937500e-03
-2.11378125e-07,8.31250000e-03,1.46093750e-02
-2.10578125e-07,7.59375000e-03,2.50000000e-03
-2.09778125e-07,6.00000000e-03,2.15625000e-02
-2.08978125e-07,1.09687500e-02,2.21093750e-02
-2.08178125e-07,6.00000000e-03,1.69531250e-02
-2.07378125e-07,9.37500000e-03,8.90625000e-03
-2.06578125e-07,3.06250000e-03,1.53125000e-02
-2.05778125e-07,8.03125000e-03,1.22656250e-02
-2.04978125e-07,6.56250000e-03,1.46875000e-02
-2.04178125e-07,6.40625000e-03,2.15625000e-02
-2.03378125e-07,3.06250000e-03,1.24218750e-02
-2.02578125e-07,9.43750000e-03,2.50000000e-02
-2.01778125e-07,-1.75000000e-03,1.73437500e-02
-2.00978125e-07,7.37500000e-03,1.42187500e-02
-2.00178125e-07,7.06250000e-03,8.35937500e-03
-1.99378125e-07,7.71875000e-03,1.57031250e-02
-1.98578125e-07,5.84375000e-03,7.10937500e-03
-1.97778125e-07,7.93750000e-03,1.39843750e-02
-1.96978125e-07,5.87500000e-03,1.89843750e-02
-1.96178125e-07,9.50000000e-03,1.08593750e-02
-1.95378125e-07,5.03125000e-03,1.32812500e-03
-1.94578125e-07,1.29062500e-02,1.67968750e-02
-1.93778125e-07,9.84375000e-03,1.83593750e-02
-1.92978125e-07,1.35000000e-02,1.57031250e-02
-1.92178125e-07,8.81250000e-03,1.16406250e-02
-1.91378125e-07,5.71875000e-03,7.81250000e-03
-1.90578125e-07,9.96875000e-03,1.72656250e-02
-1.89778125e-07,1.15625000e-02,1.35156250e-02
-1.88978125e-07,4.06250000e-03,7.18750000e-03
-1.88178125e-07,1.07812500e-02,6.56250000e-03
-1.87378125e-07,1.11875000e-02,5.46875000e-03
-1.86578125e-07,8.15625000e-03,1.79687500e-02
-1.85778125e-07,6.09375000e-03,6.48437500e-03
-1.84978125e-07,9.40625000e-03,1.80468750e-02
-1.84178125e-07,7.15625000e-03,9.68750000e-03
-1.83378125e-07,1.13125000e-02,1.13281250e-02
-1.82578125e-07,9.34375000e-03,1.45312500e-02
-1.81778125e-07,5.12500000e-03,1.24218750e-02
-1.80978125e-07,4.87500000e-03,1.05468750e-02
-1.80178125e-07,1.46250000e-02,1.44531250e-02
-1.79378125e-07,3.40625000e-03,9.76562500e-03
-1.78578125e-07,8.21875000e-03,1.06250000e-02
-1.77778125e-07,5.34375000e-03,8.67187500e-03
-1.76978125e-07,1.20937500e-02,2.12500000e-02
-1.76178125e-07,3.84375000e-03,1.02343750e-02
-1.75378125e-07,1.30625000e-02,1.19531250e-02
-1.74578125e-07,5.56250000e-03,9.21875000e-03
-1.73778125e-07,1.30937500e-02,1.72656250e-02
-1.72978125e-07,6.25000000e-03,1.10937500e-02
-1.72178125e-07,1.03437500e-02,1.98437500e-02
-1.71378125e-07,3.71875000e-03,1.21875000e-02
-1.70578125e-07,1.16562500e-02,1.71875000e-02
-1.69778125e-07,7.03125000e-03,6.87500000e-03
-1.68978125e-07,9.37500000e-03,1.13281250e-02
-1.68178125e-07,8.56250000e-03,8.43750000e-03
-1.67378125e-07,1.10000000e-02,1.27343750e-02
-1.66578125e-07,3.62500000e-03,1.17187500e-02
-1.65778125e-07,7.56250000e-03,1.32812500e-02
-1.64978125e-07,6.00000000e-03,1.10937500e-02
-1.64178125e-07,1.36875000e-02,1.59375000e-02
-1.63378125e-07,5.84375000e-03,7.57812500e-03
-1.62578125e-07,1.01562500e-02,4.84375000e-03
-1.61778125e-07,1.20312500e-02,1.32812500e-02
-1.60978125e-07,5.62500000e-03,1.46093750e-02
-1.60178125e-07,7.96875000e-03,1.89843750e-02
-1.59378125e-07,9.71875000e-03,7.10937500e-03
-1.58578125e-07,1.10312500e-02,1.92187500e-02
-1.57778125e-07,8.40625000e-03,1.49218750e-02
-1.56978125e-07,8.28125000e-03,1.23437500e-02
-1.56178125e-07,1.17187500e-02,3.28125000e-03
-1.55378125e-07,8.40625000e-03,2.12500000e-02
-1.54578125e-07,1.36250000e-02,6.17187500e-03
-1.53778125e-07,7.28125000e-03,1.07812500e-02
-1.52978125e-07,5.87500000e-03,5.07812500e-03
-1.52178125e-07,5.71875000e-03,8.20312500e-03
-1.51378125e-07,1.42187500e-02,1.18750000e-02
-1.50578125e-07,4.87500000e-03,9.92187500e-03
-1.49778125e-07,6.40625000e-03,7.89062500e-03
-1.48978125e-07,7.75000000e-03,4.76562500e-03
-1.48178125e-07,1.09687500e-02,4.76562500e-03
-1.47378125e-07,6.31250000e-03,2.96875000e-03
-1.46578125e-07,1.20625000e-02,1.48437500e-02
-1.45778125e-07,4.78125000e-03,1.32812500e-02
-1.44978125e-07,1.04062500e-02,1.71875000e-02
-1.44178125e-07,7.34375000e-03,1.17968750e-02
-1.43378125e-07,1.58750000e-02,1.12500000e-02
-1.42578125e-07,5.62500000e-03,1.72656250e-02
-1.41778125e-07,1.39375000e-02,1.94531250e-02
-1.40978125e-07,4.56250000e-03,4.21875000e-03
-1.40178125e-07,5.62500000e-03,9.21875000e-03
-1.39378125e-07,1.24375000e-02,1.17187500e-03
-1.38578125e-07,1.15937500e-02,1.02343750e-02
-1.37778125e-07,4.59375000e-03,7.89062500e-03
-1.36978125e-07,1.56875000e-02,1.40625000e-02
-1.36178125e-07,1.30937500e-02,8.51562500e-03
-1.35378125e-07,6.93750000e-03,1.35937500e-02
-1.34578125e-07,8.06250000e-03,1.91406250e-02
-1.33778125e-07,1.00000000e-02,7.89062500e-03
-1.32978125e-07,1.14687500e-02,2.00000000e-02
-1.32178125e-07,7.84375000e-03,6.48437500e-03
-1.31378125e-07,9.34375000e-03,1.36718750e-02
-1.30578125e-07,1.09687500e-02,1.39843750e-02
-1.29778125e-07,3.65625000e-03,1.34375000e-02
-1.28978125e-07,1.55312500e-02,3.51562500e-03
-1.28178125e-07,9.50000000e-03,9.92187500e-03
-1.27378125e-07,8.34375000e-03,1.55468750e-02
-1.26578125e-07,7.84375000e-03,2.42187500e-03
-1.25778125e-07,1.08750000e-02,1.39843750e-02
-1.24978125e-07,4.31250000e-03,5.78125000e-03
-1.24178125e-07,1.09062500e-02,1.15625000e-02
-1.23378125e-07,5.46875000e-03,1.85937500e-02
-1.22578125e-07,7.68750000e-03,1.38281250e-02
-1.21778125e-07,3.84375000e-03,1.80468750e-02
-1.20978125e-07,1.21562500e-02,2.03906250e-02
-1.20178125e-07,8.56250000e-03,1.18750000e-02
-1.19378125e-07,4.62500000e-03,1.67187500e-02
-1.18578125e-07,4.56250000e-03,1.26562500e-02
-1.17778125e-07,8.96875000e-03,1.42187500e-02
-1.16978125e-07,4.25000000e-03,1.48437500e-02
-1.16178125e-07,1.59062500e-02,1.82812500e-02
-1.15378125e-07,6.43750000e-03,1.81250000e-02
-1.14578125e-07,6.62500000e-03,1.08593750e-02
-1.13778125e-07,1.10312500e-02,1.77343750e-02
-1.12978125e-07,1.31250000e-02,5.54687500e-03
-1.12178125e-07,5.56250000e-03,1.56250000e-03
-1.11378125e-07,6.87500000e-03,1.49218750e-02
-1.10578125e-07,1.35937500e-02,1.00000000e-02
-1.09778125e-07,7.87500000e-03,8.98437500e-03
-1.08978125e-07,8.09375000e-03,7.73437500e-03
-1.08178125e-07,6.71875000e-03,9.29687500e-03
-1.07378125e-07,1.04375000e-02,1.73437500e-02
-1.06578125e-07,9.71875000e-03,2.30468750e-02
-1.05778125e-07,7.15625000e-03,2.02343750e-02
-1.04978125e-07,1.06875000e-02,1.17187500e-02
-1.04178125e-07,6.00000000e-03,1.46875000e-02
-1.03378125e-07,1.03437500e-02,6.01562500e-03
-1.02578125e-07,5.65625000e-03,1.18750000e-02
-1.01778125e-07,7.28125000e-03,1.88281250e-02
-1.00978125e-07,1.00937500e-02,1.09375000e-02
-1.00178125e-07,1.19687500e-02,9.84375000e-03
-9.93781250e-08,5.31250000e-04,8.75000000e-03
-9.85781250e-08,1.04687500e-02,1.54687500e-02
-9.77781250e-08,1.20312500e-02,1.40625000e-02
-9.69781250e-08,8.25000000e-03,1.41406250e-02
-9.61781250e-08,5.50000000e-03,1.75781250e-02
-9.53781250e-08,1.25312500e-02,2.14062500e-02
-9.45781250e-08,3.84375000e-03,1.09375000e-02
-9.37781250e-08,8.34375000e-03,1.91406250e-02
-9.29781250e-08,7.03125000e-03,1.49218750e-02
-9.21781250e-08,1.13750000e-02,1.84375000e-02
-9.13781250e-08,5.03125000e-03,1.10937500e-02
-9.05781250e-08,9.90625000e-03,8.82812500e-03
-8.97781250e-08,4.18750000e-03,1.69531250e-02
-8.89781250e-08,9.09375000e-03,2.05468750e-02
-8.81781250e-08,1.28437500e-02,1.72656250e-02
-8.73781250e-08,1.40000000e-02,2.31250000e-02
-8.65781250e-08,4.09375000e-03,1.17968750e-02
-8.57781250e-08,6.53125000e-03,2.40625000e-02
-8.49781250e-08,1.10625000e-02,7.03125000e-03
-8.41781250e-08,8.18750000e-03,2.16406250e-02
-8.33781250e-08,8.68750000e-03,1.76562500e-02
-8.25781250e-08,8.21875000e-03,1.35156250e-02
-8.17781250e-08,1.28125000e-02,2.14062500e-02
-8.09781250e-08,1.16250000e-02,1.85937500e-02
-8.01781250e-08,9.93750000e-03,1.85937500e-02
-7.93781250e-08,7.34375000e-03,1.65625000e-02
-7.85781250e-08,5.71875000e-03,1.45312500e-02
-7.77781250e-08,1.17500000e-02,7.34375000e-03
-7.69781250e-08,1.10625000e-02,1.21875000e-02
-7.61781250e-08,7.43750000e-03,1.25781250e-02
-7.53781250e-08,7.84375000e-03,1.48437500e-03
-7.45781250e-08,1.28750000e-02,1.17187500e-02
-7.37781250e-08,2.84375000e-03,1.66406250e-02
-7.29781250e-08,1.22187500e-02,1.25781250e-02
-7.21781250e-08,1.00937500e-02,8.67187500e-03
-7.13781250e-08,1.46875000e-02,1.25781250e-02
-7.05781250e-08,7.34375000e-03,1.32031250e-02
-6.97781250e-08,1.16875000e-02,2.03906250e-02
-6.89781250e-08,8.34375000e-03,1.73437500e-02
-6.81781250e-08,1.01250000e-02,2.32031250e-02
-6.73781250e-08,7.62500000e-03,5.62500000e-03
-6.65781250e-08,1.69687500e-02,1.87500000e-02
-6.57781250e-08,1.00937500e-02,1.65625000e-02
-6.49781250e-08,9.37500000e-03,6.09375000e-03
-6.41781250e-08,2.18750000e-03,1.51562500e-02
-6.33781250e-08,1.02812500e-02,1.53906250e-02
-6.25781250e-08,1.35312500e-02,2.96875000e-03
-6.17781250e-08,1.52500000e-02,3.15625000e-02
-6.09781250e-08,7.37500000e-03,-1.50781250e-02
-6.01781250e-08,1.22187500e-02,-4.62343750e-01
-5.93781250e-08,1.30312500e-02,-1.04085938e+00
-5.85781250e-08,1.09375000e-02,-1.27476563e+00
-5.77781250e-08,6.90625000e-03,-1.35914063e+00
-5.69781250e-08,7.68750000e-03,-1.40125000e+00
-5.61781250e-08,9.21875000e-03,-1.39437500e+00
-5.53781250e-08,9.12500000e-03,-1.40125000e+00
-5.45781250e-08,1.02812500e-02,-1.38585938e+00
-5.37781250e-08,1.04375000e-02,-1.40843750e+00
-5.29781250e-08,7.00000000e-03,-1.40453125e+00
-5.21781250e-08,1.31562500e-02,-1.41335938e+00
-5.13781250e-08,4.12500000e-03,-1.40703125e+00
-5.05781250e-08,7.50000000e-03,-1.41226563e+00
-4.97781250e-08,7.34375000e-03,-1.40828125e+00
-4.89781250e-08,1.17500000e-02,-1.39585938e+00
-4.81781250e-08,4.87500000e-03,-1.41195313e+00
-4.73781250e-08,9.21875000e-03,-1.40234375e+00
-4.65781250e-08,8.68750000e-03,-1.41531250e+00
-4.57781250e-08,1.18437500e-02,-1.41351563e+00
-4.49781250e-08,6.34375000e-03,-1.40796875e+00
-4.41781250e-08,1.25625000e-02,-1.42742188e+00
-4.33781250e-08,1.17187500e-02,-1.41960938e+00
-4.25781250e-08,8.09375000e-03,-1.42367188e+00
-4.17781250e-08,8.31250000e-03,-1.43867188e+00
-4.09781250e-08,1.16875000e-02,-1.42132813e+00
-4.01781250e-08,4.37500000e-03,-1.43203125e+00
-3.93781250e-08,1.35625000e-02,-1.41187500e+00
-3.85781250e-08,3.09375000e-03,-1.41453125e+00
-3.77781250e-08,6.06250000e-03,-1.42781250e+00
-3.69781250e-08,8.87500000e-03,-1.41281250e+00
-3.61781250e-08,1.26562500e-02,-1.41765625e+00
-3.53781250e-08,2.81250000e-04,-1.41523438e+00
-3.45781250e-08,5.31250000e-03,-1.41132813e+00
-3.37781250e-08,-1.71875000e-03,-1.41796875e+00
-3.29781250e-08,-1.74687500e-02,-1.42265625e+00
-3.21781250e-08,-4.53437500e-02,-1.41382813e+00
-3.13781250e-08,-9.42812500e-02,-1.42960938e+00
-3.05781250e-08,-1.54781250e-01,-1.40953125e+00
-2.97781250e-08,-2.37937500e-01,-1.40687500e+00
-2.89781250e-08,-3.29406250e-01,-1.42031250e+00
-2.81781250e-08,-4.19468750e-01,-1.42382812e+00
-2.73781250e-08,-4.90812500e-01,-1.41351563e+00
-2.65781250e-08,-5.50500000e-01,-1.42421875e+00
-2.57781250e-08,-6.01718750e-01,-1.42000000e+00
-2.49781250e-08,-6.34718750e-01,-1.40781250e+00
-2.41781250e-08,-6.62125000e-01,-1.41687500e+00
-2.33781250e-08,-6.77281250e-01,-1.40351563e+00
-2.25781250e-08,-6.84875000e-01,-1.42414063e+00
-2.17781250e-08,-6.79687500e-01,-1.40562500e+00
-2.09781250e-08,-6.73375000e-01,-1.41539063e+00
-2.01781250e-08,-6.67000000e-01,-1.41234375e+00
-1.93781250e-08,-6.51968750e-01,-1.42492188e+00
-1.85781250e-08,-6.23437500e-01,-1.41648438e+00
-1.77781250e-08,-6.06468750e-01,-1.42390625e+00
-1.69781250e-08,-5.81718750e-01,-1.41750000e+00
-1.61781250e-08,-5.59312500e-01,-1.42429688e+00
-1.53781250e-08,-5.27718750e-01,-1.41781250e+00
-1.45781250e-08,-5.03906250e-01,-1.41210938e+00
-1.37781250e-08,-4.81343750e-01,-1.41148438e+00
-1.29781250e-08,-4.54187500e-01,-1.42210938e+00
-1.21781250e-08,-4.30531250e-01,-1.42429688e+00
-1.13781250e-08,-4.03468750e-01,-1.42351563e+00
-1.05781250e-08,-3.76312500e-01,-1.41273438e+00
-9.77812500e-09,-3.64000000e-01,-1.42890625e+00
-8.97812500e-09,-3.34625000e-01,-1.41742188e+00
-8.17812500e-09,-3.12156250e-01,-1.41468750e+00
-7.37812500e-09,-2.96062500e-01,-1.42484375e+00
-6.57812500e-09,-2.71093750e-01,-1.41992188e+00
-5.77812500e-09,-2.54156250e-01,-1.42820313e+00
-4.97812500e-09,-2.39187500e-01,-1.41812500e+00
-4.17812500e-09,-2.18781250e-01,-1.39992187e+00
-3.37812500e-09,-2.13437500e-01,-1.38640625e+00
-2.57812500e-09,-1.92500000e-01,-1.32664063e+00
-1.77812500e-09,-1.80593750e-01,-1.11921875e+00
-9.78125000e-10,-1.67656250e-01,-7.00000000e-01
-1.78125000e-10,-1.60687500e-01,-3.33046875e-01
6.21875000e-10,-1.53218750e-01,-1.93046875e-01
1.42187500e-09,-1.46468750e-01,-1.00625000e-01
2.22187500e-09,-1.37062500e-01,-7.57812500e-02
3.02187500e-09,-1.37000000e-01,-5.77343750e-02
3.82187500e-09,-1.23812500e-01,-4.28125000e-02
4.62187500e-09,-1.21281250e-01,-4.38281250e-02
5.42187500e-09,-1.11531250e-01,-3.78125000e-02
6.22187500e-09,-1.07093750e-01,-3.89843750e-02
7.02187500e-09,-1.00843750e-01,-2.04687500e-02
7.82187500e-09,-9.95625000e-02,-2.29687500e-02
8.62187500e-09,-8.90000000e-02,-2.06250000e-02
9.42187500e-09,-9.08437500e-02,-1.97656250e-02
1.02218750e-08,-8.48750000e-02,-1.07031250e-02
1.10218750e-08,-7.59375000e-02,-1.51562500e-02
1.18218750e-08,-6.85937500e-02,-1.64062500e-02
1.26218750e-08,-7.11875000e-02,-1.39062500e-02
1.34218750e-08,-6.22812500e-02,-1.91406250e-02
1.42218750e-08,-6.04062500e-02,-8.98437500e-03
1.50218750e-08,-5.58437500e-02,-7.89062500e-03
1.58218750e-08,-5.80312500e-02,-1.96875000e-02
1.66218750e-08,-4.95312500e-02,-4.45312500e-03
1.74218750e-08,-4.17500000e-02,3.90625000e-04
1.82218750e-08,-4.66562500e-02,-1.43750000e-02
1.90218750e-08,-4.04062500e-02,6.71875000e-03
1.98218750e-08,-3.85312500e-02,1.14843750e-02
2.06218750e-08,-3.73437500e-02,6.40625000e-03
2.14218750e-08,-3.58437500e-02,-6.40625000e-03
2.22218750e-08,-3.77812500e-02,-4.29687500e-03
2.30218750e-08,-3.17500000e-02,3.98437500e-03
2.38218750e-08,-3.33437500e-02,2.89062500e-03
2.46218750e-08,-2.56250000e-02,3.82812500e-03
2.54218750e-08,-2.91250000e-02,-2.42187500e-03
2.62218750e-08,-2.80625000e-02,9.37500000e-04
2.70218750e-08,-2.78125000e-02,1.31250000e-02
2.78218750e-08,-1.59687500e-02,1.23437500e-02
2.86218750e-08,-2.78437500e-02,2.26562500e-03
2.94218750e-08,-1.35312500e-02,1.60937500e-02
3.02218750e-08,-1.64687500e-02,7.50000000e-03
3.10218750e-08,-1.63750000e-02,2.82031250e-02
3.18218750e-08,-1.90000000e-02,2.57031250e-02
3.26218750e-08,-1.21250000e-02,2.52343750e-02
3.34218750e-08,-1.30625000e-02,4.06250000e-02
3.42218750e-08,-7.09375000e-03,3.85937500e-02
3.50218750e-08,-1.33125000e-02,3.57031250e-02
3.58218750e-08,-9.71875000e-03,3.67968750e-02
3.66218750e-08,-6.34375000e-03,3.44531250e-02
3.74218750e-08,-8.00000000e-03,3.18750000e-02
3.82218750e-08,-1.29687500e-02,3.54687500e-02
3.90218750e-08,-1.06875000e-02,2.74218750e-02
3.98218750e-08,-7.50000000e-03,2.74218750e-02
4.06218750e-08,-6.31250000e-03,2.53125000e-02
4.14218750e-08,-1.11250000e-02,1.73437500e-02
4.22218750e-08,-1.18437500e-02,2.10156250e-02
4.30218750e-08,-1.07500000e-02,2.92187500e-02
4.38218750e-08,-1.39062500e-02,2.71093750e-02
4.46218750e-08,-1.35000000e-02,2.10156250e-02
4.54218750e-08,-1.05937500e-02,1.99218750e-02
4.62218750e-08,-8.59375000e-03,3.42968750e-02
4.70218750e-08,-9.59375000e-03,2.19531250e-02
4.78218750e-08,-1.20312500e-02,2.81250000e-02
4.86218750e-08,-1.43437500e-02,1.51562500e-02
4.94218750e-08,-1.03125000e-02,2.15625000e-02
5.02218750e-08,-8.34375000e-03,1.58593750e-02
5.10218750e-08,-8.37500000e-03,1.67968750e-02
5.18218750e-08,-5.28125000e-03,1.78906250e-02
5.26218750e-08,-8.03125000e-03,1.53125000e-02
5.34218750e-08,-2.87500000e-03,1.26562500e-02
5.42218750e-08,-6.93750000e-03,1.67187500e-02
5.50218750e-08,-2.50000000e-04,1.64843750e-02
5.58218750e-08,-5.96875000e-03,1.72656250e-02
5.66218750e-08,-5.15625000e-03,1.84375000e-02
