data/raw/TriggerAuto_ALL_20231205193025762.csv

Model,MSO64B
Channel,CH1,,Channel,CH2
Label,,,Label,
Waveform Type,ANALOG,,Waveform Type,ANALOG
Horizontal Units,s,,Horizontal Units,s
Sample Interval,8.00000000e-10,,Sample Interval,8.00000000e-10
Record Length,5000,,Record Length,5000
Zero Index,349.14843750,,Zero Index,349.14843750
Vertical Units,V,,Vertical Units,V
,,,,
ANALOG_Thumbnail,,,ANALOG_Thumbnail,
yOffset,0.000000,,yOffset,0.000000
yPosition,2.160000,,yPosition,2.180000

Labels,,
TIME,CH1,CH2
-2.79318750e-07,6.18750000e-03,7.73437500e-03
-2.78518750e-07,1.18750000e-03,3.59375000e-03
-2.77718750e-07,1.01250000e-02,1.10937500e-02
-2.76918750e-07,8.40625000e-03,9.45312500e-03
-2.76118750e-07,1.08125000e-02,6.95312500e-03
-2.75318750e-07,3.68750000e-03,1.21093750e-02
-2.74518750e-07,3.81250000e-03,8.04687500e-03
-2.73718750e-07,6.37500000e-03,-3.75000000e-03
-2.72918750e-07,1.26562500e-02,6.01562500e-03
-2.72118750e-07,4.68750000e-04,1.41406250e-02
-2.71318750e-07,8.78125000e-03,2.18750000e-03
-2.70518750e-07,1.00625000e-02,1.10156250e-02
-2.69718750e-07,5.21875000e-03,6.09375000e-03
-2.68918750e-07,6.46875000e-03,3.67187500e-03
-2.68118750e-07,7.59375000e-03,5.07812500e-03
-2.67318750e-07,6.15625000e-03,9.68750000e-03
-2.66518750e-07,7.56250000e-03,1.54687500e-02
-2.65718750e-07,2.34375000e-03,8.59375000e-03
-2.64918750e-07,6.50000000e-03,5.54687500e-03
-2.64118750e-07,4.53125000e-03,4.21875000e-03
-2.63318750e-07,7.81250000e-03,5.70312500e-03
-2.62518750e-07,6.43750000e-03,1.35937500e-02
-2.61718750e-07,1.03750000e-02,1.46093750e-02
-2.60918750e-07,7.09375000e-03,7.26562500e-03
-2.60118750e-07,9.71875000e-03,6.87500000e-03
-2.59318750e-07,3.00000000e-03,4.84375000e-03
-2.58518750e-07,7.68750000e-03,9.68750000e-03
-2.57718750e-07,1.08437500e-02,1.06250000e-02
-2.56918750e-07,7.03125000e-03,5.46875000e-03
-2.56118750e-07,2.56250000e-03,9.45312500e-03
-2.55318750e-07,1.10937500e-02,2.18750000e-03
-2.54518750e-07,-5.62500000e-04,1.03906250e-02
-2.53718750e-07,6.00000000e-03,1.40625000e-02
-2.52918750e-07,5.28125000e-03,9.92187500e-03
-2.52118750e-07,9.96875000e-03,8.82812500e-03
-2.51318750e-07,3.75000000e-03,1.33593750e-02
-2.50518750e-07,8.18750000e-03,7.34375000e-03
-2.49718750e-07,2.87500000e-03,8.75000000e-03
-2.48918750e-07,4.06250000e-03,3.35937500e-03
-2.48118750e-07,7.50000000e-03,2.89062500e-03
-2.47318750e-07,9.62500000e-03,-9.37500000e-04
-2.46518750e-07,5.56250000e-03,1.17187500e-02
-2.45718750e-07,5.84375000e-03,1.07031250e-02
-2.44918750e-07,1.10937500e-02,6.79687500e-03
-2.44118750e-07,4.78125000e-03,6.32812500e-03
-2.43318750e-07,5.50000000e-03,1.54687500e-02
-2.42518750e-07,8.75000000e-03,7.96875000e-03
-2.41718750e-07,7.06250000e-03,1.41406250e-02
-2.40918750e-07,5.81250000e-03,5.85937500e-03
-2.40118750e-07,8.81250000e-03,9.60937500e-03
-2.39318750e-07,4.43750000e-03,1.07031250e-02
-2.38518750e-07,4.84375000e-03,1.53125000e-02
-2.37718750e-07,8.03125000e-03,5.85937500e-03
-2.36918750e-07,3.25000000e-03,1.14843750e-02
-2.36118750e-07,6.09375000e-03,7.10937500e-03
-2.35318750e-07,4.43750000e-03,-3.90625000e-04
-2.34518750e-07,9.56250000e-03,1.21875000e-02
-2.33718750e-07,7.21875000e-03,-5.46875000e-04
-2.32918750e-07,8.81250000e-03,1.17968750e-02
-2.32118750e-07,4.65625000e-03,8.67187500e-03
-2.31318750e-07,1.23437500e-02,1.41406250e-02
-2.30518750e-07,2.46875000e-03,3.90625000e-03
-2.29718750e-07,1.02187500e-02,5.07812500e-03
-2.28918750e-07,3.71875000e-03,9.53125000e-03
-2.28118750e-07,7.28125000e-03,1.42187500e-02
-2.27318750e-07,5.09375000e-03,1.97656250e-02
-2.26518750e-07,1.25312500e-02,6.48437500e-03
-2.25718750e-07,4.75000000e-03,1.40625000e-02
-2.24918750e-07,1.04375000e-02,8.51562500e-03
-2.24118750e-07,5.62500000e-04,5.93750000e-03
-2.23318750e-07,3.40625000e-03,-3.12500000e-03
-2.22518750e-07,9.21875000e-03,5.07812500e-03
-2.21718750e-07,1.60000000e-02,1.02343750e-02
-2.20918750e-07,7.65625000e-03,1.07812500e-02
-2.20118750e-07,7.59375000e-03,9.45312500e-03
-2.19318750e-07,9.28125000e-03,7.42187500e-03
-2.18518750e-07,7.71875000e-03,7.57812500e-03
-2.17718750e-07,8.50000000e-03,1.27343750e-02
-2.16918750e-07,2.59375000e-03,7.34375000e-03
-2.16118750e-07,1.16875000e-02,8.12500000e-03
-2.15318750e-07,7.81250000e-03,7.50000000e-03
-2.14518750e-07,1.00312500e-02,1.34375000e-02
-2.13718750e-07,9.28125000e-03,4.68750000e-03
-2.12918750e-07,1.81250000e-03,9.53125000e-03
-2.12118750e-07,6.71875000e-03,5.46875000e-03
-2.11318750e-07,8.56250000e-03,1.68750000e-02
-2.10518750e-07,4.87500000e-03,1.24218750e-02
-2.09718750e-07,3.65625000e-03,8.67187500e-03
-2.08918750e-07,1.35937500e-02,8.04687500e-03
-2.08118750e-07,3.43750000e-04,1.00781250e-02
-2.07318750e-07,9.59375000e-03,8.67187500e-03
-2.06518750e-07,7.87500000e-03,8.12500000e-03
-2.05718750e-07,1.10312500e-02,7.96875000e-03
-2.04918750e-07,4.37500000e-03,4.21875000e-03
-2.04118750e-07,1.01250000e-02,9.53125000e-03
-2.03318750e-07,7.37500000e-03,1.14062500e-02
-2.02518750e-07,1.32187500e-02,1.26562500e-02
-2.01718750e-07,7.18750000e-03,9.37500000e-03
-2.00918750e-07,1.23750000e-02,1.80468750e-02
-2.00118750e-07,3.81250000e-03,1.03906250e-02
-1.99318750e-07,7.81250000e-03,2.81250000e-03
-1.98518750e-07,3.75000000e-03,2.01562500e-02
-1.97718750e-07,6.84375000e-03,1.49218750e-02
-1.96918750e-07,8.87500000e-03,1.32812500e-03
-1.96118750e-07,1.58125000e-02,1.55468750e-02
-1.95318750e-07,1.93750000e-03,1.22656250e-02
-1.94518750e-07,4.65625000e-03,7.81250000e-05
-1.93718750e-07,8.62500000e-03,8.20312500e-03
-1.92918750e-07,8.28125000e-03,4.68750000e-03
-1.92118750e-07,7.53125000e-03,5.62500000e-03
-1.91318750e-07,8.87500000e-03,5.54687500e-03
-1.90518750e-07,1.23125000e-02,8.20312500e-03
-1.89718750e-07,8.00000000e-03,1.15625000e-02
-1.88918750e-07,1.10625000e-02,1.60156250e-02
-1.88118750e-07,4.28125000e-03,1.05468750e-02
-1.87318750e-07,5.06250000e-03,1.26562500e-02
-1.86518750e-07,1.07500000e-02,2.57812500e-03
-1.85718750e-07,6.68750000e-03,1.09375000e-02
-1.84918750e-07,3.25000000e-03,9.84375000e-03
-1.84118750e-07,7.56250000e-03,4.84375000e-03
-1.83318750e-07,1.08125000e-02,1.74218750e-02
-1.82518750e-07,4.56250000e-03,7.10937500e-03
-1.81718750e-07,9.50000000e-03,6.17187500e-03
-1.80918750e-07,1.07812500e-02,6.79687500e-03
-1.80118750e-07,1.21562500e-02,1.34375000e-02
-1.79318750e-07,0.00000000e+00,8.59375000e-03
-1.78518750e-07,1.44375000e-02,8.12500000e-03
-1.77718750e-07,2.93750000e-03,7.26562500e-03
-1.76918750e-07,5.37500000e-03,2.18750000e-03
-1.76118750e-07,1.90625000e-03,4.21875000e-03
-1.75318750e-07,1.26875000e-02,1.01562500e-03
-1.74518750e-07,5.03125000e-03,9.68750000e-03
-1.73718750e-07,1.24062500e-02,9.45312500e-03
-1.72918750e-07,4.18750000e-03,7.42187500e-03
-1.72118750e-07,3.68750000e-03,5.00000000e-03
-1.71318750e-07,8.09375000e-03,1.22656250e-02
-1.70518750e-07,1.34687500e-02,1.60156250e-02
-1.69718750e-07,3.25000000e-03,1.57031250e-02
-1.68918750e-07,7.81250000e-03,-2.73437500e-03
-1.68118750e-07,1.15000000e-02,5.07812500e-03
-1.67318750e-07,1.02187500e-02,9.45312500e-03
-1.66518750e-07,6.09375000e-03,1.07812500e-02
-1.65718750e-07,8.62500000e-03,1.14062500e-02
-1.64918750e-07,1.04062500e-02,1.46093750e-02
-1.64118750e-07,9.28125000e-03,5.93750000e-03
-1.63318750e-07,1.34062500e-02,8.12500000e-03
-1.62518750e-07,8.03125000e-03,2.73437500e-03
-1.61718750e-07,7.68750000e-03,5.00000000e-03
-1.60918750e-07,7.46875000e-03,8.82812500e-03
-1.60118750e-07,9.84375000e-03,1.07812500e-02
-1.59318750e-07,4.50000000e-03,7.96875000e-03
-1.58518750e-07,6.31250000e-03,8.59375000e-04
-1.57718750e-07,1.14062500e-02,9.68750000e-03
-1.56918750e-07,-1.25000000e-03,6.71875000e-03
-1.56118750e-07,1.49062500e-02,2.96875000e-03
-1.55318750e-07,7.56250000e-03,1.61718750e-02
-1.54518750e-07,1.08125000e-02,5.93750000e-03
-1.53718750e-07,3.53125000e-03,7.65625000e-03
-1.52918750e-07,1.40312500e-02,1.28125000e-02
-1.52118750e-07,8.46875000e-03,1.72656250e-02
-1.51318750e-07,5.46875000e-03,1.10937500e-02
-1.50518750e-07,5.09375000e-03,2.65625000e-03
-1.49718750e-07,1.25000000e-02,1.15625000e-02
-1.48918750e-07,5.21875000e-03,1.25000000e-02
-1.48118750e-07,8.87500000e-03,-2.57812500e-03
-1.47318750e-07,5.81250000e-03,8.98437500e-03
-1.46518750e-07,7.03125000e-03,5.31250000e-03
-1.45718750e-07,9.65625000e-03,6.32812500e-03
-1.44918750e-07,1.68437500e-02,8.20312500e-03
-1.44118750e-07,3.25000000e-03,1.27343750e-02
-1.43318750e-07,8.18750000e-03,4.68750000e-03
-1.42518750e-07,1.25937500e-02,6.87500000e-03
-1.41718750e-07,5.96875000e-03,7.81250000e-05
-1.40918750e-07,9.46875000e-03,4.37500000e-03
-1.40118750e-07,6.78125000e-03,7.57812500e-03
-1.39318750e-07,1.30625000e-02,1.80468750e-02
-1.38518750e-07,8.90625000e-03,8.43750000e-03
-1.37718750e-07,1.13750000e-02,1.27343750e-02
-1.36918750e-07,5.81250000e-03,3.20312500e-03
-1.36118750e-07,7.21875000e-03,7.65625000e-03
-1.35318750e-07,1.27187500e-02,6.01562500e-03
-1.34518750e-07,8.09375000e-03,1.03125000e-02
-1.33718750e-07,1.01250000e-02,3.98437500e-03
-1.32918750e-07,1.04062500e-02,0.00000000e+00
-1.32118750e-07,1.22187500e-02,2.03906250e-02
-1.31318750e-07,3.03125000e-03,9.29687500e-03
-1.30518750e-07,9.81250000e-03,5.70312500e-03
-1.29718750e-07,9.00000000e-03,7.81250000e-03
-1.28918750e-07,1.16250000e-02,1.10937500e-02
-1.28118750e-07,5.81250000e-03,1.25000000e-02
-1.27318750e-07,1.53125000e-02,1.49218750e-02
-1.26518750e-07,6.71875000e-03,7.65625000e-03
-1.25718750e-07,9.18750000e-03,9.21875000e-03
-1.24918750e-07,6.78125000e-03,-1.32812500e-03
-1.24118750e-07,1.17500000e-02,1.03906250e-02
-1.23318750e-07,3.50000000e-03,9.29687500e-03
-1.22518750e-07,1.45625000e-02,4.29687500e-03
-1.21718750e-07,7.78125000e-03,1.42968750e-02
-1.20918750e-07,1.81250000e-03,7.42187500e-03
-1.20118750e-07,9.43750000e-03,9.06250000e-03
-1.19318750e-07,1.74687500e-02,5.00000000e-03
-1.18518750e-07,2.62500000e-03,8.51562500e-03
-1.17718750e-07,1.10312500e-02,7.18750000e-03
-1.16918750e-07,1.25000000e-02,7.96875000e-03
-1.16118750e-07,5.03125000e-03,1.25781250e-02
-1.15318750e-07,6.68750000e-03,8.51562500e-03
-1.14518750e-07,9.68750000e-03,6.09375000e-03
-1.13718750e-07,9.12500000e-03,1.08593750e-02
-1.12918750e-07,5.53125000e-03,1.53906250e-02
-1.12118750e-07,6.15625000e-03,1.13281250e-02
-1.11318750e-07,3.90625000e-03,3.59375000e-03
-1.10518750e-07,4.03125000e-03,1.45312500e-02
-1.09718750e-07,8.06250000e-03,2.07812500e-02
-1.08918750e-07,6.59375000e-03,1.01562500e-02
-1.08118750e-07,8.93750000e-03,9.14062500e-03
-1.07318750e-07,5.40625000e-03,5.93750000e-03
-1.06518750e-07,1.72500000e-02,1.60937500e-02
-1.05718750e-07,7.50000000e-04,1.32031250e-02
-1.04918750e-07,1.24687500e-02,1.27343750e-02
-1.04118750e-07,6.71875000e-03,1.34375000e-02
-1.03318750e-07,1.37500000e-02,1.22656250e-02
-1.02518750e-07,-5.62500000e-04,1.62500000e-02
-1.01718750e-07,1.28125000e-02,5.62500000e-03
-1.00918750e-07,7.62500000e-03,1.32812500e-02
-1.00118750e-07,9.03125000e-03,1.10156250e-02
-9.93187500e-08,4.25000000e-03,-1.87500000e-03
-9.85187500e-08,1.00000000e-02,1.32031250e-02
-9.77187500e-08,5.96875000e-03,1.60156250e-02
-9.69187500e-08,1.15937500e-02,1.15625000e-02
-9.61187500e-08,-6.25000000e-05,1.62500000e-02
-9.53187500e-08,8.03125000e-03,3.59375000e-03
-9.45187500e-08,9.84375000e-03,7.50000000e-03
-9.37187500e-08,1.29375000e-02,1.32812500e-02
-9.29187500e-08,7.65625000e-03,5.93750000e-03
-9.21187500e-08,4.50000000e-03,7.73437500e-03
-9.13187500e-08,1.20000000e-02,1.35937500e-02
-9.05187500e-08,8.00000000e-03,9.60937500e-03
-8.97187500e-08,4.96875000e-03,1.89062500e-02
-8.89187500e-08,7.59375000e-03,3.98437500e-03
-8.81187500e-08,9.93750000e-03,1.12500000e-02
-8.73187500e-08,4.53125000e-03,1.34375000e-02
-8.65187500e-08,6.78125000e-03,9.60937500e-03
-8.57187500e-08,7.34375000e-03,9.68750000e-03
-8.49187500e-08,1.53125000e-03,1.70312500e-02
-8.41187500e-08,7.71875000e-03,1.74218750e-02
-8.33187500e-08,3.96875000e-03,1.35156250e-02
-8.25187500e-08,4.46875000e-03,1.28906250e-02
-8.17187500e-08,9.21875000e-03,1.23437500e-02
-8.09187500e-08,1.41250000e-02,1.21875000e-02
-8.01187500e-08,3.06250000e-03,3.04687500e-03
-7.93187500e-08,1.20000000e-02,1.64843750e-02
-7.85187500e-08,8.00000000e-03,3.51562500e-03
-7.77187500e-08,9.12500000e-03,1.06250000e-02
-7.69187500e-08,5.25000000e-03,1.35156250e-02
-7.61187500e-08,7.93750000e-03,9.60937500e-03
-7.53187500e-08,5.21875000e-03,1.16406250e-02
-7.45187500e-08,1.02812500e-02,1.94531250e-02
-7.37187500e-08,7.62500000e-03,7.81250000e-03
-7.29187500e-08,1.02812500e-02,8.35937500e-03
-7.21187500e-08,6.40625000e-03,1.65625000e-02
-7.13187500e-08,9.34375000e-03,3.20312500e-03
-7.05187500e-08,7.81250000e-04,1.40625000e-02
-6.97187500e-08,3.81250000e-03,9.68750000e-03
-6.89187500e-08,9.09375000e-03,1.31250000e-02
-6.81187500e-08,1.03437500e-02,1.02343750e-02
-6.73187500e-08,3.53125000e-03,1.28125000e-02
-6.65187500e-08,8.03125000e-03,9.29687500e-03
-6.57187500e-08,1.24687500e-02,1.58593750e-02
-6.49187500e-08,7.31250000e-03,9.37500000e-03
-6.41187500e-08,9.96875000e-03,3.35937500e-03
-6.33187500e-08,4.78125000e-03,8.59375000e-03
-6.25187500e-08,5.12500000e-03,7.96875000e-03
-6.17187500e-08,4.28125000e-03,2.59375000e-02
-6.09187500e-08,9.00000000e-03,-5.93750000e-03
-6.01187500e-08,4.78125000e-03,-3.92421875e-01
-5.93187500e-08,5.93750000e-03,-9.67734375e-01
-5.85187500e-08,7.56250000e-03,-1.24492188e+00
-5.77187500e-08,7.43750000e-03,-1.30679688e+00
-5.69187500e-08,9.53125000e-03,-1.38531250e+00
-5.61187500e-08,5.40625000e-03,-1.39531250e+00
-5.53187500e-08,1.08750000e-02,-1.39242188e+00
-5.45187500e-08,3.81250000e-03,-1.39007813e+00
-5.37187500e-08,1.15625000e-02,-1.39492188e+00
-5.29187500e-08,8.40625000e-03,-1.40531250e+00
-5.21187500e-08,1.03750000e-02,-1.40234375e+00
-5.13187500e-08,5.18750000e-03,-1.40445313e+00
-5.05187500e-08,1.11875000e-02,-1.40664063e+00
-4.97187500e-08,5.75000000e-03,-1.41492188e+00
-4.89187500e-08,8.09375000e-03,-1.41710938e+00
-4.81187500e-08,1.59375000e-03,-1.41492188e+00
-4.73187500e-08,1.45000000e-02,-1.41429688e+00
-4.65187500e-08,6.31250000e-03,-1.41820313e+00
-4.57187500e-08,9.12500000e-03,-1.41484375e+00
-4.49187500e-08,-1.18750000e-03,-1.42039063e+00
-4.41187500e-08,4.53125000e-03,-1.42695313e+00
-4.33187500e-08,7.62500000e-03,-1.41968750e+00
-4.25187500e-08,8.43750000e-03,-1.42609375e+00
-4.17187500e-08,1.21875000e-03,-1.43390625e+00
-4.09187500e-08,6.00000000e-03,-1.42132813e+00
-4.01187500e-08,1.24375000e-02,-1.41546875e+00
-3.93187500e-08,3.46875000e-03,-1.41320313e+00
-3.85187500e-08,3.65625000e-03,-1.41515625e+00
-3.77187500e-08,5.84375000e-03,-1.43257813e+00
-3.69187500e-08,5.65625000e-03,-1.40671875e+00
-3.61187500e-08,8.71875000e-03,-1.41476563e+00
-3.53187500e-08,7.34375000e-03,-1.41875000e+00
-3.45187500e-08,1.75000000e-03,-1.42539063e+00
-3.37187500e-08,-7.50000000e-03,-1.42468750e+00
-3.29187500e-08,-1.63750000e-02,-1.41609375e+00
-3.21187500e-08,-4.61562500e-02,-1.42789063e+00
-3.13187500e-08,-9.35937500e-02,-1.42601563e+00
-3.05187500e-08,-1.56875000e-01,-1.43164062e+00
-2.97187500e-08,-2.44562500e-01,-1.42125000e+00
-2.89187500e-08,-3.48812500e-01,-1.43117187e+00
-2.81187500e-08,-4.38843750e-01,-1.42593750e+00
-2.73187500e-08,-5.26406250e-01,-1.42710938e+00
-2.65187500e-08,-6.04000000e-01,-1.41281250e+00
-2.57187500e-08,-6.69156250e-01,-1.40914063e+00
-2.49187500e-08,-7.09000000e-01,-1.41570313e+00
-2.41187500e-08,-7.50093750e-01,-1.41351563e+00
-2.33187500e-08,-7.68468750e-01,-1.41742188e+00
-2.25187500e-08,-7.90125000e-01,-1.41906250e+00
-2.17187500e-08,-7.88000000e-01,-1.40968750e+00
-2.09187500e-08,-7.84593750e-01,-1.41718750e+00
-2.01187500e-08,-7.67656250e-01,-1.41148438e+00
-1.93187500e-08,-7.57968750e-01,-1.41765625e+00
-1.85187500e-08,-7.28031250e-01,-1.42117188e+00
-1.77187500e-08,-7.07031250e-01,-1.42375000e+00
-1.69187500e-08,-6.78593750e-01,-1.41812500e+00
-1.61187500e-08,-6.54468750e-01,-1.41101563e+00
-1.53187500e-08,-6.14718750e-01,-1.42234375e+00
-1.45187500e-08,-5.80562500e-01,-1.42132813e+00
-1.37187500e-08,-5.54875000e-01,-1.42921875e+00
-1.29187500e-08,-5.19750000e-01,-1.42546875e+00
-1.21187500e-08,-4.92000000e-01,-1.42609375e+00
-1.13187500e-08,-4.56156250e-01,-1.42789063e+00
-1.05187500e-08,-4.27125000e-01,-1.41445313e+00
-9.71875000e-09,-4.02687500e-01,-1.41554687e+00
-8.91875000e-09,-3.76093750e-01,-1.42914063e+00
-8.11875000e-09,-3.49906250e-01,-1.42929688e+00
-7.31875000e-09,-3.29562500e-01,-1.42718750e+00
-6.51875000e-09,-3.10656250e-01,-1.42820313e+00
-5.71875000e-09,-2.88906250e-01,-1.42710938e+00
-4.91875000e-09,-2.77187500e-01,-1.42070313e+00
-4.11875000e-09,-2.55468750e-01,-1.40554688e+00
-3.31875000e-09,-2.47375000e-01,-1.38320313e+00
-2.51875000e-09,-2.27468750e-01,-1.31789062e+00
-1.71875000e-09,-2.16343750e-01,-1.10781250e+00
-9.18750000e-10,-2.10031250e-01,-6.76406250e-01
-1.18750000e-10,-2.04093750e-01,-3.19140625e-01
6.81250000e-10,-1.83718750e-01,-1.82890625e-01
1.48125000e-09,-1.80437500e-01,-9.85156250e-02
2.28125000e-09,-1.67406250e-01,-7.20312500e-02
3.08125000e-09,-1.64125000e-01,-5.81250000e-02
3.88125000e-09,-1.44843750e-01,-4.45312500e-02
4.68125000e-09,-1.43000000e-01,-3.67968750e-02
5.48125000e-09,-1.32125000e-01,-4.73437500e-02
6.28125000e-09,-1.33656250e-01,-3.56250000e-02
7.08125000e-09,-1.24593750e-01,-4.00781250e-02
7.88125000e-09,-1.08500000e-01,-3.16406250e-02
8.68125000e-09,-1.09781250e-01,-2.58593750e-02
9.48125000e-09,-1.08031250e-01,-3.33593750e-02
1.02812500e-08,-9.32187500e-02,-2.21093750e-02
1.10812500e-08,-8.50937500e-02,-1.92968750e-02
1.18812500e-08,-8.15312500e-02,-1.60156250e-02
1.26812500e-08,-7.74062500e-02,-7.73437500e-03
1.34812500e-08,-7.23437500e-02,-2.39062500e-02
1.42812500e-08,-6.67812500e-02,-1.72656250e-02
1.50812500e-08,-5.76250000e-02,-9.06250000e-03
1.58812500e-08,-5.97187500e-02,-1.96093750e-02
1.66812500e-08,-5.53750000e-02,-2.03906250e-02
1.74812500e-08,-5.51875000e-02,-1.35937500e-02
1.82812500e-08,-3.95625000e-02,-1.34375000e-02
1.90812500e-08,-4.05937500e-02,-2.50000000e-03
1.98812500e-08,-3.82500000e-02,-9.29687500e-03
2.06812500e-08,-3.23750000e-02,-8.51562500e-03
2.14812500e-08,-3.01250000e-02,4.06250000e-03
2.22812500e-08,-4.00937500e-02,-1.16406250e-02
2.30812500e-08,-2.70937500e-02,-7.81250000e-04
2.38812500e-08,-2.71250000e-02,-3.51562500e-03
2.46812500e-08,-2.55937500e-02,6.40625000e-03
2.54812500e-08,-3.14375000e-02,3.04687500e-03
2.62812500e-08,-2.63125000e-02,7.57812500e-03
2.70812500e-08,-2.28437500e-02,1.28906250e-02
2.78812500e-08,-2.04062500e-02,9.21875000e-03
2.86812500e-08,-2.58437500e-02,3.59375000e-03
2.94812500e-08,-1.57187500e-02,1.22656250e-02
3.02812500e-08,-2.01250000e-02,2.00781250e-02
3.10812500e-08,-1.90625000e-02,1.12500000e-02
3.18812500e-08,-2.58750000e-02,3.03125000e-02
3.26812500e-08,-1.80312500e-02,2.15625000e-02
3.34812500e-08,-1.04687500e-02,2.37500000e-02
3.42812500e-08,-9.40625000e-03,3.85156250e-02
3.50812500e-08,-1.48125000e-02,4.22656250e-02
3.58812500e-08,-1.26250000e-02,2.87500000e-02
3.66812500e-08,-5.46875000e-03,2.35156250e-02
3.74812500e-08,-1.10000000e-02,2.48437500e-02
3.82812500e-08,-7.40625000e-03,3.05468750e-02
3.90812500e-08,-1.17812500e-02,1.70312500e-02
3.98812500e-08,-6.75000000e-03,2.78906250e-02
4.06812500e-08,-6.68750000e-03,1.47656250e-02
4.14812500e-08,-9.31250000e-03,1.93750000e-02
4.22812500e-08,-8.25000000e-03,2.09375000e-02
4.30812500e-08,-8.28125000e-03,2.35937500e-02
4.38812500e-08,-5.96875000e-03,2.52343750e-02
4.46812500e-08,-6.03125000e-03,1.92187500e-02
4.54812500e-08,-4.43750000e-03,1.78906250e-02
4.62812500e-08,-8.93750000e-03,1.39843750e-02
4.70812500e-08,-7.59375000e-03,1.92187500e-02
4.78812500e-08,-8.78125000e-03,1.17968750e-02
4.86812500e-08,-3.12500000e-03,1.71875000e-02
4.94812500e-08,-6.93750000e-03,9.68750000e-03
5.02812500e-08,-3.87500000e-03,1.66406250e-02
5.10812500e-08,-1.12187500e-02,2.08593750e-02
5.18812500e-08,1.87500000e-04,1.67968750e-02
5.26812500e-08,-6.28125000e-03,1.46875000e-02
5.34812500e-08,-2.53125000e-03,6.87500000e-03
5.42812500e-08,-1.15937500e-02,1.28906250e-02
5.50812500e-08,-1.06250000e-03,8.90625000e-03
5.58812500e-08,-6.18750000e-03,2.07812500e-02
5.66812500e-08,-3.53125000e-03,9.84375000e-03
