data/raw/TriggerAuto_ALL_20231205193717180.csv

Model,MSO64B
Channel,CH1,,Channel,CH2
Label,,,Label,
Waveform Type,ANALOG,,Waveform Type,ANALOG
Horizontal Units,s,,Horizontal Units,s
Sample Interval,8.00000000e-10,,Sample Interval,8.00000000e-10
Record Length,5000,,Record Length,5000
Zero Index,349.09765625,,Zero Index,349.09765625
Vertical Units,V,,Vertical Units,V
,,,,
ANALOG_Thumbnail,,,ANALOG_Thumbnail,
yOffset,0.000000,,yOffset,0.000000
yPosition,2.160000,,yPosition,2.180000

Labels,,
TIME,CH1,CH2
-2.79278125e-07,5.28125000e-03,6.56250000e-03
-2.78478125e-07,8.03125000e-03,2.89062500e-03
-2.77678125e-07,8.12500000e-03,1.28906250e-02
-2.76878125e-07,3.90625000e-03,9.29687500e-03
-2.76078125e-07,5.34375000e-03,4.14062500e-03
-2.75278125e-07,4.62500000e-03,8.28125000e-03
-2.74478125e-07,7.84375000e-03,7.57812500e-03
-2.73678125e-07,1.09687500e-02,2.21875000e-02
-2.72878125e-07,5.59375000e-03,8.98437500e-03
-2.72078125e-07,3.93750000e-03,8.90625000e-03
-2.71278125e-07,1.61250000e-02,5.31250000e-03
-2.70478125e-07,5.81250000e-03,1.69531250e-02
-2.69678125e-07,9.21875000e-03,8.98437500e-03
-2.68878125e-07,3.93750000e-03,4.29687500e-03
-2.68078125e-07,1.03125000e-02,1.32812500e-02
-2.67278125e-07,2.59375000e-03,-1.17187500e-03
-2.66478125e-07,1.24062500e-02,9.68750000e-03
-2.65678125e-07,6.65625000e-03,5.46875000e-03
-2.64878125e-07,1.08437500e-02,1.35156250e-02
-2.64078125e-07,3.25000000e-03,9.37500000e-03
-2.63278125e-07,1.18750000e-02,8.04687500e-03
-2.62478125e-07,4.62500000e-03,-3.90625000e-04
-2.61678125e-07,6.56250000e-03,1.23437500e-02
-2.60878125e-07,6.93750000e-03,6.01562500e-03
-2.60078125e-07,1.25312500e-02,6.95312500e-03
-2.59278125e-07,9.15625000e-03,1.21875000e-02
-2.58478125e-07,1.47187500e-02,1.52343750e-02
-2.57678125e-07,1.71875000e-03,-6.25000000e-04
-2.56878125e-07,4.03125000e-03,9.68750000e-03
-2.56078125e-07,7.15625000e-03,4.68750000e-03
-2.55278125e-07,1.03437500e-02,9.68750000e-03
-2.54478125e-07,4.00000000e-03,1.13281250e-02
-2.53678125e-07,1.01875000e-02,9.37500000e-03
-2.52878125e-07,1.26875000e-02,4.14062500e-03
-2.52078125e-07,5.25000000e-03,1.28906250e-02
-2.51278125e-07,5.40625000e-03,8.59375000e-03
-2.50478125e-07,7.62500000e-03,7.57812500e-03
-2.49678125e-07,8.62500000e-03,1.27343750e-02
-2.48878125e-07,1.17500000e-02,1.32812500e-02
-2.48078125e-07,7.28125000e-03,1.05468750e-02
-2.47278125e-07,9.34375000e-03,-6.25000000e-04
-2.46478125e-07,3.03125000e-03,8.35937500e-03
-2.45678125e-07,7.21875000e-03,6.64062500e-03
-2.44878125e-07,4.71875000e-03,9.37500000e-04
-2.44078125e-07,8.93750000e-03,1.16406250e-02
-2.43278125e-07,1.30937500e-02,6.01562500e-03
-2.42478125e-07,1.02812500e-02,8.90625000e-03
-2.41678125e-07,2.18750000e-03,8.12500000e-03
-2.40878125e-07,1.33750000e-02,7.50000000e-03
-2.40078125e-07,7.90625000e-03,4.92187500e-03
-2.39278125e-07,8.87500000e-03,2.01562500e-02
-2.38478125e-07,4.96875000e-03,1.10156250e-02
-2.37678125e-07,1.00625000e-02,1.07031250e-02
-2.36878125e-07,8.81250000e-03,2.57812500e-03
-2.36078125e-07,1.34687500e-02,1.61718750e-02
-2.35278125e-07,2.96875000e-03,-2.26562500e-03
-2.34478125e-07,1.27812500e-02,6.25000000e-04
-2.33678125e-07,3.28125000e-03,1.46875000e-02
-2.32878125e-07,8.65625000e-03,-1.87500000e-03
-2.32078125e-07,4.81250000e-03,1.37500000e-02
-2.31278125e-07,8.03125000e-03,5.31250000e-03
-2.30478125e-07,7.81250000e-03,1.29687500e-02
-2.29678125e-07,1.51250000e-02,1.06250000e-02
-2.28878125e-07,-3.50000000e-03,4.76562500e-03
-2.28078125e-07,1.00625000e-02,6.25000000e-03
-2.27278125e-07,8.40625000e-03,6.17187500e-03
-2.26478125e-07,4.71875000e-03,1.28906250e-02
-2.25678125e-07,9.00000000e-03,1.13281250e-02
-2.24878125e-07,8.75000000e-03,1.07812500e-02
-2.24078125e-07,1.19375000e-02,1.60156250e-02
-2.23278125e-07,9.21875000e-03,1.18750000e-02
-2.22478125e-07,8.50000000e-03,1.25781250e-02
-2.21678125e-07,9.50000000e-03,6.56250000e-03
-2.20878125e-07,4.46875000e-03,8.75000000e-03
-2.20078125e-07,1.05937500e-02,9.29687500e-03
-2.19278125e-07,6.75000000e-03,9.29687500e-03
-2.18478125e-07,9.12500000e-03,2.65625000e-03
-2.17678125e-07,5.90625000e-03,4.92187500e-03
-2.16878125e-07,1.35937500e-02,4.06250000e-03
-2.16078125e-07,1.56250000e-04,1.71875000e-03
-2.15278125e-07,9.65625000e-03,5.70312500e-03
-2.14478125e-07,7.71875000e-03,3.12500000e-03
-2.13678125e-07,9.15625000e-03,2.42968750e-02
-2.12878125e-07,6.25000000e-05,1.28906250e-02
-2.12078125e-07,9.90625000e-03,4.06250000e-03
-2.11278125e-07,5.46875000e-03,7.57812500e-03
-2.10478125e-07,6.53125000e-03,1.21093750e-02
-2.09678125e-07,6.31250000e-03,1.20312500e-02
-2.08878125e-07,8.96875000e-03,1.46093750e-02
-2.08078125e-07,3.09375000e-03,1.31250000e-02
-2.07278125e-07,1.11250000e-02,6.64062500e-03
-2.06478125e-07,4.09375000e-03,1.28125000e-02
-2.05678125e-07,6.68750000e-03,1.18750000e-02
-2.04878125e-07,9.81250000e-03,1.40625000e-02
-2.04078125e-07,1.34375000e-02,1.84375000e-02
-2.03278125e-07,3.53125000e-03,1.36718750e-02
-2.02478125e-07,9.18750000e-03,1.31250000e-02
-2.01678125e-07,1.19062500e-02,1.17187500e-03
-2.00878125e-07,8.62500000e-03,8.28125000e-03
-2.00078125e-07,7.81250000e-03,1.00000000e-02
-1.99278125e-07,1.11875000e-02,1.14062500e-02
-1.98478125e-07,1.10937500e-02,1.46875000e-02
-1.97678125e-07,6.96875000e-03,1.71875000e-02
-1.96878125e-07,9.00000000e-03,1.97656250e-02
-1.96078125e-07,9.34375000e-03,1.29687500e-02
-1.95278125e-07,8.93750000e-03,1.11718750e-02
-1.94478125e-07,9.03125000e-03,5.85937500e-03
-1.93678125e-07,6.43750000e-03,1.14062500e-02
-1.92878125e-07,4.06250000e-03,1.24218750e-02
-1.92078125e-07,8.81250000e-03,-2.65625000e-03
-1.91278125e-07,1.06875000e-02,1.36718750e-02
-1.90478125e-07,2.09375000e-03,7.89062500e-03
-1.89678125e-07,9.65625000e-03,1.22656250e-02
-1.88878125e-07,9.84375000e-03,1.39062500e-02
-1.88078125e-07,1.12500000e-02,1.64843750e-02
-1.87278125e-07,1.81250000e-03,7.73437500e-03
-1.86478125e-07,1.25625000e-02,5.46875000e-03
-1.85678125e-07,5.03125000e-03,8.75000000e-03
-1.84878125e-07,1.00937500e-02,1.39843750e-02
-1.84078125e-07,4.06250000e-03,5.15625000e-03
-1.83278125e-07,1.18125000e-02,8.90625000e-03
-1.82478125e-07,6.12500000e-03,7.26562500e-03
-1.81678125e-07,1.25625000e-02,1.21875000e-02
-1.80878125e-07,6.53125000e-03,1.50781250e-02
-1.80078125e-07,1.04375000e-02,-4.06250000e-03
-1.79278125e-07,7.71875000e-03,1.17187500e-03
-1.78478125e-07,1.13437500e-02,1.28906250e-02
-1.77678125e-07,3.59375000e-03,4.60937500e-03
-1.76878125e-07,9.28125000e-03,6.40625000e-03
-1.76078125e-07,6.78125000e-03,8.75000000e-03
-1.75278125e-07,6.71875000e-03,1.03125000e-02
-1.74478125e-07,5.87500000e-03,1.59375000e-02
-1.73678125e-07,5.68750000e-03,7.03125000e-04
-1.72878125e-07,1.00937500e-02,1.68750000e-02
-1.72078125e-07,7.25000000e-03,3.20312500e-03
-1.71278125e-07,9.65625000e-03,1.42968750e-02
-1.70478125e-07,8.06250000e-03,9.84375000e-03
-1.69678125e-07,4.59375000e-03,9.45312500e-03
-1.68878125e-07,8.28125000e-03,1.20312500e-02
-1.68078125e-07,2.12500000e-03,1.65625000e-02
-1.67278125e-07,9.06250000e-03,5.70312500e-03
-1.66478125e-07,2.25000000e-03,4.21875000e-03
-1.65678125e-07,7.78125000e-03,1.00781250e-02
-1.64878125e-07,1.25000000e-03,8.12500000e-03
-1.64078125e-07,9.93750000e-03,1.26562500e-02
-1.63278125e-07,1.05312500e-02,6.01562500e-03
-1.62478125e-07,1.05625000e-02,1.21093750e-02
-1.61678125e-07,-8.12500000e-04,6.01562500e-03
-1.60878125e-07,7.31250000e-03,1.08593750e-02
-1.60078125e-07,8.40625000e-03,1.26562500e-02
-1.59278125e-07,8.71875000e-03,1.78906250e-02
-1.58478125e-07,6.34375000e-03,5.07812500e-03
-1.57678125e-07,1.00312500e-02,1.28906250e-02
-1.56878125e-07,5.53125000e-03,1.70312500e-02
-1.56078125e-07,1.27500000e-02,8.51562500e-03
-1.55278125e-07,2.78125000e-03,7.18750000e-03
-1.54478125e-07,8.56250000e-03,1.56250000e-04
-1.53678125e-07,9.21875000e-03,1.49218750e-02
-1.52878125e-07,1.45625000e-02,1.39062500e-02
-1.52078125e-07,5.03125000e-03,1.85156250e-02
-1.51278125e-07,7.90625000e-03,7.73437500e-03
-1.50478125e-07,8.78125000e-03,6.01562500e-03
-1.49678125e-07,8.43750000e-03,1.27343750e-02
-1.48878125e-07,6.12500000e-03,2.50000000e-03
-1.48078125e-07,5.03125000e-03,1.71875000e-03
-1.47278125e-07,7.31250000e-03,1.80468750e-02
-1.46478125e-07,1.16250000e-02,5.46875000e-04
-1.45678125e-07,7.15625000e-03,1.29687500e-02
-1.44878125e-07,6.21875000e-03,3.98437500e-03
-1.44078125e-07,4.25000000e-03,2.01562500e-02
-1.43278125e-07,8.56250000e-03,-3.12500000e-04
-1.42478125e-07,6.28125000e-03,9.14062500e-03
-1.41678125e-07,7.37500000e-03,7.81250000e-03
-1.40878125e-07,7.25000000e-03,1.28125000e-02
-1.40078125e-07,1.01250000e-02,1.03906250e-02
-1.39278125e-07,1.43750000e-03,1.00000000e-02
-1.38478125e-07,7.62500000e-03,9.21875000e-03
-1.37678125e-07,6.62500000e-03,8.20312500e-03
-1.36878125e-07,9.68750000e-03,1.39843750e-02
-1.36078125e-07,1.00000000e-03,1.92968750e-02
-1.35278125e-07,1.16562500e-02,1.55468750e-02
-1.34478125e-07,3.03125000e-03,2.65625000e-03
-1.33678125e-07,6.90625000e-03,1.14843750e-02
-1.32878125e-07,3.25000000e-03,1.00000000e-02
-1.32078125e-07,7.50000000e-03,8.75000000e-03
-1.31278125e-07,9.78125000e-03,6.17187500e-03
-1.30478125e-07,8.50000000e-03,-1.64062500e-03
-1.29678125e-07,-6.87500000e-04,6.71875000e-03
-1.28878125e-07,7.87500000e-03,6.40625000e-03
-1.28078125e-07,7.59375000e-03,7.34375000e-03
-1.27278125e-07,1.29062500e-02,1.38281250e-02
-1.26478125e-07,6.09375000e-03,7.81250000e-03
-1.25678125e-07,4.40625000e-03,1.00000000e-02
-1.24878125e-07,6.87500000e-03,1.06250000e-02
-1.24078125e-07,8.28125000e-03,1.33593750e-02
-1.23278125e-07,6.75000000e-03,1.59375000e-02
-1.22478125e-07,6.37500000e-03,7.81250000e-03
-1.21678125e-07,7.71875000e-03,1.01562500e-02
-1.20878125e-07,9.25000000e-03,5.39062500e-03
-1.20078125e-07,8.71875000e-03,5.07812500e-03
-1.19278125e-07,9.90625000e-03,1.16406250e-02
-1.18478125e-07,4.28125000e-03,8.28125000e-03
-1.17678125e-07,6.15625000e-03,-7.81250000e-04
-1.16878125e-07,5.21875000e-03,1.28906250e-02
-1.16078125e-07,4.71875000e-03,1.29687500e-02
-1.15278125e-07,5.46875000e-03,4.06250000e-03
-1.14478125e-07,6.96875000e-03,1.27343750e-02
-1.13678125e-07,1.46875000e-03,1.32812500e-02
-1.12878125e-07,1.05312500e-02,9.37500000e-03
-1.12078125e-07,4.59375000e-03,8.28125000e-03
-1.11278125e-07,7.75000000e-03,2.21093750e-02
-1.10478125e-07,9.37500000e-04,9.21875000e-03
-1.09678125e-07,8.53125000e-03,2.42187500e-03
-1.08878125e-07,4.03125000e-03,1.65625000e-02
-1.08078125e-07,7.12500000e-03,9.45312500e-03
-1.07278125e-07,4.12500000e-03,-1.17187500e-03
-1.06478125e-07,7.40625000e-03,1.49218750e-02
-1.05678125e-07,6.84375000e-03,1.19531250e-02
-1.04878125e-07,8.28125000e-03,1.94531250e-02
-1.04078125e-07,3.62500000e-03,1.11718750e-02
-1.03278125e-07,7.53125000e-03,1.01562500e-03
-1.02478125e-07,9.09375000e-03,1.26562500e-02
-1.01678125e-07,1.20312500e-02,1.23437500e-02
-1.00878125e-07,6.18750000e-03,1.18750000e-02
-1.00078125e-07,9.65625000e-03,1.05468750e-02
-9.92781250e-08,9.40625000e-03,1.00781250e-02
-9.84781250e-08,4.09375000e-03,1.28125000e-02
-9.76781250e-08,5.59375000e-03,1.48437500e-02
-9.68781250e-08,4.46875000e-03,7.50000000e-03
-9.60781250e-08,5.81250000e-03,1.58593750e-02
-9.52781250e-08,6.37500000e-03,1.75000000e-02
-9.44781250e-08,5.84375000e-03,1.77343750e-02
-9.36781250e-08,7.68750000e-03,1.55468750e-02
-9.28781250e-08,3.21875000e-03,1.25781250e-02
-9.20781250e-08,1.09062500e-02,1.71093750e-02
-9.12781250e-08,4.50000000e-03,1.95312500e-03
-9.04781250e-08,7.75000000e-03,5.78125000e-03
-8.96781250e-08,7.90625000e-03,9.06250000e-03
-8.88781250e-08,1.03125000e-02,1.09375000e-02
-8.80781250e-08,2.71875000e-03,1.23437500e-02
-8.72781250e-08,1.09375000e-02,1.28125000e-02
-8.64781250e-08,6.46875000e-03,7.73437500e-03
-8.56781250e-08,7.18750000e-03,1.83593750e-02
-8.48781250e-08,2.12500000e-03,1.47656250e-02
-8.40781250e-08,9.75000000e-03,1.75000000e-02
-8.32781250e-08,1.59375000e-03,1.34375000e-02
-8.24781250e-08,6.75000000e-03,1.61718750e-02
-8.16781250e-08,5.18750000e-03,1.08593750e-02
-8.08781250e-08,8.12500000e-03,1.10156250e-02
-8.00781250e-08,4.93750000e-03,1.57031250e-02
-7.92781250e-08,8.84375000e-03,2.07031250e-02
-7.84781250e-08,-5.93750000e-04,1.33593750e-02
-7.76781250e-08,5.40625000e-03,1.74218750e-02
-7.68781250e-08,8.21875000e-03,5.39062500e-03
-7.60781250e-08,9.25000000e-03,1.50781250e-02
-7.52781250e-08,4.09375000e-03,1.73437500e-02
-7.44781250e-08,7.75000000e-03,1.72656250e-02
-7.36781250e-08,8.40625000e-03,1.18750000e-02
-7.28781250e-08,5.25000000e-03,2.12500000e-02
-7.20781250e-08,9.56250000e-03,1.15625000e-02
-7.12781250e-08,6.75000000e-03,5.93750000e-03
-7.04781250e-08,1.07812500e-02,1.78906250e-02
-6.96781250e-08,6.93750000e-03,2.00781250e-02
-6.88781250e-08,9.06250000e-03,1.00781250e-02
-6.80781250e-08,7.53125000e-03,1.54687500e-02
-6.72781250e-08,7.56250000e-03,1.17968750e-02
-6.64781250e-08,8.43750000e-03,8.67187500e-03
-6.56781250e-08,5.34375000e-03,1.38281250e-02
-6.48781250e-08,4.71875000e-03,1.13281250e-02
-6.40781250e-08,1.03125000e-02,1.04687500e-02
-6.32781250e-08,1.12500000e-02,4.92187500e-03
-6.24781250e-08,5.50000000e-03,3.98437500e-03
-6.16781250e-08,9.68750000e-03,2.41406250e-02
-6.08781250e-08,7.12500000e-03,-3.16406250e-02
-6.00781250e-08,1.09687500e-02,-4.53203125e-01
-5.92781250e-08,3.50000000e-03,-1.03671875e+00
-5.84781250e-08,1.04375000e-02,-1.26437500e+00
-5.76781250e-08,5.15625000e-03,-1.32437500e+00
-5.68781250e-08,6.40625000e-03,-1.34335938e+00
-5.60781250e-08,7.56250000e-03,-1.38023438e+00
-5.52781250e-08,8.50000000e-03,-1.39015625e+00
-5.44781250e-08,6.15625000e-03,-1.38953125e+00
-5.36781250e-08,1.00312500e-02,-1.39882813e+00
-5.28781250e-08,1.84375000e-03,-1.40796875e+00
-5.20781250e-08,7.50000000e-03,-1.41085938e+00
-5.12781250e-08,8.87500000e-03,-1.40953125e+00
-5.04781250e-08,1.32187500e-02,-1.40500000e+00
-4.96781250e-08,4.96875000e-03,-1.41296875e+00
-4.88781250e-08,-1.34375000e-03,-1.42289062e+00
-4.80781250e-08,8.25000000e-03,-1.41734375e+00
-4.72781250e-08,4.62500000e-03,-1.40945313e+00
-4.64781250e-08,6.28125000e-03,-1.41781250e+00
-4.56781250e-08,7.06250000e-03,-1.42867188e+00
-4.48781250e-08,9.87500000e-03,-1.42195313e+00
-4.40781250e-08,9.28125000e-03,-1.41890625e+00
-4.32781250e-08,1.05000000e-02,-1.42125000e+00
-4.24781250e-08,6.53125000e-03,-1.43914063e+00
-4.16781250e-08,5.90625000e-03,-1.42421875e+00
-4.08781250e-08,1.10000000e-02,-1.41835938e+00
-4.00781250e-08,8.50000000e-03,-1.41609375e+00
-3.92781250e-08,8.06250000e-03,-1.41992188e+00
-3.84781250e-08,2.71875000e-03,-1.42281250e+00
-3.76781250e-08,9.09375000e-03,-1.41914063e+00
-3.68781250e-08,1.68750000e-03,-1.41312500e+00
-3.60781250e-08,7.31250000e-03,-1.43039063e+00
-3.52781250e-08,1.84375000e-03,-1.42414063e+00
-3.44781250e-08,3.78125000e-03,-1.41179688e+00
-3.36781250e-08,-1.10625000e-02,-1.41828125e+00
-3.28781250e-08,-1.61250000e-02,-1.41671875e+00
-3.20781250e-08,-4.67500000e-02,-1.42312500e+00
-3.12781250e-08,-8.30312500e-02,-1.41484375e+00
-3.04781250e-08,-1.43281250e-01,-1.42601563e+00
-2.96781250e-08,-2.05843750e-01,-1.42414063e+00
-2.88781250e-08,-2.80250000e-01,-1.42851563e+00
-2.80781250e-08,-3.44156250e-01,-1.42210938e+00
-2.72781250e-08,-4.12531250e-01,-1.42468750e+00
-2.64781250e-08,-4.52781250e-01,-1.42890625e+00
-2.56781250e-08,-4.90718750e-01,-1.41132813e+00
-2.48781250e-08,-5.21843750e-01,-1.41171875e+00
-2.40781250e-08,-5.45531250e-01,-1.41734375e+00
-2.32781250e-08,-5.54468750e-01,-1.40664063e+00
-2.24781250e-08,-5.68125000e-01,-1.41617188e+00
-2.16781250e-08,-5.73937500e-01,-1.41179688e+00
-2.08781250e-08,-5.70250000e-01,-1.42320313e+00
-2.00781250e-08,-5.56000000e-01,-1.42789063e+00
-1.92781250e-08,-5.48968750e-01,-1.41976563e+00
-1.84781250e-08,-5.31781250e-01,-1.41523438e+00
-1.76781250e-08,-5.08062500e-01,-1.42445313e+00
-1.68781250e-08,-4.87531250e-01,-1.42929688e+00
-1.60781250e-08,-4.65562500e-01,-1.41976563e+00
-1.52781250e-08,-4.43437500e-01,-1.40937500e+00
-1.44781250e-08,-4.16812500e-01,-1.41687500e+00
-1.36781250e-08,-3.94843750e-01,-1.42328125e+00
-1.28781250e-08,-3.77593750e-01,-1.42039063e+00
-1.20781250e-08,-3.54187500e-01,-1.42632813e+00
-1.12781250e-08,-3.37625000e-01,-1.42593750e+00
-1.04781250e-08,-3.07812500e-01,-1.42859375e+00
-9.67812500e-09,-2.86500000e-01,-1.42812500e+00
-8.87812500e-09,-2.69875000e-01,-1.41546875e+00
-8.07812500e-09,-2.53718750e-01,-1.42359375e+00
-7.27812500e-09,-2.33843750e-01,-1.41523438e+00
-6.47812500e-09,-2.17968750e-01,-1.42062500e+00
-5.67812500e-09,-2.05937500e-01,-1.42132813e+00
-4.87812500e-09,-1.95468750e-01,-1.41359375e+00
-4.07812500e-09,-1.83093750e-01,-1.40781250e+00
-3.27812500e-09,-1.69281250e-01,-1.37492188e+00
-2.47812500e-09,-1.60593750e-01,-1.29601563e+00
-1.67812500e-09,-1.60562500e-01,-1.06171875e+00
-8.78125000e-10,-1.46312500e-01,-6.23046875e-01
-7.81250000e-11,-1.38000000e-01,-3.10390625e-01
7.21875000e-10,-1.33281250e-01,-1.67500000e-01
1.52187500e-09,-1.36125000e-01,-1.01093750e-01
2.32187500e-09,-1.23843750e-01,-6.77343750e-02
3.12187500e-09,-1.16750000e-01,-5.42187500e-02
3.92187500e-09,-1.17656250e-01,-4.67187500e-02
4.72187500e-09,-1.07250000e-01,-4.16406250e-02
5.52187500e-09,-1.05937500e-01,-4.33593750e-02
6.32187500e-09,-1.01281250e-01,-2.71875000e-02
7.12187500e-09,-9.21875000e-02,-2.05468750e-02
7.92187500e-09,-9.15937500e-02,-3.25000000e-02
8.72187500e-09,-8.42187500e-02,-3.25000000e-02
9.52187500e-09,-8.05312500e-02,-2.35937500e-02
1.03218750e-08,-7.37187500e-02,-2.00781250e-02
1.11218750e-08,-7.21875000e-02,-2.75000000e-02
1.19218750e-08,-6.60625000e-02,-3.06250000e-02
1.27218750e-08,-6.12500000e-02,-1.46093750e-02
1.35218750e-08,-5.50625000e-02,-9.21875000e-03
1.43218750e-08,-5.63437500e-02,-2.24218750e-02
1.51218750e-08,-4.73125000e-02,-1.39843750e-02
1.59218750e-08,-4.52812500e-02,-1.14062500e-02
1.67218750e-08,-4.54687500e-02,-1.95312500e-03
1.75218750e-08,-4.63125000e-02,7.10937500e-03
1.83218750e-08,-4.31875000e-02,1.01562500e-03
1.91218750e-08,-4.00625000e-02,-5.78125000e-03
1.99218750e-08,-4.10000000e-02,3.12500000e-03
2.07218750e-08,-4.07500000e-02,-8.04687500e-03
2.15218750e-08,-3.23437500e-02,-3.90625000e-03
2.23218750e-08,-3.50000000e-02,4.21875000e-03
2.31218750e-08,-2.87812500e-02,4.45312500e-03
2.39218750e-08,-3.60000000e-02,2.18750000e-03
2.47218750e-08,-2.66250000e-02,-1.40625000e-03
2.55218750e-08,-2.39062500e-02,6.40625000e-03
2.63218750e-08,-2.02500000e-02,6.48437500e-03
2.71218750e-08,-2.78437500e-02,2.34375000e-03
2.79218750e-08,-2.08750000e-02,1.38281250e-02
2.87218750e-08,-2.09375000e-02,-2.57812500e-03
2.95218750e-08,-2.34687500e-02,8.35937500e-03
3.03218750e-08,-2.58437500e-02,8.35937500e-03
3.11218750e-08,-1.37187500e-02,2.01562500e-02
3.19218750e-08,-1.89062500e-02,2.35156250e-02
3.27218750e-08,-1.64375000e-02,2.78125000e-02
3.35218750e-08,-1.88750000e-02,3.07031250e-02
3.43218750e-08,-1.41562500e-02,4.03125000e-02
3.51218750e-08,-1.48437500e-02,3.22656250e-02
3.59218750e-08,-7.00000000e-03,2.90625000e-02
3.67218750e-08,-1.61875000e-02,3.21093750e-02
3.75218750e-08,-6.28125000e-03,3.05468750e-02
3.83218750e-08,-1.06250000e-02,2.96875000e-02
3.91218750e-08,-8.59375000e-03,2.42968750e-02
3.99218750e-08,-1.35312500e-02,2.10156250e-02
4.07218750e-08,-7.50000000e-03,2.56250000e-02
4.15218750e-08,-1.07500000e-02,2.07812500e-02
4.23218750e-08,-8.56250000e-03,2.02343750e-02
4.31218750e-08,-1.09375000e-02,1.81250000e-02
4.39218750e-08,-3.81250000e-03,2.28906250e-02
4.47218750e-08,-9.96875000e-03,2.46093750e-02
4.55218750e-08,-3.00000000e-03,2.51562500e-02
4.63218750e-08,-7.75000000e-03,2.35937500e-02
4.71218750e-08,-9.37500000e-04,1.62500000e-02
4.79218750e-08,-4.03125000e-03,1.71093750e-02
4.87218750e-08,-5.31250000e-03,2.03125000e-02
4.95218750e-08,-7.56250000e-03,2.09375000e-02
5.03218750e-08,-3.46875000e-03,2.47656250e-02
5.11218750e-08,3.40625000e-03,1.99218750e-02
5.19218750e-08,-1.25000000e-04,2.99218750e-02
5.27218750e-08,-7.65625000e-03,1.35937500e-02
5.35218750e-08,2.78125000e-03,1.87500000e-02
5.43218750e-08,4.53125000e-03,1.83593750e-02
5.51218750e-08,4.06250000e-04,1.98437500e-02
5.59218750e-08,-3.31250000e-03,1.50000000e-02
5.67218750e-08,3.34375000e-03,1.58593750e-02
