data/raw/TriggerAuto_ALL_20231205193617769.csv

Model,MSO64B
Channel,CH1,,Channel,CH2
Label,,,Label,
Waveform Type,ANALOG,,Waveform Type,ANALOG
Horizontal Units,s,,Horizontal Units,s
Sample Interval,8.00000000e-10,,Sample Interval,8.00000000e-10
Record Length,5000,,Record Length,5000
Zero Index,349.30859375,,Zero Index,349.30859375
Vertical Units,V,,Vertical Units,V
,,,,
ANALOG_Thumbnail,,,ANALOG_Thumbnail,
yOffset,0.000000,,yOffset,0.000000
yPosition,2.160000,,yPosition,2.180000

Labels,,
TIME,CH1,CH2
-2.79446875e-07,6.15625000e-03,1.32031250e-02
-2.78646875e-07,8.56250000e-03,6.79687500e-03
-2.77846875e-07,6.12500000e-03,1.28125000e-02
-2.77046875e-07,9.68750000e-03,1.05468750e-02
-2.76246875e-07,4.62500000e-03,-1.25000000e-03
-2.75446875e-07,5.43750000e-03,4.68750000e-04
-2.74646875e-07,2.59375000e-03,-8.59375000e-04
-2.73846875e-07,1.22500000e-02,1.25781250e-02
-2.73046875e-07,1.87500000e-03,1.53125000e-02
-2.72246875e-07,1.04687500e-02,6.71875000e-03
-2.71446875e-07,7.75000000e-03,8.28125000e-03
-2.70646875e-07,1.22812500e-02,1.21093750e-02
-2.69846875e-07,3.56250000e-03,8.04687500e-03
-2.69046875e-07,1.01562500e-02,8.20312500e-03
-2.68246875e-07,6.06250000e-03,9.45312500e-03
-2.67446875e-07,1.75000000e-03,1.67187500e-02
-2.66646875e-07,5.12500000e-03,3.82812500e-03
-2.65846875e-07,6.75000000e-03,1.03125000e-02
-2.65046875e-07,5.25000000e-03,7.26562500e-03
-2.64246875e-07,7.06250000e-03,2.26562500e-03
-2.63446875e-07,6.53125000e-03,1.08593750e-02
-2.62646875e-07,5.65625000e-03,6.01562500e-03
-2.61846875e-07,7.84375000e-03,-3.12500000e-04
-2.61046875e-07,1.19062500e-02,1.25000000e-02
-2.60246875e-07,2.78125000e-03,1.46093750e-02
-2.59446875e-07,7.93750000e-03,6.79687500e-03
-2.58646875e-07,1.21250000e-02,8.12500000e-03
-2.57846875e-07,1.87500000e-03,1.28125000e-02
-2.57046875e-07,5.56250000e-03,9.92187500e-03
-2.56246875e-07,8.46875000e-03,6.25000000e-03
-2.55446875e-07,7.62500000e-03,1.53906250e-02
-2.54646875e-07,5.81250000e-03,6.01562500e-03
-2.53846875e-07,9.18750000e-03,2.28125000e-02
-2.53046875e-07,1.06875000e-02,1.35156250e-02
-2.52246875e-07,6.78125000e-03,7.96875000e-03
-2.51446875e-07,9.25000000e-03,8.04687500e-03
-2.50646875e-07,6.96875000e-03,1.26562500e-02
-2.49846875e-07,7.18750000e-03,9.84375000e-03
-2.49046875e-07,9.56250000e-03,2.03125000e-03
-2.48246875e-07,8.78125000e-03,3.59375000e-03
-2.47446875e-07,5.43750000e-03,5.54687500e-03
-2.46646875e-07,5.03125000e-03,3.59375000e-03
-2.45846875e-07,1.05937500e-02,8.98437500e-03
-2.45046875e-07,9.59375000e-03,7.50000000e-03
-2.44246875e-07,1.93750000e-03,1.42968750e-02
-2.43446875e-07,1.40312500e-02,1.99218750e-02
-2.42646875e-07,8.87500000e-03,1.31250000e-02
-2.41846875e-07,7.93750000e-03,9.92187500e-03
-2.41046875e-07,7.03125000e-03,6.64062500e-03
-2.40246875e-07,7.34375000e-03,1.14062500e-02
-2.39446875e-07,8.03125000e-03,7.89062500e-03
-2.38646875e-07,1.09375000e-02,2.81250000e-03
-2.37846875e-07,4.03125000e-03,1.35937500e-02
-2.37046875e-07,1.00937500e-02,1.45312500e-02
-2.36246875e-07,1.23125000e-02,1.07031250e-02
-2.35446875e-07,1.05625000e-02,1.85937500e-02
-2.34646875e-07,4.81250000e-03,9.68750000e-03
-2.33846875e-07,9.37500000e-03,1.13281250e-02
-2.33046875e-07,7.09375000e-03,7.18750000e-03
-2.32246875e-07,5.31250000e-03,1.00781250e-02
-2.31446875e-07,6.50000000e-03,9.29687500e-03
-2.30646875e-07,4.03125000e-03,9.45312500e-03
-2.29846875e-07,1.19062500e-02,1.72656250e-02
-2.29046875e-07,7.81250000e-03,1.58593750e-02
-2.28246875e-07,6.71875000e-03,1.89843750e-02
-2.27446875e-07,5.81250000e-03,2.42187500e-03
-2.26646875e-07,5.18750000e-03,1.35156250e-02
-2.25846875e-07,6.71875000e-03,7.73437500e-03
-2.25046875e-07,4.62500000e-03,1.21093750e-02
-2.24246875e-07,6.78125000e-03,6.48437500e-03
-2.23446875e-07,6.56250000e-03,9.45312500e-03
-2.22646875e-07,7.03125000e-03,6.56250000e-03
-2.21846875e-07,-1.37500000e-03,6.95312500e-03
-2.21046875e-07,1.34062500e-02,1.85937500e-02
-2.20246875e-07,8.46875000e-03,3.90625000e-03
-2.19446875e-07,9.81250000e-03,1.61718750e-02
-2.18646875e-07,5.34375000e-03,7.73437500e-03
-2.17846875e-07,7.25000000e-03,1.00781250e-02
-2.17046875e-07,8.21875000e-03,7.03125000e-04
-2.16246875e-07,7.84375000e-03,1.16406250e-02
-2.15446875e-07,9.12500000e-03,8.59375000e-03
-2.14646875e-07,1.06875000e-02,1.60937500e-02
-2.13846875e-07,1.07812500e-02,7.65625000e-03
-2.13046875e-07,1.71562500e-02,4.14062500e-03
-2.12246875e-07,2.00000000e-03,1.40625000e-03
-2.11446875e-07,6.12500000e-03,1.17187500e-03
-2.10646875e-07,1.00312500e-02,1.28906250e-02
-2.09846875e-07,1.17187500e-02,9.37500000e-03
-2.09046875e-07,3.56250000e-03,1.00000000e-02
-2.08246875e-07,5.81250000e-03,4.92187500e-03
-2.07446875e-07,1.21562500e-02,1.41406250e-02
-2.06646875e-07,4.37500000e-03,1.40625000e-02
-2.05846875e-07,6.90625000e-03,2.03906250e-02
-2.05046875e-07,8.75000000e-03,-8.59375000e-04
-2.04246875e-07,8.12500000e-03,1.49218750e-02
-2.03446875e-07,1.03750000e-02,5.78125000e-03
-2.02646875e-07,1.01562500e-02,1.88281250e-02
-2.01846875e-07,9.75000000e-03,4.92187500e-03
-2.01046875e-07,3.12500000e-05,3.59375000e-03
-2.00246875e-07,1.12812500e-02,4.84375000e-03
-1.99446875e-07,6.18750000e-03,1.61718750e-02
-1.98646875e-07,8.62500000e-03,3.75000000e-03
-1.97846875e-07,3.46875000e-03,4.45312500e-03
-1.97046875e-07,1.11875000e-02,1.53125000e-02
-1.96246875e-07,6.28125000e-03,7.03125000e-04
-1.95446875e-07,1.16250000e-02,6.32812500e-03
-1.94646875e-07,6.71875000e-03,1.01562500e-02
-1.93846875e-07,9.90625000e-03,4.76562500e-03
-1.93046875e-07,9.06250000e-04,9.76562500e-03
-1.92246875e-07,1.00625000e-02,1.52343750e-02
-1.91446875e-07,4.50000000e-03,8.75000000e-03
-1.90646875e-07,7.78125000e-03,1.60156250e-02
-1.89846875e-07,2.78125000e-03,7.26562500e-03
-1.89046875e-07,9.81250000e-03,2.01562500e-02
-1.88246875e-07,6.96875000e-03,2.15625000e-02
-1.87446875e-07,9.56250000e-03,9.60937500e-03
-1.86646875e-07,2.37500000e-03,7.26562500e-03
-1.85846875e-07,9.15625000e-03,4.60937500e-03
-1.85046875e-07,9.56250000e-03,8.12500000e-03
-1.84246875e-07,9.96875000e-03,8.67187500e-03
-1.83446875e-07,1.37500000e-03,1.13281250e-02
-1.82646875e-07,3.40625000e-03,1.32812500e-03
-1.81846875e-07,1.20000000e-02,1.03906250e-02
-1.81046875e-07,8.78125000e-03,1.65625000e-02
-1.80246875e-07,5.68750000e-03,7.89062500e-03
-1.79446875e-07,6.75000000e-03,4.14062500e-03
-1.78646875e-07,1.16875000e-02,1.95312500e-02
-1.77846875e-07,7.34375000e-03,1.35937500e-02
-1.77046875e-07,6.06250000e-03,6.64062500e-03
-1.76246875e-07,4.00000000e-03,3.28125000e-03
-1.75446875e-07,5.37500000e-03,8.28125000e-03
-1.74646875e-07,1.15937500e-02,1.06250000e-02
-1.73846875e-07,6.43750000e-03,8.12500000e-03
-1.73046875e-07,4.56250000e-03,7.26562500e-03
-1.72246875e-07,4.59375000e-03,-3.90625000e-04
-1.71446875e-07,1.34062500e-02,8.90625000e-03
-1.70646875e-07,2.43750000e-03,2.26562500e-03
-1.69846875e-07,1.16562500e-02,1.16406250e-02
-1.69046875e-07,6.03125000e-03,7.50000000e-03
-1.68246875e-07,9.96875000e-03,2.33593750e-02
-1.67446875e-07,5.46875000e-03,-3.12500000e-04
-1.66646875e-07,5.37500000e-03,9.84375000e-03
-1.65846875e-07,6.34375000e-03,1.25781250e-02
-1.65046875e-07,6.31250000e-03,1.60156250e-02
-1.64246875e-07,4.84375000e-03,9.76562500e-03
-1.63446875e-07,9.62500000e-03,8.75000000e-03
-1.62646875e-07,5.93750000e-03,1.18750000e-02
-1.61846875e-07,8.28125000e-03,4.68750000e-03
-1.61046875e-07,5.09375000e-03,1.20312500e-02
-1.60246875e-07,5.12500000e-03,-7.03125000e-04
-1.59446875e-07,7.59375000e-03,7.10937500e-03
-1.58646875e-07,1.24375000e-02,1.46875000e-02
-1.57846875e-07,6.03125000e-03,2.57812500e-03
-1.57046875e-07,5.90625000e-03,5.00000000e-03
-1.56246875e-07,7.12500000e-03,7.42187500e-03
-1.55446875e-07,8.53125000e-03,1.64062500e-03
-1.54646875e-07,1.00312500e-02,1.89062500e-02
-1.53846875e-07,7.75000000e-03,3.75000000e-03
-1.53046875e-07,9.37500000e-03,5.07812500e-03
-1.52246875e-07,1.03750000e-02,1.00781250e-02
-1.51446875e-07,7.31250000e-03,8.12500000e-03
-1.50646875e-07,7.81250000e-03,7.42187500e-03
-1.49846875e-07,7.68750000e-03,8.75000000e-03
-1.49046875e-07,8.59375000e-03,2.03125000e-03
-1.48246875e-07,8.81250000e-03,1.10156250e-02
-1.47446875e-07,8.68750000e-03,-7.81250000e-04
-1.46646875e-07,6.25000000e-03,0.00000000e+00
-1.45846875e-07,1.25312500e-02,1.54687500e-02
-1.45046875e-07,2.87500000e-03,8.59375000e-04
-1.44246875e-07,6.78125000e-03,2.09375000e-02
-1.43446875e-07,8.50000000e-03,3.67187500e-03
-1.42646875e-07,7.68750000e-03,5.62500000e-03
-1.41846875e-07,4.12500000e-03,-4.68750000e-04
-1.41046875e-07,1.24375000e-02,9.76562500e-03
-1.40246875e-07,4.75000000e-03,2.38281250e-02
-1.39446875e-07,7.28125000e-03,8.12500000e-03
-1.38646875e-07,9.31250000e-03,1.56250000e-04
-1.37846875e-07,1.01250000e-02,7.50000000e-03
-1.37046875e-07,8.00000000e-03,8.12500000e-03
-1.36246875e-07,1.21875000e-02,1.07031250e-02
-1.35446875e-07,3.12500000e-03,-2.57812500e-03
-1.34646875e-07,5.62500000e-03,2.57812500e-03
-1.33846875e-07,6.78125000e-03,9.76562500e-03
-1.33046875e-07,1.14375000e-02,1.28906250e-02
-1.32246875e-07,-5.62500000e-04,6.25000000e-03
-1.31446875e-07,6.56250000e-03,1.03906250e-02
-1.30646875e-07,1.06562500e-02,5.00000000e-03
-1.29846875e-07,1.18125000e-02,9.29687500e-03
-1.29046875e-07,8.59375000e-03,1.50000000e-02
-1.28246875e-07,8.53125000e-03,4.37500000e-03
-1.27446875e-07,6.65625000e-03,1.92968750e-02
-1.26646875e-07,1.13125000e-02,1.41406250e-02
-1.25846875e-07,7.81250000e-03,9.21875000e-03
-1.25046875e-07,1.01250000e-02,1.25000000e-02
-1.24246875e-07,4.03125000e-03,9.84375000e-03
-1.23446875e-07,6.09375000e-03,5.31250000e-03
-1.22646875e-07,7.56250000e-03,1.15625000e-02
-1.21846875e-07,9.53125000e-03,9.29687500e-03
-1.21046875e-07,3.21875000e-03,7.03125000e-03
-1.20246875e-07,1.11562500e-02,1.68750000e-02
-1.19446875e-07,5.12500000e-03,8.12500000e-03
-1.18646875e-07,9.87500000e-03,1.03906250e-02
-1.17846875e-07,7.87500000e-03,7.10937500e-03
-1.17046875e-07,9.53125000e-03,1.31250000e-02
-1.16246875e-07,2.37500000e-03,1.31250000e-02
-1.15446875e-07,1.17187500e-02,1.30468750e-02
-1.14646875e-07,3.12500000e-03,7.89062500e-03
-1.13846875e-07,8.09375000e-03,1.52343750e-02
-1.13046875e-07,4.15625000e-03,3.90625000e-03
-1.12246875e-07,1.07187500e-02,8.35937500e-03
-1.11446875e-07,4.31250000e-03,1.54687500e-02
-1.10646875e-07,1.12187500e-02,7.42187500e-03
-1.09846875e-07,3.12500000e-04,5.85937500e-03
-1.09046875e-07,5.50000000e-03,1.43750000e-02
-1.08246875e-07,7.12500000e-03,-1.56250000e-04
-1.07446875e-07,1.31875000e-02,1.35937500e-02
-1.06646875e-07,5.50000000e-03,1.50781250e-02
-1.05846875e-07,3.53125000e-03,1.25781250e-02
-1.05046875e-07,1.20000000e-02,4.76562500e-03
-1.04246875e-07,6.65625000e-03,9.06250000e-03
-1.03446875e-07,7.65625000e-03,1.10156250e-02
-1.02646875e-07,1.02500000e-02,1.64843750e-02
-1.01846875e-07,5.78125000e-03,1.95312500e-02
-1.01046875e-07,4.84375000e-03,1.42187500e-02
-1.00246875e-07,5.40625000e-03,8.43750000e-03
-9.94468750e-08,9.46875000e-03,7.42187500e-03
-9.86468750e-08,6.68750000e-03,8.12500000e-03
-9.78468750e-08,8.40625000e-03,8.98437500e-03
-9.70468750e-08,3.09375000e-03,1.96093750e-02
-9.62468750e-08,9.56250000e-03,8.67187500e-03
-9.54468750e-08,6.59375000e-03,9.92187500e-03
-9.46468750e-08,9.12500000e-03,1.43750000e-02
-9.38468750e-08,1.34375000e-03,7.89062500e-03
-9.30468750e-08,9.84375000e-03,9.37500000e-03
-9.22468750e-08,5.34375000e-03,8.82812500e-03
-9.14468750e-08,1.24375000e-02,1.61718750e-02
-9.06468750e-08,5.40625000e-03,1.28125000e-02
-8.98468750e-08,1.00625000e-02,1.67968750e-02
-8.90468750e-08,6.00000000e-03,7.50000000e-03
-8.82468750e-08,9.65625000e-03,2.08593750e-02
-8.74468750e-08,4.37500000e-03,2.50000000e-03
-8.66468750e-08,9.15625000e-03,5.23437500e-03
-8.58468750e-08,5.81250000e-03,9.68750000e-03
-8.50468750e-08,1.66250000e-02,1.37500000e-02
-8.42468750e-08,5.31250000e-03,2.02343750e-02
-8.34468750e-08,8.03125000e-03,1.27343750e-02
-8.26468750e-08,1.26562500e-02,1.43750000e-02
-8.18468750e-08,1.08125000e-02,1.95312500e-02
-8.10468750e-08,6.40625000e-03,1.60156250e-02
-8.02468750e-08,7.00000000e-03,4.21875000e-03
-7.94468750e-08,5.71875000e-03,9.92187500e-03
-7.86468750e-08,5.53125000e-03,2.35156250e-02
-7.78468750e-08,6.71875000e-03,1.71875000e-02
-7.70468750e-08,5.78125000e-03,9.37500000e-03
-7.62468750e-08,9.93750000e-03,1.02343750e-02
-7.54468750e-08,9.06250000e-03,1.21093750e-02
-7.46468750e-08,7.59375000e-03,7.57812500e-03
-7.38468750e-08,1.00312500e-02,1.48437500e-02
-7.30468750e-08,6.03125000e-03,1.65625000e-02
-7.22468750e-08,1.05937500e-02,1.37500000e-02
-7.14468750e-08,6.62500000e-03,6.56250000e-03
-7.06468750e-08,9.09375000e-03,1.12500000e-02
-6.98468750e-08,5.87500000e-03,1.37500000e-02
-6.90468750e-08,1.35312500e-02,1.08593750e-02
-6.82468750e-08,3.21875000e-03,6.32812500e-03
-6.74468750e-08,1.08437500e-02,1.34375000e-02
-6.66468750e-08,1.11250000e-02,2.10937500e-03
-6.58468750e-08,1.00625000e-02,1.68750000e-02
-6.50468750e-08,2.25000000e-03,1.41406250e-02
-6.42468750e-08,9.53125000e-03,1.32031250e-02
-6.34468750e-08,5.18750000e-03,8.28125000e-03
-6.26468750e-08,9.31250000e-03,3.35937500e-03
-6.18468750e-08,5.84375000e-03,1.00000000e-02
-6.10468750e-08,1.23125000e-02,1.46875000e-02
-6.02468750e-08,8.87500000e-03,-3.00234375e-01
-5.94468750e-08,1.26875000e-02,-8.66093750e-01
-5.86468750e-08,6.18750000e-03,-1.24132813e+00
-5.78468750e-08,2.84375000e-03,-1.33695312e+00
-5.70468750e-08,7.43750000e-03,-1.39742188e+00
-5.62468750e-08,1.16875000e-02,-1.40257813e+00
-5.54468750e-08,5.03125000e-03,-1.38359375e+00
-5.46468750e-08,8.65625000e-03,-1.34546875e+00
-5.38468750e-08,7.93750000e-03,-1.35406250e+00
-5.30468750e-08,9.03125000e-03,-1.38890625e+00
-5.22468750e-08,1.11562500e-02,-1.40734375e+00
-5.14468750e-08,1.15625000e-02,-1.41609375e+00
-5.06468750e-08,1.06562500e-02,-1.40796875e+00
-4.98468750e-08,1.08750000e-02,-1.39804688e+00
-4.90468750e-08,1.11250000e-02,-1.41328125e+00
-4.82468750e-08,9.09375000e-03,-1.41125000e+00
-4.74468750e-08,-1.87500000e-04,-1.41273438e+00
-4.66468750e-08,7.68750000e-03,-1.41976563e+00
-4.58468750e-08,8.53125000e-03,-1.41437500e+00
-4.50468750e-08,5.78125000e-03,-1.41609375e+00
-4.42468750e-08,5.90625000e-03,-1.43453125e+00
-4.34468750e-08,1.41875000e-02,-1.42085938e+00
-4.26468750e-08,-7.50000000e-04,-1.42484375e+00
-4.18468750e-08,6.50000000e-03,-1.42937500e+00
-4.10468750e-08,7.18750000e-03,-1.43148438e+00
-4.02468750e-08,7.50000000e-03,-1.40664063e+00
-3.94468750e-08,-5.93750000e-04,-1.42164063e+00
-3.86468750e-08,6.25000000e-03,-1.42460938e+00
-3.78468750e-08,2.96875000e-03,-1.41531250e+00
-3.70468750e-08,1.71875000e-03,-1.41070313e+00
-3.62468750e-08,6.25000000e-04,-1.42992188e+00
-3.54468750e-08,6.71875000e-03,-1.43031250e+00
-3.46468750e-08,-6.87500000e-04,-1.41835938e+00
-3.38468750e-08,1.28125000e-03,-1.41960938e+00
-3.30468750e-08,-2.20000000e-02,-1.42804688e+00
-3.22468750e-08,-4.40000000e-02,-1.42750000e+00
-3.14468750e-08,-8.43437500e-02,-1.42664063e+00
-3.06468750e-08,-1.53781250e-01,-1.41757813e+00
-2.98468750e-08,-2.44562500e-01,-1.42109375e+00
-2.90468750e-08,-3.42781250e-01,-1.42578125e+00
-2.82468750e-08,-4.42843750e-01,-1.41632813e+00
-2.74468750e-08,-5.32406250e-01,-1.41890625e+00
-2.66468750e-08,-6.09375000e-01,-1.42593750e+00
-2.58468750e-08,-6.80156250e-01,-1.41882813e+00
-2.50468750e-08,-7.34375000e-01,-1.41625000e+00
-2.42468750e-08,-7.79906250e-01,-1.41335938e+00
-2.34468750e-08,-8.11406250e-01,-1.41015625e+00
-2.26468750e-08,-8.33312500e-01,-1.41734375e+00
-2.18468750e-08,-8.41437500e-01,-1.41375000e+00
-2.10468750e-08,-8.36812500e-01,-1.41976563e+00
-2.02468750e-08,-8.35312500e-01,-1.42140625e+00
-1.94468750e-08,-8.19468750e-01,-1.42125000e+00
-1.86468750e-08,-7.98031250e-01,-1.42312500e+00
-1.78468750e-08,-7.83062500e-01,-1.42156250e+00
-1.70468750e-08,-7.54593750e-01,-1.41757813e+00
-1.62468750e-08,-7.19937500e-01,-1.42343750e+00
-1.54468750e-08,-6.82906250e-01,-1.41585938e+00
-1.46468750e-08,-6.55156250e-01,-1.41085938e+00
-1.38468750e-08,-6.16343750e-01,-1.42468750e+00
-1.30468750e-08,-5.75125000e-01,-1.42093750e+00
-1.22468750e-08,-5.44750000e-01,-1.41960938e+00
-1.14468750e-08,-5.09312500e-01,-1.40968750e+00
-1.06468750e-08,-4.79593750e-01,-1.42718750e+00
-9.84687500e-09,-4.45593750e-01,-1.42773438e+00
-9.04687500e-09,-4.22562500e-01,-1.42695313e+00
-8.24687500e-09,-3.95187500e-01,-1.41937500e+00
-7.44687500e-09,-3.71218750e-01,-1.41828125e+00
-6.64687500e-09,-3.45156250e-01,-1.43117187e+00
-5.84687500e-09,-3.21375000e-01,-1.42382812e+00
-5.04687500e-09,-3.09750000e-01,-1.41234375e+00
-4.24687500e-09,-2.92250000e-01,-1.40937500e+00
-3.44687500e-09,-2.69312500e-01,-1.39007813e+00
-2.64687500e-09,-2.49906250e-01,-1.33757813e+00
-1.84687500e-09,-2.46687500e-01,-1.15070313e+00
-1.04687500e-09,-2.35343750e-01,-7.35000000e-01
-2.46875000e-10,-2.15843750e-01,-3.57578125e-01
5.53125000e-10,-2.05781250e-01,-2.00078125e-01
1.35312500e-09,-1.92187500e-01,-1.17734375e-01
2.15312500e-09,-1.87437500e-01,-7.21875000e-02
2.95312500e-09,-1.79187500e-01,-6.61718750e-02
3.75312500e-09,-1.76281250e-01,-5.76562500e-02
4.55312500e-09,-1.53875000e-01,-5.57031250e-02
5.35312500e-09,-1.52312500e-01,-3.64062500e-02
6.15312500e-09,-1.44312500e-01,-3.75781250e-02
6.95312500e-09,-1.32656250e-01,-3.87500000e-02
7.75312500e-09,-1.29312500e-01,-1.89843750e-02
8.55312500e-09,-1.23968750e-01,-2.78906250e-02
9.35312500e-09,-1.16625000e-01,-2.45312500e-02
1.01531250e-08,-1.12906250e-01,-2.17187500e-02
1.09531250e-08,-1.09968750e-01,-1.98437500e-02
1.17531250e-08,-1.05656250e-01,-1.53125000e-02
1.25531250e-08,-9.48125000e-02,-8.35937500e-03
1.33531250e-08,-9.15000000e-02,-2.24218750e-02
1.41531250e-08,-8.39687500e-02,-5.46875000e-03
1.49531250e-08,-8.12187500e-02,-1.92968750e-02
1.57531250e-08,-7.76875000e-02,-2.10156250e-02
1.65531250e-08,-7.25312500e-02,-8.51562500e-03
1.73531250e-08,-6.86562500e-02,-5.15625000e-03
1.81531250e-08,-7.41250000e-02,-5.07812500e-03
1.89531250e-08,-6.17187500e-02,-5.39062500e-03
1.97531250e-08,-5.94687500e-02,-1.95312500e-03
2.05531250e-08,-5.81250000e-02,5.00000000e-03
2.13531250e-08,-6.15937500e-02,-3.75000000e-03
2.21531250e-08,-5.20000000e-02,-1.21093750e-02
2.29531250e-08,-4.66875000e-02,2.34375000e-04
2.37531250e-08,-4.50312500e-02,-6.87500000e-03
2.45531250e-08,-4.54062500e-02,3.12500000e-04
2.53531250e-08,-4.17500000e-02,-8.12500000e-03
2.61531250e-08,-3.50312500e-02,3.20312500e-03
2.69531250e-08,-3.69687500e-02,1.17187500e-03
2.77531250e-08,-3.54375000e-02,4.37500000e-03
2.85531250e-08,-3.75312500e-02,5.78125000e-03
2.93531250e-08,-3.67812500e-02,4.21875000e-03
3.01531250e-08,-3.18125000e-02,5.31250000e-03
3.09531250e-08,-2.90000000e-02,1.03906250e-02
3.17531250e-08,-3.45312500e-02,1.39062500e-02
3.25531250e-08,-2.78125000e-02,1.50781250e-02
3.33531250e-08,-2.24687500e-02,3.45312500e-02
3.41531250e-08,-3.13437500e-02,3.17968750e-02
3.49531250e-08,-2.45312500e-02,3.82031250e-02
3.57531250e-08,-1.84687500e-02,3.43750000e-02
3.65531250e-08,-2.01562500e-02,3.61718750e-02
3.73531250e-08,-1.86562500e-02,3.71093750e-02
3.81531250e-08,-1.81250000e-02,2.75781250e-02
3.89531250e-08,-2.10312500e-02,2.44531250e-02
3.97531250e-08,-1.49375000e-02,3.01562500e-02
4.05531250e-08,-9.78125000e-03,1.60937500e-02
4.13531250e-08,-9.34375000e-03,2.10937500e-02
4.21531250e-08,-1.33750000e-02,1.74218750e-02
4.29531250e-08,-9.75000000e-03,2.15625000e-02
4.37531250e-08,-2.04375000e-02,1.40625000e-02
4.45531250e-08,-1.29062500e-02,1.63281250e-02
4.53531250e-08,-9.75000000e-03,1.79687500e-02
4.61531250e-08,-9.53125000e-03,1.79687500e-02
4.69531250e-08,-9.84375000e-03,7.96875000e-03
4.77531250e-08,-5.28125000e-03,1.36718750e-02
4.85531250e-08,-2.50000000e-03,2.58593750e-02
4.93531250e-08,-8.90625000e-03,2.35156250e-02
5.01531250e-08,-8.78125000e-03,1.81250000e-02
5.09531250e-08,-9.90625000e-03,1.55468750e-02
5.17531250e-08,-8.68750000e-03,1.95312500e-02
5.25531250e-08,-5.28125000e-03,2.13281250e-02
5.33531250e-08,-3.09375000e-03,1.18750000e-02
5.41531250e-08,-6.34375000e-03,2.14843750e-02
5.49531250e-08,-9.06250000e-03,2.22656250e-02
5.57531250e-08,3.75000000e-04,9.92187500e-03
5.65531250e-08,-5.40625000e-03,2.06250000e-02
