data/raw/TriggerAuto_ALL_20231205193758384.csv

Model,MSO64B
Channel,CH1,,Channel,CH2
Label,,,Label,
Waveform Type,ANALOG,,Waveform Type,ANALOG
Horizontal Units,s,,Horizontal Units,s
Sample Interval,8.00000000e-10,,Sample Interval,8.00000000e-10
Record Length,5000,,Record Length,5000
Zero Index,349.30468750,,Zero Index,349.30468750
Vertical Units,V,,Vertical Units,V
,,,,
ANALOG_Thumbnail,,,ANALOG_Thumbnail,
yOffset,0.000000,,yOffset,0.000000
yPosition,2.160000,,yPosition,2.180000

Labels,,
TIME,CH1,CH2
-2.79443750e-07,3.34375000e-03,4.76562500e-03
-2.78643750e-07,1.14687500e-02,1.00781250e-02
-2.77843750e-07,-3.12500000e-05,1.07031250e-02
-2.77043750e-07,9.78125000e-03,1.59375000e-02
-2.76243750e-07,4.46875000e-03,2.65625000e-03
-2.75443750e-07,1.11875000e-02,1.36718750e-02
-2.74643750e-07,1.37500000e-03,1.65625000e-02
-2.73843750e-07,9.31250000e-03,1.39062500e-02
-2.73043750e-07,3.43750000e-03,2.25000000e-02
-2.72243750e-07,4.65625000e-03,1.34375000e-02
-2.71443750e-07,1.12500000e-03,3.98437500e-03
-2.70643750e-07,8.59375000e-03,1.40625000e-02
-2.69843750e-07,5.53125000e-03,1.11718750e-02
-2.69043750e-07,1.16875000e-02,1.12500000e-02
-2.68243750e-07,5.06250000e-03,6.64062500e-03
-2.67443750e-07,2.43750000e-03,1.21093750e-02
-2.66643750e-07,9.75000000e-03,1.00781250e-02
-2.65843750e-07,7.50000000e-03,2.65625000e-02
-2.65043750e-07,5.71875000e-03,8.12500000e-03
-2.64243750e-07,1.15000000e-02,1.27343750e-02
-2.63443750e-07,7.68750000e-03,4.37500000e-03
-2.62643750e-07,5.81250000e-03,1.02343750e-02
-2.61843750e-07,6.68750000e-03,7.18750000e-03
-2.61043750e-07,7.62500000e-03,9.37500000e-04
-2.60243750e-07,7.18750000e-03,1.95312500e-02
-2.59443750e-07,5.37500000e-03,1.25000000e-02
-2.58643750e-07,5.03125000e-03,1.80468750e-02
-2.57843750e-07,9.68750000e-03,1.83593750e-02
-2.57043750e-07,4.03125000e-03,1.56250000e-02
-2.56243750e-07,1.12187500e-02,8.43750000e-03
-2.55443750e-07,3.96875000e-03,7.26562500e-03
-2.54643750e-07,5.21875000e-03,1.25781250e-02
-2.53843750e-07,9.84375000e-03,5.85937500e-03
-2.53043750e-07,1.23750000e-02,1.40625000e-03
-2.52243750e-07,3.75000000e-04,6.32812500e-03
-2.51443750e-07,1.06562500e-02,1.27343750e-02
-2.50643750e-07,6.59375000e-03,6.79687500e-03
-2.49843750e-07,6.62500000e-03,2.28125000e-02
-2.49043750e-07,2.03125000e-03,1.49218750e-02
-2.48243750e-07,6.25000000e-03,1.25781250e-02
-2.47443750e-07,2.03125000e-03,8.43750000e-03
-2.46643750e-07,4.75000000e-03,5.39062500e-03
-2.45843750e-07,4.00000000e-03,1.00781250e-02
-2.45043750e-07,4.93750000e-03,1.19531250e-02
-2.44243750e-07,6.62500000e-03,1.25781250e-02
-2.43443750e-07,1.08750000e-02,1.52343750e-02
-2.42643750e-07,3.81250000e-03,1.04687500e-02
-2.41843750e-07,6.56250000e-03,1.13281250e-02
-2.41043750e-07,7.00000000e-03,9.84375000e-03
-2.40243750e-07,1.13750000e-02,1.12500000e-02
-2.39443750e-07,2.06250000e-03,7.81250000e-03
-2.38643750e-07,7.31250000e-03,-5.46875000e-04
-2.37843750e-07,9.68750000e-03,6.40625000e-03
-2.37043750e-07,9.03125000e-03,1.67968750e-02
-2.36243750e-07,7.50000000e-03,1.78125000e-02
-2.35443750e-07,6.12500000e-03,1.05468750e-02
-2.34643750e-07,1.04062500e-02,2.05468750e-02
-2.33843750e-07,7.43750000e-03,1.10156250e-02
-2.33043750e-07,7.75000000e-03,1.92968750e-02
-2.32243750e-07,7.18750000e-03,2.07031250e-02
-2.31443750e-07,5.68750000e-03,8.20312500e-03
-2.30643750e-07,8.96875000e-03,1.17187500e-03
-2.29843750e-07,8.18750000e-03,6.09375000e-03
-2.29043750e-07,4.43750000e-03,1.95312500e-03
-2.28243750e-07,4.90625000e-03,3.90625000e-04
-2.27443750e-07,1.11250000e-02,1.35937500e-02
-2.26643750e-07,2.18750000e-04,1.65625000e-02
-2.25843750e-07,8.71875000e-03,-7.81250000e-05
-2.25043750e-07,7.81250000e-03,9.84375000e-03
-2.24243750e-07,1.52500000e-02,1.32031250e-02
-2.23443750e-07,1.40625000e-03,8.82812500e-03
-2.22643750e-07,7.12500000e-03,1.25781250e-02
-2.21843750e-07,4.71875000e-03,8.67187500e-03
-2.21043750e-07,1.10312500e-02,1.71093750e-02
-2.20243750e-07,4.75000000e-03,-3.43750000e-03
-2.19443750e-07,7.28125000e-03,9.68750000e-03
-2.18643750e-07,5.50000000e-03,3.35937500e-03
-2.17843750e-07,9.34375000e-03,1.54687500e-02
-2.17043750e-07,2.34375000e-03,-2.73437500e-03
-2.16243750e-07,4.21875000e-03,1.31250000e-02
-2.15443750e-07,4.50000000e-03,3.28125000e-03
-2.14643750e-07,6.00000000e-03,1.10937500e-02
-2.13843750e-07,4.53125000e-03,1.39062500e-02
-2.13043750e-07,8.46875000e-03,8.04687500e-03
-2.12243750e-07,7.78125000e-03,1.27343750e-02
-2.11443750e-07,3.40625000e-03,1.59375000e-02
-2.10643750e-07,6.62500000e-03,9.84375000e-03
-2.09843750e-07,9.50000000e-03,1.40625000e-02
-2.09043750e-07,7.40625000e-03,1.03906250e-02
-2.08243750e-07,7.90625000e-03,9.37500000e-03
-2.07443750e-07,8.75000000e-03,1.52343750e-02
-2.06643750e-07,4.62500000e-03,9.21875000e-03
-2.05843750e-07,1.34375000e-03,1.53125000e-02
-2.05043750e-07,1.04375000e-02,1.10156250e-02
-2.04243750e-07,4.34375000e-03,9.37500000e-03
-2.03443750e-07,4.78125000e-03,1.32031250e-02
-2.02643750e-07,5.03125000e-03,5.93750000e-03
-2.01843750e-07,1.10000000e-02,1.53906250e-02
-2.01043750e-07,-4.37500000e-04,5.15625000e-03
-2.00243750e-07,6.75000000e-03,1.94531250e-02
-1.99443750e-07,7.71875000e-03,4.29687500e-03
-1.98643750e-07,8.87500000e-03,1.28906250e-02
-1.97843750e-07,7.50000000e-04,1.10937500e-02
-1.97043750e-07,1.01562500e-02,1.19531250e-02
-1.96243750e-07,7.21875000e-03,3.20312500e-03
-1.95443750e-07,7.09375000e-03,1.02343750e-02
-1.94643750e-07,1.18750000e-03,9.76562500e-03
-1.93843750e-07,4.65625000e-03,3.51562500e-03
-1.93043750e-07,1.68750000e-03,1.21093750e-02
-1.92243750e-07,9.28125000e-03,8.67187500e-03
-1.91443750e-07,1.03125000e-03,1.00000000e-02
-1.90643750e-07,6.40625000e-03,1.14062500e-02
-1.89843750e-07,1.00312500e-02,5.31250000e-03
-1.89043750e-07,8.75000000e-03,9.68750000e-03
-1.88243750e-07,6.84375000e-03,2.38281250e-02
-1.87443750e-07,9.90625000e-03,5.00000000e-03
-1.86643750e-07,7.68750000e-03,1.08593750e-02
-1.85843750e-07,5.53125000e-03,1.58593750e-02
-1.85043750e-07,4.93750000e-03,1.50781250e-02
-1.84243750e-07,2.37500000e-03,7.18750000e-03
-1.83443750e-07,5.53125000e-03,1.26562500e-02
-1.82643750e-07,4.93750000e-03,1.05468750e-02
-1.81843750e-07,4.12500000e-03,1.92968750e-02
-1.81043750e-07,3.62500000e-03,1.49218750e-02
-1.80243750e-07,3.00000000e-03,1.64843750e-02
-1.79443750e-07,8.84375000e-03,1.03125000e-02
-1.78643750e-07,4.75000000e-03,1.39843750e-02
-1.77843750e-07,4.96875000e-03,8.35937500e-03
-1.77043750e-07,1.75000000e-03,1.14843750e-02
-1.76243750e-07,5.31250000e-03,2.35937500e-02
-1.75443750e-07,4.68750000e-04,4.92187500e-03
-1.74643750e-07,8.78125000e-03,1.07031250e-02
-1.73843750e-07,6.12500000e-03,7.18750000e-03
-1.73043750e-07,7.37500000e-03,1.19531250e-02
-1.72243750e-07,2.00000000e-03,4.60937500e-03
-1.71443750e-07,1.10000000e-02,1.20312500e-02
-1.70643750e-07,-5.93750000e-04,6.56250000e-03
-1.69843750e-07,4.68750000e-03,8.12500000e-03
-1.69043750e-07,5.34375000e-03,6.01562500e-03
-1.68243750e-07,8.28125000e-03,1.07812500e-02
-1.67443750e-07,6.87500000e-04,1.40625000e-03
-1.66643750e-07,7.59375000e-03,1.36718750e-02
-1.65843750e-07,5.18750000e-03,1.18750000e-02
-1.65043750e-07,7.46875000e-03,1.47656250e-02
-1.64243750e-07,8.25000000e-03,1.44531250e-02
-1.63443750e-07,1.16875000e-02,1.18750000e-02
-1.62643750e-07,3.34375000e-03,1.45312500e-02
-1.61843750e-07,6.18750000e-03,1.50781250e-02
-1.61043750e-07,8.37500000e-03,8.35937500e-03
-1.60243750e-07,8.34375000e-03,3.98437500e-03
-1.59443750e-07,9.40625000e-03,8.67187500e-03
-1.58643750e-07,7.06250000e-03,4.06250000e-03
-1.57843750e-07,5.37500000e-03,6.32812500e-03
-1.57043750e-07,2.50000000e-03,1.87500000e-02
-1.56243750e-07,1.05937500e-02,1.23437500e-02
-1.55443750e-07,6.03125000e-03,9.29687500e-03
-1.54643750e-07,6.90625000e-03,5.93750000e-03
-1.53843750e-07,8.81250000e-03,8.75000000e-03
-1.53043750e-07,6.75000000e-03,8.67187500e-03
-1.52243750e-07,9.37500000e-03,2.65625000e-03
-1.51443750e-07,5.03125000e-03,2.96875000e-03
-1.50643750e-07,7.78125000e-03,1.14843750e-02
-1.49843750e-07,7.50000000e-04,7.42187500e-03
-1.49043750e-07,6.87500000e-03,1.67187500e-02
-1.48243750e-07,6.96875000e-03,-2.73437500e-03
-1.47443750e-07,9.18750000e-03,1.64843750e-02
-1.46643750e-07,4.50000000e-03,1.10156250e-02
-1.45843750e-07,8.78125000e-03,1.08593750e-02
-1.45043750e-07,5.56250000e-03,9.21875000e-03
-1.44243750e-07,9.84375000e-03,1.60156250e-02
-1.43443750e-07,5.75000000e-03,7.73437500e-03
-1.42643750e-07,9.53125000e-03,1.14843750e-02
-1.41843750e-07,3.81250000e-03,1.10156250e-02
-1.41043750e-07,8.56250000e-03,3.98437500e-03
-1.40243750e-07,1.84375000e-03,1.25781250e-02
-1.39443750e-07,4.56250000e-03,9.84375000e-03
-1.38643750e-07,7.53125000e-03,1.95312500e-03
-1.37843750e-07,9.71875000e-03,1.64062500e-02
-1.37043750e-07,2.81250000e-04,2.41406250e-02
-1.36243750e-07,6.62500000e-03,5.07812500e-03
-1.35443750e-07,9.65625000e-03,1.20312500e-02
-1.34643750e-07,5.53125000e-03,9.21875000e-03
-1.33843750e-07,6.65625000e-03,7.34375000e-03
-1.33043750e-07,8.03125000e-03,3.67187500e-03
-1.32243750e-07,1.05312500e-02,1.69531250e-02
-1.31443750e-07,4.56250000e-03,1.21093750e-02
-1.30643750e-07,9.75000000e-03,2.54687500e-02
-1.29843750e-07,3.68750000e-03,1.10937500e-02
-1.29043750e-07,2.00000000e-03,1.89843750e-02
-1.28243750e-07,9.31250000e-03,1.12500000e-02
-1.27443750e-07,9.12500000e-03,1.50781250e-02
-1.26643750e-07,7.84375000e-03,1.79687500e-02
-1.25843750e-07,3.65625000e-03,2.26562500e-03
-1.25043750e-07,8.50000000e-03,1.20312500e-02
-1.24243750e-07,-7.18750000e-04,1.24218750e-02
-1.23443750e-07,9.00000000e-03,1.12500000e-02
-1.22643750e-07,6.18750000e-03,8.04687500e-03
-1.21843750e-07,1.24375000e-02,2.00781250e-02
-1.21043750e-07,2.93750000e-03,1.10937500e-02
-1.20243750e-07,7.84375000e-03,9.60937500e-03
-1.19443750e-07,6.40625000e-03,2.40625000e-02
-1.18643750e-07,1.10625000e-02,9.14062500e-03
-1.17843750e-07,2.40625000e-03,9.68750000e-03
-1.17043750e-07,6.21875000e-03,1.09375000e-02
-1.16243750e-07,4.31250000e-03,1.24218750e-02
-1.15443750e-07,1.01250000e-02,1.57812500e-02
-1.14643750e-07,2.25000000e-03,1.69531250e-02
-1.13843750e-07,1.20937500e-02,1.62500000e-02
-1.13043750e-07,1.03750000e-02,-1.56250000e-04
-1.12243750e-07,1.26562500e-02,1.43750000e-02
-1.11443750e-07,3.50000000e-03,1.50781250e-02
-1.10643750e-07,7.78125000e-03,6.79687500e-03
-1.09843750e-07,1.01250000e-02,6.95312500e-03
-1.09043750e-07,8.12500000e-03,8.43750000e-03
-1.08243750e-07,6.15625000e-03,1.31250000e-02
-1.07443750e-07,7.00000000e-03,3.90625000e-03
-1.06643750e-07,1.02500000e-02,1.35156250e-02
-1.05843750e-07,3.43750000e-03,1.65625000e-02
-1.05043750e-07,5.87500000e-03,1.25781250e-02
-1.04243750e-07,7.87500000e-03,6.79687500e-03
-1.03443750e-07,8.46875000e-03,8.35937500e-03
-1.02643750e-07,9.37500000e-03,5.23437500e-03
-1.01843750e-07,3.84375000e-03,2.25781250e-02
-1.01043750e-07,6.50000000e-03,1.53906250e-02
-1.00243750e-07,5.78125000e-03,4.60937500e-03
-9.94437500e-08,1.07812500e-02,1.87500000e-02
-9.86437500e-08,3.87500000e-03,1.50781250e-02
-9.78437500e-08,1.27500000e-02,1.00781250e-02
-9.70437500e-08,6.68750000e-03,5.54687500e-03
-9.62437500e-08,1.06250000e-02,9.84375000e-03
-9.54437500e-08,4.93750000e-03,1.77343750e-02
-9.46437500e-08,8.68750000e-03,1.16406250e-02
-9.38437500e-08,7.31250000e-03,1.45312500e-02
-9.30437500e-08,9.90625000e-03,1.71093750e-02
-9.22437500e-08,4.96875000e-03,1.25000000e-02
-9.14437500e-08,1.00312500e-02,1.14843750e-02
-9.06437500e-08,3.62500000e-03,1.80468750e-02
-8.98437500e-08,1.37187500e-02,1.00000000e-02
-8.90437500e-08,3.06250000e-03,1.35937500e-02
-8.82437500e-08,3.18750000e-03,1.60156250e-02
-8.74437500e-08,8.87500000e-03,1.20312500e-02
-8.66437500e-08,1.47187500e-02,1.14843750e-02
-8.58437500e-08,5.96875000e-03,1.28125000e-02
-8.50437500e-08,6.09375000e-03,1.02343750e-02
-8.42437500e-08,1.11562500e-02,1.16406250e-02
-8.34437500e-08,9.34375000e-03,1.50000000e-02
-8.26437500e-08,7.25000000e-03,1.94531250e-02
-8.18437500e-08,5.68750000e-03,6.17187500e-03
-8.10437500e-08,1.07500000e-02,1.85156250e-02
-8.02437500e-08,8.21875000e-03,1.93750000e-02
-7.94437500e-08,5.40625000e-03,1.67968750e-02
-7.86437500e-08,8.46875000e-03,2.00000000e-02
-7.78437500e-08,5.78125000e-03,1.71875000e-02
-7.70437500e-08,1.30937500e-02,8.67187500e-03
-7.62437500e-08,2.28125000e-03,1.82812500e-02
-7.54437500e-08,9.31250000e-03,1.57812500e-02
-7.46437500e-08,7.40625000e-03,1.86718750e-02
-7.38437500e-08,1.06875000e-02,1.96093750e-02
-7.30437500e-08,1.12500000e-03,7.89062500e-03
-7.22437500e-08,1.15625000e-02,1.99218750e-02
-7.14437500e-08,5.15625000e-03,1.28906250e-02
-7.06437500e-08,1.16250000e-02,2.36718750e-02
-6.98437500e-08,3.31250000e-03,1.32031250e-02
-6.90437500e-08,6.21875000e-03,1.22656250e-02
-6.82437500e-08,3.59375000e-03,1.92968750e-02
-6.74437500e-08,1.03437500e-02,9.06250000e-03
-6.66437500e-08,1.96875000e-03,1.07031250e-02
-6.58437500e-08,1.29062500e-02,1.30468750e-02
-6.50437500e-08,7.90625000e-03,1.27343750e-02
-6.42437500e-08,8.87500000e-03,1.17187500e-02
-6.34437500e-08,1.21875000e-03,7.65625000e-03
-6.26437500e-08,6.62500000e-03,3.98437500e-03
-6.18437500e-08,4.71875000e-03,2.79687500e-02
-6.10437500e-08,1.32812500e-02,1.17187500e-03
-6.02437500e-08,5.00000000e-03,-3.97265625e-01
-5.94437500e-08,7.03125000e-03,-9.70234375e-01
-5.86437500e-08,9.87500000e-03,-1.23960938e+00
-5.78437500e-08,9.84375000e-03,-1.30554688e+00
-5.70437500e-08,9.75000000e-03,-1.37148438e+00
-5.62437500e-08,8.06250000e-03,-1.39523438e+00
-5.54437500e-08,1.02812500e-02,-1.39898438e+00
-5.46437500e-08,6.21875000e-03,-1.37687500e+00
-5.38437500e-08,1.15625000e-02,-1.39882813e+00
-5.30437500e-08,9.96875000e-03,-1.41062500e+00
-5.22437500e-08,3.06250000e-03,-1.40914063e+00
-5.14437500e-08,1.22500000e-02,-1.41687500e+00
-5.06437500e-08,3.56250000e-03,-1.41484375e+00
-4.98437500e-08,6.37500000e-03,-1.41523438e+00
-4.90437500e-08,5.40625000e-03,-1.41171875e+00
-4.82437500e-08,1.15000000e-02,-1.41492188e+00
-4.74437500e-08,6.87500000e-03,-1.41164062e+00
-4.66437500e-08,8.34375000e-03,-1.42101563e+00
-4.58437500e-08,6.37500000e-03,-1.42796875e+00
-4.50437500e-08,8.06250000e-03,-1.41523438e+00
-4.42437500e-08,1.56250000e-04,-1.41453125e+00
-4.34437500e-08,1.08437500e-02,-1.41921875e+00
-4.26437500e-08,3.59375000e-03,-1.42140625e+00
-4.18437500e-08,1.31250000e-03,-1.42101563e+00
-4.10437500e-08,4.03125000e-03,-1.43382813e+00
-4.02437500e-08,1.12187500e-02,-1.42437500e+00
-3.94437500e-08,3.18750000e-03,-1.42187500e+00
-3.86437500e-08,9.62500000e-03,-1.42867188e+00
-3.78437500e-08,-1.46875000e-03,-1.42304688e+00
-3.70437500e-08,3.31250000e-03,-1.42421875e+00
-3.62437500e-08,5.21875000e-03,-1.42070313e+00
-3.54437500e-08,8.37500000e-03,-1.42789063e+00
-3.46437500e-08,1.90625000e-03,-1.43140625e+00
-3.38437500e-08,-4.87500000e-03,-1.42101563e+00
-3.30437500e-08,-1.70312500e-02,-1.42000000e+00
-3.22437500e-08,-5.12812500e-02,-1.42289062e+00
-3.14437500e-08,-1.02656250e-01,-1.42085938e+00
-3.06437500e-08,-1.89468750e-01,-1.43960938e+00
-2.98437500e-08,-2.97312500e-01,-1.42023438e+00
-2.90437500e-08,-4.27625000e-01,-1.42523438e+00
-2.82437500e-08,-5.60156250e-01,-1.41148438e+00
-2.74437500e-08,-6.72031250e-01,-1.43101563e+00
-2.66437500e-08,-7.66312500e-01,-1.42132813e+00
-2.58437500e-08,-8.48468750e-01,-1.41515625e+00
-2.50437500e-08,-9.17593750e-01,-1.42210938e+00
-2.42437500e-08,-9.59968750e-01,-1.42593750e+00
-2.34437500e-08,-9.87781250e-01,-1.42015625e+00
-2.26437500e-08,-1.01206250e+00,-1.40851563e+00
-2.18437500e-08,-1.02559375e+00,-1.42304688e+00
-2.10437500e-08,-1.01718750e+00,-1.41468750e+00
-2.02437500e-08,-1.01234375e+00,-1.42148438e+00
-1.94437500e-08,-9.93812500e-01,-1.41382813e+00
-1.86437500e-08,-9.69218750e-01,-1.41664063e+00
-1.78437500e-08,-9.40312500e-01,-1.42171875e+00
-1.70437500e-08,-9.05437500e-01,-1.41890625e+00
-1.62437500e-08,-8.71562500e-01,-1.41625000e+00
-1.54437500e-08,-8.34562500e-01,-1.41750000e+00
-1.46437500e-08,-7.93812500e-01,-1.42398438e+00
-1.38437500e-08,-7.49906250e-01,-1.42242188e+00
-1.30437500e-08,-7.13781250e-01,-1.41906250e+00
-1.22437500e-08,-6.79312500e-01,-1.41835938e+00
-1.14437500e-08,-6.45093750e-01,-1.42953125e+00
-1.06437500e-08,-6.06781250e-01,-1.42703125e+00
-9.84375000e-09,-5.69562500e-01,-1.41179688e+00
-9.04375000e-09,-5.37968750e-01,-1.42195313e+00
-8.24375000e-09,-5.01343750e-01,-1.42273438e+00
-7.44375000e-09,-4.71156250e-01,-1.41617188e+00
-6.64375000e-09,-4.42593750e-01,-1.42531250e+00
-5.84375000e-09,-4.15687500e-01,-1.42203125e+00
-5.04375000e-09,-3.83593750e-01,-1.42773438e+00
-4.24375000e-09,-3.61218750e-01,-1.40945313e+00
-3.44375000e-09,-3.35906250e-01,-1.37960938e+00
-2.64375000e-09,-3.14656250e-01,-1.33046875e+00
-1.84375000e-09,-2.95312500e-01,-1.15109375e+00
-1.04375000e-09,-2.71906250e-01,-7.39609375e-01
-2.43750000e-10,-2.53031250e-01,-3.53593750e-01
5.56250000e-10,-2.43968750e-01,-2.02734375e-01
1.35625000e-09,-2.31093750e-01,-1.15078125e-01
2.15625000e-09,-2.17562500e-01,-7.41406250e-02
2.95625000e-09,-2.10250000e-01,-4.94531250e-02
3.75625000e-09,-1.96281250e-01,-5.28125000e-02
4.55625000e-09,-1.82281250e-01,-4.18750000e-02
5.35625000e-09,-1.79843750e-01,-3.64843750e-02
6.15625000e-09,-1.70062500e-01,-4.28125000e-02
6.95625000e-09,-1.66468750e-01,-2.89843750e-02
7.75625000e-09,-1.54781250e-01,-3.39843750e-02
8.55625000e-09,-1.63375000e-01,-3.14843750e-02
9.35625000e-09,-1.46875000e-01,-2.65625000e-02
1.01562500e-08,-1.44562500e-01,-2.30468750e-02
1.09562500e-08,-1.39625000e-01,-3.37500000e-02
1.17562500e-08,-1.35468750e-01,-2.21875000e-02
1.25562500e-08,-1.26062500e-01,-1.39843750e-02
1.33562500e-08,-1.34812500e-01,-6.17187500e-03
1.41562500e-08,-1.19656250e-01,-1.44531250e-02
1.49562500e-08,-1.12656250e-01,-1.00781250e-02
1.57562500e-08,-1.07812500e-01,-5.62500000e-03
1.65562500e-08,-1.07062500e-01,-1.00781250e-02
1.73562500e-08,-9.77187500e-02,-6.64062500e-03
1.81562500e-08,-9.10312500e-02,-1.17187500e-02
1.89562500e-08,-8.81875000e-02,-5.31250000e-03
1.97562500e-08,-8.58125000e-02,-5.46875000e-04
2.05562500e-08,-7.98750000e-02,3.59375000e-03
2.13562500e-08,-7.35312500e-02,-1.56250000e-04
2.21562500e-08,-6.64687500e-02,-2.96875000e-03
2.29562500e-08,-6.59375000e-02,3.51562500e-03
2.37562500e-08,-6.25000000e-02,4.29687500e-03
2.45562500e-08,-6.33750000e-02,4.06250000e-03
2.53562500e-08,-4.93437500e-02,6.25000000e-03
2.61562500e-08,-5.10625000e-02,5.93750000e-03
2.69562500e-08,-4.54375000e-02,8.28125000e-03
2.77562500e-08,-3.98437500e-02,8.59375000e-03
2.85562500e-08,-3.58125000e-02,4.84375000e-03
2.93562500e-08,-4.15625000e-02,-4.68750000e-04
3.01562500e-08,-3.26562500e-02,1.72656250e-02
3.09562500e-08,-3.42500000e-02,1.18750000e-02
3.17562500e-08,-2.69062500e-02,1.79687500e-02
3.25562500e-08,-2.80312500e-02,2.86718750e-02
3.33562500e-08,-2.51875000e-02,3.27343750e-02
3.41562500e-08,-3.15937500e-02,3.63281250e-02
3.49562500e-08,-2.20937500e-02,2.91406250e-02
3.57562500e-08,-3.05625000e-02,2.46093750e-02
3.65562500e-08,-1.98750000e-02,3.30468750e-02
3.73562500e-08,-2.29062500e-02,3.52343750e-02
3.81562500e-08,-1.88125000e-02,3.36718750e-02
3.89562500e-08,-2.35937500e-02,2.88281250e-02
3.97562500e-08,-1.64062500e-02,2.54687500e-02
4.05562500e-08,-1.51250000e-02,1.49218750e-02
4.13562500e-08,-1.34375000e-02,2.25000000e-02
4.21562500e-08,-2.13437500e-02,2.40625000e-02
4.29562500e-08,-1.36562500e-02,2.53906250e-02
4.37562500e-08,-1.52812500e-02,2.25000000e-02
4.45562500e-08,-1.62500000e-02,1.65625000e-02
4.53562500e-08,-1.60000000e-02,1.53125000e-02
4.61562500e-08,-1.50937500e-02,1.60156250e-02
4.69562500e-08,-1.40312500e-02,1.73437500e-02
4.77562500e-08,-1.67812500e-02,2.52343750e-02
4.85562500e-08,-1.78125000e-02,2.88281250e-02
4.93562500e-08,-1.96875000e-02,2.53906250e-02
5.01562500e-08,-1.56250000e-02,2.65625000e-02
5.09562500e-08,-1.21875000e-02,2.11718750e-02
5.17562500e-08,-1.66250000e-02,2.45312500e-02
5.25562500e-08,-1.28750000e-02,1.69531250e-02
5.33562500e-08,-9.62500000e-03,1.59375000e-02
5.41562500e-08,-8.37500000e-03,1.78125000e-02
5.49562500e-08,-1.43750000e-02,1.64843750e-02
5.57562500e-08,-3.56250000e-03,1.71875000e-02
5.65562500e-08,-7.93750000e-03,2.11718750e-02
