data/raw/TriggerAuto_ALL_20231205192935845.csv

Model,MSO64B
Channel,CH1,,Channel,CH2
Label,,,Label,
Waveform Type,ANALOG,,Waveform Type,ANALOG
Horizontal Units,s,,Horizontal Units,s
Sample Interval,8.00000000e-10,,Sample Interval,8.00000000e-10
Record Length,5000,,Record Length,5000
Zero Index,349.01953125,,Zero Index,349.01953125
Vertical Units,V,,Vertical Units,V
,,,,
ANALOG_Thumbnail,,,ANALOG_Thumbnail,
yOffset,0.000000,,yOffset,0.000000
yPosition,2.160000,,yPosition,2.180000

Labels,,
TIME,CH1,CH2
-2.79215625e-07,4.68750000e-03,4.92187500e-03
-2.78415625e-07,8.93750000e-03,-1.56250000e-03
-2.77615625e-07,5.50000000e-03,7.89062500e-03
-2.76815625e-07,9.34375000e-03,6.95312500e-03
-2.76015625e-07,0.00000000e+00,1.03125000e-02
-2.75215625e-07,6.37500000e-03,-4.68750000e-04
-2.74415625e-07,7.93750000e-03,3.28125000e-03
-2.73615625e-07,9.34375000e-03,2.26562500e-03
-2.72815625e-07,3.62500000e-03,-7.81250000e-04
-2.72015625e-07,1.32187500e-02,1.25000000e-03
-2.71215625e-07,1.09375000e-02,6.64062500e-03
-2.70415625e-07,7.40625000e-03,1.03906250e-02
-2.69615625e-07,4.75000000e-03,1.10156250e-02
-2.68815625e-07,4.43750000e-03,1.08593750e-02
-2.68015625e-07,8.50000000e-03,1.09375000e-02
-2.67215625e-07,6.06250000e-03,1.46875000e-02
-2.66415625e-07,8.28125000e-03,1.00000000e-02
-2.65615625e-07,3.93750000e-03,6.01562500e-03
-2.64815625e-07,2.12500000e-03,2.26562500e-03
-2.64015625e-07,8.34375000e-03,6.32812500e-03
-2.63215625e-07,5.31250000e-03,1.16406250e-02
-2.62415625e-07,6.62500000e-03,1.06250000e-02
-2.61615625e-07,4.37500000e-03,2.26562500e-03
-2.60815625e-07,8.18750000e-03,8.28125000e-03
-2.60015625e-07,8.12500000e-04,3.59375000e-03
-2.59215625e-07,9.90625000e-03,1.03125000e-02
-2.58415625e-07,7.56250000e-03,1.21093750e-02
-2.57615625e-07,8.21875000e-03,3.35937500e-03
-2.56815625e-07,3.90625000e-03,3.20312500e-03
-2.56015625e-07,7.50000000e-03,1.48437500e-02
-2.55215625e-07,2.84375000e-03,6.71875000e-03
-2.54415625e-07,5.43750000e-03,1.47656250e-02
-2.53615625e-07,4.71875000e-03,-1.40625000e-03
-2.52815625e-07,1.33750000e-02,4.68750000e-04
-2.52015625e-07,4.21875000e-03,1.71875000e-03
-2.51215625e-07,9.75000000e-03,4.37500000e-03
-2.50415625e-07,1.18750000e-03,3.04687500e-03
-2.49615625e-07,4.40625000e-03,6.95312500e-03
-2.48815625e-07,4.46875000e-03,-3.67187500e-03
-2.48015625e-07,8.25000000e-03,7.34375000e-03
-2.47215625e-07,6.46875000e-03,4.92187500e-03
-2.46415625e-07,7.65625000e-03,5.15625000e-03
-2.45615625e-07,9.15625000e-03,1.03125000e-02
-2.44815625e-07,5.15625000e-03,8.82812500e-03
-2.44015625e-07,3.53125000e-03,5.54687500e-03
-2.43215625e-07,8.37500000e-03,6.95312500e-03
-2.42415625e-07,5.34375000e-03,9.53125000e-03
-2.41615625e-07,2.43750000e-03,1.14843750e-02
-2.40815625e-07,5.03125000e-03,9.37500000e-03
-2.40015625e-07,8.50000000e-03,6.09375000e-03
-2.39215625e-07,4.81250000e-03,5.54687500e-03
-2.38415625e-07,9.40625000e-03,8.20312500e-03
-2.37615625e-07,6.53125000e-03,4.84375000e-03
-2.36815625e-07,8.25000000e-03,4.21875000e-03
-2.36015625e-07,3.84375000e-03,-1.64062500e-03
-2.35215625e-07,6.21875000e-03,5.15625000e-03
-2.34415625e-07,4.53125000e-03,8.35937500e-03
-2.33615625e-07,8.93750000e-03,4.92187500e-03
-2.32815625e-07,8.12500000e-03,9.14062500e-03
-2.32015625e-07,6.18750000e-03,2.14062500e-02
-2.31215625e-07,1.37500000e-03,6.56250000e-03
-2.30415625e-07,9.03125000e-03,1.55468750e-02
-2.29615625e-07,4.81250000e-03,6.40625000e-03
-2.28815625e-07,5.50000000e-03,7.50000000e-03
-2.28015625e-07,5.87500000e-03,7.03125000e-04
-2.27215625e-07,8.25000000e-03,3.12500000e-03
-2.26415625e-07,3.34375000e-03,1.41406250e-02
-2.25615625e-07,7.12500000e-03,5.31250000e-03
-2.24815625e-07,3.84375000e-03,6.25000000e-03
-2.24015625e-07,6.75000000e-03,2.18750000e-03
-2.23215625e-07,1.11875000e-02,6.95312500e-03
-2.22415625e-07,9.59375000e-03,9.37500000e-04
-2.21615625e-07,2.40625000e-03,7.03125000e-03
-2.20815625e-07,5.65625000e-03,1.56250000e-03
-2.20015625e-07,1.02500000e-02,5.85937500e-03
-2.19215625e-07,3.56250000e-03,9.53125000e-03
-2.18415625e-07,7.12500000e-03,9.37500000e-04
-2.17615625e-07,7.28125000e-03,9.06250000e-03
-2.16815625e-07,5.31250000e-03,7.50000000e-03
-2.16015625e-07,3.71875000e-03,2.96875000e-03
-2.15215625e-07,9.28125000e-03,1.03906250e-02
-2.14415625e-07,2.65625000e-03,7.42187500e-03
-2.13615625e-07,1.34375000e-03,1.16406250e-02
-2.12815625e-07,1.00312500e-02,9.29687500e-03
-2.12015625e-07,2.96875000e-03,1.15625000e-02
-2.11215625e-07,6.31250000e-03,1.84375000e-02
-2.10415625e-07,6.56250000e-04,-1.40625000e-03
-2.09615625e-07,7.25000000e-03,6.32812500e-03
-2.08815625e-07,-2.18750000e-04,6.79687500e-03
-2.08015625e-07,7.21875000e-03,4.21875000e-03
-2.07215625e-07,5.31250000e-03,3.12500000e-03
-2.06415625e-07,4.40625000e-03,1.94531250e-02
-2.05615625e-07,3.75000000e-04,6.56250000e-03
-2.04815625e-07,1.18750000e-02,7.57812500e-03
-2.04015625e-07,1.96875000e-03,2.81250000e-03
-2.03215625e-07,1.12500000e-02,1.09375000e-02
-2.02415625e-07,3.06250000e-03,4.06250000e-03
-2.01615625e-07,6.50000000e-03,4.29687500e-03
-2.00815625e-07,7.71875000e-03,3.12500000e-04
-2.00015625e-07,1.08750000e-02,1.37500000e-02
-1.99215625e-07,1.75000000e-03,3.98437500e-03
-1.98415625e-07,4.87500000e-03,5.70312500e-03
-1.97615625e-07,6.06250000e-03,3.51562500e-03
-1.96815625e-07,8.37500000e-03,5.70312500e-03
-1.96015625e-07,4.75000000e-03,4.92187500e-03
-1.95215625e-07,1.71875000e-03,9.60937500e-03
-1.94415625e-07,6.09375000e-03,4.06250000e-03
-1.93615625e-07,7.68750000e-03,1.71875000e-03
-1.92815625e-07,4.21875000e-03,4.37500000e-03
-1.92015625e-07,6.03125000e-03,7.03125000e-03
-1.91215625e-07,9.09375000e-03,9.37500000e-04
-1.90415625e-07,5.59375000e-03,9.76562500e-03
-1.89615625e-07,2.28125000e-03,7.34375000e-03
-1.88815625e-07,6.68750000e-03,1.71875000e-03
-1.88015625e-07,3.46875000e-03,8.98437500e-03
-1.87215625e-07,4.90625000e-03,8.12500000e-03
-1.86415625e-07,6.81250000e-03,6.87500000e-03
-1.85615625e-07,5.06250000e-03,5.46875000e-03
-1.84815625e-07,1.90625000e-03,-1.79687500e-03
-1.84015625e-07,7.37500000e-03,-8.59375000e-04
-1.83215625e-07,-1.21875000e-03,-8.82812500e-03
-1.82415625e-07,7.56250000e-03,1.56250000e-03
-1.81615625e-07,6.75000000e-03,6.48437500e-03
-1.80815625e-07,8.06250000e-03,9.76562500e-03
-1.80015625e-07,-6.56250000e-04,9.53125000e-03
-1.79215625e-07,1.25312500e-02,1.08593750e-02
-1.78415625e-07,3.75000000e-04,1.40625000e-03
-1.77615625e-07,6.31250000e-03,3.20312500e-03
-1.76815625e-07,2.15625000e-03,5.62500000e-03
-1.76015625e-07,4.65625000e-03,7.73437500e-03
-1.75215625e-07,5.87500000e-03,1.21093750e-02
-1.74415625e-07,7.81250000e-03,1.48437500e-03
-1.73615625e-07,3.56250000e-03,8.98437500e-03
-1.72815625e-07,3.43750000e-03,3.51562500e-03
-1.72015625e-07,8.28125000e-03,7.03125000e-03
-1.71215625e-07,1.20625000e-02,6.87500000e-03
-1.70415625e-07,-3.43750000e-04,8.82812500e-03
-1.69615625e-07,5.28125000e-03,2.34375000e-04
-1.68815625e-07,7.34375000e-03,1.43750000e-02
-1.68015625e-07,6.43750000e-03,7.18750000e-03
-1.67215625e-07,4.71875000e-03,-3.12500000e-04
-1.66415625e-07,6.03125000e-03,8.35937500e-03
-1.65615625e-07,9.03125000e-03,1.21093750e-02
-1.64815625e-07,2.93750000e-03,3.43750000e-03
-1.64015625e-07,5.15625000e-03,1.03906250e-02
-1.63215625e-07,7.18750000e-03,6.64062500e-03
-1.62415625e-07,1.25000000e-03,7.03125000e-03
-1.61615625e-07,9.15625000e-03,1.07031250e-02
-1.60815625e-07,2.87500000e-03,5.46875000e-03
-1.60015625e-07,8.68750000e-03,1.07812500e-02
-1.59215625e-07,5.31250000e-03,1.56250000e-04
-1.58415625e-07,1.09062500e-02,7.03125000e-03
-1.57615625e-07,2.50000000e-04,5.54687500e-03
-1.56815625e-07,6.25000000e-03,9.60937500e-03
-1.56015625e-07,6.28125000e-03,1.07812500e-02
-1.55215625e-07,5.00000000e-03,8.67187500e-03
-1.54415625e-07,6.87500000e-04,1.64062500e-03
-1.53615625e-07,1.07187500e-02,2.02343750e-02
-1.52815625e-07,5.53125000e-03,7.03125000e-03
-1.52015625e-07,4.62500000e-03,3.51562500e-03
-1.51215625e-07,3.28125000e-03,-1.79687500e-03
-1.50415625e-07,9.78125000e-03,1.17187500e-02
-1.49615625e-07,4.34375000e-03,3.28125000e-03
-1.48815625e-07,9.21875000e-03,-2.89062500e-03
-1.48015625e-07,3.43750000e-04,1.87500000e-03
-1.47215625e-07,2.18750000e-03,1.37500000e-02
-1.46415625e-07,9.68750000e-03,8.04687500e-03
-1.45615625e-07,8.40625000e-03,6.32812500e-03
-1.44815625e-07,2.75000000e-03,8.75000000e-03
-1.44015625e-07,4.78125000e-03,5.54687500e-03
-1.43215625e-07,5.25000000e-03,5.54687500e-03
-1.42415625e-07,5.53125000e-03,6.25000000e-03
-1.41615625e-07,5.96875000e-03,8.75000000e-03
-1.40815625e-07,1.46875000e-03,7.81250000e-04
-1.40015625e-07,9.37500000e-03,8.98437500e-03
-1.39215625e-07,8.31250000e-03,1.00000000e-02
-1.38415625e-07,5.81250000e-03,8.75000000e-03
-1.37615625e-07,1.96875000e-03,5.46875000e-03
-1.36815625e-07,3.56250000e-03,8.82812500e-03
-1.36015625e-07,8.00000000e-03,7.42187500e-03
-1.35215625e-07,4.84375000e-03,6.17187500e-03
-1.34415625e-07,7.21875000e-03,-4.68750000e-04
-1.33615625e-07,6.46875000e-03,5.46875000e-04
-1.32815625e-07,8.15625000e-03,4.45312500e-03
-1.32015625e-07,4.78125000e-03,4.60937500e-03
-1.31215625e-07,4.96875000e-03,1.04687500e-02
-1.30415625e-07,4.71875000e-03,7.81250000e-03
-1.29615625e-07,6.46875000e-03,1.38281250e-02
-1.28815625e-07,-9.37500000e-05,9.76562500e-03
-1.28015625e-07,9.81250000e-03,1.84375000e-02
-1.27215625e-07,4.09375000e-03,8.20312500e-03
-1.26415625e-07,7.34375000e-03,1.18750000e-02
-1.25615625e-07,3.37500000e-03,3.12500000e-03
-1.24815625e-07,6.00000000e-03,1.08593750e-02
-1.24015625e-07,4.53125000e-03,1.32031250e-02
-1.23215625e-07,6.12500000e-03,6.64062500e-03
-1.22415625e-07,1.62500000e-03,8.12500000e-03
-1.21615625e-07,6.15625000e-03,7.50000000e-03
-1.20815625e-07,7.03125000e-03,3.04687500e-03
-1.20015625e-07,1.09375000e-02,1.51562500e-02
-1.19215625e-07,4.53125000e-03,1.14062500e-02
-1.18415625e-07,5.53125000e-03,7.73437500e-03
-1.17615625e-07,8.84375000e-03,2.42187500e-03
-1.16815625e-07,7.21875000e-03,6.79687500e-03
-1.16015625e-07,3.25000000e-03,1.18750000e-02
-1.15215625e-07,8.06250000e-03,-3.90625000e-03
-1.14415625e-07,5.78125000e-03,1.58593750e-02
-1.13615625e-07,6.12500000e-03,2.50781250e-02
-1.12815625e-07,6.21875000e-03,1.10937500e-02
-1.12015625e-07,7.84375000e-03,7.50000000e-03
-1.11215625e-07,3.78125000e-03,9.53125000e-03
-1.10415625e-07,8.53125000e-03,1.82812500e-02
-1.09615625e-07,2.81250000e-03,1.13281250e-02
-1.08815625e-07,7.09375000e-03,4.37500000e-03
-1.08015625e-07,7.18750000e-03,3.90625000e-03
-1.07215625e-07,7.81250000e-03,1.21093750e-02
-1.06415625e-07,1.90625000e-03,3.90625000e-03
-1.05615625e-07,1.03125000e-02,6.40625000e-03
-1.04815625e-07,5.12500000e-03,1.21875000e-02
-1.04015625e-07,7.59375000e-03,1.03906250e-02
-1.03215625e-07,3.65625000e-03,1.37500000e-02
-1.02415625e-07,6.00000000e-03,1.38281250e-02
-1.01615625e-07,-7.18750000e-04,2.03906250e-02
-1.00815625e-07,6.25000000e-03,2.15625000e-02
-1.00015625e-07,4.37500000e-03,1.28125000e-02
-9.92156250e-08,5.43750000e-03,4.68750000e-03
-9.84156250e-08,6.71875000e-03,2.00781250e-02
-9.76156250e-08,3.15625000e-03,3.28125000e-03
-9.68156250e-08,3.68750000e-03,1.58593750e-02
-9.60156250e-08,7.15625000e-03,1.66406250e-02
-9.52156250e-08,5.46875000e-03,5.00000000e-03
-9.44156250e-08,6.21875000e-03,1.14062500e-02
-9.36156250e-08,8.03125000e-03,1.38281250e-02
-9.28156250e-08,7.96875000e-03,1.26562500e-02
-9.20156250e-08,7.21875000e-03,1.46093750e-02
-9.12156250e-08,5.28125000e-03,6.71875000e-03
-9.04156250e-08,5.34375000e-03,1.37500000e-02
-8.96156250e-08,8.78125000e-03,1.08593750e-02
-8.88156250e-08,3.18750000e-03,1.70312500e-02
-8.80156250e-08,5.84375000e-03,1.73437500e-02
-8.72156250e-08,8.87500000e-03,2.07031250e-02
-8.64156250e-08,6.71875000e-03,1.38281250e-02
-8.56156250e-08,6.56250000e-03,1.48437500e-02
-8.48156250e-08,1.01250000e-02,1.19531250e-02
-8.40156250e-08,5.40625000e-03,1.09375000e-02
-8.32156250e-08,6.37500000e-03,1.14843750e-02
-8.24156250e-08,5.87500000e-03,6.40625000e-03
-8.16156250e-08,1.17812500e-02,1.30468750e-02
-8.08156250e-08,3.12500000e-05,4.29687500e-03
-8.00156250e-08,6.68750000e-03,5.23437500e-03
-7.92156250e-08,6.09375000e-03,1.05468750e-02
-7.84156250e-08,8.00000000e-03,1.17187500e-02
-7.76156250e-08,3.43750000e-03,9.06250000e-03
-7.68156250e-08,6.28125000e-03,1.10156250e-02
-7.60156250e-08,3.15625000e-03,1.35937500e-02
-7.52156250e-08,7.81250000e-03,1.07031250e-02
-7.44156250e-08,5.15625000e-03,3.12500000e-04
-7.36156250e-08,1.22187500e-02,7.81250000e-03
-7.28156250e-08,5.25000000e-03,1.82031250e-02
-7.20156250e-08,9.53125000e-03,1.78125000e-02
-7.12156250e-08,4.09375000e-03,7.18750000e-03
-7.04156250e-08,6.71875000e-03,1.52343750e-02
-6.96156250e-08,1.07187500e-02,4.37500000e-03
-6.88156250e-08,1.28437500e-02,1.66406250e-02
-6.80156250e-08,5.59375000e-03,8.59375000e-03
-6.72156250e-08,2.68750000e-03,7.65625000e-03
-6.64156250e-08,1.00625000e-02,1.53125000e-02
-6.56156250e-08,6.18750000e-03,3.75000000e-03
-6.48156250e-08,8.62500000e-03,5.85937500e-03
-6.40156250e-08,6.00000000e-03,4.14062500e-03
-6.32156250e-08,9.68750000e-03,1.32812500e-02
-6.24156250e-08,8.53125000e-03,3.35937500e-03
-6.16156250e-08,4.78125000e-03,1.80468750e-02
-6.08156250e-08,6.65625000e-03,1.71875000e-02
-6.00156250e-08,3.84375000e-03,-2.92265625e-01
-5.92156250e-08,9.81250000e-03,-8.61718750e-01
-5.84156250e-08,7.37500000e-03,-1.23625000e+00
-5.76156250e-08,7.65625000e-03,-1.34257813e+00
-5.68156250e-08,4.28125000e-03,-1.38890625e+00
-5.60156250e-08,9.21875000e-03,-1.40812500e+00
-5.52156250e-08,-5.31250000e-04,-1.41242188e+00
-5.44156250e-08,8.84375000e-03,-1.40281250e+00
-5.36156250e-08,7.31250000e-03,-1.39992187e+00
-5.28156250e-08,9.65625000e-03,-1.40000000e+00
-5.20156250e-08,4.50000000e-03,-1.42500000e+00
-5.12156250e-08,9.87500000e-03,-1.41507812e+00
-5.04156250e-08,5.81250000e-03,-1.41898437e+00
-4.96156250e-08,5.34375000e-03,-1.41179688e+00
-4.88156250e-08,4.40625000e-03,-1.42390625e+00
-4.80156250e-08,9.15625000e-03,-1.42453125e+00
-4.72156250e-08,2.18750000e-03,-1.42726562e+00
-4.64156250e-08,8.93750000e-03,-1.42109375e+00
-4.56156250e-08,-7.50000000e-04,-1.42484375e+00
-4.48156250e-08,9.03125000e-03,-1.43851562e+00
-4.40156250e-08,8.03125000e-03,-1.43898437e+00
-4.32156250e-08,5.93750000e-03,-1.43039063e+00
-4.24156250e-08,3.34375000e-03,-1.42953125e+00
-4.16156250e-08,4.93750000e-03,-1.43562500e+00
-4.08156250e-08,6.56250000e-03,-1.42929688e+00
-4.00156250e-08,6.46875000e-03,-1.43234375e+00
-3.92156250e-08,3.43750000e-03,-1.43117187e+00
-3.84156250e-08,5.78125000e-03,-1.43421875e+00
-3.76156250e-08,6.00000000e-03,-1.42796875e+00
-3.68156250e-08,4.21875000e-03,-1.42328125e+00
-3.60156250e-08,7.90625000e-03,-1.43625000e+00
-3.52156250e-08,3.34375000e-03,-1.42609375e+00
-3.44156250e-08,-1.00000000e-03,-1.38195313e+00
-3.36156250e-08,5.62500000e-04,-1.37609375e+00
-3.28156250e-08,-1.87187500e-02,-1.41335938e+00
-3.20156250e-08,-4.50000000e-02,-1.42953125e+00
-3.12156250e-08,-9.58437500e-02,-1.42953125e+00
-3.04156250e-08,-1.74250000e-01,-1.41914063e+00
-2.96156250e-08,-2.91531250e-01,-1.42843750e+00
-2.88156250e-08,-4.19750000e-01,-1.42710938e+00
-2.80156250e-08,-5.61312500e-01,-1.42218750e+00
-2.72156250e-08,-6.98531250e-01,-1.41531250e+00
-2.64156250e-08,-8.12531250e-01,-1.42718750e+00
-2.56156250e-08,-9.00937500e-01,-1.41460938e+00
-2.48156250e-08,-9.84937500e-01,-1.40843750e+00
-2.40156250e-08,-1.04278125e+00,-1.41093750e+00
-2.32156250e-08,-1.09021875e+00,-1.41359375e+00
-2.24156250e-08,-1.11500000e+00,-1.42203125e+00
-2.16156250e-08,-1.13734375e+00,-1.42890625e+00
-2.08156250e-08,-1.14796875e+00,-1.41992188e+00
-2.00156250e-08,-1.14625000e+00,-1.42414063e+00
-1.92156250e-08,-1.13100000e+00,-1.42296875e+00
-1.84156250e-08,-1.11071875e+00,-1.42375000e+00
-1.76156250e-08,-1.08693750e+00,-1.42007813e+00
-1.68156250e-08,-1.05315625e+00,-1.42023438e+00
-1.60156250e-08,-1.00731250e+00,-1.41593750e+00
-1.52156250e-08,-9.68281250e-01,-1.42289062e+00
-1.44156250e-08,-9.26937500e-01,-1.42562500e+00
-1.36156250e-08,-8.76312500e-01,-1.41718750e+00
-1.28156250e-08,-8.29312500e-01,-1.43421875e+00
-1.20156250e-08,-7.85281250e-01,-1.41257813e+00
-1.12156250e-08,-7.44093750e-01,-1.42179688e+00
-1.04156250e-08,-7.05406250e-01,-1.42257813e+00
-9.61562500e-09,-6.62750000e-01,-1.43242188e+00
-8.81562500e-09,-6.30218750e-01,-1.42460938e+00
-8.01562500e-09,-5.87781250e-01,-1.41351563e+00
-7.21562500e-09,-5.50468750e-01,-1.42820313e+00
-6.41562500e-09,-5.13875000e-01,-1.42671875e+00
-5.61562500e-09,-4.85656250e-01,-1.41992188e+00
-4.81562500e-09,-4.50500000e-01,-1.42078125e+00
-4.01562500e-09,-4.33031250e-01,-1.39945312e+00
-3.21562500e-09,-4.03406250e-01,-1.37390625e+00
-2.41562500e-09,-3.83562500e-01,-1.30304688e+00
-1.61562500e-09,-3.54656250e-01,-1.04945313e+00
-8.15625000e-10,-3.37968750e-01,-6.14687500e-01
-1.56250000e-11,-3.13343750e-01,-2.96562500e-01
7.84375000e-10,-2.99781250e-01,-1.63515625e-01
1.58437500e-09,-2.85500000e-01,-1.02500000e-01
2.38437500e-09,-2.78187500e-01,-6.52343750e-02
3.18437500e-09,-2.61906250e-01,-5.30468750e-02
3.98437500e-09,-2.53312500e-01,-3.53125000e-02
4.78437500e-09,-2.36500000e-01,-4.80468750e-02
5.58437500e-09,-2.31312500e-01,-3.85937500e-02
6.38437500e-09,-2.15687500e-01,-3.15625000e-02
7.18437500e-09,-2.01156250e-01,-3.62500000e-02
7.98437500e-09,-1.86843750e-01,-3.33593750e-02
8.78437500e-09,-1.83125000e-01,-3.04687500e-02
9.58437500e-09,-1.73062500e-01,-1.68750000e-02
1.03843750e-08,-1.64500000e-01,-1.88281250e-02
1.11843750e-08,-1.58343750e-01,-1.82031250e-02
1.19843750e-08,-1.43562500e-01,-1.96875000e-02
1.27843750e-08,-1.38781250e-01,-1.96093750e-02
1.35843750e-08,-1.29593750e-01,-1.29687500e-02
1.43843750e-08,-1.19031250e-01,-1.05468750e-02
1.51843750e-08,-1.17625000e-01,-6.64062500e-03
1.59843750e-08,-1.08750000e-01,-2.64062500e-02
1.67843750e-08,-1.10312500e-01,-1.22656250e-02
1.75843750e-08,-9.86250000e-02,-4.68750000e-03
1.83843750e-08,-9.90625000e-02,-1.10156250e-02
1.91843750e-08,-8.69375000e-02,-4.06250000e-03
1.99843750e-08,-8.60000000e-02,-3.35937500e-03
2.07843750e-08,-8.19375000e-02,-5.00000000e-03
2.15843750e-08,-8.63125000e-02,-2.57812500e-03
2.23843750e-08,-7.48125000e-02,-5.00000000e-03
2.31843750e-08,-6.73437500e-02,2.34375000e-03
2.39843750e-08,-6.81875000e-02,8.28125000e-03
2.47843750e-08,-6.86875000e-02,4.60937500e-03
2.55843750e-08,-6.18125000e-02,1.14843750e-02
2.63843750e-08,-5.82500000e-02,3.90625000e-04
2.71843750e-08,-5.22187500e-02,8.35937500e-03
2.79843750e-08,-5.76875000e-02,3.12500000e-03
2.87843750e-08,-4.90937500e-02,5.00000000e-03
2.95843750e-08,-4.89375000e-02,7.03125000e-04
3.03843750e-08,-4.05937500e-02,1.00000000e-02
3.11843750e-08,-4.79375000e-02,1.86718750e-02
3.19843750e-08,-4.69375000e-02,1.96875000e-02
3.27843750e-08,-4.34375000e-02,2.65625000e-02
3.35843750e-08,-4.13750000e-02,3.00781250e-02
3.43843750e-08,-4.68125000e-02,2.57031250e-02
3.51843750e-08,-4.20312500e-02,3.22656250e-02
3.59843750e-08,-4.02812500e-02,3.68750000e-02
3.67843750e-08,-4.12187500e-02,2.53906250e-02
3.75843750e-08,-4.17500000e-02,2.35156250e-02
3.83843750e-08,-4.06250000e-02,2.53906250e-02
3.91843750e-08,-4.21875000e-02,3.25000000e-02
3.99843750e-08,-4.09687500e-02,2.48437500e-02
4.07843750e-08,-3.73125000e-02,2.42968750e-02
4.15843750e-08,-3.43750000e-02,2.21875000e-02
4.23843750e-08,-4.48750000e-02,2.47656250e-02
4.31843750e-08,-3.88125000e-02,1.66406250e-02
4.39843750e-08,-4.27812500e-02,1.81250000e-02
4.47843750e-08,-3.73125000e-02,1.59375000e-02
4.55843750e-08,-3.86250000e-02,1.28125000e-02
4.63843750e-08,-3.35625000e-02,1.73437500e-02
4.71843750e-08,-3.53437500e-02,1.32812500e-02
4.79843750e-08,-2.73125000e-02,1.85937500e-02
4.87843750e-08,-3.00937500e-02,1.37500000e-02
4.95843750e-08,-3.31562500e-02,1.51562500e-02
5.03843750e-08,-3.18750000e-02,9.76562500e-03
5.11843750e-08,-2.65625000e-02,1.98437500e-02
5.19843750e-08,-2.90625000e-02,1.60937500e-02
5.27843750e-08,-2.50937500e-02,1.82812500e-02
5.35843750e-08,-2.67812500e-02,1.65625000e-02
5.43843750e-08,-1.99687500e-02,5.54687500e-03
5.51843750e-08,-2.11875000e-02,2.16406250e-02
5.59843750e-08,-2.04375000e-02,1.77343750e-02
5.67843750e-08,-2.37187500e-02,1.91406250e-02
