data/raw/TriggerAuto_ALL_20231205194601091.csv

Model,MSO64B
Channel,CH1,,Channel,CH2
Label,,,Label,
Waveform Type,ANALOG,,Waveform Type,ANALOG
Horizontal Units,s,,Horizontal Units,s
Sample Interval,8.00000000e-10,,Sample Interval,8.00000000e-10
Record Length,5000,,Record Length,5000
Zero Index,349.12890625,,Zero Index,349.12890625
Vertical Units,V,,Vertical Units,V
,,,,
ANALOG_Thumbnail,,,ANALOG_Thumbnail,
yOffset,0.000000,,yOffset,0.000000
yPosition,2.160000,,yPosition,2.180000

Labels,,
TIME,CH1,CH2
-2.79303125e-07,1.40937500e-02,2.27343750e-02
-2.78503125e-07,8.28125000e-03,1.66406250e-02
-2.77703125e-07,9.87500000e-03,2.02343750e-02
-2.76903125e-07,7.71875000e-03,2.66406250e-02
-2.76103125e-07,1.06562500e-02,1.71875000e-02
-2.75303125e-07,4.81250000e-03,1.82031250e-02
-2.74503125e-07,1.20312500e-02,2.33593750e-02
-2.73703125e-07,9.59375000e-03,2.19531250e-02
-2.72903125e-07,1.69375000e-02,1.66406250e-02
-2.72103125e-07,7.53125000e-03,1.75000000e-02
-2.71303125e-07,1.19062500e-02,2.20312500e-02
-2.70503125e-07,1.47500000e-02,1.74218750e-02
-2.69703125e-07,1.53750000e-02,2.86718750e-02
-2.68903125e-07,7.21875000e-03,1.03906250e-02
-2.68103125e-07,9.25000000e-03,1.10937500e-02
-2.67303125e-07,1.60312500e-02,1.68750000e-02
-2.66503125e-07,1.00000000e-02,1.62500000e-02
-2.65703125e-07,1.20937500e-02,1.75781250e-02
-2.64903125e-07,6.90625000e-03,1.42968750e-02
-2.64103125e-07,1.54062500e-02,2.63281250e-02
-2.63303125e-07,9.53125000e-03,2.98437500e-02
-2.62503125e-07,1.51875000e-02,1.57812500e-02
-2.61703125e-07,1.05625000e-02,1.42187500e-02
-2.60903125e-07,8.87500000e-03,2.14843750e-02
-2.60103125e-07,1.60625000e-02,1.74218750e-02
-2.59303125e-07,9.96875000e-03,2.28906250e-02
-2.58503125e-07,1.08125000e-02,2.58593750e-02
-2.57703125e-07,1.19062500e-02,2.11718750e-02
-2.56903125e-07,1.42812500e-02,1.59375000e-02
-2.56103125e-07,7.21875000e-03,1.61718750e-02
-2.55303125e-07,1.35937500e-02,1.60937500e-02
-2.54503125e-07,1.28437500e-02,1.42187500e-02
-2.53703125e-07,1.66875000e-02,2.07812500e-02
-2.52903125e-07,6.43750000e-03,1.14843750e-02
-2.52103125e-07,1.28437500e-02,1.97656250e-02
-2.51303125e-07,9.75000000e-03,2.67968750e-02
-2.50503125e-07,1.35625000e-02,2.71875000e-02
-2.49703125e-07,1.08437500e-02,1.20312500e-02
-2.48903125e-07,1.35937500e-02,2.89062500e-02
-2.48103125e-07,5.25000000e-03,2.29687500e-02
-2.47303125e-07,1.59062500e-02,2.00000000e-02
-2.46503125e-07,6.68750000e-03,2.39062500e-02
-2.45703125e-07,8.09375000e-03,2.17187500e-02
-2.44903125e-07,1.34062500e-02,1.19531250e-02
-2.44103125e-07,1.55312500e-02,1.95312500e-02
-2.43303125e-07,8.78125000e-03,1.13281250e-02
-2.42503125e-07,1.10000000e-02,2.17187500e-02
-2.41703125e-07,1.10937500e-02,1.65625000e-02
-2.40903125e-07,1.24687500e-02,1.82812500e-02
-2.40103125e-07,8.00000000e-03,1.60156250e-02
-2.39303125e-07,7.06250000e-03,2.09375000e-02
-2.38503125e-07,1.27187500e-02,2.64843750e-02
-2.37703125e-07,1.23125000e-02,8.04687500e-03
-2.36903125e-07,1.18125000e-02,1.90625000e-02
-2.36103125e-07,1.16562500e-02,2.39843750e-02
-2.35303125e-07,7.81250000e-03,1.85937500e-02
-2.34503125e-07,1.35937500e-02,1.08593750e-02
-2.33703125e-07,1.07812500e-02,2.28906250e-02
-2.32903125e-07,8.28125000e-03,1.20312500e-02
-2.32103125e-07,8.12500000e-03,2.30468750e-02
-2.31303125e-07,1.66250000e-02,1.45312500e-02
-2.30503125e-07,7.37500000e-03,1.51562500e-02
-2.29703125e-07,1.52187500e-02,2.93750000e-02
-2.28903125e-07,7.40625000e-03,1.58593750e-02
-2.28103125e-07,1.05000000e-02,2.07812500e-02
-2.27303125e-07,9.65625000e-03,8.75000000e-03
-2.26503125e-07,1.48125000e-02,2.76562500e-02
-2.25703125e-07,8.09375000e-03,1.50781250e-02
-2.24903125e-07,1.30312500e-02,1.29687500e-02
-2.24103125e-07,5.68750000e-03,7.65625000e-03
-2.23303125e-07,1.24687500e-02,3.10937500e-02
-2.22503125e-07,8.40625000e-03,2.03125000e-02
-2.21703125e-07,1.58750000e-02,1.56250000e-02
-2.20903125e-07,6.62500000e-03,2.07031250e-02
-2.20103125e-07,6.75000000e-03,2.28125000e-02
-2.19303125e-07,1.15000000e-02,2.44531250e-02
-2.18503125e-07,1.13437500e-02,1.39062500e-02
-2.17703125e-07,4.37500000e-03,1.47656250e-02
-2.16903125e-07,8.96875000e-03,1.35937500e-02
-2.16103125e-07,1.38750000e-02,1.88281250e-02
-2.15303125e-07,1.35625000e-02,1.74218750e-02
-2.14503125e-07,1.15000000e-02,5.46875000e-03
-2.13703125e-07,7.96875000e-03,1.07031250e-02
-2.12903125e-07,1.40312500e-02,2.08593750e-02
-2.12103125e-07,1.08750000e-02,8.90625000e-03
-2.11303125e-07,1.30000000e-02,1.32031250e-02
-2.10503125e-07,1.25312500e-02,1.90625000e-02
-2.09703125e-07,5.09375000e-03,2.80468750e-02
-2.08903125e-07,1.04062500e-02,9.37500000e-03
-2.08103125e-07,7.75000000e-03,1.97656250e-02
-2.07303125e-07,9.31250000e-03,1.80468750e-02
-2.06503125e-07,9.31250000e-03,2.42187500e-02
-2.05703125e-07,1.20000000e-02,1.65625000e-02
-2.04903125e-07,4.87500000e-03,1.35937500e-02
-2.04103125e-07,9.62500000e-03,1.95312500e-02
-2.03303125e-07,7.50000000e-03,1.94531250e-02
-2.02503125e-07,1.70312500e-02,2.00000000e-02
-2.01703125e-07,5.90625000e-03,9.45312500e-03
-2.00903125e-07,1.30312500e-02,1.64843750e-02
-2.00103125e-07,1.00000000e-02,2.34375000e-02
-1.99303125e-07,1.24375000e-02,1.99218750e-02
-1.98503125e-07,5.00000000e-03,6.17187500e-03
-1.97703125e-07,1.30312500e-02,2.32031250e-02
-1.96903125e-07,9.18750000e-03,2.50781250e-02
-1.96103125e-07,1.30312500e-02,4.14062500e-03
-1.95303125e-07,2.06250000e-03,1.45312500e-02
-1.94503125e-07,8.06250000e-03,1.42968750e-02
-1.93703125e-07,1.31250000e-02,2.35937500e-02
-1.92903125e-07,1.28750000e-02,1.20312500e-02
-1.92103125e-07,3.56250000e-03,1.64062500e-02
-1.91303125e-07,1.11562500e-02,1.42187500e-02
-1.90503125e-07,1.09062500e-02,2.17187500e-02
-1.89703125e-07,7.31250000e-03,1.80468750e-02
-1.88903125e-07,8.81250000e-03,1.49218750e-02
-1.88103125e-07,8.40625000e-03,1.88281250e-02
-1.87303125e-07,1.15312500e-02,1.87500000e-02
-1.86503125e-07,7.12500000e-03,1.21093750e-02
-1.85703125e-07,1.28437500e-02,1.70312500e-02
-1.84903125e-07,8.06250000e-03,1.47656250e-02
-1.84103125e-07,6.06250000e-03,1.56250000e-02
-1.83303125e-07,1.38750000e-02,1.02343750e-02
-1.82503125e-07,1.09687500e-02,1.78125000e-02
-1.81703125e-07,1.07187500e-02,1.47656250e-02
-1.80903125e-07,1.07187500e-02,1.77343750e-02
-1.80103125e-07,1.50625000e-02,1.73437500e-02
-1.79303125e-07,5.71875000e-03,7.81250000e-03
-1.78503125e-07,1.73437500e-02,2.04687500e-02
-1.77703125e-07,7.96875000e-03,2.09375000e-02
-1.76903125e-07,1.20000000e-02,3.13281250e-02
-1.76103125e-07,6.40625000e-03,8.59375000e-03
-1.75303125e-07,1.61250000e-02,2.77343750e-02
-1.74503125e-07,9.28125000e-03,1.57031250e-02
-1.73703125e-07,1.03437500e-02,1.50000000e-02
-1.72903125e-07,6.21875000e-03,1.67968750e-02
-1.72103125e-07,1.49687500e-02,1.54687500e-02
-1.71303125e-07,4.84375000e-03,1.68750000e-02
-1.70503125e-07,1.41875000e-02,9.53125000e-03
-1.69703125e-07,6.50000000e-03,1.45312500e-02
-1.68903125e-07,9.46875000e-03,2.28906250e-02
-1.68103125e-07,1.05937500e-02,1.67187500e-02
-1.67303125e-07,1.31250000e-02,2.02343750e-02
-1.66503125e-07,8.21875000e-03,1.27343750e-02
-1.65703125e-07,7.68750000e-03,1.57812500e-02
-1.64903125e-07,1.24062500e-02,1.94531250e-02
-1.64103125e-07,1.42812500e-02,1.81250000e-02
-1.63303125e-07,8.18750000e-03,8.20312500e-03
-1.62503125e-07,4.87500000e-03,1.52343750e-02
-1.61703125e-07,9.59375000e-03,2.34375000e-02
-1.60903125e-07,1.06875000e-02,1.21875000e-02
-1.60103125e-07,1.32187500e-02,2.23437500e-02
-1.59303125e-07,1.00312500e-02,1.67187500e-02
-1.58503125e-07,8.56250000e-03,2.29687500e-02
-1.57703125e-07,1.39687500e-02,1.86718750e-02
-1.56903125e-07,8.21875000e-03,1.82812500e-02
-1.56103125e-07,1.03437500e-02,2.67187500e-02
-1.55303125e-07,1.06250000e-02,2.57812500e-02
-1.54503125e-07,1.29375000e-02,1.37500000e-02
-1.53703125e-07,2.46875000e-03,2.34375000e-03
-1.52903125e-07,1.19062500e-02,1.97656250e-02
-1.52103125e-07,8.96875000e-03,1.60937500e-02
-1.51303125e-07,1.86562500e-02,1.89062500e-02
-1.50503125e-07,7.40625000e-03,9.53125000e-03
-1.49703125e-07,1.40000000e-02,2.50781250e-02
-1.48903125e-07,7.96875000e-03,1.79687500e-02
-1.48103125e-07,9.90625000e-03,2.22656250e-02
-1.47303125e-07,8.34375000e-03,1.13281250e-02
-1.46503125e-07,1.29375000e-02,2.04687500e-02
-1.45703125e-07,5.12500000e-03,2.78125000e-02
-1.44903125e-07,1.80937500e-02,1.06250000e-02
-1.44103125e-07,5.59375000e-03,1.36718750e-02
-1.43303125e-07,1.08437500e-02,1.95312500e-02
-1.42503125e-07,1.02187500e-02,1.53906250e-02
-1.41703125e-07,1.36562500e-02,1.69531250e-02
-1.40903125e-07,5.28125000e-03,2.39062500e-02
-1.40103125e-07,1.16875000e-02,1.66406250e-02
-1.39303125e-07,1.29687500e-02,2.00781250e-02
-1.38503125e-07,7.71875000e-03,1.93750000e-02
-1.37703125e-07,9.34375000e-03,2.26562500e-02
-1.36903125e-07,7.68750000e-03,1.21093750e-02
-1.36103125e-07,9.84375000e-03,3.16406250e-02
-1.35303125e-07,1.24687500e-02,2.23437500e-02
-1.34503125e-07,1.13125000e-02,2.81250000e-02
-1.33703125e-07,1.58437500e-02,1.97656250e-02
-1.32903125e-07,7.46875000e-03,2.81250000e-02
-1.32103125e-07,1.15937500e-02,1.83593750e-02
-1.31303125e-07,9.37500000e-03,1.96875000e-02
-1.30503125e-07,6.59375000e-03,2.18750000e-02
-1.29703125e-07,9.71875000e-03,5.07812500e-03
-1.28903125e-07,1.40625000e-02,2.00000000e-02
-1.28103125e-07,2.06250000e-03,1.37500000e-02
-1.27303125e-07,1.10312500e-02,1.79687500e-02
-1.26503125e-07,8.96875000e-03,1.13281250e-02
-1.25703125e-07,8.71875000e-03,1.68750000e-02
-1.24903125e-07,2.84375000e-03,1.82031250e-02
-1.24103125e-07,1.31250000e-02,1.93750000e-02
-1.23303125e-07,8.43750000e-03,1.35156250e-02
-1.22503125e-07,1.29375000e-02,1.76562500e-02
-1.21703125e-07,8.46875000e-03,9.76562500e-03
-1.20903125e-07,1.55937500e-02,3.17968750e-02
-1.20103125e-07,7.65625000e-03,1.32031250e-02
-1.19303125e-07,1.24375000e-02,1.53125000e-02
-1.18503125e-07,4.93750000e-03,1.04687500e-02
-1.17703125e-07,6.50000000e-03,1.89062500e-02
-1.16903125e-07,8.37500000e-03,1.91406250e-02
-1.16103125e-07,1.37187500e-02,1.87500000e-02
-1.15303125e-07,4.43750000e-03,1.46093750e-02
-1.14503125e-07,9.15625000e-03,1.70312500e-02
-1.13703125e-07,1.34062500e-02,2.20312500e-02
-1.12903125e-07,8.87500000e-03,1.15625000e-02
-1.12103125e-07,1.27812500e-02,1.97656250e-02
-1.11303125e-07,7.59375000e-03,1.96875000e-02
-1.10503125e-07,1.42187500e-02,2.29687500e-02
-1.09703125e-07,1.28750000e-02,1.77343750e-02
-1.08903125e-07,7.78125000e-03,1.46093750e-02
-1.08103125e-07,1.01875000e-02,2.14843750e-02
-1.07303125e-07,3.78125000e-03,3.11718750e-02
-1.06503125e-07,1.03437500e-02,1.31250000e-02
-1.05703125e-07,6.90625000e-03,2.82812500e-02
-1.04903125e-07,8.06250000e-03,1.70312500e-02
-1.04103125e-07,6.40625000e-03,9.92187500e-03
-1.03303125e-07,1.15312500e-02,1.78906250e-02
-1.02503125e-07,3.59375000e-03,1.32812500e-02
-1.01703125e-07,1.03437500e-02,2.34375000e-02
-1.00903125e-07,9.34375000e-03,1.92968750e-02
-1.00103125e-07,1.39062500e-02,2.27343750e-02
-9.93031250e-08,1.09687500e-02,1.81250000e-02
-9.85031250e-08,1.69687500e-02,2.15625000e-02
-9.77031250e-08,3.90625000e-03,1.89062500e-02
-9.69031250e-08,9.34375000e-03,1.90625000e-02
-9.61031250e-08,8.90625000e-03,1.65625000e-02
-9.53031250e-08,1.29062500e-02,2.59375000e-02
-9.45031250e-08,9.93750000e-03,2.03906250e-02
-9.37031250e-08,1.28125000e-02,1.87500000e-02
-9.29031250e-08,3.68750000e-03,1.74218750e-02
-9.21031250e-08,7.81250000e-03,2.29687500e-02
-9.13031250e-08,1.48125000e-02,1.61718750e-02
-9.05031250e-08,1.44687500e-02,2.32031250e-02
-8.97031250e-08,4.81250000e-03,2.74218750e-02
-8.89031250e-08,1.03125000e-02,1.61718750e-02
-8.81031250e-08,1.13125000e-02,2.10156250e-02
-8.73031250e-08,1.24375000e-02,1.22656250e-02
-8.65031250e-08,1.24687500e-02,1.40625000e-02
-8.57031250e-08,9.31250000e-03,2.38281250e-02
-8.49031250e-08,1.40000000e-02,2.22656250e-02
-8.41031250e-08,9.84375000e-03,2.10156250e-02
-8.33031250e-08,1.40625000e-02,1.64062500e-02
-8.25031250e-08,1.11875000e-02,2.00000000e-02
-8.17031250e-08,1.02812500e-02,2.05468750e-02
-8.09031250e-08,1.16250000e-02,2.31250000e-02
-8.01031250e-08,1.09687500e-02,2.17187500e-02
-7.93031250e-08,8.28125000e-03,1.50781250e-02
-7.85031250e-08,7.31250000e-03,2.00000000e-02
-7.77031250e-08,1.10625000e-02,3.08593750e-02
-7.69031250e-08,2.15625000e-03,1.28125000e-02
-7.61031250e-08,1.30937500e-02,2.32031250e-02
-7.53031250e-08,1.08125000e-02,1.67968750e-02
-7.45031250e-08,1.11875000e-02,2.10156250e-02
-7.37031250e-08,8.43750000e-03,1.09375000e-02
-7.29031250e-08,1.31875000e-02,2.71875000e-02
-7.21031250e-08,8.62500000e-03,2.17968750e-02
-7.13031250e-08,8.18750000e-03,2.07812500e-02
-7.05031250e-08,6.21875000e-03,1.52343750e-02
-6.97031250e-08,1.48750000e-02,2.40625000e-02
-6.89031250e-08,7.84375000e-03,1.29687500e-02
-6.81031250e-08,1.59062500e-02,2.33593750e-02
-6.73031250e-08,9.56250000e-03,1.59375000e-02
-6.65031250e-08,1.22187500e-02,2.10937500e-02
-6.57031250e-08,1.17812500e-02,1.90625000e-02
-6.49031250e-08,1.46250000e-02,1.98437500e-02
-6.41031250e-08,3.28125000e-03,1.64062500e-02
-6.33031250e-08,1.06562500e-02,7.50000000e-03
-6.25031250e-08,1.49687500e-02,2.32031250e-02
-6.17031250e-08,1.13125000e-02,1.89062500e-02
-6.09031250e-08,9.46875000e-03,-2.59375000e-02
-6.01031250e-08,1.04375000e-02,-4.58671875e-01
-5.93031250e-08,1.15937500e-02,-1.01625000e+00
-5.85031250e-08,7.62500000e-03,-1.25187500e+00
-5.77031250e-08,1.43437500e-02,-1.30484375e+00
-5.69031250e-08,1.18750000e-02,-1.38218750e+00
-5.61031250e-08,4.00000000e-03,-1.40046875e+00
-5.53031250e-08,1.45312500e-02,-1.39250000e+00
-5.45031250e-08,1.44687500e-02,-1.38796875e+00
-5.37031250e-08,9.09375000e-03,-1.40406250e+00
-5.29031250e-08,1.28125000e-02,-1.39851563e+00
-5.21031250e-08,1.53750000e-02,-1.40328125e+00
-5.13031250e-08,5.15625000e-03,-1.41226563e+00
-5.05031250e-08,1.17812500e-02,-1.40632813e+00
-4.97031250e-08,6.68750000e-03,-1.40500000e+00
-4.89031250e-08,1.41875000e-02,-1.41132813e+00
-4.81031250e-08,8.59375000e-03,-1.41117187e+00
-4.73031250e-08,1.29062500e-02,-1.41437500e+00
-4.65031250e-08,6.68750000e-03,-1.40773437e+00
-4.57031250e-08,1.23437500e-02,-1.41328125e+00
-4.49031250e-08,5.00000000e-03,-1.42062500e+00
-4.41031250e-08,1.32187500e-02,-1.42898438e+00
-4.33031250e-08,3.68750000e-03,-1.41773438e+00
-4.25031250e-08,1.37500000e-02,-1.42546875e+00
-4.17031250e-08,7.87500000e-03,-1.42015625e+00
-4.09031250e-08,6.34375000e-03,-1.43187500e+00
-4.01031250e-08,1.13437500e-02,-1.42109375e+00
-3.93031250e-08,1.30937500e-02,-1.41390625e+00
-3.85031250e-08,7.15625000e-03,-1.42828125e+00
-3.77031250e-08,6.68750000e-03,-1.41960938e+00
-3.69031250e-08,1.25000000e-02,-1.40937500e+00
-3.61031250e-08,9.68750000e-03,-1.42906250e+00
-3.53031250e-08,1.04062500e-02,-1.41445313e+00
-3.45031250e-08,3.15625000e-03,-1.43335938e+00
-3.37031250e-08,-6.25000000e-05,-1.41500000e+00
-3.29031250e-08,-1.11875000e-02,-1.41507812e+00
-3.21031250e-08,-3.62500000e-02,-1.42312500e+00
-3.13031250e-08,-8.21562500e-02,-1.42281250e+00
-3.05031250e-08,-1.54312500e-01,-1.41984375e+00
-2.97031250e-08,-2.30531250e-01,-1.42234375e+00
-2.89031250e-08,-3.29812500e-01,-1.42515625e+00
-2.81031250e-08,-4.15343750e-01,-1.42757813e+00
-2.73031250e-08,-5.04562500e-01,-1.41906250e+00
-2.65031250e-08,-5.72375000e-01,-1.41132813e+00
-2.57031250e-08,-6.31406250e-01,-1.41515625e+00
-2.49031250e-08,-6.65843750e-01,-1.41367188e+00
-2.41031250e-08,-6.94125000e-01,-1.41484375e+00
-2.33031250e-08,-7.14375000e-01,-1.40750000e+00
-2.25031250e-08,-7.22500000e-01,-1.41812500e+00
-2.17031250e-08,-7.21906250e-01,-1.41367188e+00
-2.09031250e-08,-7.21250000e-01,-1.40921875e+00
-2.01031250e-08,-7.11125000e-01,-1.41515625e+00
-1.93031250e-08,-7.02031250e-01,-1.42085938e+00
-1.85031250e-08,-6.77906250e-01,-1.42054688e+00
-1.77031250e-08,-6.58125000e-01,-1.41187500e+00
-1.69031250e-08,-6.33312500e-01,-1.41734375e+00
-1.61031250e-08,-6.08343750e-01,-1.42164063e+00
-1.53031250e-08,-5.74593750e-01,-1.42210938e+00
-1.45031250e-08,-5.42875000e-01,-1.41929688e+00
-1.37031250e-08,-5.14375000e-01,-1.41921875e+00
-1.29031250e-08,-4.87250000e-01,-1.41789063e+00
-1.21031250e-08,-4.52281250e-01,-1.42773438e+00
-1.13031250e-08,-4.24593750e-01,-1.41601562e+00
-1.05031250e-08,-4.02750000e-01,-1.42765625e+00
-9.70312500e-09,-3.69718750e-01,-1.42429688e+00
-8.90312500e-09,-3.41250000e-01,-1.43101563e+00
-8.10312500e-09,-3.18968750e-01,-1.41703125e+00
-7.30312500e-09,-2.98500000e-01,-1.41039063e+00
-6.50312500e-09,-2.78281250e-01,-1.42257813e+00
-5.70312500e-09,-2.58750000e-01,-1.41164062e+00
-4.90312500e-09,-2.48500000e-01,-1.42726562e+00
-4.10312500e-09,-2.27000000e-01,-1.40023438e+00
-3.30312500e-09,-2.18031250e-01,-1.38164063e+00
-2.50312500e-09,-1.99312500e-01,-1.31859375e+00
-1.70312500e-09,-1.88375000e-01,-1.09390625e+00
-9.03125000e-10,-1.73625000e-01,-6.67734375e-01
-1.03125000e-10,-1.71437500e-01,-3.18046875e-01
6.96875000e-10,-1.54906250e-01,-1.75859375e-01
1.49687500e-09,-1.46625000e-01,-9.68750000e-02
2.29687500e-09,-1.37406250e-01,-6.48437500e-02
3.09687500e-09,-1.38062500e-01,-5.24218750e-02
3.89687500e-09,-1.28125000e-01,-3.02343750e-02
4.69687500e-09,-1.26437500e-01,-3.20312500e-02
5.49687500e-09,-1.17843750e-01,-3.36718750e-02
6.29687500e-09,-1.13968750e-01,-3.02343750e-02
7.09687500e-09,-1.04250000e-01,-2.63281250e-02
7.89687500e-09,-1.02281250e-01,-2.37500000e-02
8.69687500e-09,-9.26250000e-02,-2.41406250e-02
9.49687500e-09,-9.67812500e-02,-1.45312500e-02
1.02968750e-08,-8.99375000e-02,-2.35937500e-02
1.10968750e-08,-8.00312500e-02,-1.00781250e-02
1.18968750e-08,-7.10000000e-02,-6.79687500e-03
1.26968750e-08,-8.00000000e-02,-1.34375000e-02
1.34968750e-08,-6.78125000e-02,-1.39062500e-02
1.42968750e-08,-6.22187500e-02,-5.85937500e-03
1.50968750e-08,-6.39062500e-02,-6.01562500e-03
1.58968750e-08,-5.51875000e-02,-2.42187500e-03
1.66968750e-08,-5.35312500e-02,4.76562500e-03
1.74968750e-08,-5.10312500e-02,4.21875000e-03
1.82968750e-08,-4.82500000e-02,9.60937500e-03
1.90968750e-08,-4.18437500e-02,3.04687500e-03
1.98968750e-08,-4.36250000e-02,6.79687500e-03
2.06968750e-08,-3.95625000e-02,9.60937500e-03
2.14968750e-08,-3.36250000e-02,-2.03125000e-03
2.22968750e-08,-3.07500000e-02,7.50000000e-03
2.30968750e-08,-3.34062500e-02,1.14062500e-02
2.38968750e-08,-3.04062500e-02,1.05468750e-02
2.46968750e-08,-2.55000000e-02,1.60156250e-02
2.54968750e-08,-3.49375000e-02,3.04687500e-03
2.62968750e-08,-2.59375000e-02,7.81250000e-03
2.70968750e-08,-2.98125000e-02,1.59375000e-02
2.78968750e-08,-2.13125000e-02,1.66406250e-02
2.86968750e-08,-3.17812500e-02,5.23437500e-03
2.94968750e-08,-2.00625000e-02,1.71093750e-02
3.02968750e-08,-2.58125000e-02,1.85156250e-02
3.10968750e-08,-1.52187500e-02,1.83593750e-02
3.18968750e-08,-2.35937500e-02,2.14062500e-02
3.26968750e-08,-1.53125000e-02,3.43750000e-02
3.34968750e-08,-1.84687500e-02,4.29687500e-02
3.42968750e-08,-1.32812500e-02,3.91406250e-02
3.50968750e-08,-1.83437500e-02,4.28906250e-02
3.58968750e-08,-8.12500000e-03,4.03906250e-02
3.66968750e-08,-9.96875000e-03,2.91406250e-02
3.74968750e-08,-8.78125000e-03,4.76562500e-02
3.82968750e-08,-1.74062500e-02,2.75781250e-02
3.90968750e-08,-1.11875000e-02,3.29687500e-02
3.98968750e-08,-3.68750000e-03,3.42968750e-02
4.06968750e-08,-7.90625000e-03,2.52343750e-02
4.14968750e-08,-7.00000000e-03,3.32812500e-02
4.22968750e-08,-8.84375000e-03,3.49218750e-02
4.30968750e-08,-6.93750000e-03,3.86718750e-02
4.38968750e-08,-5.28125000e-03,2.53125000e-02
4.46968750e-08,-8.90625000e-03,2.88281250e-02
4.54968750e-08,-8.46875000e-03,2.60156250e-02
4.62968750e-08,-5.75000000e-03,2.93750000e-02
4.70968750e-08,-4.37500000e-04,3.11718750e-02
4.78968750e-08,-4.68750000e-03,3.15625000e-02
4.86968750e-08,-6.31250000e-03,1.70312500e-02
4.94968750e-08,-7.56250000e-03,2.80468750e-02
5.02968750e-08,-1.00000000e-03,2.21875000e-02
5.10968750e-08,-1.16875000e-02,2.78906250e-02
5.18968750e-08,-5.00000000e-04,3.07031250e-02
5.26968750e-08,-1.15625000e-03,2.21093750e-02
5.34968750e-08,-1.25000000e-04,3.07812500e-02
5.42968750e-08,-6.71875000e-03,2.38281250e-02
5.50968750e-08,3.28125000e-03,1.87500000e-02
5.58968750e-08,-5.75000000e-03,2.61718750e-02
5.66968750e-08,9.37500000e-04,2.64843750e-02
